# y A!D0!N(Q) Error
     0.300000      0.98749284    0.0040701070
     0.500000      0.98053030    0.0028094530
     0.700000      0.97120612    0.0030336958
     0.900000      0.95743511    0.0031024862
      1.10000      0.94658525    0.0032748015
      1.30000      0.93557286    0.0033052244
      1.50000      0.92789194    0.0035833994
      1.70000      0.92908825    0.0033778292
      1.90000      0.91314142    0.0036737915
