# y A!D0!N(Q) Error
     0.300000      0.96987569    0.0025390623
     0.500000      0.95998864    0.0018706892
     0.700000      0.93878533    0.0020319576
     0.900000      0.91412744    0.0020827935
      1.10000      0.89219993    0.0021264059
      1.30000      0.86431214    0.0020828161
      1.50000      0.84178023    0.0021493058
      1.70000      0.83485246    0.0019320299
      1.90000      0.80442001    0.0020281088
