185.59	-67.72
186.06	-67.72
186.53	-67.72
187.00	4.37
187.48	-48.06
187.95	-13.11
188.42	-30.58
188.89	-128.89
189.36	21.84
189.83	26.21
190.30	48.06
190.77	-21.85
191.24	21.85
191.71	6.55
192.18	2.18
192.65	43.69
193.13	-74.27
193.60	-67.72
194.07	6.55
194.54	34.95
195.01	30.58
195.48	-17.48
195.95	4.37
196.42	30.58
196.89	48.06
197.36	117.96
197.83	107.04
198.30	148.55
198.77	2.18
199.24	93.93
199.71	-30.58
200.18	4.37
200.65	24.03
201.12	6.55
201.59	28.40
202.05	0.00
202.52	32.77
202.99	13.11
203.46	-65.53
203.93	63.35
204.40	34.95
204.87	-13.11
205.34	43.69
205.81	0.00
206.28	24.03
206.75	80.83
207.22	39.32
207.69	-10.92
208.15	63.35
208.62	-58.98
209.09	37.14
209.56	-39.32
210.03	76.46
210.50	26.21
210.97	2.18
211.43	61.17
211.90	-10.92
212.37	-89.56
212.84	-4.37
213.31	15.29
213.78	41.51
214.24	41.51
214.71	37.14
215.18	-67.72
215.65	21.84
216.12	126.70
216.58	26.21
217.05	-15.29
217.52	-26.21
217.99	-10.92
218.46	37.14
218.92	21.85
219.39	-67.72
219.86	0.00
220.33	-2.18
220.79	-10.92
221.26	-10.92
221.73	-8.74
222.19	2.18
222.66	39.32
223.13	72.09
223.60	15.29
224.06	-43.69
224.53	21.85
225.00	32.77
225.46	43.69
225.93	98.30
226.40	43.69
226.86	111.41
227.33	43.69
227.80	-15.29
228.26	43.69
228.73	32.77
229.20	37.14
229.66	52.43
230.13	115.78
230.60	-8.74
231.06	21.85
231.53	69.90
232.00	-37.14
232.46	83.01
232.93	63.35
233.39	45.87
233.86	26.21
234.33	43.69
234.79	-19.66
235.26	41.51
235.72	124.52
236.19	-19.66
236.65	30.58
237.12	-17.48
237.59	56.80
238.05	32.77
238.52	-10.92
238.98	39.32
239.45	28.40
239.91	58.98
240.38	67.72
240.84	6.55
241.31	26.21
241.77	107.04
242.24	34.95
242.70	-100.49
243.17	63.35
243.63	-45.87
244.10	-10.92
244.56	41.51
245.03	-17.48
245.49	-4.37
245.96	37.14
246.42	6.55
246.89	-4.37
247.35	45.87
247.81	-56.80
248.28	19.66
248.74	72.09
249.21	61.17
249.67	-6.55
250.14	89.56
250.60	0.00
251.06	19.66
251.53	-34.95
251.99	13.11
252.46	2.18
252.92	-6.55
253.38	37.14
253.85	13.11
254.31	-34.95
254.77	41.51
255.24	6.55
255.70	54.61
256.16	4.37
256.63	45.87
257.09	-30.58
257.55	52.43
258.02	21.85
258.48	85.20
258.94	-4.37
259.41	67.72
259.87	50.24
260.33	-67.72
260.80	-107.04
261.26	58.98
261.72	-30.58
262.18	-30.58
262.65	-4.37
263.11	98.30
263.57	-6.55
264.04	65.53
264.50	-30.58
264.96	34.95
265.42	63.35
265.88	45.87
266.35	41.51
266.81	91.75
267.27	8.74
267.73	37.14
268.20	43.69
268.66	-50.24
269.12	34.95
269.58	54.61
270.04	-6.55
270.51	10.92
270.97	28.40
271.43	-54.61
271.89	24.03
272.35	6.55
272.81	-61.17
273.28	-10.92
273.74	0.00
274.20	-50.24
274.66	48.06
275.12	50.24
275.58	26.21
276.04	34.95
276.50	17.48
276.97	-24.03
277.43	10.92
277.89	83.01
278.35	2.18
278.81	52.43
279.27	93.93
279.73	4.37
280.19	26.21
280.65	67.72
281.11	26.21
281.57	67.72
282.03	-37.14
282.50	37.14
282.96	34.95
283.42	2.18
283.88	-26.21
284.34	87.38
284.80	26.21
285.26	-56.80
285.72	15.29
286.18	0.00
286.64	-58.98
287.10	-19.66
287.56	-69.90
288.02	78.64
288.48	-8.74
288.94	24.03
289.40	-8.74
289.86	43.69
290.32	32.77
290.78	4.37
291.23	-37.14
291.69	-4.37
292.15	6.55
292.61	-6.55
293.07	72.09
293.53	-2.18
293.99	-8.74
294.45	-13.11
294.91	-17.48
295.37	48.06
295.83	32.77
296.29	39.32
296.74	54.61
297.20	28.40
297.66	17.48
298.12	50.24
298.58	10.92
299.04	-32.77
299.50	-6.55
299.95	-8.74
300.41	124.52
300.87	96.12
301.33	-76.46
301.79	-54.61
302.25	69.90
302.70	19.66
303.16	-32.77
303.62	-50.24
304.08	-4.37
304.54	43.69
305.00	89.56
305.45	187.87
305.91	-30.58
306.37	-30.58
306.83	54.61
307.28	111.41
307.74	2.18
308.20	50.24
308.66	-17.48
309.11	15.29
309.57	52.43
310.03	43.69
310.49	4.37
310.94	19.66
311.40	39.32
311.86	72.09
312.31	4.37
312.77	93.93
313.23	-19.66
313.69	-32.77
314.14	26.21
314.60	89.56
315.06	13.11
315.51	32.77
315.97	30.58
316.43	-76.46
316.88	41.51
317.34	2.18
317.80	54.61
318.25	-39.32
318.71	-2.18
319.16	-8.74
319.62	39.32
320.08	-8.74
320.53	43.69
320.99	50.24
321.45	52.43
321.90	-13.11
322.36	21.84
322.81	-15.29
323.27	-21.85
323.73	69.90
324.18	67.72
324.64	-17.48
325.09	24.03
325.55	26.21
326.00	-21.84
326.46	-13.11
326.91	4.37
327.37	30.58
327.82	50.24
328.28	72.09
328.74	69.90
329.19	56.80
329.65	72.09
330.10	-13.11
330.56	4.37
331.01	111.41
331.47	-32.77
331.92	17.48
332.38	78.64
332.83	43.69
333.28	13.11
333.74	48.06
334.19	-39.32
334.65	107.04
335.10	-41.51
335.56	65.53
336.01	-39.32
336.47	-54.61
336.92	8.74
337.37	10.92
337.83	131.07
338.28	37.14
338.74	74.27
339.19	-102.67
339.64	28.40
340.10	-85.20
340.55	28.40
341.01	21.85
341.46	78.64
341.91	41.51
342.37	128.89
342.82	24.03
343.27	67.72
343.73	41.51
344.18	-17.48
344.63	-2.18
345.09	-21.85
345.54	67.72
345.99	54.61
346.45	54.61
346.90	69.90
347.35	2.18
347.81	-54.61
348.26	-21.85
348.71	28.40
349.17	63.35
349.62	-26.21
350.07	63.35
350.52	122.33
350.98	93.93
351.43	32.77
351.88	19.66
352.33	80.83
352.79	113.59
353.24	-19.66
353.69	19.66
354.14	54.61
354.60	150.73
355.05	15.29
355.50	-28.40
355.95	8.74
356.40	93.93
356.86	39.32
357.31	122.33
357.76	93.93
358.21	-34.95
358.66	109.23
359.12	-4.37
359.57	32.77
360.02	98.30
360.47	102.67
360.92	74.27
361.37	-24.03
361.82	-6.55
362.28	-30.58
362.73	39.32
363.18	-4.37
363.63	52.43
364.08	10.92
364.53	-21.85
364.98	72.09
365.43	74.27
365.89	45.87
366.34	13.11
366.79	6.55
367.24	113.59
367.69	8.74
368.14	72.09
368.59	111.41
369.04	54.61
369.49	148.55
369.94	89.56
370.39	98.30
370.84	102.67
371.29	56.80
371.74	17.48
372.19	43.69
372.64	45.87
373.09	61.17
373.54	34.95
373.99	4.37
374.44	157.28
374.89	80.83
375.34	28.40
375.79	98.30
376.24	30.58
376.69	115.78
377.14	89.56
377.59	115.78
378.04	15.29
378.49	19.66
378.94	133.25
379.39	74.27
379.84	126.70
380.29	96.12
380.74	61.17
381.19	113.59
381.63	91.75
382.08	107.04
382.53	100.49
382.98	107.04
383.43	205.34
383.88	87.38
384.33	166.02
384.78	91.75
385.23	113.59
385.67	139.81
386.12	98.30
386.57	34.95
387.02	41.51
387.47	45.87
387.92	52.43
388.37	24.03
388.81	91.75
389.26	135.44
389.71	80.83
390.16	163.84
390.61	78.64
391.05	133.25
391.50	113.59
391.95	131.07
392.40	246.85
392.85	89.56
393.29	148.55
393.74	137.62
394.19	93.93
394.64	133.25
395.08	148.55
395.53	111.41
395.98	85.20
396.43	-21.85
396.87	170.39
397.32	144.18
397.77	163.84
398.22	117.96
398.66	128.89
399.11	170.39
399.56	207.53
400.00	87.38
400.45	78.64
400.90	109.22
401.34	98.30
401.79	148.55
402.24	159.47
402.68	131.07
403.13	170.39
403.58	126.70
404.02	144.18
404.47	107.04
404.92	65.53
405.36	150.73
405.81	117.96
406.26	146.36
406.70	126.70
407.15	113.59
407.59	294.91
408.04	146.36
408.49	187.87
408.93	207.53
409.38	113.59
409.82	148.55
410.27	131.07
410.71	107.04
411.16	128.89
411.61	157.28
412.05	150.73
412.50	137.62
412.94	146.36
413.39	194.42
413.83	194.42
414.28	111.41
414.72	34.95
415.17	111.41
415.61	131.07
416.06	218.45
416.50	242.48
416.95	74.27
417.39	209.71
417.84	279.62
418.28	107.04
418.73	205.34
419.17	207.53
419.62	122.33
420.06	183.50
420.51	150.73
420.95	190.05
421.40	220.63
421.84	159.47
422.29	198.79
422.73	207.53
423.17	187.87
423.62	214.08
424.06	214.08
424.51	155.10
424.95	126.70
425.39	144.18
425.84	113.59
426.28	209.71
426.73	187.87
427.17	207.53
427.61	174.76
428.06	148.55
428.50	141.99
428.94	187.87
429.39	194.42
429.83	172.58
430.27	233.74
430.72	211.90
431.16	133.25
431.60	96.12
432.05	227.19
432.49	141.99
432.93	242.48
433.38	150.73
433.82	192.24
434.26	174.76
434.71	235.93
435.15	128.89
435.59	168.21
436.03	316.75
436.48	207.53
436.92	242.48
437.36	238.11
437.80	303.65
438.25	342.97
438.69	308.01
439.13	283.98
439.57	257.77
440.02	146.36
440.46	325.49
440.90	279.62
441.34	257.77
441.79	218.45
442.23	249.03
442.67	327.67
443.11	279.62
443.55	312.38
443.99	244.66
444.44	292.72
444.88	301.46
445.32	375.73
445.76	273.06
446.20	432.53
446.64	367.00
447.09	380.10
447.53	283.98
447.97	329.86
448.41	391.03
448.85	480.59
449.29	399.76
449.73	386.66
450.17	397.58
450.62	404.13
451.06	491.51
451.50	395.39
451.94	436.90
452.38	371.36
452.82	382.29
453.26	504.62
453.70	421.61
454.14	489.33
454.58	476.22
455.02	493.70
455.46	489.33
455.90	500.25
456.34	500.25
456.78	589.82
457.22	508.99
457.66	476.22
458.10	502.44
458.54	565.79
458.98	563.60
459.42	502.44
459.86	474.04
460.30	585.45
460.74	657.53
461.18	491.51
461.62	570.15
462.06	613.84
462.50	552.68
462.94	596.37
463.38	683.75
463.82	563.60
464.26	744.91
464.70	646.61
465.14	659.72
465.58	814.82
466.02	677.20
466.46	733.99
466.90	762.39
467.34	740.55
467.77	733.99
468.21	858.51
468.65	782.05
469.09	830.11
469.53	827.93
469.97	825.74
470.41	753.65
470.85	934.97
471.28	856.32
471.72	1011.42
472.16	827.93
472.60	792.97
473.04	910.94
473.48	889.09
473.91	1013.61
474.35	849.77
474.79	862.88
475.23	989.58
475.67	1090.07
476.11	1009.24
476.54	1022.35
476.98	969.92
477.42	1081.33
477.86	1107.54
478.29	1142.49
478.73	1144.68
479.17	1000.50
479.61	1011.42
480.04	1011.42
480.48	1149.05
480.92	1194.92
481.36	1218.95
481.79	1238.61
482.23	1173.08
482.67	1251.72
483.11	1312.88
483.54	1225.50
483.98	1360.94
484.42	1282.30
484.85	1330.36
485.29	1389.34
485.73	1400.26
486.16	1293.22
486.60	1507.30
487.04	1419.92
487.47	1494.20
487.91	1502.94
488.35	1433.03
488.78	1481.09
489.22	1526.97
489.66	1581.58
490.09	1609.98
490.53	1557.55
490.97	1706.09
491.40	1596.87
491.84	1609.98
492.27	1625.27
492.71	1673.33
493.15	1660.22
493.58	1634.01
494.02	1786.92
494.45	1817.50
494.89	1658.04
495.32	1686.43
495.76	1736.68
496.20	1800.03
496.63	1865.56
497.07	1834.98
497.50	1880.85
497.94	1976.97
498.37	1922.36
498.81	1876.49
499.24	2001.00
499.68	1987.89
500.11	2169.21
500.55	2038.14
500.98	2033.77
501.42	2097.12
501.85	2232.56
502.29	2210.71
502.72	2226.01
503.16	2282.80
503.59	2348.34
504.03	2160.47
504.46	2228.19
504.90	2280.62
505.33	2210.71
505.77	2319.94
506.20	2387.66
506.63	2378.92
507.07	2442.27
507.50	2437.90
507.94	2429.16
508.37	2453.19
508.81	2466.30
509.24	2553.68
509.67	2584.26
510.11	2715.33
510.54	2503.44
510.98	2595.19
511.41	2558.05
511.84	2754.65
512.28	2641.06
512.71	2586.45
513.14	2601.74
513.58	2575.53
514.01	2614.85
514.44	2538.39
514.88	2619.22
515.31	2623.58
515.74	2693.49
516.18	2481.59
516.61	2573.34
517.04	2470.67
517.48	2547.13
517.91	2499.07
518.34	2492.51
518.77	2341.78
519.21	2560.23
519.64	2582.08
520.07	2444.46
520.51	2363.63
520.94	2494.70
521.37	2499.07
521.80	2429.16
522.24	2387.66
522.67	2472.85
523.10	2381.10
523.53	2370.18
523.97	2304.65
524.40	2481.59
524.83	2370.18
525.26	2453.19
525.69	2451.01
526.13	2381.11
526.56	2409.50
526.99	2293.73
527.42	2389.84
527.85	2319.94
528.28	2378.92
528.72	2330.86
529.15	2416.06
529.58	2424.80
530.01	2315.57
530.44	2479.41
530.87	2437.90
531.31	2372.37
531.74	2411.69
532.17	2398.58
532.60	2426.98
533.03	2354.89
533.46	2422.61
533.89	2330.86
534.32	2271.88
534.75	2405.13
535.19	2289.36
535.62	2232.56
536.05	2407.32
536.48	2405.13
536.91	2442.27
537.34	2402.95
537.77	2459.75
538.20	2315.57
538.63	2492.51
539.06	2350.52
539.49	2505.62
539.92	2215.08
540.35	2507.81
540.78	2435.72
541.21	2435.72
541.64	2398.58
542.07	2520.91
542.50	2418.24
542.93	2416.06
543.36	2385.47
543.79	2451.01
544.22	2509.99
544.65	2481.59
545.08	2433.53
545.51	2603.92
545.94	2719.70
546.37	2647.61
546.80	2785.24
547.23	2536.20
547.66	2536.20
548.09	2704.41
548.52	2752.47
548.95	2695.67
549.38	2697.86
549.80	2726.26
550.23	2752.47
550.66	2785.24
551.09	2772.13
551.52	2822.37
551.95	2789.61
552.38	2839.85
552.81	2713.15
553.24	2809.27
553.66	2839.85
554.09	2957.81
554.52	3077.96
554.95	2949.08
555.38	3027.72
555.81	2874.80
556.24	3016.79
556.66	3189.37
557.09	3108.54
557.52	3091.07
557.95	2968.74
558.38	2973.10
558.80	3038.64
559.23	3008.06
559.66	3316.07
560.09	3056.12
560.52	3294.23
560.94	3233.06
561.37	3150.05
561.80	3198.11
562.23	3200.29
562.65	3226.51
563.08	3331.36
563.51	3436.22
563.94	3370.68
564.36	3311.70
564.79	3357.58
565.22	3495.20
565.65	3449.33
566.07	3420.93
566.50	3455.88
566.93	3444.96
567.35	3530.15
567.78	3484.28
568.21	3597.87
568.63	3783.55
569.06	3696.17
569.49	3543.26
569.91	3737.68
570.34	3700.54
570.77	3914.62
571.19	3772.63
571.62	3610.98
572.05	3805.40
572.47	3947.39
572.90	3877.49
573.33	4008.56
573.75	3914.62
574.18	4052.25
574.60	3940.84
575.03	3958.31
575.46	4091.57
575.88	4216.08
576.31	4248.85
576.73	4235.75
577.16	4266.33
577.59	4222.64
578.01	4257.59
578.44	4301.28
578.86	4386.48
579.29	4198.61
579.71	4113.41
580.14	4344.97
580.56	4382.11
580.99	4270.70
581.41	4178.95
581.84	4176.76
582.26	4095.94
582.69	4141.81
583.11	4266.33
583.54	4139.63
583.96	4102.49
584.39	4080.65
584.81	3975.79
585.24	4032.59
585.66	3995.45
586.09	3932.10
586.51	3903.70
586.94	3971.42
587.36	3929.92
587.79	3995.45
588.21	3899.33
588.64	3781.37
589.06	3877.49
589.48	4030.40
589.91	3674.33
590.33	3761.71
590.76	3777.00
591.18	3796.66
591.60	3827.24
592.03	3696.17
592.45	3556.37
592.88	3870.93
593.30	3755.16
593.72	3842.54
594.15	3659.04
594.57	3565.10
595.00	3547.63
595.42	3630.64
595.84	3595.69
596.27	3643.75
596.69	3552.00
597.11	3490.83
597.54	3554.18
597.96	3632.82
598.38	3517.04
598.80	3493.02
599.23	3580.40
599.65	3523.60
600.07	3375.05
600.50	3501.75
600.92	3687.44
601.34	3455.88
601.77	3573.84
602.19	3289.86
602.61	3431.85
603.03	3298.60
603.46	3326.99
603.88	3302.96
604.30	3434.03
604.72	3318.26
605.15	3287.67
605.57	3412.19
605.99	3440.59
606.41	3405.64
606.83	3420.93
607.26	3399.08
607.68	3410.00
608.10	3300.78
608.52	3348.84
608.94	3198.11
609.37	3329.18
609.79	3538.89
610.21	3484.28
610.63	3447.14
611.05	3257.09
611.47	3556.37
611.90	3368.50
612.32	3503.94
612.74	3375.05
613.16	3368.50
613.58	3552.00
614.00	3628.45
614.42	3497.38
614.84	3460.25
615.27	3479.91
615.69	3591.32
616.11	3648.12
616.53	3610.98
616.95	3676.51
617.37	3584.76
617.79	3713.65
618.21	3659.04
618.63	3781.37
619.05	3702.73
619.47	3763.89
619.89	3785.74
620.31	3766.08
620.74	3593.50
621.16	3674.33
621.58	3752.97
622.00	3766.08
622.42	3794.48
622.84	3918.99
623.26	3733.31
623.68	3807.58
624.10	3892.78
624.52	3831.61
624.94	3811.95
625.36	4067.54
625.78	3838.17
626.20	3991.08
626.62	3790.11
627.03	4017.30
627.45	3888.41
627.87	3918.99
628.29	3879.67
628.71	3801.03
629.13	3980.16
629.55	4198.61
629.97	4063.17
630.39	4074.09
630.81	4080.65
631.23	4130.89
631.65	4176.76
632.07	4078.46
632.49	4301.28
632.90	4290.36
633.32	4261.96
633.74	4076.28
634.16	4272.88
634.58	4242.30
635.00	4259.78
635.42	4251.04
635.83	4288.17
636.25	4296.91
636.67	4277.25
637.09	4375.55
637.51	4342.79
637.93	4253.22
638.34	4493.52
638.76	4382.11
639.18	4371.18
639.60	4648.62
640.02	4401.77
640.44	4565.60
640.85	4663.91
641.27	4805.90
641.69	4607.11
642.11	4749.10
642.52	4781.87
642.94	4744.73
643.36	4971.92
643.78	4794.98
644.19	4862.70
644.61	4899.83
645.03	4827.74
645.45	4819.01
645.86	4899.83
646.28	4908.57
646.70	4991.58
647.12	4974.11
647.53	5050.56
647.95	4871.43
648.37	4947.89
648.78	4792.79
649.20	4858.33
649.62	5057.12
650.03	4936.97
650.45	5107.36
650.87	4886.73
651.28	5019.98
651.70	5002.50
652.12	5039.64
652.53	4932.60
652.95	4961.00
653.37	5015.61
653.78	4884.54
654.20	4893.28
654.61	5133.58
655.03	4851.77
655.45	4982.84
655.86	5030.90
656.28	5022.17
656.69	5006.87
657.11	5151.05
657.53	4945.71
657.94	4908.57
658.36	4958.82
658.77	4974.11
659.19	5094.25
659.60	4958.82
660.02	4982.84
660.44	5137.94
660.85	4978.48
661.27	4912.94
661.68	4961.00
662.10	5000.32
662.51	5096.44
662.93	5024.35
663.34	4945.71
663.76	5116.10
664.17	4969.74
664.59	5011.24
665.00	4836.48
665.42	4971.92
665.83	4906.39
666.25	4971.92
666.66	5004.69
667.08	4912.94
667.49	4816.82
667.90	4888.91
668.32	4952.26
668.73	4860.51
669.15	5120.47
669.56	4989.40
669.98	5078.96
670.39	4971.92
670.80	5026.53
671.22	4912.94
671.63	4980.66
672.05	4823.38
672.46	5096.44
672.87	5011.24
673.29	5024.35
673.70	4779.69
674.12	4908.57
674.53	4834.30
674.94	5035.27
675.36	4930.42
675.77	4982.84
676.18	4832.11
676.60	4766.58
677.01	4727.26
677.42	5063.67
677.84	4803.72
678.25	4742.55
678.66	4849.59
679.08	4784.06
679.49	4847.41
679.90	4744.73
680.31	4860.51
680.73	4777.50
681.14	4823.38
681.55	4871.44
681.97	4840.85
682.38	4790.61
682.79	4936.97
683.20	4947.89
683.62	4784.05
684.03	5009.06
684.44	4729.44
684.85	4773.13
685.27	4755.66
685.68	4849.59
686.09	4725.07
686.50	4801.53
686.91	4768.76
687.33	4718.52
687.74	4701.04
688.15	4604.93
688.56	4556.87
688.97	4736.00
689.39	4738.18
689.80	4674.83
690.21	4677.01
690.62	4792.79
691.03	4786.24
691.44	4663.91
691.86	4663.91
692.27	4497.89
692.68	4666.09
693.09	4644.25
693.50	4517.55
693.91	4609.30
694.32	4535.02
694.73	4707.60
695.15	4679.20
695.56	4635.51
695.97	4589.63
696.38	4602.74
696.79	4545.94
697.20	4476.04
697.61	4668.28
698.02	4552.50
698.43	4552.50
698.84	4574.34
699.25	4530.65
699.66	4506.62
700.07	4467.30
700.48	4436.72
700.90	4362.45
701.31	4473.86
701.72	4478.22
702.13	4659.54
702.54	4574.34
702.95	4521.92
703.36	4419.24
703.77	4460.75
704.18	4447.64
704.59	4510.99
705.00	4473.86
705.41	4362.45
705.82	4510.99
706.22	4539.39
706.63	4473.86
707.04	4242.30
707.45	4393.03
707.86	4364.63
708.27	4465.12
708.68	4358.08
709.09	4417.06
709.50	4344.97
709.91	4362.45
710.32	4384.29
710.73	4310.02
711.14	4397.40
711.55	4353.71
711.95	4305.65
712.36	4403.95
712.77	4369.00
713.18	4338.42
713.59	4351.52
714.00	4506.62
714.41	4412.69
714.82	4355.89
715.22	4281.62
715.63	4502.25
716.04	4266.33
716.45	4476.04
716.86	4334.05
717.27	4246.67
717.67	4462.93
718.08	4366.82
718.49	4434.54
718.90	4213.90
719.31	4449.83
719.71	4277.25
720.12	4399.58
720.53	4502.25
720.94	4270.70
721.35	4264.14
721.75	4347.16
722.16	4257.59
722.57	4366.82
722.98	4257.59
723.38	4327.49
723.79	4373.37
724.20	4288.17
724.61	4224.82
725.01	4220.45
725.42	4390.84
725.83	4395.21
726.23	4205.16
726.64	4403.95
727.05	4388.66
727.45	4220.45
727.86	4187.69
728.27	4115.60
728.68	4299.10
729.08	4170.21
729.49	4047.88
729.90	4296.91
730.30	4229.19
730.71	4281.62
731.11	4281.62
731.52	4227.01
731.93	4144.00
732.33	4194.24
732.74	4257.59
733.15	4235.75
733.55	4246.67
733.96	4170.21
734.36	4161.47
734.77	4255.41
735.18	4141.81
735.58	4019.48
735.99	4133.07
736.39	4010.74
736.80	4113.41
737.21	4192.06
737.61	4126.52
738.02	4115.60
738.42	3951.76
738.83	4106.86
739.23	3964.87
739.64	4124.34
740.04	4106.86
740.45	3899.33
740.85	3964.87
741.26	4071.91
741.66	4146.18
742.07	4039.14
742.47	3940.84
742.88	3779.18
743.28	3921.18
743.69	3884.04
744.09	3844.72
744.50	4030.40
744.90	3905.89
745.31	4076.28
745.71	3964.87
746.12	4067.54
746.52	3857.83
746.93	3818.51
747.33	3875.30
747.73	3886.23
748.14	3956.13
748.54	3886.23
748.95	3945.21
749.35	4089.38
749.76	3731.13
750.16	3864.38
750.56	3844.72
750.97	4045.69
751.37	3890.59
751.78	3820.69
752.18	3715.83
752.58	3798.85
752.99	3761.71
753.39	3894.96
753.79	3672.14
754.20	3597.87
754.60	3818.51
755.00	3678.70
755.41	3755.16
755.81	3783.55
756.21	3613.16
756.62	3796.66
757.02	3768.26
757.42	3676.51
757.83	3641.56
758.23	3632.82
758.63	3552.00
759.03	3621.90
759.44	3562.92
759.84	3643.75
760.24	3604.42
760.65	3659.04
761.05	3569.47
761.45	3473.36
761.85	3458.06
762.26	3486.46
762.66	3512.68
763.06	3552.00
763.46	3635.01
763.87	3423.11
764.27	3508.31
764.67	3379.42
765.07	3460.25
765.47	3532.34
765.88	3632.82
766.28	3490.83
766.68	3388.16
767.08	3508.31
767.48	3486.46
767.88	3447.14
768.29	3388.16
768.69	3346.65
769.09	3479.91
769.49	3370.68
769.89	3298.60
770.29	3372.87
770.70	3340.10
771.10	3259.27
771.50	3272.38
771.90	3366.31
772.30	3141.31
772.70	3313.89
773.10	3333.55
773.50	3322.62
773.90	3226.51
774.30	3261.46
774.71	3333.55
775.11	3143.50
775.51	3259.27
775.91	3276.75
776.31	3226.51
776.71	3128.20
777.11	3163.16
777.51	3230.88
777.91	3143.50
778.31	3121.65
778.71	3150.05
779.11	2944.71
779.51	3187.19
779.91	3178.45
780.31	3141.31
780.71	3176.26
781.11	3112.91
781.51	3132.57
781.91	3069.22
782.31	3226.51
782.71	3136.94
783.11	2992.76
783.51	3145.68
783.91	3067.04
784.31	2852.96
784.71	3080.14
785.11	3049.56
785.51	3067.04
785.91	3154.42
786.31	3067.04
786.71	3080.15
787.11	3110.73
787.50	2999.32
787.90	3051.75
788.30	3086.70
788.70	3147.86
789.10	3150.05
789.50	3121.65
789.90	3034.27
790.30	3106.36
790.70	2994.95
791.09	2909.75
791.49	3117.28
791.89	3174.08
792.29	3143.50
792.69	3147.86
793.09	3139.13
793.49	3121.65
793.88	3139.13
794.28	3112.91
794.68	3069.22
795.08	3064.85
795.48	3071.41
795.88	3139.13
796.27	3056.12
796.67	3097.62
797.07	3134.76
797.47	3222.14
797.86	3259.27
798.26	3226.51
798.66	3344.47
799.06	3333.55
799.46	3346.65
799.85	3307.33
800.25	3276.75
800.65	3410.00
801.05	3289.86
801.44	3281.12
801.84	3401.27
802.24	3292.04
802.63	3329.18
803.03	3318.26
803.43	3447.14
803.83	3451.51
804.22	3423.11
804.62	3440.59
805.02	3458.06
805.41	3364.13
805.81	3547.63
806.21	3383.79
806.60	3600.06
807.00	3479.91
807.40	3560.73
807.79	3541.07
808.19	3731.13
808.59	3532.34
808.98	3759.52
809.38	3707.10
809.77	3669.96
810.17	3822.88
810.57	3803.21
810.96	3849.09
811.36	3936.47
811.75	3932.10
812.15	3855.64
812.55	3864.38
812.94	4071.91
813.34	3984.53
813.73	3993.27
814.13	3984.53
814.53	4032.59
814.92	4148.37
815.32	4185.50
815.71	4366.82
816.11	4126.52
816.50	4196.42
816.90	4170.21
817.29	4264.14
817.69	4259.78
818.08	4358.08
818.48	4371.18
818.87	4427.98
819.27	4360.26
819.66	4469.49
820.06	4618.03
820.45	4563.42
820.85	4519.73
821.24	4639.88
821.64	4554.68
822.03	4652.99
822.43	4652.99
822.82	4609.30
823.22	4770.95
823.61	4633.32
824.00	4731.63
824.40	4797.16
824.79	4869.25
825.19	4775.32
825.58	4849.59
825.98	4961.00
826.37	4891.10
826.76	4965.37
827.16	4958.82
827.55	4899.83
827.94	5019.98
828.34	5113.91
828.73	5314.89
829.13	5157.60
829.52	5124.84
829.91	5345.47
830.31	5312.70
830.70	5231.88
831.09	5240.62
831.49	5205.66
831.88	5214.40
832.27	5358.58
832.67	5262.46
833.06	5432.85
833.45	5614.17
833.85	5430.67
834.24	5465.62
834.63	5435.04
835.02	5415.38
835.42	5463.43
835.81	5601.06
836.20	5640.38
836.60	5443.77
836.99	5566.11
837.38	5581.40
837.77	5708.10
838.17	5863.20
838.56	5734.31
838.95	5629.46
839.34	5725.57
839.74	5638.19
840.13	5620.72
840.52	5771.45
840.91	5839.17
841.30	5843.54
841.70	5670.96
842.09	5708.10
842.48	5856.64
842.87	5845.72
843.26	5823.88
843.66	5694.99
844.05	5773.63
844.44	5620.72
844.83	5712.47
845.22	5799.85
845.61	5767.08
846.00	5721.21
846.40	5869.75
846.79	5856.64
847.18	5762.71
847.57	5972.42
847.96	5778.00
848.35	5747.42
848.74	5920.00
849.13	5904.70
849.53	5828.25
849.92	5778.00
850.31	5874.12
850.70	5847.91
851.09	5620.72
851.48	5832.62
851.87	5898.15
852.26	5876.30
852.65	5915.63
853.04	5913.44
853.43	5769.26
853.82	5793.29
854.21	5850.09
854.60	5710.28
854.99	5952.76
855.38	5970.24
855.77	5660.04
856.16	5670.96
856.55	5788.92
856.94	5719.02
857.33	5646.93
857.72	5555.18
858.11	5528.97
858.50	5450.33
858.89	5590.14
859.28	5677.52
859.67	5563.92
860.06	5627.27
860.45	5498.39
860.84	5544.26
861.23	5504.94
861.62	5511.49
862.01	5679.70
862.40	5585.77
862.79	5376.05
863.18	5413.19
863.57	5384.79
863.95	5430.67
864.34	5356.39
864.73	5275.57
865.12	5408.82
865.51	5373.87
865.90	5419.74
866.29	5378.24
866.68	5378.24
867.06	5170.71
867.45	5303.97
867.84	5148.87
868.23	5295.23
868.62	5186.00
869.01	5207.85
869.40	5072.41
869.78	5146.68
870.17	5024.35
870.56	5105.18
870.95	5070.22
871.34	5153.24
871.72	5144.50
872.11	4952.26
872.50	5168.53
872.89	5096.44
873.28	5096.44
873.66	5127.02
874.05	4947.89
874.44	4886.73
874.83	5009.06
875.21	4856.14
875.60	4923.86
875.99	5039.64
876.38	4672.65
876.76	4888.91
877.15	4945.71
877.54	4873.62
877.92	4812.45
878.31	4736.00
878.70	4773.13
879.09	4714.15
879.47	4725.07
879.86	4773.13
880.25	4729.44
880.63	4762.21
881.02	4663.91
881.41	4594.00
881.79	4829.93
882.18	4635.51
882.57	4572.16
882.95	4526.28
883.34	4460.75
883.73	4484.78
884.11	4589.63
884.50	4388.66
884.88	4401.77
885.27	4355.89
885.66	4471.67
886.04	4360.26
886.43	4388.66
886.81	4476.04
887.20	4427.98
887.59	4344.97
887.97	4462.93
888.36	4445.46
888.74	4338.42
889.13	4454.20
889.52	4434.54
889.90	4393.03
890.29	4438.90
890.67	4414.87
891.06	4281.62
891.44	4349.34
891.83	4316.57
892.21	4556.87
892.60	4432.35
892.98	4395.21
893.37	4329.68
893.75	4572.16
894.14	4493.52
894.52	4469.49
894.91	4467.30
895.29	4412.69
895.68	4425.80
896.06	4460.75
896.45	4452.01
896.83	4362.45
897.22	4410.51
897.60	4458.56
897.98	4506.62
898.37	4552.50
898.75	4486.96
899.14	4637.69
899.52	4541.58
899.91	4500.07
900.29	4261.96
900.67	4447.64
901.06	4469.49
901.44	4484.78
901.83	4384.29
902.21	4443.27
902.59	4386.48
902.98	4567.79
903.36	4591.82
903.75	4545.94
904.13	4462.93
904.51	4425.80
904.90	4434.54
905.28	4572.16
905.66	4539.39
906.05	4423.61
906.43	4299.10
906.81	4543.76
907.20	4299.10
907.58	4569.97
907.96	4316.57
908.35	4349.34
908.73	4351.52
909.11	4353.71
909.49	4342.79
909.88	4285.99
910.26	4248.85
910.64	4299.10
911.02	4316.57
911.41	4290.36
911.79	4163.66
912.17	4235.75
912.55	4248.85
912.94	4168.03
913.32	4082.83
913.70	3905.89
914.08	4135.26
914.47	4078.46
914.85	4017.30
915.23	3969.24
915.61	4026.03
915.99	3969.24
916.38	3831.61
916.76	3862.20
917.14	3794.48
917.52	3943.02
917.90	3700.54
918.29	3709.28
918.67	3549.81
919.05	3621.90
919.43	3532.34
919.81	3510.49
920.19	3447.14
920.57	3567.29
920.96	3342.28
921.34	3375.05
921.72	3405.64
922.10	3322.62
922.48	3294.23
922.86	3099.81
923.24	3154.42
923.62	3091.07
924.00	2970.92
924.39	3043.01
924.77	2933.78
925.15	2918.49
925.53	2999.32
925.91	2896.65
926.29	2903.20
926.67	2848.59
927.05	2767.76
927.43	2630.14
927.81	2682.57
928.19	2645.43
928.57	2787.42
928.95	2601.74
929.33	2571.16
929.71	2531.84
930.09	2409.50
930.47	2490.33
930.85	2298.09
931.23	2315.57
931.61	2208.53
931.99	2208.53
932.37	2210.71
932.75	2239.11
933.13	2223.82
933.51	2182.32
933.89	1992.26
934.27	2073.09
934.65	2099.30
935.03	2066.54
935.41	2033.77
935.79	1885.22
936.17	1861.19
936.54	1915.81
936.92	1821.87
937.30	1955.13
937.68	1933.28
938.06	1898.33
938.44	1736.68
938.82	1719.20
939.20	1769.45
939.58	1618.71
939.95	1754.15
940.33	1736.68
940.71	1522.60
941.09	1695.17
941.47	1666.77
941.85	1520.41
942.23	1531.33
942.60	1559.73
942.98	1551.00
943.36	1446.14
943.74	1470.17
944.12	1470.17
944.50	1631.82
944.87	1551.00
945.25	1518.23
945.63	1448.32
946.01	1441.77
946.38	1457.06
946.76	1443.95
947.14	1441.77
947.52	1371.87
947.90	1487.64
948.27	1384.97
948.65	1426.48
949.03	1446.14
949.41	1365.31
949.78	1404.63
950.16	1347.84
950.54	1339.10
950.91	1376.24
951.29	1354.39
951.67	1277.93
952.05	1363.13
952.42	1382.79
952.80	1297.59
953.18	1325.99
953.55	1264.83
953.93	1334.73
954.31	1363.13
954.68	1430.85
955.06	1262.64
955.44	1404.63
955.81	1284.49
956.19	1269.19
956.57	1332.54
956.94	1312.88
957.32	1238.61
957.69	1286.67
958.07	1334.73
958.45	1352.21
958.82	1275.75
959.20	1384.97
959.58	1356.57
959.95	1393.71
960.33	1354.39
960.70	1221.14
961.08	1321.62
961.45	1332.54
961.83	1336.91
962.21	1387.16
962.58	1291.04
962.96	1369.68
963.33	1330.36
963.71	1358.76
964.08	1284.49
964.46	1258.27
964.83	1365.31
965.21	1330.36
965.58	1321.62
965.96	1319.44
966.33	1245.16
966.71	1232.06
967.08	1312.88
967.46	1310.70
967.83	1258.27
968.21	1277.93
968.58	1291.04
968.96	1203.66
969.33	1256.09
969.71	1319.44
970.08	1181.81
970.46	1319.44
970.83	1253.90
971.20	1131.57
971.58	1192.74
971.95	1312.88
972.33	1125.02
972.70	1133.76
973.08	1262.64
973.45	1192.74
973.82	1212.40
974.20	1299.78
974.57	1175.26
974.95	1216.77
975.32	1315.07
975.69	1146.86
976.07	1087.88
976.44	1164.34
976.81	1142.49
977.19	1131.57
977.56	1133.76
977.93	1162.15
978.31	1203.66
978.68	1105.36
979.05	1162.15
979.43	1111.91
979.80	1079.14
980.17	1127.20
980.55	1085.70
980.92	1131.57
981.29	1081.33
981.67	1127.20
982.04	1111.91
982.41	1090.07
982.78	1022.35
983.16	1009.24
983.53	1138.12
983.90	1044.19
984.27	1085.70
984.65	1037.64
985.02	1017.98
985.39	976.47
985.76	939.34
986.14	1109.73
986.51	967.73
986.88	1013.61
987.25	1015.79
987.63	969.92
988.00	834.48
988.37	952.44
988.74	919.67
989.11	961.18
989.48	862.88
989.86	865.06
990.23	895.64
990.60	869.43
990.97	902.20
991.34	886.91
991.71	902.20
992.09	836.66
992.46	867.25
992.83	897.83
993.20	731.81
993.57	792.97
993.94	897.83
994.31	810.45
994.68	854.14
995.06	865.06
995.43	972.10
995.80	834.48
996.17	777.68
996.54	862.88
996.91	747.10
997.28	819.19
997.65	672.83
998.02	727.44
998.39	709.96
998.76	744.91
999.13	775.50
999.50	766.76
999.87	751.47
1000.24	775.50
1000.61	668.46
1000.99	635.69
1001.36	585.45
1001.73	703.41
1002.10	648.80
1002.47	766.76
1002.84	723.07
1003.21	786.42
1003.57	749.28
1003.94	626.95
1004.31	574.52
1004.68	646.61
1005.05	714.33
1005.42	607.29
1005.79	567.97
1006.16	624.77
1006.53	644.43
1006.90	609.48
1007.27	583.26
1007.64	618.21
1008.01	565.79
1008.38	592.00
1008.75	456.56
1009.12	605.11
1009.49	570.15
1009.85	528.65
1010.22	648.80
1010.59	620.40
1010.96	432.53
1011.33	491.51
1011.70	480.59
1012.07	565.79
1012.44	502.44
1012.80	500.25
1013.17	600.74
1013.54	454.38
1013.91	519.91
1014.28	557.05
1014.65	447.82
1015.01	592.00
1015.38	487.14
1015.75	519.91
1016.12	439.08
1016.49	401.95
1016.85	421.61
1017.22	530.83
1017.59	489.33
1017.96	450.01
1018.33	454.38
1018.69	408.50
1019.06	430.35
1019.43	401.95
1019.80	410.69
1020.16	425.98
1020.53	391.03
1020.90	375.73
1021.27	288.35
1021.63	369.18
1022.00	399.76
1022.37	421.61
1022.73	410.69
1023.10	371.36
1023.47	406.32
1023.84	421.61
1024.20	419.42
1024.57	415.05
1024.94	340.78
1025.30	358.26
1025.67	294.91
1026.04	292.72
1026.40	336.41
1026.77	380.10
1027.14	349.52
1027.50	316.75
1027.87	371.36
1028.23	367.00
1028.60	266.51
1028.97	399.76
1029.33	380.10
1029.70	281.80
1030.07	264.32
1030.43	238.11
1030.80	310.20
1031.16	297.09
1031.53	310.20
1031.89	297.09
1032.26	283.98
1032.63	334.23
1032.99	305.83
1033.36	362.63
1033.72	371.36
1034.09	209.71
1034.45	257.77
1034.82	233.74
1035.18	329.86
1035.55	270.88
1035.92	273.06
1036.28	240.29
1036.65	150.73
1037.01	214.08
1037.38	257.77
1037.74	235.93
1038.11	231.56
1038.47	310.20
1038.84	194.42
1039.20	229.37
1039.56	157.28
1039.93	141.99
1040.29	310.20
1040.66	310.20
1041.02	310.20
