185.59	-34.95
186.06	-34.95
186.53	-34.95
187.00	-8.74
187.48	-26.21
187.95	-10.92
188.42	41.51
188.89	-85.20
189.36	-30.58
189.83	-6.55
190.30	87.38
190.77	-74.27
191.24	24.03
191.71	-30.58
192.18	-28.40
192.65	-17.48
193.13	-24.03
193.60	-19.66
194.07	-28.40
194.54	98.30
195.01	-15.29
195.48	-48.06
195.95	52.43
196.42	6.55
196.89	56.80
197.36	111.41
197.83	181.31
198.30	91.75
198.77	150.73
199.24	56.80
199.71	-17.48
200.18	37.14
200.65	133.25
201.12	56.80
201.59	78.64
202.05	-39.32
202.52	69.90
202.99	74.27
203.46	41.51
203.93	67.72
204.40	102.67
204.87	74.27
205.34	126.70
205.81	63.35
206.28	-10.92
206.75	126.70
207.22	15.29
207.69	124.52
208.15	48.06
208.62	-2.18
209.09	30.58
209.56	37.14
210.03	24.03
210.50	54.61
210.97	-2.18
211.43	56.80
211.90	34.95
212.37	-6.55
212.84	37.14
213.31	139.81
213.78	43.69
214.24	39.32
214.71	63.35
215.18	-28.40
215.65	48.06
216.12	146.36
216.58	54.61
217.05	0.00
217.52	43.69
217.99	4.37
218.46	30.58
218.92	61.17
219.39	2.18
219.86	34.95
220.33	100.49
220.79	19.66
221.26	-8.74
221.73	4.37
222.19	13.11
222.66	30.58
223.13	43.69
223.60	41.51
224.06	72.09
224.53	155.10
225.00	96.12
225.46	111.41
225.93	87.38
226.40	61.17
226.86	61.17
227.33	96.12
227.80	39.32
228.26	54.61
228.73	115.78
229.20	24.03
229.66	117.96
230.13	39.32
230.60	78.64
231.06	67.72
231.53	54.61
232.00	-48.06
232.46	-4.37
232.93	39.32
233.39	135.44
233.86	43.69
234.33	-28.40
234.79	21.85
235.26	69.90
235.72	85.20
236.19	8.74
236.65	139.81
237.12	30.58
237.59	21.85
238.05	74.27
238.52	21.85
238.98	26.21
239.45	74.27
239.91	37.14
240.38	109.23
240.84	78.64
241.31	80.83
241.77	100.49
242.24	109.23
242.70	17.48
243.17	174.76
243.63	37.14
244.10	-4.37
244.56	-13.11
245.03	19.66
245.49	56.80
245.96	37.14
246.42	-15.29
246.89	41.51
247.35	96.12
247.81	-30.58
248.28	34.95
248.74	122.33
249.21	98.30
249.67	61.17
250.14	13.11
250.60	15.29
251.06	45.87
251.53	41.51
251.99	45.87
252.46	133.25
252.92	2.18
253.38	45.87
253.85	0.00
254.31	4.37
254.77	80.83
255.24	93.93
255.70	6.55
256.16	-4.37
256.63	65.53
257.09	21.85
257.55	113.59
258.02	21.85
258.48	45.87
258.94	48.06
259.41	102.67
259.87	100.49
260.33	58.98
260.80	-48.06
261.26	111.41
261.72	-4.37
262.18	-24.03
262.65	83.01
263.11	133.25
263.57	-39.32
264.04	48.06
264.50	13.11
264.96	146.36
265.42	34.95
265.88	67.72
266.35	115.78
266.81	168.21
267.27	74.27
267.73	111.41
268.20	45.87
268.66	-4.37
269.12	39.32
269.58	-37.14
270.04	54.61
270.51	45.87
270.97	41.51
271.43	13.11
271.89	-32.77
272.35	15.29
272.81	-2.18
273.28	-13.11
273.74	45.87
274.20	-24.03
274.66	-10.92
275.12	89.56
275.58	61.17
276.04	69.90
276.50	93.93
276.97	41.51
277.43	117.96
277.89	102.67
278.35	63.35
278.81	72.09
279.27	135.44
279.73	48.06
280.19	8.74
280.65	56.80
281.11	48.06
281.57	63.35
282.03	74.27
282.50	69.90
282.96	56.80
283.42	54.61
283.88	48.06
284.34	113.59
284.80	120.15
285.26	37.14
285.72	26.21
286.18	-2.18
286.64	-19.66
287.10	8.74
287.56	41.51
288.02	19.66
288.48	-19.66
288.94	48.06
289.40	87.38
289.86	185.68
290.32	78.64
290.78	-41.51
291.23	21.84
291.69	107.04
292.15	28.40
292.61	32.77
293.07	37.14
293.53	93.93
293.99	69.90
294.45	-58.98
294.91	0.00
295.37	52.43
295.83	80.83
296.29	78.64
296.74	24.03
297.20	61.17
297.66	43.69
298.12	83.01
298.58	32.77
299.04	58.98
299.50	52.43
299.95	17.48
300.41	93.93
300.87	39.32
301.33	-6.55
301.79	-54.61
302.25	102.67
302.70	137.62
303.16	45.87
303.62	-4.37
304.08	24.03
304.54	87.38
305.00	104.86
305.45	194.42
305.91	-8.74
306.37	74.27
306.83	58.98
307.28	122.33
307.74	-21.85
308.20	56.80
308.66	-26.21
309.11	4.37
309.57	72.09
310.03	-13.11
310.49	34.95
310.94	52.43
311.40	54.61
311.86	83.01
312.31	24.03
312.77	83.01
313.23	-26.21
313.69	32.77
314.14	124.52
314.60	69.90
315.06	-8.74
315.51	43.69
315.97	54.61
316.43	120.15
316.88	13.11
317.34	65.53
317.80	61.17
318.25	54.61
318.71	28.40
319.16	61.17
319.62	65.53
320.08	67.72
320.53	100.49
320.99	115.78
321.45	89.56
321.90	54.61
322.36	78.64
322.81	85.20
323.27	45.87
323.73	135.44
324.18	6.55
324.64	87.38
325.09	50.24
325.55	115.78
326.00	21.85
326.46	98.30
326.91	32.77
327.37	50.24
327.82	30.58
328.28	61.17
328.74	69.90
329.19	48.06
329.65	93.93
330.10	48.06
330.56	-8.74
331.01	117.96
331.47	24.03
331.92	26.21
332.38	157.28
332.83	159.47
333.28	58.98
333.74	85.20
334.19	65.54
334.65	117.96
335.10	34.95
335.56	122.33
336.01	45.87
336.47	63.35
336.92	58.98
337.37	135.44
337.83	67.72
338.28	152.92
338.74	144.18
339.19	37.14
339.64	100.49
340.10	21.84
340.55	102.67
341.01	26.21
341.46	192.24
341.91	96.12
342.37	135.44
342.82	87.38
343.27	83.01
343.73	113.59
344.18	107.04
344.63	89.56
345.09	117.96
345.54	126.70
345.99	45.87
346.45	107.04
346.90	139.81
347.35	109.23
347.81	111.41
348.26	96.12
348.71	117.96
349.17	155.10
349.62	52.43
350.07	102.67
350.52	109.23
350.98	183.50
351.43	170.39
351.88	159.47
352.33	170.39
352.79	124.52
353.24	54.61
353.69	163.84
354.14	137.62
354.60	166.02
355.05	155.10
355.50	115.78
355.95	192.24
356.40	222.82
356.86	229.37
357.31	214.08
357.76	229.37
358.21	135.44
358.66	268.69
359.12	218.45
359.57	146.36
360.02	242.48
360.47	231.56
360.92	115.78
361.37	126.70
361.82	176.94
362.28	159.47
362.73	163.84
363.18	115.78
363.63	257.77
364.08	179.13
364.53	214.08
364.98	268.69
365.43	264.32
365.89	240.29
366.34	214.08
366.79	222.82
367.24	268.69
367.69	231.56
368.14	268.69
368.59	334.23
369.04	222.82
369.49	371.36
369.94	321.12
370.39	297.09
370.84	347.34
371.29	362.63
371.74	297.09
372.19	266.51
372.64	240.30
373.09	369.18
373.54	362.63
373.99	375.73
374.44	410.69
374.89	321.12
375.34	286.17
375.79	305.83
376.24	273.06
376.69	458.74
377.14	412.87
377.59	404.13
378.04	316.75
378.49	297.09
378.94	430.35
379.39	450.01
379.84	504.62
380.29	443.45
380.74	349.52
381.19	471.85
381.63	382.29
382.08	530.83
382.53	463.11
382.98	541.76
383.43	548.31
383.88	469.67
384.33	543.94
384.78	469.67
385.23	517.73
385.67	570.15
386.12	489.33
386.57	443.45
387.02	500.25
387.47	535.20
387.92	447.82
388.37	519.91
388.81	535.20
389.26	646.61
389.71	559.23
390.16	609.48
390.61	611.66
391.05	688.12
391.50	685.93
391.95	642.24
392.40	631.32
392.85	637.87
393.29	696.86
393.74	690.30
394.19	685.93
394.64	703.41
395.08	740.55
395.53	666.27
395.98	664.09
396.43	685.93
396.87	799.53
397.32	766.76
397.77	764.58
398.22	688.12
398.66	764.57
399.11	821.37
399.56	773.31
400.00	758.02
400.45	736.18
400.90	856.32
401.34	812.63
401.79	843.22
402.24	882.54
402.68	871.62
403.13	799.53
403.58	878.17
404.02	777.68
404.47	943.70
404.92	847.59
405.36	832.29
405.81	830.11
406.26	921.86
406.70	941.52
407.15	921.86
407.59	1061.67
408.04	860.69
408.49	976.47
408.93	996.13
409.38	902.20
409.82	983.02
410.27	1022.35
410.71	924.04
411.16	980.84
411.61	941.52
412.05	1007.05
412.50	967.73
412.94	1031.08
413.39	1153.42
413.83	1076.96
414.28	1100.99
414.72	1061.67
415.17	1046.38
415.61	1127.20
416.06	1192.74
416.50	1262.64
416.95	1081.33
417.39	1260.46
417.84	1339.10
418.28	1188.37
418.73	1258.27
419.17	1277.93
419.62	1249.53
420.06	1232.06
420.51	1221.14
420.95	1360.94
421.40	1251.72
421.84	1284.49
422.29	1321.62
422.73	1428.66
423.17	1345.65
423.62	1378.42
424.06	1406.82
424.51	1384.97
424.95	1415.56
425.39	1365.31
425.84	1387.16
426.28	1382.79
426.73	1476.72
427.17	1489.83
427.61	1472.35
428.06	1459.25
428.50	1476.72
428.94	1454.88
429.39	1561.92
429.83	1575.02
430.27	1524.78
430.72	1614.35
431.16	1548.81
431.60	1601.24
432.05	1710.46
432.49	1692.99
432.93	1714.83
433.38	1577.21
433.82	1620.90
434.26	1682.06
434.71	1815.32
435.15	1791.29
435.59	1623.08
436.03	1767.26
436.48	1758.52
436.92	1843.72
437.36	1826.24
437.80	1931.10
438.25	1942.02
438.69	1935.47
439.13	1854.64
439.57	1992.26
440.02	1852.46
440.46	1948.57
440.90	1944.20
441.34	1983.53
441.79	1961.68
442.23	2066.54
442.67	2022.85
443.11	2112.41
443.55	1990.08
443.99	2011.92
444.44	2016.29
444.88	2007.56
445.32	2147.36
445.76	2195.42
446.20	2234.74
446.64	2162.65
447.09	2245.67
447.53	2204.16
447.97	2221.64
448.41	2420.43
448.85	2346.15
449.29	2485.96
449.73	2488.15
450.17	2590.82
450.62	2411.69
451.06	2582.08
451.50	2536.20
451.94	2662.91
452.38	2518.73
452.82	2678.20
453.26	2802.71
453.70	2759.02
454.14	2846.40
454.58	2828.93
455.02	2920.68
455.46	2874.80
455.90	2988.40
456.34	2887.91
456.78	2920.68
457.22	3040.82
457.66	3198.11
458.10	3224.32
458.54	3289.86
458.98	3383.79
459.42	3333.55
459.86	3366.31
460.30	3372.87
460.74	3414.37
461.18	3458.06
461.62	3484.28
462.06	3742.05
462.50	3645.93
462.94	3593.50
463.38	3801.03
463.82	3827.24
464.26	3846.90
464.70	3870.93
465.14	4047.88
465.58	4087.20
466.02	4141.81
466.46	4104.68
466.90	4399.58
467.34	4331.86
467.77	4301.28
468.21	4419.24
468.65	4469.49
469.09	4714.15
469.53	4513.18
469.97	4615.85
470.41	4803.72
470.85	4635.51
471.28	4945.71
471.72	5072.41
472.16	4843.04
472.60	4786.24
473.04	5137.94
473.48	5369.50
473.91	5284.31
474.35	5382.61
474.79	5277.75
475.23	5450.33
475.67	5590.14
476.11	5609.80
476.54	5747.42
476.98	5867.57
477.42	6044.51
477.86	6024.85
478.29	5729.94
478.73	6055.43
479.17	6138.44
479.61	6273.88
480.04	6179.95
480.48	6385.29
480.92	6522.92
481.36	6457.38
481.79	6737.00
482.23	6756.66
482.67	6809.09
483.11	7064.67
483.54	6876.81
483.98	7267.83
484.42	7272.20
484.85	7280.94
485.29	7370.50
485.73	7444.78
486.16	7543.08
486.60	7652.30
487.04	7724.39
487.47	7811.77
487.91	7990.90
488.35	8008.38
488.78	8246.49
489.22	8224.64
489.66	8277.07
490.09	8220.27
490.53	8325.13
490.97	8377.56
491.40	8521.73
491.84	8720.52
492.27	8904.02
492.71	8810.09
493.15	8814.46
493.58	9105.00
494.02	9089.70
494.45	9397.72
494.89	9364.95
495.32	9500.39
495.76	9443.59
496.20	9688.26
496.63	9773.45
497.07	9790.93
497.50	9648.94
497.94	9950.40
498.37	10147.00
498.81	10133.90
499.24	10192.88
499.68	10181.95
500.11	10457.20
500.55	10461.57
500.98	10448.46
501.42	10594.82
501.85	10771.77
502.29	10822.01
502.72	10959.64
503.16	10942.16
503.59	10898.47
504.03	11106.00
504.46	11296.05
504.90	11280.76
505.33	11424.94
505.77	11446.78
506.20	11608.43
506.63	11595.33
507.07	11617.17
507.50	11558.19
507.94	11912.08
508.37	11949.22
508.81	11920.82
509.24	12196.06
509.67	12298.74
510.11	12309.66
510.54	12298.74
510.98	12348.98
511.41	12471.31
511.84	12547.77
512.28	12637.33
512.71	12691.94
513.14	12899.47
513.58	12648.26
514.01	12790.25
514.44	13089.52
514.88	12951.90
515.31	12820.83
515.74	13168.17
516.18	13310.16
516.61	13152.87
517.04	13109.18
517.48	13205.30
517.91	13292.68
518.34	13371.32
518.77	13251.18
519.21	13410.65
519.64	13386.62
520.07	13504.58
520.51	13454.34
520.94	13532.98
521.37	13589.77
521.80	13775.46
522.24	13827.88
522.67	13683.71
523.10	13596.33
523.53	13889.05
523.97	13821.33
524.40	14061.63
524.83	13956.77
525.26	14024.49
525.69	14133.72
526.13	14015.75
526.56	14120.61
526.99	14249.49
527.42	14426.44
527.85	14424.25
528.28	14513.82
528.72	14391.49
529.15	14301.92
529.58	14658.00
530.01	14319.40
530.44	14605.57
530.87	14507.26
531.31	14636.15
531.74	14883.00
532.17	14605.57
532.60	14631.78
533.03	14673.29
533.46	14730.08
533.89	14933.24
534.32	15031.54
534.75	15153.88
535.19	15239.07
535.62	15000.96
536.05	15151.69
536.48	15383.25
536.91	15223.78
537.34	15300.24
537.77	15549.27
538.20	15429.12
538.63	15459.71
539.06	15641.02
539.49	15523.06
539.92	15695.63
540.35	15621.36
540.78	15892.24
541.21	15763.35
541.64	15518.69
542.07	15800.49
542.50	15896.61
542.93	15859.47
543.36	15909.71
543.79	16246.13
544.22	16010.20
544.65	16250.50
545.08	16379.38
545.51	16296.37
545.94	16451.47
546.37	16560.69
546.80	16704.87
547.23	16477.68
547.66	16676.47
548.09	16654.63
548.52	16709.24
548.95	16624.04
549.38	16663.37
549.80	16728.90
550.23	17119.93
550.66	17128.66
551.09	17060.94
551.52	16877.45
551.95	17360.22
552.38	17226.97
552.81	17303.42
553.24	17157.06
553.66	17371.14
554.09	16914.58
554.52	17510.95
554.95	17309.98
555.38	17707.56
555.81	17849.55
556.24	17862.66
556.66	18085.48
557.09	17679.16
557.52	17882.32
557.95	18277.71
558.38	17742.51
558.80	18323.59
559.23	18142.27
559.66	18072.37
560.09	18030.86
560.52	18050.52
560.94	18192.52
561.37	18603.20
561.80	18214.36
562.23	18314.85
562.65	18341.06
563.08	18563.88
563.51	18489.61
563.94	18874.08
564.36	18223.10
564.79	18852.24
565.22	18830.39
565.65	18769.22
566.07	18836.94
566.50	18694.95
566.93	19085.98
567.35	18937.43
567.78	18952.72
568.21	18930.88
568.63	19144.96
569.06	19116.56
569.49	19212.68
569.91	19564.38
570.34	19546.91
570.77	19212.68
571.19	19501.03
571.62	19179.91
572.05	19734.77
572.47	19795.94
572.90	19771.91
573.33	19706.37
573.75	19732.59
574.18	19885.50
574.60	20051.53
575.03	20010.02
575.46	19813.41
575.88	19948.85
576.31	20186.96
576.73	19955.41
577.16	20084.29
577.59	19927.01
578.01	20189.15
578.44	20256.87
578.86	20300.56
579.29	20071.19
579.71	19922.64
580.14	20468.77
580.56	20597.65
580.99	20040.60
581.41	20143.27
581.84	20226.29
582.26	19870.21
582.69	20283.08
583.11	20193.52
583.54	20005.65
583.96	20357.36
584.39	20200.07
584.81	20256.87
585.24	20178.23
585.66	20101.77
586.09	19975.07
586.51	20210.99
586.94	20226.29
587.36	20217.55
587.79	20075.56
588.21	20208.81
588.64	20250.32
589.06	20261.24
589.48	20169.49
589.91	19994.73
590.33	20385.75
590.76	20230.65
591.18	20272.16
591.60	20586.73
592.03	20197.89
592.45	19988.18
592.88	20464.40
593.30	20213.18
593.72	20665.37
594.15	20366.09
594.57	20328.96
595.00	20597.65
595.42	20540.85
595.84	20381.38
596.27	20331.14
596.69	20326.77
597.11	20322.40
597.54	20031.86
597.96	20427.26
598.38	20418.52
598.80	20311.48
599.23	20433.81
599.65	20711.24
600.07	20256.87
600.50	20632.60
600.92	20475.32
601.34	20422.89
601.77	20470.95
602.19	20556.14
602.61	20235.02
603.03	20396.68
603.46	20427.26
603.88	20427.26
604.30	20230.65
604.72	20488.43
605.15	20235.02
605.57	20527.75
605.99	20768.04
606.41	20396.68
606.83	20311.48
607.26	20794.26
607.68	20014.39
608.10	20682.85
608.52	20326.77
608.94	20208.81
609.37	20372.65
609.79	20296.19
610.21	20510.27
610.63	20322.40
611.05	20014.39
611.47	20372.65
611.90	20110.51
612.32	20318.03
612.74	20464.40
613.16	20519.01
613.58	20453.47
614.00	20685.03
614.42	20571.44
614.84	20359.54
615.27	20752.75
615.69	20503.72
616.11	20470.95
616.53	20512.46
616.95	20717.80
617.37	20492.79
617.79	20390.12
618.21	20735.27
618.63	20656.63
619.05	20748.38
619.47	20534.30
619.89	20588.91
620.31	20374.83
620.74	20510.27
621.16	20682.85
621.58	20503.72
622.00	20481.87
622.42	20636.97
622.84	20741.83
623.26	20453.47
623.68	20612.94
624.10	20969.02
624.52	20523.38
624.94	20667.55
625.36	20669.74
625.78	20744.01
626.20	20798.62
626.62	20776.78
627.03	20599.84
627.45	20678.48
627.87	20724.35
628.29	20682.85
628.71	20763.67
629.13	20617.31
629.55	20687.22
629.97	20523.38
630.39	20682.85
630.81	20420.71
631.23	20438.18
631.65	20907.85
632.07	20505.90
632.49	20525.56
632.90	20593.28
633.32	20505.90
633.74	20490.61
634.16	20835.76
634.58	20383.57
635.00	20842.31
635.42	20661.00
635.83	20425.08
636.25	20250.32
636.67	20368.28
637.09	20241.58
637.51	20385.75
637.93	20007.84
638.34	20529.93
638.76	20132.35
639.18	20149.83
639.60	20127.98
640.02	20466.58
640.44	20564.88
640.85	20438.18
641.27	20355.17
641.69	20071.19
642.11	20610.76
642.52	20634.79
642.94	20499.35
643.36	20508.09
643.78	20401.05
644.19	20363.91
644.61	20256.87
645.03	20280.90
645.45	20269.98
645.86	20202.26
646.28	20090.85
646.70	20446.92
647.12	19854.92
647.53	19911.72
647.95	20051.53
648.37	20165.12
648.78	20208.81
649.20	20053.71
649.62	19944.48
650.03	19996.91
650.45	20259.05
650.87	20304.93
651.28	20020.94
651.70	20003.47
652.12	20145.46
652.53	20007.84
652.95	19719.48
653.37	20165.12
653.78	19911.72
654.20	19846.18
654.61	20047.16
655.03	19802.49
655.45	19752.25
655.86	19776.28
656.28	19658.32
656.69	19765.36
657.11	19990.36
657.53	19988.18
657.94	19612.44
658.36	19723.85
658.77	19586.23
659.19	19573.12
659.60	19446.42
660.02	19308.80
660.44	19544.72
660.85	19549.09
661.27	19697.64
661.68	19400.54
662.10	19496.66
662.51	19608.07
662.93	19409.28
663.34	19339.38
663.76	19494.48
664.17	19411.47
664.59	19171.17
665.00	19378.70
665.42	19424.57
665.83	19092.53
666.25	19138.40
666.66	19245.44
667.08	19024.81
667.49	19188.65
667.90	18996.41
668.32	18963.64
668.73	19101.27
669.15	18895.92
669.56	18801.99
669.98	18793.25
670.39	19013.89
670.80	19118.74
671.22	19009.52
671.63	18823.84
672.05	19000.78
672.46	18745.19
672.87	18968.01
673.29	18598.83
673.70	18797.62
674.12	18718.98
674.53	18426.26
674.94	18535.48
675.36	18518.01
675.77	18367.28
676.18	18373.83
676.60	18524.56
677.01	18282.08
677.42	18244.94
677.84	18105.14
678.25	18310.48
678.66	18194.70
679.08	18196.88
679.49	18170.67
679.90	18238.39
680.31	18201.25
680.73	18052.71
681.14	17945.67
681.55	17923.82
681.97	18006.83
682.38	18011.20
682.79	17869.21
683.20	17766.54
683.62	18107.32
684.03	17694.45
684.44	17862.66
684.85	17600.52
685.27	17856.10
685.68	17862.66
686.09	17984.99
686.50	17628.92
686.91	17508.77
687.33	17615.81
687.74	17884.50
688.15	17430.13
688.56	17725.03
688.97	17742.51
689.39	17681.34
689.80	17329.64
690.21	17502.21
690.62	17495.66
691.03	17456.34
691.44	17128.66
691.86	17489.11
692.27	17207.31
692.68	17288.13
693.09	17194.20
693.50	17235.70
693.91	17141.77
694.32	17021.62
694.73	17174.54
695.15	17174.54
695.56	17019.44
695.97	17052.21
696.38	16984.49
696.79	16761.67
697.20	16940.80
697.61	16737.64
698.02	16884.00
698.43	16770.41
698.84	16639.34
699.25	16779.14
699.66	16748.56
700.07	16512.64
700.48	16543.22
700.90	16728.90
701.31	16687.40
701.72	16499.53
702.13	16549.77
702.54	16399.04
702.95	16473.31
703.36	16560.69
703.77	16270.16
704.18	16348.80
704.59	16139.09
705.00	16403.41
705.41	16355.35
705.82	16377.20
706.22	16307.29
706.63	16049.52
707.04	16139.09
707.45	16182.78
707.86	16254.86
708.27	16340.06
708.68	15734.95
709.09	16077.92
709.50	16029.86
709.91	15870.39
710.32	16101.95
710.73	15872.58
711.14	16023.31
711.55	15911.90
711.95	16051.71
712.36	15909.71
712.77	15863.84
713.18	15507.77
713.59	15708.74
714.00	15756.80
714.41	15724.03
714.82	15791.75
715.22	15778.64
715.63	15658.50
716.04	15448.78
716.45	15673.79
716.86	15374.51
717.27	15370.14
717.67	15400.72
718.08	15592.96
718.49	15433.49
718.90	15597.33
719.31	15466.26
719.71	15409.46
720.12	15241.26
720.53	15756.80
720.94	15217.23
721.35	15022.81
721.75	15142.95
722.16	15094.90
722.57	15420.39
722.98	14983.49
723.38	15243.44
723.79	15328.64
724.20	15051.21
724.61	15234.70
725.01	15092.71
725.42	15059.94
725.83	14736.64
726.23	14743.19
726.64	14872.08
727.05	14791.25
727.45	14671.10
727.86	14725.71
728.27	14819.65
728.68	14854.60
729.08	14832.76
729.49	14623.04
729.90	14885.18
730.30	14858.97
730.71	14559.69
731.11	14684.21
731.52	14603.38
731.93	14618.67
732.33	14291.00
732.74	14695.13
733.15	14446.10
733.55	14223.28
733.96	14682.02
734.36	14345.61
734.77	14173.04
735.18	13985.17
735.58	14341.24
735.99	14210.17
736.39	14266.97
736.80	14153.38
737.21	14026.67
737.61	13952.40
738.02	14079.10
738.42	14076.92
738.83	13904.34
739.23	13974.25
739.64	13897.79
740.04	13637.83
740.45	13574.48
740.85	13921.82
741.26	13694.63
741.66	13878.13
742.07	13567.93
742.47	13677.15
742.88	13640.02
743.28	13535.16
743.69	13377.88
744.09	13537.35
744.50	13148.51
744.90	13307.97
745.31	13578.85
745.71	13401.91
746.12	13449.97
746.52	13211.86
746.93	13294.87
747.33	13277.39
747.73	12975.93
748.14	13172.54
748.54	13133.21
748.95	13135.40
749.35	13065.49
749.76	12888.55
750.16	12849.23
750.56	12851.41
750.97	13157.24
751.37	12755.30
751.78	13032.73
752.18	12689.76
752.58	12711.61
752.99	12515.00
753.39	12423.25
753.79	12484.42
754.20	12554.32
754.60	12764.03
755.00	12770.59
755.41	12370.82
755.81	12340.24
756.21	12206.99
756.62	12403.59
757.02	12359.90
757.42	12309.66
757.83	12174.22
758.23	12084.65
758.63	12220.09
759.03	12069.36
759.44	11877.13
759.84	12115.24
760.24	12097.76
760.65	12045.33
761.05	11888.05
761.45	11890.23
761.85	11879.31
762.26	11713.29
762.66	11761.35
763.06	11737.32
763.46	11671.78
763.87	11643.38
764.27	11604.06
764.67	11614.99
765.07	11706.74
765.47	11420.57
765.88	11424.94
766.28	11621.54
766.68	11483.92
767.08	11304.79
767.48	11374.69
767.88	11276.39
768.29	11486.10
768.69	11296.05
769.09	11337.56
769.49	11383.43
769.89	11368.14
770.29	11171.53
770.70	11435.86
771.10	11306.97
771.50	11488.29
771.90	11287.31
772.30	11049.20
772.70	11084.15
773.10	11055.75
773.50	11149.69
773.90	11060.12
774.30	11101.63
774.71	11060.12
775.11	11081.97
775.51	11009.88
775.91	10837.30
776.31	10924.68
776.71	10966.19
777.11	10835.12
777.51	10791.43
777.91	10856.96
778.31	10701.87
778.71	10850.41
779.11	10948.71
779.51	10972.74
779.91	11162.80
780.31	10870.07
780.71	10666.91
781.11	10817.64
781.51	10813.28
781.91	10675.65
782.31	10832.94
782.71	10739.00
783.11	10870.07
783.51	10802.35
783.91	10872.26
784.31	10725.90
784.71	11178.09
785.11	10937.79
785.51	11145.32
785.91	10966.19
786.31	10841.67
786.71	11226.15
787.11	11051.39
787.50	10913.76
787.90	11274.20
788.30	11151.87
788.70	11066.68
789.10	11346.29
789.50	11103.81
789.90	11175.90
790.30	11164.98
790.70	11136.58
791.09	11073.23
791.49	11132.21
791.89	11237.07
792.29	11167.16
792.69	11431.49
793.09	11267.65
793.49	11285.13
793.88	11424.94
794.28	11265.47
794.68	11241.44
795.08	11385.61
795.48	11431.49
795.88	11501.39
796.27	11448.96
796.67	11256.73
797.07	11326.63
797.47	11835.62
797.86	11623.72
798.26	11604.06
798.66	11802.85
799.06	11687.08
799.46	11730.76
799.85	11776.64
800.25	11669.60
800.65	11894.60
801.05	11927.37
801.44	11807.22
801.84	11925.19
802.24	11842.17
802.63	11927.37
803.03	12121.79
803.43	12091.21
803.83	12145.82
804.22	12158.93
804.62	12174.22
805.02	11962.32
805.41	12261.60
805.81	12305.29
806.21	12287.81
806.60	12495.34
807.00	12217.91
807.40	12373.01
807.79	12314.03
808.19	12338.06
808.59	12414.51
808.98	12591.46
809.38	12401.41
809.77	12477.86
810.17	12471.31
810.57	12689.76
810.96	12464.76
811.36	12613.30
811.75	12517.18
812.15	12484.42
812.55	12547.77
812.94	12663.55
813.34	12471.31
813.73	12591.46
814.13	12495.34
814.53	12705.05
814.92	12536.85
815.32	12622.04
815.71	12836.12
816.11	12796.80
816.50	12713.79
816.90	12746.56
817.29	12670.10
817.69	12753.11
818.08	12608.93
818.48	12608.93
818.87	12676.65
819.27	12694.13
819.66	12563.06
820.06	12744.37
820.45	12674.47
820.85	12451.65
821.24	12543.40
821.64	12545.58
822.03	12652.62
822.43	12796.80
822.82	12488.79
823.22	12543.40
823.61	12628.59
824.00	12628.59
824.40	12578.35
824.79	12462.57
825.19	12375.19
825.58	12429.80
825.98	12506.26
826.37	12220.09
826.76	12178.59
827.16	12534.66
827.55	12383.93
827.94	12405.78
828.34	12344.61
828.73	12412.33
829.13	12571.80
829.52	12401.41
829.91	12270.34
830.31	12255.04
830.70	11979.80
831.09	12427.62
831.49	12078.10
831.88	12051.89
832.27	12276.89
832.67	11853.10
833.06	11859.65
833.45	12078.10
833.85	12043.15
834.24	11822.51
834.63	11864.02
835.02	11763.53
835.42	11748.24
835.81	12051.89
836.20	12089.02
836.60	11783.19
836.99	11728.58
837.38	11748.24
837.77	11735.13
838.17	11632.46
838.56	11763.53
838.95	11490.47
839.34	11411.83
839.74	11462.07
840.13	11586.59
840.52	11468.62
840.91	11501.39
841.30	11285.13
841.70	11451.15
842.09	11247.99
842.48	11287.31
842.87	11044.83
843.26	11114.74
843.66	11298.23
844.05	11114.74
844.44	11099.44
844.83	10822.01
845.22	10887.55
845.61	10734.63
846.00	10813.28
846.40	10819.83
846.79	10972.74
847.18	10693.13
847.57	10725.90
847.96	10791.43
848.35	10736.82
848.74	10514.00
849.13	10627.59
849.53	10452.83
849.92	10267.15
850.31	10603.56
850.70	10540.21
851.09	10330.50
851.48	10356.71
851.87	10378.56
852.26	10085.84
852.65	10179.77
853.04	10280.26
853.43	10020.30
853.82	10155.74
854.21	10096.76
854.60	9963.50
854.99	10046.52
855.38	9873.94
855.77	9863.02
856.16	9786.56
856.55	9666.41
856.94	9834.62
857.33	9703.55
857.72	9697.00
858.11	9589.96
858.50	9336.55
858.89	9369.32
859.28	9782.19
859.67	9408.64
860.06	9672.97
860.45	9500.39
860.84	9281.94
861.23	9209.85
861.62	9120.29
862.01	9214.22
862.40	9030.72
862.79	9203.30
863.18	9098.44
863.57	9220.77
863.95	9039.46
864.34	9024.17
864.73	8914.94
865.12	8965.19
865.51	8635.33
865.90	9019.80
866.29	8895.28
866.68	8788.24
867.06	8759.85
867.45	8716.15
867.84	8504.26
868.23	8565.42
868.62	8523.92
869.01	8650.62
869.40	8331.68
869.78	8375.37
870.17	8281.44
870.56	8416.88
870.95	8336.05
871.34	8414.69
871.72	8174.40
872.11	8255.23
872.50	8305.47
872.89	8069.54
873.28	8176.58
873.66	8253.04
874.05	7986.53
874.44	8065.17
874.83	7960.32
875.21	8010.56
875.60	8034.59
875.99	7759.34
876.38	7693.81
876.76	7820.51
877.15	7866.38
877.54	7754.97
877.92	7709.10
878.31	7628.27
878.70	7525.60
879.09	7470.99
879.47	7637.01
879.86	7547.45
880.25	7584.58
880.63	7551.82
881.02	7619.54
881.41	7475.36
881.79	7475.36
882.18	7309.34
882.57	7342.10
882.95	7366.13
883.34	7392.35
883.73	7350.84
884.11	7167.34
884.50	7412.01
884.88	7318.08
885.27	7156.42
885.66	7099.62
886.04	7106.18
886.43	7101.81
886.81	7079.96
887.20	7167.34
887.59	6990.40
887.97	6942.34
888.36	7086.52
888.74	7077.78
889.13	6994.77
889.52	7023.17
889.90	6981.66
890.29	7082.15
890.67	7075.60
891.06	6979.48
891.44	7093.07
891.83	6732.63
892.21	6870.25
892.60	7171.71
892.98	7095.26
893.37	7066.86
893.75	6896.47
894.14	7079.96
894.52	7132.39
894.91	7180.45
895.29	6964.19
895.68	7066.86
896.06	6990.40
896.45	7005.69
896.83	7154.24
897.22	7095.26
897.60	7047.20
897.98	7195.74
898.37	7132.39
898.75	7252.54
899.14	7259.09
899.52	6951.08
899.91	7066.86
900.29	7132.39
900.67	7228.51
901.06	7099.62
901.44	7114.92
901.83	7086.52
902.21	7058.12
902.59	7075.60
902.98	7110.55
903.36	7377.06
903.75	7005.69
904.13	6996.95
904.51	7055.93
904.90	7038.46
905.28	7020.98
905.66	6977.29
906.05	6966.37
906.43	6964.19
906.81	6798.16
907.20	6944.53
907.58	6999.14
907.96	6863.70
908.35	6852.78
908.73	6817.82
909.11	6734.81
909.49	6787.24
909.88	6826.56
910.26	6767.58
910.64	6688.94
911.02	6704.23
911.41	6638.70
911.79	6568.79
912.17	6662.72
912.55	6623.40
912.94	6415.88
913.32	6365.63
913.70	6166.84
914.08	6389.66
914.47	6335.05
914.85	6409.32
915.23	6193.06
915.61	6313.20
915.99	6116.60
916.38	6177.77
916.76	6005.19
917.14	5946.21
917.52	6035.77
917.90	5871.94
918.29	5865.38
918.67	5664.41
919.05	5734.31
919.43	5592.32
919.81	5583.58
920.19	5579.21
920.57	5601.06
920.96	5360.76
921.34	5216.59
921.72	5279.94
922.10	5247.17
922.48	5255.91
922.86	4991.58
923.24	4926.05
923.62	4829.93
924.00	4882.36
924.39	4912.94
924.77	4740.36
925.15	4644.25
925.53	4587.45
925.91	4504.44
926.29	4467.30
926.67	4406.14
927.05	4277.25
927.43	4334.05
927.81	4211.72
928.19	4102.49
928.57	4102.49
928.95	4109.04
929.33	3964.87
929.71	3923.36
930.09	3835.98
930.47	3707.10
930.85	3731.13
931.23	3626.27
931.61	3562.92
931.99	3580.40
932.37	3600.06
932.75	3499.57
933.13	3375.05
933.51	3375.05
933.89	3206.85
934.27	3082.33
934.65	3139.13
935.03	3119.47
935.41	3016.79
935.79	3093.25
936.17	3088.88
936.54	2984.03
936.92	2988.40
937.30	2828.93
937.68	2894.46
938.06	2772.13
938.44	2728.44
938.82	2715.33
939.20	2647.61
939.58	2697.86
939.95	2505.62
940.33	2606.11
940.71	2544.94
941.09	2566.79
941.47	2516.54
941.85	2529.65
942.23	2558.05
942.60	2448.82
942.98	2385.47
943.36	2357.08
943.74	2446.64
944.12	2378.92
944.50	2341.78
944.87	2324.31
945.25	2311.20
945.63	2234.74
946.01	2278.43
946.38	2206.34
946.76	2265.33
947.14	2223.82
947.52	2182.32
947.90	2282.80
948.27	2151.73
948.65	2188.87
949.03	2184.50
949.41	2068.72
949.78	2223.82
950.16	2132.07
950.54	2018.48
950.91	2099.30
951.29	2138.63
951.67	2049.06
952.05	2191.05
952.42	2129.89
952.80	1948.57
953.18	2097.12
953.55	2051.25
953.93	2049.06
954.31	2049.06
954.68	2112.41
955.06	2092.75
955.44	2145.18
955.81	2011.92
956.19	2081.83
956.57	2084.01
956.94	2031.59
957.32	2035.95
957.69	1937.65
958.07	2018.48
958.45	2059.98
958.82	2121.15
959.20	2029.40
959.58	2011.92
959.95	2121.15
960.33	2040.32
960.70	1872.12
961.08	2035.95
961.45	2062.17
961.83	1996.63
962.21	1970.42
962.58	2009.74
962.96	2011.92
963.33	2005.37
963.71	2062.17
964.08	1974.79
964.46	1998.82
964.83	2079.64
965.21	1931.10
965.58	2053.43
965.96	2073.09
966.33	1876.49
966.71	1987.90
967.08	2005.37
967.46	2031.58
967.83	1996.63
968.21	1924.54
968.58	1987.90
968.96	1852.46
969.33	1955.13
969.71	2020.66
970.08	1935.47
970.46	1942.02
970.83	1939.84
971.20	1913.62
971.58	1837.16
971.95	2005.37
972.33	1939.84
972.70	1813.14
973.08	1780.37
973.45	1902.70
973.82	1865.56
974.20	1837.16
974.57	1830.61
974.95	1830.61
975.32	1865.56
975.69	1723.57
976.07	1771.63
976.44	1821.87
976.81	1896.15
977.19	1701.73
977.56	1734.49
977.93	1734.49
978.31	1719.20
978.68	1653.67
979.05	1756.34
979.43	1723.57
979.80	1686.43
980.17	1561.92
980.55	1662.40
980.92	1592.50
981.29	1653.67
981.67	1658.04
982.04	1601.24
982.41	1714.83
982.78	1581.58
983.16	1546.63
983.53	1533.52
983.90	1575.02
984.27	1592.50
984.65	1566.29
985.02	1526.97
985.39	1575.02
985.76	1463.62
986.14	1489.83
986.51	1463.62
986.88	1446.14
987.25	1413.37
987.63	1513.86
988.00	1343.47
988.37	1483.28
988.74	1330.36
989.11	1415.56
989.48	1360.94
989.86	1400.26
990.23	1360.94
990.60	1343.47
990.97	1269.19
991.34	1363.13
991.71	1332.54
992.09	1341.28
992.46	1284.49
992.83	1395.90
993.20	1365.31
993.57	1286.67
993.94	1343.47
994.31	1238.61
994.68	1384.97
995.06	1328.18
995.43	1395.90
995.80	1208.03
996.17	1166.52
996.54	1234.24
996.91	1177.45
997.28	1297.59
997.65	1127.20
998.02	1242.98
998.39	1061.67
998.76	1192.74
999.13	1142.49
999.50	1179.63
999.87	1033.27
1000.24	1120.65
1000.61	1181.81
1000.99	1125.02
1001.36	1127.20
1001.73	1000.50
1002.10	1170.89
1002.47	1061.67
1002.84	1033.27
1003.21	980.84
1003.57	1098.80
1003.94	926.23
1004.31	1063.85
1004.68	954.63
1005.05	1068.22
1005.42	889.09
1005.79	821.37
1006.16	884.72
1006.53	965.55
1006.90	919.67
1007.27	917.49
1007.64	926.23
1008.01	841.03
1008.38	889.09
1008.75	841.03
1009.12	921.86
1009.49	904.38
1009.85	856.32
1010.22	919.67
1010.59	849.77
1010.96	731.81
1011.33	797.34
1011.70	786.42
1012.07	740.55
1012.44	862.88
1012.80	784.24
1013.17	895.64
1013.54	707.78
1013.91	771.13
1014.28	714.33
1014.65	751.47
1015.01	788.60
1015.38	705.59
1015.75	777.68
1016.12	648.80
1016.49	694.67
1016.85	640.06
1017.22	731.81
1017.59	668.46
1017.96	718.70
1018.33	705.59
1018.69	602.92
1019.06	620.40
1019.43	677.20
1019.80	659.72
1020.16	692.49
1020.53	633.50
1020.90	631.32
1021.27	629.14
1021.63	594.18
1022.00	616.03
1022.37	585.45
1022.73	616.03
1023.10	570.15
1023.47	600.74
1023.84	637.87
1024.20	592.00
1024.57	578.89
1024.94	541.76
1025.30	585.45
1025.67	561.42
1026.04	539.57
1026.40	522.10
1026.77	476.22
1027.14	622.58
1027.50	487.14
1027.87	524.28
1028.23	498.07
1028.60	498.07
1028.97	500.25
1029.33	517.73
1029.70	463.11
1030.07	423.79
1030.43	443.45
1030.80	428.16
1031.16	443.45
1031.53	500.25
1031.89	572.34
1032.26	469.67
1032.63	469.67
1032.99	528.65
1033.36	399.76
1033.72	425.98
1034.09	353.89
1034.45	382.29
1034.82	432.53
1035.18	502.44
1035.55	380.10
1035.92	482.77
1036.28	425.98
1036.65	342.97
1037.01	332.04
1037.38	408.50
1037.74	460.93
1038.11	377.92
1038.47	458.74
1038.84	321.12
1039.20	456.56
1039.56	399.76
1039.93	384.47
1040.29	299.28
1040.66	299.28
1041.02	299.28
