185.59	-39.32
186.06	-39.32
186.53	-39.32
187.00	-19.66
187.48	-34.95
187.95	-104.86
188.42	54.61
188.89	-124.52
189.36	-21.85
189.83	-30.58
190.30	24.03
190.77	8.74
191.24	4.37
191.71	-2.18
192.18	65.54
192.65	28.40
193.13	-28.40
193.60	-32.77
194.07	54.61
194.54	17.48
195.01	4.37
195.48	32.77
195.95	56.80
196.42	76.46
196.89	100.49
197.36	133.25
197.83	120.15
198.30	115.78
198.77	67.72
199.24	69.90
199.71	69.90
200.18	93.93
200.65	85.20
201.12	48.06
201.59	78.64
202.05	-2.18
202.52	146.36
202.99	113.59
203.46	30.58
203.93	100.49
204.40	15.29
204.87	124.52
205.34	109.23
205.81	72.09
206.28	102.67
206.75	135.44
207.22	28.40
207.69	74.27
208.15	41.51
208.62	24.03
209.09	89.56
209.56	34.95
210.03	87.38
210.50	54.61
210.97	87.38
211.43	41.51
211.90	37.14
212.37	-17.48
212.84	65.53
213.31	65.53
213.78	93.93
214.24	74.27
214.71	124.52
215.18	13.11
215.65	52.43
216.12	152.91
216.58	111.41
217.05	100.49
217.52	89.56
217.99	69.90
218.46	10.92
218.92	50.24
219.39	43.69
219.86	37.14
220.33	17.48
220.79	17.48
221.26	43.69
221.73	41.51
222.19	87.38
222.66	48.06
223.13	98.30
223.60	58.98
224.06	50.24
224.53	39.32
225.00	65.53
225.46	124.52
225.93	39.32
226.40	76.46
226.86	76.46
227.33	146.36
227.80	113.59
228.26	69.90
228.73	124.52
229.20	104.86
229.66	115.78
230.13	159.47
230.60	21.85
231.06	80.83
231.53	98.30
232.00	-2.18
232.46	-34.95
232.93	72.09
233.39	83.01
233.86	65.53
234.33	34.95
234.79	45.87
235.26	41.51
235.72	76.46
236.19	13.11
236.65	150.73
237.12	54.61
237.59	120.15
238.05	43.69
238.52	48.06
238.98	104.86
239.45	67.72
239.91	61.17
240.38	163.84
240.84	54.61
241.31	133.25
241.77	120.15
242.24	144.18
242.70	-10.92
243.17	37.14
243.63	48.06
244.10	-21.85
244.56	4.37
245.03	63.35
245.49	107.04
245.96	43.69
246.42	89.56
246.89	52.43
247.35	109.22
247.81	-4.37
248.28	37.14
248.74	58.98
249.21	131.07
249.67	67.72
250.14	89.56
250.60	30.58
251.06	115.78
251.53	19.66
251.99	69.90
252.46	54.61
252.92	63.35
253.38	124.52
253.85	89.56
254.31	21.85
254.77	104.86
255.24	117.96
255.70	161.65
256.16	56.80
256.63	21.85
257.09	56.80
257.55	109.22
258.02	61.17
258.48	76.46
258.94	6.55
259.41	85.20
259.87	126.70
260.33	39.32
260.80	45.87
261.26	89.56
261.72	61.17
262.18	61.17
262.65	80.83
263.11	148.55
263.57	-4.37
264.04	63.35
264.50	50.24
264.96	48.06
265.42	65.53
265.88	93.93
266.35	135.44
266.81	43.69
267.27	28.40
267.73	96.12
268.20	13.11
268.66	45.87
269.12	54.61
269.58	24.03
270.04	78.64
270.51	63.35
270.97	122.33
271.43	80.83
271.89	63.35
272.35	137.62
272.81	58.98
273.28	78.64
273.74	61.17
274.20	2.18
274.66	61.17
275.12	117.96
275.58	150.73
276.04	128.89
276.50	76.46
276.97	41.51
277.43	113.59
277.89	63.35
278.35	24.03
278.81	78.64
279.27	131.07
279.73	63.35
280.19	102.67
280.65	-6.55
281.11	10.92
281.57	104.86
282.03	109.22
282.50	85.20
282.96	74.27
283.42	48.06
283.88	89.56
284.34	150.73
284.80	111.41
285.26	26.21
285.72	63.35
286.18	78.64
286.64	8.74
287.10	24.03
287.56	48.06
288.02	19.66
288.48	54.61
288.94	48.06
289.40	26.21
289.86	172.58
290.32	-2.18
290.78	13.11
291.23	52.43
291.69	111.41
292.15	-39.32
292.61	43.69
293.07	56.80
293.53	37.14
293.99	137.62
294.45	2.18
294.91	58.98
295.37	89.56
295.83	65.53
296.29	78.64
296.74	89.56
297.20	133.25
297.66	83.01
298.12	54.61
298.58	37.14
299.04	117.96
299.50	56.80
299.95	111.41
300.41	146.36
300.87	56.80
301.33	-43.69
301.79	74.27
302.25	133.25
302.70	170.39
303.16	-21.84
303.62	56.80
304.08	17.48
304.54	133.25
305.00	117.96
305.45	194.42
305.91	13.11
306.37	4.37
306.83	61.17
307.28	65.53
307.74	26.21
308.20	91.75
308.66	-4.37
309.11	28.40
309.57	100.49
310.03	24.03
310.49	21.85
310.94	28.40
311.40	28.40
311.86	54.61
312.31	10.92
312.77	122.33
313.23	28.40
313.69	91.75
314.14	32.77
314.60	133.25
315.06	-2.18
315.51	85.20
315.97	32.77
316.43	13.11
316.88	15.29
317.34	168.21
317.80	109.23
318.25	15.29
318.71	4.37
319.16	54.61
319.62	58.98
320.08	80.83
320.53	61.17
320.99	74.27
321.45	100.49
321.90	102.67
322.36	102.67
322.81	98.30
323.27	48.06
323.73	76.46
324.18	98.30
324.64	50.24
325.09	17.48
325.55	4.37
326.00	19.66
326.46	98.30
326.91	72.09
327.37	30.58
327.82	26.21
328.28	91.75
328.74	144.18
329.19	91.75
329.65	104.86
330.10	85.20
330.56	98.30
331.01	133.25
331.47	87.38
331.92	89.56
332.38	109.23
332.83	89.56
333.28	96.12
333.74	50.24
334.19	-4.37
334.65	131.07
335.10	34.95
335.56	115.78
336.01	72.09
336.47	98.30
336.92	89.56
337.37	113.59
337.83	78.64
338.28	152.92
338.74	58.98
339.19	32.77
339.64	69.90
340.10	-10.92
340.55	52.43
341.01	58.98
341.46	126.70
341.91	69.90
342.37	93.93
342.82	93.93
343.27	163.84
343.73	50.24
344.18	56.80
344.63	96.12
345.09	83.01
345.54	137.62
345.99	122.33
346.45	72.09
346.90	131.07
347.35	69.90
347.81	107.04
348.26	13.11
348.71	93.93
349.17	113.59
349.62	83.01
350.07	126.70
350.52	113.59
350.98	161.65
351.43	141.99
351.88	135.44
352.33	126.70
352.79	122.33
353.24	76.46
353.69	187.87
354.14	96.12
354.60	192.24
355.05	93.93
355.50	100.49
355.95	96.12
356.40	93.93
356.86	161.65
357.31	166.02
357.76	166.02
358.21	28.40
358.66	131.07
359.12	100.49
359.57	100.49
360.02	139.81
360.47	111.41
360.92	133.25
361.37	17.48
361.82	100.49
362.28	52.43
362.73	131.07
363.18	102.67
363.63	155.10
364.08	168.21
364.53	124.52
364.98	113.59
365.43	194.42
365.89	198.79
366.34	113.59
366.79	109.23
367.24	157.28
367.69	139.81
368.14	139.81
368.59	152.91
369.04	107.04
369.49	170.39
369.94	192.24
370.39	157.28
370.84	96.12
371.29	161.65
371.74	170.39
372.19	141.99
372.64	170.39
373.09	218.45
373.54	124.52
373.99	179.13
374.44	194.42
374.89	161.65
375.34	52.43
375.79	181.31
376.24	89.56
376.69	174.76
377.14	286.17
377.59	117.96
378.04	61.17
378.49	198.79
378.94	229.37
379.39	200.97
379.84	264.32
380.29	181.31
380.74	107.04
381.19	166.02
381.63	170.39
382.08	264.32
382.53	203.16
382.98	262.14
383.43	251.22
383.88	207.53
384.33	207.53
384.78	179.13
385.23	198.79
385.67	270.88
386.12	166.02
386.57	150.73
387.02	137.62
387.47	251.22
387.92	111.41
388.37	262.14
388.81	205.34
389.26	266.51
389.71	203.16
390.16	257.77
390.61	211.90
391.05	262.14
391.50	214.08
391.95	233.74
392.40	321.12
392.85	266.51
393.29	290.54
393.74	345.15
394.19	277.43
394.64	233.74
395.08	246.85
395.53	227.19
395.98	270.88
396.43	187.87
396.87	281.80
397.32	349.52
397.77	349.52
398.22	290.54
398.66	259.96
399.11	342.97
399.56	345.15
400.00	233.74
400.45	275.25
400.90	334.23
401.34	312.38
401.79	268.69
402.24	358.26
402.68	336.41
403.13	332.04
403.58	279.62
404.02	283.98
404.47	301.46
404.92	325.49
405.36	268.69
405.81	351.70
406.26	360.44
406.70	391.03
407.15	367.00
407.59	434.72
408.04	349.52
408.49	397.58
408.93	447.82
409.38	367.00
409.82	391.03
410.27	373.55
410.71	347.34
411.16	436.90
411.61	436.90
412.05	425.98
412.50	395.39
412.94	423.79
413.39	528.65
413.83	428.16
414.28	458.74
414.72	375.73
415.17	480.59
415.61	369.18
416.06	471.85
416.50	445.64
416.95	430.35
417.39	500.25
417.84	522.10
418.28	454.38
418.73	511.17
419.17	594.18
419.62	561.42
420.06	495.88
420.51	478.41
420.95	513.36
421.40	513.36
421.84	533.02
422.29	581.08
422.73	626.95
423.17	552.68
423.62	493.70
424.06	624.77
424.51	561.42
424.95	495.88
425.39	554.86
425.84	548.31
426.28	559.23
426.73	622.58
427.17	620.40
427.61	535.20
428.06	563.60
428.50	609.48
428.94	644.43
429.39	718.70
429.83	572.34
430.27	661.90
430.72	616.03
431.16	557.05
431.60	585.45
432.05	688.12
432.49	707.78
432.93	709.96
433.38	675.01
433.82	729.62
434.26	699.04
434.71	692.49
435.15	624.77
435.59	620.40
436.03	751.47
436.48	594.18
436.92	720.88
437.36	736.18
437.80	795.16
438.25	773.31
438.69	851.96
439.13	758.02
439.57	683.75
440.02	720.88
440.46	716.52
440.90	742.73
441.34	714.33
441.79	749.28
442.23	740.55
442.67	801.71
443.11	784.24
443.55	637.87
443.99	764.57
444.44	801.71
444.88	814.82
445.32	832.29
445.76	792.97
446.20	891.28
446.64	821.37
447.09	812.63
447.53	821.37
447.97	847.59
448.41	904.38
448.85	939.33
449.29	880.35
449.73	886.91
450.17	985.21
450.62	932.78
451.06	1072.59
451.50	1022.35
451.94	945.89
452.38	801.71
452.82	921.86
453.26	1057.30
453.70	926.23
454.14	1020.16
454.58	1087.88
455.02	1037.64
455.46	991.76
455.90	1039.82
456.34	1024.53
456.78	1000.50
457.22	1116.28
457.66	1076.96
458.10	1170.89
458.54	1190.55
458.98	1201.48
459.42	1168.71
459.86	1223.32
460.30	1253.90
460.74	1111.91
461.18	1179.63
461.62	1184.00
462.06	1242.98
462.50	1336.91
462.94	1181.81
463.38	1256.09
463.82	1286.67
464.26	1271.38
464.70	1406.82
465.14	1400.26
465.58	1437.40
466.02	1439.59
466.46	1511.67
466.90	1435.22
467.34	1426.48
467.77	1502.94
468.21	1581.58
468.65	1690.80
469.09	1513.86
469.53	1585.95
469.97	1609.98
470.41	1553.18
470.85	1686.43
471.28	1677.70
471.72	1824.06
472.16	1668.96
472.60	1662.40
473.04	1730.12
473.48	1791.29
473.91	1867.75
474.35	1804.40
474.79	1782.55
475.23	1959.50
475.67	2040.32
476.11	1952.94
476.54	2035.95
476.98	2009.74
477.42	2033.77
477.86	2094.94
478.29	2007.56
478.73	2103.67
479.17	2147.36
479.61	2149.55
480.04	2110.23
480.48	2182.32
480.92	2197.61
481.36	2387.66
481.79	2319.94
482.23	2433.53
482.67	2464.12
483.11	2394.21
483.54	2324.31
483.98	2627.95
484.42	2365.81
484.85	2448.82
485.29	2555.87
485.73	2534.02
486.16	2426.98
486.60	2743.73
487.04	2586.45
487.47	2597.37
487.91	2603.92
488.35	2634.51
488.78	2776.50
489.22	2931.60
489.66	2689.12
490.09	2691.30
490.53	2890.09
490.97	2951.26
491.40	2778.68
491.84	2920.68
492.27	2894.46
492.71	2925.05
493.15	2881.36
493.58	2887.91
494.02	2894.46
494.45	3080.14
494.89	2946.89
495.32	3123.84
495.76	3139.13
496.20	3047.38
496.63	3211.21
497.07	3283.30
497.50	3213.40
497.94	3298.60
498.37	3283.30
498.81	3302.96
499.24	3206.85
499.68	3313.89
500.11	3416.56
500.55	3263.64
500.98	3399.08
501.42	3366.31
501.85	3525.78
502.29	3549.81
502.72	3576.03
503.16	3624.09
503.59	3475.54
504.03	3643.75
504.46	3659.04
504.90	3586.95
505.33	3554.18
505.77	3659.04
506.20	3752.97
506.63	3766.08
507.07	3608.79
507.50	3715.83
507.94	3803.21
508.37	3733.31
508.81	3849.09
509.24	3916.81
509.67	3835.98
510.11	3971.42
510.54	3903.70
510.98	3901.52
511.41	4026.03
511.84	3977.97
512.28	4047.88
512.71	4159.29
513.14	3971.42
513.58	4187.69
514.01	4192.06
514.44	4139.63
514.88	4285.99
515.31	4342.79
515.74	4325.31
516.18	4386.48
516.61	4548.13
517.04	4441.09
517.48	4379.92
517.91	4521.92
518.34	4504.44
518.77	4550.31
519.21	4585.27
519.64	4668.28
520.07	4652.98
520.51	4624.59
520.94	4642.06
521.37	4749.10
521.80	4845.22
522.24	4930.42
522.67	5017.80
523.10	4775.32
523.53	4976.29
523.97	5024.35
524.40	5341.10
524.83	5046.20
525.26	5181.63
525.69	5216.59
526.13	5386.98
526.56	5345.47
526.99	5328.00
527.42	5491.83
527.85	5345.47
528.28	5450.33
528.72	5450.33
529.15	5568.29
529.58	5684.07
530.01	5561.74
530.44	5806.40
530.87	5644.75
531.31	5668.78
531.74	5812.95
532.17	5900.33
532.60	6027.04
533.03	5716.84
533.46	5760.53
533.89	5865.38
534.32	5989.90
534.75	6088.20
535.19	5863.20
535.62	6042.33
536.05	6044.51
536.48	6276.07
536.91	6463.94
537.34	6214.90
537.77	6380.92
538.20	6302.28
538.63	6228.01
539.06	6453.01
539.49	6439.91
539.92	6311.02
540.35	6214.90
540.78	6629.96
541.21	6337.23
541.64	6520.73
542.07	6560.05
542.50	6533.84
542.93	6463.94
543.36	6509.81
543.79	6782.87
544.22	6643.06
544.65	6507.63
545.08	6793.80
545.51	6878.99
545.94	6691.12
546.37	6684.57
546.80	6671.46
547.23	6520.73
547.66	6678.02
548.09	6809.09
548.52	6778.50
548.95	6758.84
549.38	6822.19
549.80	6896.47
550.23	7014.43
550.66	6820.01
551.09	6916.13
551.52	7025.35
551.95	6940.16
552.38	7045.01
552.81	6664.91
553.24	6983.85
553.66	7204.48
554.09	6472.67
554.52	6957.63
554.95	6911.76
555.38	7049.38
555.81	6806.90
556.24	7073.41
556.66	7119.29
557.09	7138.95
557.52	6977.29
557.95	6876.81
558.38	6839.67
558.80	6957.63
559.23	6955.45
559.66	6999.14
560.09	7123.65
560.52	7224.14
560.94	6918.31
561.37	6962.00
561.80	7114.92
562.23	7108.36
562.65	6924.87
563.08	7224.14
563.51	7235.06
563.94	7042.83
564.36	7171.71
564.79	7228.51
565.22	7095.26
565.65	7040.64
566.07	6933.60
566.50	7010.06
566.93	6990.40
567.35	7010.06
567.78	6898.65
568.21	6887.73
568.63	7145.50
569.06	7149.87
569.49	6977.29
569.91	6994.77
570.34	7014.43
570.77	6933.60
571.19	6996.95
571.62	6933.60
572.05	6804.72
572.47	6741.37
572.90	6883.36
573.33	6815.64
573.75	6874.62
574.18	6837.49
574.60	6920.50
575.03	6959.82
575.46	6771.95
575.88	6771.95
576.31	6876.81
576.73	6621.22
577.16	6743.55
577.59	6861.51
578.01	6905.20
578.44	6691.12
578.86	6793.80
579.29	7114.92
579.71	6868.07
580.14	6702.05
580.56	6916.13
580.99	6929.23
581.41	6708.60
581.84	6824.38
582.26	6927.05
582.69	7117.10
583.11	6946.71
583.54	6975.11
583.96	7025.35
584.39	7165.16
584.81	7173.90
585.24	7071.23
585.66	7230.70
586.09	7211.03
586.51	7180.45
586.94	7320.26
587.36	7162.98
587.79	7416.38
588.21	7361.76
588.64	7294.05
589.06	7243.80
589.48	7425.12
589.91	7394.53
590.33	7591.14
590.76	7396.72
591.18	7436.04
591.60	7752.79
592.03	7470.99
592.45	7562.74
592.88	7787.74
593.30	7779.00
593.72	7811.77
594.15	7612.98
594.57	7770.27
595.00	7499.39
595.42	7844.54
595.84	7676.33
596.27	7693.81
596.69	7820.51
597.11	7866.38
597.54	7962.50
597.96	8034.59
598.38	8004.01
598.80	7903.52
599.23	8113.23
599.65	8200.61
600.07	7984.35
600.50	8220.27
600.92	8172.21
601.34	8010.56
601.77	8357.90
602.19	8209.35
602.61	8047.70
603.03	8137.26
603.46	8126.34
603.88	8226.83
604.30	8362.27
604.72	8239.93
605.15	8281.44
605.57	8285.81
605.99	8486.78
606.41	8139.45
606.83	8213.72
607.26	8248.67
607.68	8360.08
608.10	8298.92
608.52	8449.65
608.94	8274.89
609.37	8191.88
609.79	8399.40
610.21	8458.38
610.63	8296.73
611.05	8283.62
611.47	8480.23
611.90	8399.40
612.32	8253.04
612.74	8523.92
613.16	8222.46
613.58	8180.95
614.00	8403.77
614.42	8274.89
614.84	8381.93
615.27	8309.84
615.69	8119.79
616.11	8285.81
616.53	8353.53
616.95	8381.93
617.37	8187.51
617.79	8301.10
618.21	8202.80
618.63	8333.87
619.05	8259.59
619.47	8305.47
619.89	8187.51
620.31	8196.24
620.74	7990.90
621.16	8371.00
621.58	8065.17
622.00	8379.74
622.42	8307.65
622.84	8115.42
623.26	7923.18
623.68	8268.33
624.10	8089.20
624.52	7914.44
624.94	8154.74
625.36	8180.95
625.78	8084.83
626.20	7984.35
626.62	7912.26
627.03	7962.50
627.45	7940.66
627.87	7822.69
628.29	7929.74
628.71	7678.52
629.13	7774.64
629.55	7979.98
629.97	7837.99
630.39	7698.18
630.81	7781.19
631.23	7582.40
631.65	7680.70
632.07	7892.60
632.49	7658.86
632.90	7407.64
633.32	7661.04
633.74	7481.91
634.16	7464.44
634.58	7468.81
635.00	7433.85
635.42	7285.31
635.83	7329.00
636.25	7442.59
636.67	7416.38
637.09	7361.76
637.51	7387.98
637.93	7217.59
638.34	7106.18
638.76	7117.10
639.18	6990.40
639.60	7381.43
640.02	7066.86
640.44	7088.70
640.85	6966.37
641.27	7117.10
641.69	6826.56
642.11	7132.39
642.52	6935.79
642.94	6704.23
643.36	6887.73
643.78	6671.46
644.19	6839.67
644.61	6804.72
645.03	6791.61
645.45	6520.73
645.86	6699.86
646.28	6767.58
646.70	6662.72
647.12	6837.49
647.53	6546.95
647.95	6372.19
648.37	6653.99
648.78	6494.52
649.20	6603.74
649.62	6649.62
650.03	6522.92
650.45	6638.70
650.87	6536.02
651.28	6503.26
651.70	6400.58
652.12	6595.01
652.53	6446.46
652.95	6463.94
653.37	6431.17
653.78	6570.98
654.20	6383.11
654.61	6647.43
655.03	6490.15
655.45	6507.63
655.86	6308.84
656.28	6302.28
656.69	6444.28
657.11	6553.50
657.53	6575.34
657.94	6304.47
658.36	6289.18
658.77	6370.00
659.19	6402.77
659.60	6324.13
660.02	6516.36
660.44	6385.29
660.85	6208.35
661.27	6147.18
661.68	6262.96
662.10	6356.90
662.51	6269.52
662.93	6129.71
663.34	6376.56
663.76	6203.98
664.17	6269.51
664.59	6070.73
665.00	6221.46
665.42	6175.58
665.83	6051.06
666.25	6068.54
666.66	6269.52
667.08	6208.35
667.49	6243.30
667.90	6210.53
668.32	6140.63
668.73	6232.38
669.15	6195.24
669.56	6116.60
669.98	6009.56
670.39	6110.05
670.80	6138.44
671.22	6079.46
671.63	6079.46
672.05	6040.14
672.46	6153.74
672.87	6267.33
673.29	5950.58
673.70	6005.19
674.12	6206.16
674.53	5806.40
674.94	5981.16
675.36	5904.70
675.77	6042.33
676.18	5808.59
676.60	5930.92
677.01	5773.63
677.42	6046.70
677.84	6031.40
678.25	5727.76
678.66	5784.56
679.08	5828.25
679.49	5909.07
679.90	5834.80
680.31	5736.50
680.73	5880.67
681.14	5871.94
681.55	5902.52
681.97	5965.87
682.38	5664.41
682.79	5836.98
683.20	5721.21
683.62	5922.18
684.03	5828.25
684.44	5836.98
684.85	5802.03
685.27	5616.35
685.68	5533.34
686.09	5771.45
686.50	5749.60
686.91	5651.30
687.33	5537.71
687.74	5601.06
688.15	5518.05
688.56	5690.62
688.97	5738.68
689.39	5749.60
689.80	5581.40
690.21	5734.31
690.62	5804.22
691.03	5522.42
691.44	5640.38
691.86	5498.39
692.27	5566.11
692.68	5581.40
693.09	5553.00
693.50	5522.42
693.91	5483.09
694.32	5651.30
694.73	5476.54
695.15	5618.53
695.56	5452.51
695.97	5358.58
696.38	5550.81
696.79	5579.21
697.20	5561.74
697.61	5550.81
698.02	5389.16
698.43	5395.72
698.84	5456.88
699.25	5356.39
699.66	5485.28
700.07	5459.07
700.48	5371.69
700.90	5170.71
701.31	5325.81
701.72	5415.38
702.13	5417.56
702.54	5402.27
702.95	5341.10
703.36	5295.23
703.77	5183.82
704.18	5299.60
704.59	5210.03
705.00	5279.94
705.41	5380.42
705.82	5371.69
706.22	5251.54
706.63	5314.89
707.04	5330.18
707.45	5277.75
707.86	5183.82
708.27	5288.67
708.68	5078.96
709.09	5135.76
709.50	5207.85
709.91	5212.22
710.32	5354.21
710.73	5161.97
711.14	5006.87
711.55	5122.65
711.95	5310.52
712.36	5144.50
712.77	5024.35
713.18	5111.73
713.59	5070.22
714.00	5085.52
714.41	5168.53
714.82	5087.70
715.22	5170.71
715.63	5094.25
716.04	4928.23
716.45	5068.04
716.86	4963.18
717.27	5078.96
717.67	5151.05
718.08	5002.50
718.49	5004.69
718.90	5017.80
719.31	5022.17
719.71	4952.26
720.12	4895.46
720.53	4969.74
720.94	4908.57
721.35	4882.36
721.75	4895.46
722.16	4819.01
722.57	4971.92
722.98	4808.08
723.38	4790.61
723.79	4923.86
724.20	4864.88
724.61	4891.10
725.01	4936.97
725.42	4888.91
725.83	4840.85
726.23	4609.30
726.64	4681.38
727.05	4814.64
727.45	4954.45
727.86	4725.07
728.27	4666.09
728.68	4843.04
729.08	4738.18
729.49	4936.97
729.90	4753.47
730.30	4642.06
730.71	4661.72
731.11	4666.09
731.52	4556.87
731.93	4746.92
732.33	4596.19
732.74	4703.23
733.15	4792.79
733.55	4709.78
733.96	4646.43
734.36	4705.41
734.77	4670.46
735.18	4685.75
735.58	4521.92
735.99	4447.64
736.39	4491.33
736.80	4650.80
737.21	4559.05
737.61	4552.50
738.02	4602.74
738.42	4476.04
738.83	4583.08
739.23	4532.84
739.64	4500.07
740.04	4491.33
740.45	4432.35
740.85	4399.58
741.26	4504.44
741.66	4563.42
742.07	4329.68
742.47	4449.83
742.88	4292.54
743.28	4382.11
743.69	4314.39
744.09	4454.20
744.50	4497.89
744.90	4476.04
745.31	4552.50
745.71	4235.75
746.12	4462.93
746.52	4351.52
746.93	4259.78
747.33	4382.11
747.73	4351.52
748.14	4390.84
748.54	4371.18
748.95	4312.20
749.35	4548.13
749.76	4414.87
750.16	4462.93
750.56	4486.96
750.97	4519.73
751.37	4460.75
751.78	4462.93
752.18	4467.30
752.58	4497.89
752.99	4390.84
753.39	4454.20
753.79	4480.41
754.20	4535.02
754.60	4421.43
755.00	4602.74
755.41	4508.81
755.81	4626.77
756.21	4681.38
756.62	4539.39
757.02	4685.75
757.42	4652.99
757.83	4471.67
758.23	4611.48
758.63	4491.33
759.03	4521.92
759.44	4779.69
759.84	4709.78
760.24	4631.14
760.65	4805.90
761.05	4873.62
761.45	4803.72
761.85	4742.55
762.26	4836.48
762.66	4727.26
763.06	5094.25
763.46	4926.05
763.87	4834.30
764.27	4939.15
764.67	5013.43
765.07	5046.20
765.47	5175.08
765.88	5065.86
766.28	5033.09
766.68	5068.04
767.08	5177.26
767.48	5354.21
767.88	5286.49
768.29	5102.99
768.69	5192.56
769.09	5533.34
769.49	5384.79
769.89	5476.54
770.29	5594.50
770.70	5539.89
771.10	5498.39
771.50	5528.97
771.90	5555.18
772.30	5688.44
772.70	5959.32
773.10	5745.24
773.50	5812.95
773.90	5756.16
774.30	6016.11
774.71	6064.17
775.11	5996.45
775.51	6042.33
775.91	6064.17
776.31	6151.55
776.71	6020.48
777.11	6131.89
777.51	6276.07
777.91	6300.10
778.31	6311.02
778.71	6483.60
779.11	6424.61
779.51	6437.72
779.91	6457.38
780.31	6426.80
780.71	6396.22
781.11	6566.61
781.51	6562.24
781.91	6684.57
782.31	6741.37
782.71	6573.16
783.11	6739.18
783.51	6800.35
783.91	6868.07
784.31	6931.42
784.71	6883.36
785.11	6951.08
785.51	6955.45
785.91	6924.87
786.31	7294.05
786.71	7110.55
787.11	7304.97
787.50	7385.79
787.90	7304.97
788.30	7304.97
788.70	7409.82
789.10	7359.58
789.50	7433.85
789.90	7405.46
790.30	7335.55
790.70	7529.97
791.09	7545.26
791.49	7431.67
791.89	7685.07
792.29	7630.46
792.69	7702.55
793.09	7632.64
793.49	7737.50
793.88	7822.69
794.28	7813.96
794.68	7746.24
795.08	7698.18
795.48	7851.09
795.88	7942.84
796.27	7929.74
796.67	7833.62
797.07	8049.88
797.47	8021.48
797.86	8137.26
798.26	8115.42
798.66	7899.15
799.06	8056.44
799.46	8266.15
799.85	8054.25
800.25	8054.25
800.65	8180.95
801.05	8159.11
801.44	8030.22
801.84	8150.37
802.24	8253.04
802.63	8062.99
803.03	8233.38
803.43	8200.61
803.83	8128.52
804.22	8159.11
804.62	8148.18
805.02	8294.55
805.41	8429.99
805.81	8419.06
806.21	8237.75
806.60	8279.26
807.00	8279.26
807.40	8480.23
807.79	8209.35
808.19	8187.51
808.59	8143.82
808.98	8462.75
809.38	8362.27
809.77	8204.98
810.17	8277.07
810.57	8277.07
810.96	8355.71
811.36	8329.50
811.75	8071.73
812.15	8331.68
812.55	8108.86
812.94	8008.38
813.34	8135.08
813.73	7947.21
814.13	8146.00
814.53	8008.38
814.92	8130.71
815.32	7988.72
815.71	8191.88
816.11	8194.06
816.50	8010.56
816.90	8185.32
817.29	7851.09
817.69	7971.24
818.08	7975.61
818.48	7977.79
818.87	8036.78
819.27	7868.57
819.66	8126.34
820.06	7921.00
820.45	7730.95
820.85	7759.34
821.24	7779.00
821.64	7896.97
822.03	7805.22
822.43	7776.82
822.82	7617.35
823.22	7634.83
823.61	7665.41
824.00	7486.28
824.40	7645.75
824.79	7615.17
825.19	7558.37
825.58	7639.20
825.98	7527.79
826.37	7619.54
826.76	7326.81
827.16	7213.22
827.55	7425.12
827.94	7353.03
828.34	7422.93
828.73	7294.05
829.13	7470.99
829.52	7412.01
829.91	7401.09
830.31	7307.15
830.70	7313.71
831.09	7254.72
831.49	6962.00
831.88	6977.29
832.27	7123.65
832.67	7003.51
833.06	7025.35
833.45	7047.20
833.85	6968.55
834.24	6913.94
834.63	6944.53
835.02	6951.08
835.42	6905.20
835.81	6791.61
836.20	6896.47
836.60	6933.60
836.99	6756.66
837.38	6854.96
837.77	6778.50
838.17	6726.08
838.56	6632.14
838.95	6743.55
839.34	6662.72
839.74	6702.05
840.13	6815.64
840.52	6671.46
840.91	6367.82
841.30	6557.87
841.70	6623.40
842.09	6494.52
842.48	6389.66
842.87	6374.37
843.26	6389.66
843.66	6308.84
844.05	6448.64
844.44	6330.68
844.83	6278.25
845.22	6145.00
845.61	6212.72
846.00	6230.19
846.40	6424.61
846.79	6236.75
847.18	6094.76
847.57	6265.15
847.96	6190.87
848.35	5996.45
848.74	6070.73
849.13	6147.18
849.53	6055.43
849.92	5815.14
850.31	6138.44
850.70	5948.39
851.09	5852.28
851.48	5978.98
851.87	5655.67
852.26	5874.12
852.65	5954.95
853.04	5928.73
853.43	5745.24
853.82	5732.13
854.21	5810.77
854.60	5721.21
854.99	5611.98
855.38	5736.50
855.77	5782.37
856.16	5633.83
856.55	5596.69
856.94	5566.11
857.33	5603.24
857.72	5662.22
858.11	5352.03
858.50	5334.55
858.89	5478.73
859.28	5251.54
859.67	5400.08
860.06	5186.00
860.45	5345.47
860.84	5343.29
861.23	5321.44
861.62	5323.63
862.01	5218.77
862.40	5314.89
862.79	5144.50
863.18	5236.25
863.57	5234.06
863.95	5172.90
864.34	5164.16
864.73	5065.86
865.12	5050.56
865.51	5087.70
865.90	4969.74
866.29	4934.79
866.68	5044.01
867.06	4825.56
867.45	5098.62
867.84	4897.65
868.23	4969.74
868.62	4893.28
869.01	4764.39
869.40	4794.98
869.78	4834.30
870.17	4843.04
870.56	4832.11
870.95	4814.64
871.34	4862.70
871.72	4725.07
872.11	4618.03
872.50	4744.73
872.89	4672.65
873.28	4755.66
873.66	4613.66
874.05	4569.97
874.44	4740.36
874.83	4655.17
875.21	4618.03
875.60	4438.90
875.99	4650.80
876.38	4535.02
876.76	4495.70
877.15	4515.36
877.54	4443.27
877.92	4349.34
878.31	4307.83
878.70	4403.95
879.09	4338.42
879.47	4375.55
879.86	4379.92
880.25	4393.03
880.63	4290.36
881.02	4412.69
881.41	4327.49
881.79	4353.71
882.18	4213.90
882.57	4248.85
882.95	4434.54
883.34	4021.66
883.73	4213.90
884.11	4119.97
884.50	4235.75
884.88	4126.52
885.27	4200.79
885.66	4087.20
886.04	4039.14
886.43	4117.78
886.81	4050.06
887.20	4148.37
887.59	3932.10
887.97	3953.94
888.36	4015.11
888.74	3997.64
889.13	3932.10
889.52	3886.23
889.90	3999.82
890.29	3988.90
890.67	3912.44
891.06	4026.03
891.44	4109.04
891.83	3997.63
892.21	4109.04
892.60	4056.62
892.98	4028.22
893.37	4063.17
893.75	4087.20
894.14	3925.55
894.52	4026.03
894.91	4106.86
895.29	4054.43
895.68	4045.69
896.06	4012.93
896.45	4100.31
896.83	3949.58
897.22	3991.08
897.60	4126.52
897.98	4109.04
898.37	4172.40
898.75	3988.90
899.14	4043.51
899.52	3945.21
899.91	3977.97
900.29	4093.75
900.67	4109.04
901.06	3973.61
901.44	4078.46
901.83	3918.99
902.21	4004.19
902.59	4152.73
902.98	3940.84
903.36	3977.97
903.75	4159.29
904.13	4150.55
904.51	4039.14
904.90	4080.65
905.28	4012.93
905.66	4074.09
906.05	4023.85
906.43	4052.25
906.81	4161.47
907.20	4111.23
907.58	3975.79
907.96	3975.79
908.35	4043.51
908.73	3940.84
909.11	3781.37
909.49	4034.77
909.88	3886.23
910.26	3785.74
910.64	3700.54
911.02	3888.41
911.41	3816.32
911.79	3678.70
912.17	3860.01
912.55	3770.45
912.94	3805.40
913.32	3785.74
913.70	3613.16
914.08	3746.42
914.47	3602.24
914.85	3755.16
915.23	3641.56
915.61	3648.12
915.99	3650.30
916.38	3687.44
916.76	3523.60
917.14	3532.34
917.52	3560.73
917.90	3379.42
918.29	3324.81
918.67	3399.08
919.05	3355.39
919.43	3385.98
919.81	3250.54
920.19	3209.03
920.57	3289.86
920.96	3206.85
921.34	3093.25
921.72	3115.10
922.10	3029.90
922.48	2984.03
922.86	2885.72
923.24	2885.72
923.62	2914.12
924.00	2818.00
924.39	2820.19
924.77	2852.96
925.15	2702.23
925.53	2754.65
925.91	2724.07
926.29	2547.13
926.67	2453.19
927.05	2623.58
927.43	2523.10
927.81	2455.38
928.19	2509.99
928.57	2529.65
928.95	2479.41
929.33	2376.74
929.71	2374.55
930.09	2322.12
930.47	2132.07
930.85	2173.58
931.23	2258.77
931.61	1966.05
931.99	1987.90
932.37	2088.38
932.75	2011.92
933.13	2051.25
933.51	2070.91
933.89	1896.15
934.27	1839.35
934.65	1889.59
935.03	1723.57
935.41	1845.90
935.79	1767.26
936.17	1865.56
936.54	1863.38
936.92	1730.12
937.30	1699.54
937.68	1708.28
938.06	1745.42
938.44	1666.77
938.82	1741.05
939.20	1660.22
939.58	1568.47
939.95	1568.47
940.33	1568.47
940.71	1542.26
941.09	1478.91
941.47	1620.90
941.85	1454.88
942.23	1483.28
942.60	1424.29
942.98	1441.77
943.36	1350.02
943.74	1435.22
944.12	1443.95
944.50	1400.26
944.87	1301.96
945.25	1433.03
945.63	1463.62
946.01	1253.90
946.38	1321.62
946.76	1295.41
947.14	1317.25
947.52	1253.90
947.90	1310.70
948.27	1317.25
948.65	1334.73
949.03	1262.64
949.41	1197.11
949.78	1212.40
950.16	1229.87
950.54	1258.27
950.91	1262.64
951.29	1223.32
951.67	1205.84
952.05	1269.19
952.42	1221.14
952.80	1236.43
953.18	1267.01
953.55	1188.37
953.93	1192.74
954.31	1273.56
954.68	1277.93
955.06	1133.76
955.44	1260.46
955.81	1229.87
956.19	1205.84
956.57	1251.72
956.94	1122.83
957.32	1153.42
957.69	1107.54
958.07	1232.06
958.45	1238.61
958.82	1092.25
959.20	1229.87
959.58	1240.80
959.95	1280.12
960.33	1225.50
960.70	1035.45
961.08	1216.77
961.45	1201.48
961.83	1072.59
962.21	1205.84
962.58	1133.76
962.96	1149.05
963.33	1262.64
963.71	1197.11
964.08	1120.65
964.46	1125.02
964.83	1306.33
965.21	1157.78
965.58	1177.45
965.96	1162.15
966.33	1083.51
966.71	1151.23
967.08	1151.23
967.46	1120.65
967.83	1125.02
968.21	1059.48
968.58	1017.98
968.96	1109.73
969.33	1066.04
969.71	1098.80
970.08	1002.69
970.46	1186.18
970.83	1164.34
971.20	1042.01
971.58	1011.42
971.95	1122.83
972.33	954.63
972.70	1092.25
973.08	1057.30
973.45	1100.99
973.82	1131.57
974.20	1149.05
974.57	1042.01
974.95	1061.67
975.32	1173.08
975.69	952.44
976.07	932.78
976.44	937.15
976.81	1050.74
977.19	1004.87
977.56	1035.45
977.93	952.44
978.31	1052.93
978.68	989.58
979.05	1002.69
979.43	1057.30
979.80	1076.96
980.17	993.95
980.55	937.15
980.92	1033.27
981.29	959.00
981.67	950.26
982.04	906.57
982.41	1083.51
982.78	963.36
983.16	972.10
983.53	921.86
983.90	869.43
984.27	928.41
984.65	910.94
985.02	843.22
985.39	906.57
985.76	917.49
986.14	924.04
986.51	884.72
986.88	902.20
987.25	937.15
987.63	775.50
988.00	764.58
988.37	812.63
988.74	799.53
989.11	891.28
989.48	738.36
989.86	827.93
990.23	847.59
990.60	775.50
990.97	795.16
991.34	954.63
991.71	832.29
992.09	744.91
992.46	797.34
992.83	747.10
993.20	712.15
993.57	738.36
993.94	751.47
994.31	714.33
994.68	784.24
995.06	723.07
995.43	751.47
995.80	751.47
996.17	688.12
996.54	749.28
996.91	688.12
997.28	668.46
997.65	646.61
998.02	655.35
998.39	585.45
998.76	738.36
999.13	661.90
999.50	592.00
999.87	609.48
1000.24	624.77
1000.61	629.14
1000.99	581.08
1001.36	618.21
1001.73	594.18
1002.10	489.33
1002.47	637.87
1002.84	611.66
1003.21	664.09
1003.57	653.17
1003.94	548.31
1004.31	576.71
1004.68	570.15
1005.05	572.34
1005.42	561.42
1005.79	460.93
1006.16	530.83
1006.53	554.86
1006.90	504.62
1007.27	565.79
1007.64	607.29
1008.01	543.94
1008.38	635.69
1008.75	467.48
1009.12	541.76
1009.49	513.36
1009.85	458.74
1010.22	546.12
1010.59	480.59
1010.96	408.50
1011.33	498.07
1011.70	478.41
1012.07	456.56
1012.44	460.93
1012.80	441.27
1013.17	434.72
1013.54	406.32
1013.91	436.90
1014.28	447.82
1014.65	360.44
1015.01	469.67
1015.38	391.03
1015.75	504.62
1016.12	342.97
1016.49	406.32
1016.85	336.41
1017.22	445.64
1017.59	349.52
1017.96	467.48
1018.33	353.89
1018.69	318.94
1019.06	312.38
1019.43	373.55
1019.80	404.13
1020.16	360.44
1020.53	375.73
1020.90	401.95
1021.27	253.40
1021.63	268.69
1022.00	380.10
1022.37	406.32
1022.73	351.70
1023.10	325.49
1023.47	325.49
1023.84	336.41
1024.20	415.06
1024.57	436.90
1024.94	397.58
1025.30	369.18
1025.67	340.78
1026.04	353.89
1026.40	305.83
1026.77	281.80
1027.14	410.69
1027.50	253.40
1027.87	262.14
1028.23	290.54
1028.60	362.63
1028.97	255.59
1029.33	345.15
1029.70	238.11
1030.07	238.11
1030.43	364.81
1030.80	286.17
1031.16	235.93
1031.53	266.51
1031.89	294.91
1032.26	216.27
1032.63	277.43
1032.99	233.74
1033.36	262.14
1033.72	227.19
1034.09	179.13
1034.45	214.08
1034.82	185.68
1035.18	312.38
1035.55	225.00
1035.92	275.25
1036.28	301.46
1036.65	120.15
1037.01	179.13
1037.38	246.85
1037.74	314.57
1038.11	190.05
1038.47	255.59
1038.84	214.08
1039.20	233.74
1039.56	141.99
1039.93	249.03
1040.29	218.45
1040.66	218.45
1041.02	218.45
