185.59	-17.48
186.06	-17.48
186.53	-17.48
187.00	-6.55
187.48	-58.98
187.95	-50.24
188.42	26.21
188.89	-148.55
189.36	-87.38
189.83	-34.95
190.30	6.55
190.77	-45.87
191.24	6.55
191.71	-63.35
192.18	30.58
192.65	-26.21
193.13	-63.35
193.60	-63.35
194.07	-10.92
194.54	56.80
195.01	-45.87
195.48	-8.74
195.95	24.03
196.42	4.37
196.89	63.35
197.36	32.77
197.83	109.22
198.30	17.48
198.77	61.17
199.24	-4.37
199.71	-8.74
200.18	-2.18
200.65	-21.84
201.12	-13.11
201.59	-6.55
202.05	-10.92
202.52	21.85
202.99	56.80
203.46	-80.83
203.93	13.11
204.40	4.37
204.87	61.17
205.34	-17.48
205.81	-17.48
206.28	-26.21
206.75	104.86
207.22	8.74
207.69	26.21
208.15	56.80
208.62	-32.77
209.09	39.32
209.56	-19.66
210.03	56.80
210.50	0.00
210.97	34.95
211.43	-30.58
211.90	-2.18
212.37	-74.27
212.84	50.24
213.31	6.55
213.78	10.92
214.24	4.37
214.71	37.14
215.18	-48.06
215.65	61.17
216.12	78.64
216.58	-6.55
217.05	-24.03
217.52	-67.72
217.99	19.66
218.46	-65.54
218.92	4.37
219.39	-78.64
219.86	56.80
220.33	-8.74
220.79	-8.74
221.26	-41.51
221.73	-48.06
222.19	10.92
222.66	-34.95
223.13	-65.53
223.60	0.00
224.06	6.55
224.53	34.95
225.00	37.14
225.46	89.56
225.93	-2.18
226.40	28.40
226.86	39.32
227.33	39.32
227.80	-34.95
228.26	28.40
228.73	67.72
229.20	-37.14
229.66	56.80
230.13	89.56
230.60	-30.58
231.06	39.32
231.53	48.06
232.00	17.48
232.46	-10.92
232.93	17.48
233.39	32.77
233.86	41.51
234.33	-21.84
234.79	-10.92
235.26	52.43
235.72	-32.77
236.19	-32.77
236.65	52.43
237.12	30.58
237.59	0.00
238.05	124.52
238.52	67.72
238.98	0.00
239.45	155.10
239.91	63.35
240.38	-10.92
240.84	0.00
241.31	43.69
241.77	67.72
242.24	-24.03
242.70	-24.03
243.17	-6.55
243.63	-26.21
244.10	-43.69
244.56	-52.43
245.03	-24.03
245.49	-21.85
245.96	-21.85
246.42	-19.66
246.89	8.74
247.35	13.11
247.81	-54.61
248.28	15.29
248.74	67.72
249.21	43.69
249.67	2.18
250.14	-15.29
250.60	-8.74
251.06	34.95
251.53	-32.77
251.99	-34.95
252.46	32.77
252.92	34.95
253.38	21.85
253.85	-52.43
254.31	0.00
254.77	-50.24
255.24	157.28
255.70	28.40
256.16	19.66
256.63	-37.14
257.09	-69.90
257.55	-41.51
258.02	-48.06
258.48	37.14
258.94	-61.17
259.41	-8.74
259.87	43.69
260.33	-45.87
260.80	-107.04
261.26	15.29
261.72	21.85
262.18	-63.35
262.65	-6.55
263.11	98.30
263.57	-80.83
264.04	-17.48
264.50	-52.43
264.96	-37.14
265.42	10.92
265.88	21.85
266.35	72.09
266.81	32.77
267.27	34.95
267.73	41.51
268.20	0.00
268.66	-4.37
269.12	-10.92
269.58	-37.14
270.04	13.11
270.51	-2.18
270.97	-39.32
271.43	-30.58
271.89	-26.21
272.35	21.84
272.81	-32.77
273.28	-24.03
273.74	-28.40
274.20	-43.69
274.66	-17.48
275.12	4.37
275.58	13.11
276.04	48.06
276.50	-2.18
276.97	-100.49
277.43	17.48
277.89	-13.11
278.35	10.92
278.81	-74.27
279.27	115.78
279.73	-21.85
280.19	28.40
280.65	45.87
281.11	-34.95
281.57	19.66
282.03	26.21
282.50	41.51
282.96	76.46
283.42	30.58
283.88	2.18
284.34	39.32
284.80	78.64
285.26	-10.92
285.72	-24.03
286.18	-4.37
286.64	-10.92
287.10	10.92
287.56	-56.80
288.02	-17.48
288.48	-72.09
288.94	-58.98
289.40	32.77
289.86	61.17
290.32	-26.21
290.78	-6.55
291.23	-10.92
291.69	37.14
292.15	-37.14
292.61	26.21
293.07	41.51
293.53	-2.18
293.99	15.29
294.45	-13.11
294.91	-85.20
295.37	-21.84
295.83	21.85
296.29	32.77
296.74	87.38
297.20	54.61
297.66	8.74
298.12	0.00
298.58	-24.03
299.04	10.92
299.50	-26.21
299.95	-50.24
300.41	109.22
300.87	74.27
301.33	-21.84
301.79	-43.69
302.25	45.87
302.70	32.77
303.16	-24.03
303.62	-26.21
304.08	-41.51
304.54	50.24
305.00	45.87
305.45	157.28
305.91	-65.53
306.37	-32.77
306.83	-13.11
307.28	34.95
307.74	-58.98
308.20	-28.40
308.66	-8.74
309.11	-28.40
309.57	17.48
310.03	-15.29
310.49	-104.86
310.94	13.11
311.40	43.69
311.86	-2.18
312.31	-17.48
312.77	13.11
313.23	32.77
313.69	-6.55
314.14	2.18
314.60	58.98
315.06	-32.77
315.51	34.95
315.97	32.77
316.43	-72.09
316.88	-30.58
317.34	2.18
317.80	45.87
318.25	-65.53
318.71	-45.87
319.16	-8.74
319.62	-8.74
320.08	26.21
320.53	52.43
320.99	50.24
321.45	30.58
321.90	10.92
322.36	6.55
322.81	6.55
323.27	2.18
323.73	-15.29
324.18	78.64
324.64	-15.29
325.09	-96.12
325.55	17.48
326.00	-28.40
326.46	30.58
326.91	-26.21
327.37	-80.83
327.82	34.95
328.28	67.72
328.74	-26.21
329.19	17.48
329.65	-34.95
330.10	-41.51
330.56	45.87
331.01	32.77
331.47	-4.37
331.92	0.00
332.38	98.30
332.83	26.21
333.28	32.77
333.74	-10.92
334.19	-30.58
334.65	28.40
335.10	-72.09
335.56	10.92
336.01	13.11
336.47	-78.64
336.92	26.21
337.37	8.74
337.83	10.92
338.28	19.66
338.74	21.85
339.19	-4.37
339.64	8.74
340.10	-63.35
340.55	-6.55
341.01	0.00
341.46	74.27
341.91	17.48
342.37	115.78
342.82	-15.29
343.27	2.18
343.73	-2.18
344.18	-17.48
344.63	78.64
345.09	13.11
345.54	37.14
345.99	2.18
346.45	6.55
346.90	-4.37
347.35	21.85
347.81	21.85
348.26	-19.66
348.71	-28.40
349.17	54.61
349.62	-15.29
350.07	-2.18
350.52	6.55
350.98	113.59
351.43	41.51
351.88	4.37
352.33	100.49
352.79	63.35
353.24	-56.80
353.69	56.80
354.14	85.20
354.60	54.61
355.05	24.03
355.50	52.43
355.95	43.69
356.40	74.27
356.86	61.17
357.31	93.93
357.76	50.24
358.21	-52.43
358.66	34.95
359.12	-19.66
359.57	30.58
360.02	61.17
360.47	41.51
360.92	28.40
361.37	-48.06
361.82	21.85
362.28	-54.61
362.73	19.66
363.18	-19.66
363.63	45.87
364.08	19.66
364.53	-13.11
364.98	4.37
365.43	28.40
365.89	63.35
366.34	-2.18
366.79	32.77
367.24	24.03
367.69	74.27
368.14	48.06
368.59	141.99
369.04	-15.29
369.49	69.90
369.94	58.98
370.39	41.51
370.84	10.92
371.29	137.62
371.74	78.64
372.19	-41.51
372.64	-6.55
373.09	61.17
373.54	67.72
373.99	87.38
374.44	45.87
374.89	122.33
375.34	26.21
375.79	72.09
376.24	65.53
376.69	109.23
377.14	133.25
377.59	32.77
378.04	-8.74
378.49	-4.37
378.94	61.17
379.39	52.43
379.84	91.75
380.29	65.54
380.74	34.95
381.19	65.53
381.63	15.29
382.08	87.38
382.53	100.49
382.98	155.10
383.43	109.23
383.88	78.64
384.33	0.00
384.78	56.80
385.23	98.30
385.67	76.46
386.12	65.54
386.57	-4.37
387.02	78.64
387.47	126.70
387.92	-15.29
388.37	124.52
388.81	65.53
389.26	163.84
389.71	63.35
390.16	89.56
390.61	87.38
391.05	166.02
391.50	139.81
391.95	122.33
392.40	144.18
392.85	67.72
393.29	148.55
393.74	148.55
394.19	91.75
394.64	61.17
395.08	58.98
395.53	43.69
395.98	50.24
396.43	41.51
396.87	126.70
397.32	122.33
397.77	139.81
398.22	170.39
398.66	104.86
399.11	146.36
399.56	137.62
400.00	39.32
400.45	144.18
400.90	155.10
401.34	78.64
401.79	61.17
402.24	93.93
402.68	85.20
403.13	80.83
403.58	107.04
404.02	113.59
404.47	133.25
404.92	65.53
405.36	87.38
405.81	91.75
406.26	133.25
406.70	85.20
407.15	67.72
407.59	161.65
408.04	43.69
408.49	135.44
408.93	83.01
409.38	100.49
409.82	69.90
410.27	78.64
410.71	39.32
411.16	98.30
411.61	98.30
412.05	115.78
412.50	111.41
412.94	120.15
413.39	135.44
413.83	4.37
414.28	43.69
414.72	0.00
415.17	96.12
415.61	69.90
416.06	157.28
416.50	161.65
416.95	45.87
417.39	161.65
417.84	181.31
418.28	50.24
418.73	148.55
419.17	166.02
419.62	-13.11
420.06	115.78
420.51	115.78
420.95	155.10
421.40	137.62
421.84	96.12
422.29	107.04
422.73	172.58
423.17	100.49
423.62	174.76
424.06	185.68
424.51	152.92
424.95	74.27
425.39	89.56
425.84	34.95
426.28	109.23
426.73	78.64
427.17	100.49
427.61	115.78
428.06	124.52
428.50	141.99
428.94	150.73
429.39	166.02
429.83	72.09
430.27	205.34
430.72	85.20
431.16	117.96
431.60	34.95
432.05	146.36
432.49	161.65
432.93	157.28
433.38	78.64
433.82	166.02
434.26	100.49
434.71	74.27
435.15	111.41
435.59	91.75
436.03	159.47
436.48	135.44
436.92	135.44
437.36	170.39
437.80	231.56
438.25	190.05
438.69	240.29
439.13	262.14
439.57	168.21
440.02	141.99
440.46	229.37
440.90	190.05
441.34	133.25
441.79	185.68
442.23	187.87
442.67	207.53
443.11	242.48
443.55	192.24
443.99	216.27
444.44	299.28
444.88	179.13
445.32	277.43
445.76	216.27
446.20	360.44
446.64	242.48
447.09	253.40
447.53	163.84
447.97	273.06
448.41	238.11
448.85	349.52
449.29	325.49
449.73	268.69
450.17	364.81
450.62	251.22
451.06	367.00
451.50	318.94
451.94	380.10
452.38	273.06
452.82	240.29
453.26	377.92
453.70	338.60
454.14	351.70
454.58	417.24
455.02	351.70
455.46	249.03
455.90	377.92
456.34	303.65
456.78	377.92
457.22	384.47
457.66	419.42
458.10	452.19
458.54	439.08
458.98	450.01
459.42	445.64
459.86	469.67
460.30	506.80
460.74	430.35
461.18	404.13
461.62	500.25
462.06	443.45
462.50	452.19
462.94	463.11
463.38	500.25
463.82	447.82
464.26	445.64
464.70	546.13
465.14	537.39
465.58	607.29
466.02	613.84
466.46	565.79
466.90	616.03
467.34	618.21
467.77	602.92
468.21	666.27
468.65	707.78
469.09	642.24
469.53	642.24
469.97	692.49
470.41	581.08
470.85	585.45
471.28	637.87
471.72	692.49
472.16	694.67
472.60	664.09
473.04	731.81
473.48	782.05
473.91	810.45
474.35	701.22
474.79	657.53
475.23	806.08
475.67	873.80
476.11	764.58
476.54	854.14
476.98	880.35
477.42	906.57
477.86	900.01
478.29	865.06
478.73	895.64
479.17	847.59
479.61	777.68
480.04	694.67
480.48	932.78
480.92	930.60
481.36	943.70
481.79	950.26
482.23	932.78
482.67	967.73
483.11	1094.43
483.54	1044.19
483.98	1074.77
484.42	1042.01
484.85	1076.96
485.29	1125.02
485.73	1087.88
486.16	1081.33
486.60	1146.86
487.04	1184.00
487.47	1138.12
487.91	1245.16
488.35	1159.97
488.78	1103.17
489.22	1199.29
489.66	1249.53
490.09	1253.90
490.53	1286.67
490.97	1419.93
491.40	1277.93
491.84	1291.04
492.27	1398.08
492.71	1306.33
493.15	1406.82
493.58	1319.44
494.02	1419.92
494.45	1441.77
494.89	1509.49
495.32	1516.04
495.76	1463.62
496.20	1459.25
496.63	1463.62
497.07	1537.89
497.50	1520.41
497.94	1533.52
498.37	1708.28
498.81	1636.19
499.24	1623.08
499.68	1668.96
500.11	1784.74
500.55	1616.53
500.98	1686.43
501.42	1758.52
501.85	1727.94
502.29	1789.11
502.72	1789.11
503.16	1832.80
503.59	1804.40
504.03	1966.05
504.46	1876.49
504.90	1861.19
505.33	1861.19
505.77	1893.96
506.20	1865.56
506.63	2110.23
507.07	1904.88
507.50	1972.60
507.94	2014.11
508.37	2066.54
508.81	2003.19
509.24	1981.34
509.67	2129.89
510.11	2114.60
510.54	2112.41
510.98	2112.41
511.41	2221.64
511.84	2208.53
512.28	2208.53
512.71	2228.19
513.14	2212.90
513.58	2184.50
514.01	2197.61
514.44	2160.47
514.88	2038.14
515.31	2138.63
515.74	2169.21
516.18	2084.01
516.61	2040.32
517.04	2022.85
517.48	1939.84
517.91	2121.15
518.34	2046.88
518.77	1933.28
519.21	2009.74
519.64	2153.92
520.07	2003.19
520.51	1876.49
520.94	1795.66
521.37	1994.45
521.80	2014.11
522.24	1896.15
522.67	2027.22
523.10	1885.22
523.53	1924.54
523.97	1931.10
524.40	2003.19
524.83	1837.16
525.26	1830.61
525.69	1745.42
526.13	1937.65
526.56	1874.30
526.99	1736.68
527.42	1996.63
527.85	1806.58
528.28	1808.77
528.72	1856.83
529.15	1865.56
529.58	1843.72
530.01	1780.37
530.44	1987.90
530.87	1806.58
531.31	1898.33
531.74	1898.33
532.17	1824.06
532.60	1861.19
533.03	1717.02
533.46	1664.59
533.89	1697.36
534.32	1723.57
534.75	1859.01
535.19	1837.16
535.62	1692.99
536.05	1837.16
536.48	1821.87
536.91	1854.64
537.34	1760.71
537.77	1771.63
538.20	1830.61
538.63	1889.59
539.06	1913.62
539.49	1795.66
539.92	1826.24
540.35	1747.60
540.78	1743.23
541.21	1773.81
541.64	1856.82
542.07	1815.32
542.50	1909.25
542.93	1751.97
543.36	1778.18
543.79	1900.51
544.22	1832.80
544.65	1911.44
545.08	1786.92
545.51	2027.22
545.94	1998.82
546.37	2031.58
546.80	2059.98
547.23	1972.60
547.66	1893.96
548.09	2134.26
548.52	2055.61
548.95	1992.26
549.38	2081.83
549.80	2055.61
550.23	2031.59
550.66	2201.98
551.09	2118.96
551.52	2127.70
551.95	2142.99
552.38	2156.10
552.81	2070.91
553.24	2199.79
553.66	2175.76
554.09	1531.33
554.52	2328.68
554.95	2256.59
555.38	2359.26
555.81	2173.58
556.24	2300.28
556.66	2265.33
557.09	2400.77
557.52	2378.92
557.95	2372.37
558.38	2315.57
558.80	2405.13
559.23	2298.09
559.66	2490.33
560.09	2512.18
560.52	2676.01
560.94	2348.34
561.37	2558.05
561.80	2512.18
562.23	2448.82
562.65	2448.82
563.08	2542.76
563.51	2654.17
563.94	2586.45
564.36	2625.77
564.79	2737.18
565.22	2765.58
565.65	2765.58
566.07	2638.88
566.50	2717.52
566.93	2918.49
567.35	2728.44
567.78	2833.30
568.21	2796.16
568.63	3023.35
569.06	2855.14
569.49	2903.20
569.91	2997.13
570.34	3018.98
570.77	3084.51
571.19	3067.04
571.62	3018.98
572.05	3139.13
572.47	3147.86
572.90	3112.91
573.33	3313.89
573.75	3086.70
574.18	3344.47
574.60	3379.42
575.03	3320.44
575.46	3259.27
575.88	3425.30
576.31	3466.80
576.73	3412.19
577.16	3337.92
577.59	3449.33
578.01	3536.71
578.44	3405.64
578.86	3493.02
579.29	3525.78
579.71	3394.71
580.14	3464.62
580.56	3534.52
580.99	3473.36
581.41	3383.79
581.84	3434.03
582.26	3278.93
582.69	3348.84
583.11	3313.89
583.54	3361.95
583.96	3514.86
584.39	3250.54
584.81	3300.78
585.24	3385.98
585.66	3191.55
586.09	3182.82
586.51	3250.54
586.94	3141.31
587.36	3014.61
587.79	3060.48
588.21	3134.76
588.64	3091.07
589.06	3016.79
589.48	3097.62
589.91	2975.29
590.33	2966.55
590.76	2881.36
591.18	2922.86
591.60	3045.19
592.03	3045.19
592.45	2892.28
592.88	3053.93
593.30	2824.56
593.72	2848.59
594.15	2804.90
594.57	2833.30
595.00	2848.59
595.42	2748.10
595.84	2813.64
596.27	2866.06
596.69	2717.52
597.11	2826.74
597.54	2846.40
597.96	2898.83
598.38	2756.84
598.80	2654.17
599.23	2820.19
599.65	2818.00
600.07	2566.79
600.50	2693.49
600.92	2957.81
601.34	2630.14
601.77	2706.60
602.19	2579.89
602.61	2693.49
603.03	2726.26
603.46	2619.22
603.88	2597.37
604.30	2568.97
604.72	2485.96
605.15	2608.29
605.57	2745.92
605.99	2551.50
606.41	2577.71
606.83	2549.31
607.26	2464.12
607.68	2654.17
608.10	2433.53
608.52	2708.78
608.94	2643.25
609.37	2582.08
609.79	2514.36
610.21	2595.19
610.63	2586.45
611.05	2588.63
611.47	2619.22
611.90	2641.06
612.32	2676.01
612.74	2671.64
613.16	2566.79
613.58	2645.43
614.00	2593.00
614.42	2697.86
614.84	2702.23
615.27	2662.91
615.69	2593.00
616.11	2809.27
616.53	2702.23
616.95	2809.27
617.37	2925.05
617.79	2894.46
618.21	2935.97
618.63	2942.52
619.05	2931.60
619.47	2826.74
619.89	2914.12
620.31	2732.81
620.74	2737.18
621.16	2719.70
621.58	3016.79
622.00	2918.49
622.42	2863.88
622.84	2955.63
623.26	2940.34
623.68	2857.33
624.10	3053.93
624.52	2732.81
624.94	3003.69
625.36	3038.64
625.78	3023.35
626.20	3027.72
626.62	3005.87
627.03	3056.12
627.45	3049.56
627.87	3139.13
628.29	3119.47
628.71	2973.10
629.13	3097.62
629.55	3233.06
629.97	3117.28
630.39	3141.31
630.81	3005.87
631.23	3154.42
631.65	3289.86
632.07	3324.81
632.49	3243.98
632.90	3287.67
633.32	3178.45
633.74	3095.44
634.16	3257.09
634.58	3359.76
635.00	3434.03
635.42	3346.65
635.83	3316.07
636.25	3447.14
636.67	3326.99
637.09	3340.10
637.51	3440.59
637.93	3488.65
638.34	3545.44
638.76	3615.35
639.18	3493.02
639.60	3560.73
640.02	3552.00
640.44	3641.56
640.85	3768.26
641.27	3685.25
641.69	3687.44
642.11	3870.93
642.52	3899.33
642.94	3901.52
643.36	4021.66
643.78	3886.23
644.19	4050.06
644.61	3971.42
645.03	3908.07
645.45	3995.45
645.86	3947.39
646.28	4006.37
646.70	4045.69
647.12	3936.47
647.53	4146.18
647.95	3975.79
648.37	4168.03
648.78	3873.12
649.20	4050.06
649.62	4299.10
650.03	4010.74
650.45	4227.01
650.87	4063.17
651.28	4181.13
651.70	4017.30
652.12	4137.44
652.53	4019.48
652.95	4189.87
653.37	4174.58
653.78	4065.35
654.20	4113.41
654.61	4192.06
655.03	4067.54
655.45	4109.04
655.86	4102.49
656.28	4093.75
656.69	4185.50
657.11	4255.41
657.53	4178.95
657.94	4085.02
658.36	4063.17
658.77	4130.89
659.19	4119.97
659.60	4017.30
660.02	3951.76
660.44	4301.28
660.85	4137.44
661.27	4056.62
661.68	4113.41
662.10	4246.67
662.51	4237.93
662.93	4089.38
663.34	4196.42
663.76	4069.72
664.17	4102.49
664.59	4135.26
665.00	4054.43
665.42	4202.98
665.83	4082.83
666.25	4133.07
666.66	4115.60
667.08	3986.71
667.49	3967.05
667.90	4002.00
668.32	4069.72
668.73	4032.59
669.15	4087.20
669.56	4060.99
669.98	4124.34
670.39	4010.74
670.80	4045.69
671.22	4067.54
671.63	4126.52
672.05	3964.87
672.46	3934.28
672.87	4019.48
673.29	4196.42
673.70	4004.19
674.12	4043.51
674.53	3938.65
674.94	4113.41
675.36	3851.27
675.77	3890.59
676.18	4017.30
676.60	3860.01
677.01	3903.70
677.42	4008.56
677.84	3914.62
678.25	4058.80
678.66	4047.88
679.08	4004.19
679.49	4010.74
679.90	4010.74
680.31	3925.55
680.73	3862.20
681.14	3949.58
681.55	4017.30
681.97	4067.54
682.38	3846.90
682.79	4071.91
683.20	3943.02
683.62	3929.92
684.03	4056.62
684.44	3910.26
684.85	4036.96
685.27	3833.80
685.68	3905.89
686.09	3842.54
686.50	3940.84
686.91	3960.50
687.33	3809.77
687.74	3905.89
688.15	3818.51
688.56	3879.67
688.97	3888.41
689.39	3838.17
689.80	3844.72
690.21	3877.49
690.62	3916.81
691.03	3781.37
691.44	3715.83
691.86	3798.85
692.27	3737.68
692.68	3790.11
693.09	3820.69
693.50	3726.76
693.91	3853.46
694.32	3787.92
694.73	3873.12
695.15	3792.29
695.56	3790.11
695.97	3665.59
696.38	3752.97
696.79	3600.06
697.20	3711.47
697.61	3825.06
698.02	3801.03
698.43	3794.48
698.84	3790.11
699.25	3713.65
699.66	3722.39
700.07	3761.71
700.48	3645.93
700.90	3600.06
701.31	3645.93
701.72	3645.93
702.13	3617.53
702.54	3768.26
702.95	3635.01
703.36	3720.20
703.77	3621.90
704.18	3693.99
704.59	3617.53
705.00	3722.39
705.41	3554.18
705.82	3630.64
706.22	3604.42
706.63	3742.05
707.04	3630.64
707.45	3645.93
707.86	3604.42
708.27	3466.80
708.68	3471.17
709.09	3547.63
709.50	3608.79
709.91	3488.65
710.32	3685.25
710.73	3558.55
711.14	3589.13
711.55	3484.28
711.95	3593.50
712.36	3591.32
712.77	3600.06
713.18	3468.99
713.59	3532.34
714.00	3541.07
714.41	3576.03
714.82	3416.56
715.22	3394.71
715.63	3473.36
716.04	3506.12
716.45	3595.69
716.86	3527.97
717.27	3412.19
717.67	3488.65
718.08	3337.92
718.49	3628.45
718.90	3519.23
719.31	3506.12
719.71	3617.53
720.12	3637.19
720.53	3597.87
720.94	3392.53
721.35	3547.63
721.75	3626.27
722.16	3414.37
722.57	3473.36
722.98	3436.22
723.38	3527.97
723.79	3586.95
724.20	3573.84
724.61	3521.41
725.01	3425.30
725.42	3604.42
725.83	3423.11
726.23	3523.60
726.64	3512.68
727.05	3479.91
727.45	3521.41
727.86	3471.17
728.27	3514.86
728.68	3313.89
729.08	3447.14
729.49	3482.09
729.90	3715.83
730.30	3514.86
730.71	3370.68
731.11	3351.02
731.52	3444.96
731.93	3346.65
732.33	3584.76
732.74	3344.47
733.15	3517.04
733.55	3392.53
733.96	3379.42
734.36	3532.34
734.77	3523.60
735.18	3497.38
735.58	3562.92
735.99	3490.83
736.39	3388.16
736.80	3375.05
737.21	3346.65
737.61	3449.33
738.02	3420.93
738.42	3471.17
738.83	3294.23
739.23	3381.61
739.64	3346.65
740.04	3357.58
740.45	3412.19
740.85	3379.42
741.26	3479.91
741.66	3772.63
742.07	3394.71
742.47	3425.30
742.88	3331.36
743.28	3375.05
743.69	3514.86
744.09	3458.06
744.50	3565.10
744.90	3372.87
745.31	3326.99
745.71	3431.85
746.12	3405.64
746.52	3394.71
746.93	3388.16
747.33	3538.89
747.73	3235.24
748.14	3235.24
748.54	3278.93
748.95	3276.75
749.35	3506.12
749.76	3405.64
750.16	3510.49
750.56	3425.30
750.97	3466.80
751.37	3399.08
751.78	3464.62
752.18	3370.68
752.58	3447.14
752.99	3410.00
753.39	3287.67
753.79	3318.26
754.20	3405.64
754.60	3455.88
755.00	3573.84
755.41	3536.71
755.81	3538.89
756.21	3552.00
756.62	3425.30
757.02	3534.52
757.42	3567.29
757.83	3453.69
758.23	3420.93
758.63	3423.11
759.03	3543.26
759.44	3442.77
759.84	3567.29
760.24	3543.26
760.65	3501.75
761.05	3565.10
761.45	3536.71
761.85	3543.26
762.26	3495.20
762.66	3495.20
763.06	3514.86
763.46	3680.88
763.87	3493.02
764.27	3709.28
764.67	3683.07
765.07	3672.14
765.47	3604.42
765.88	3689.62
766.28	3669.96
766.68	3593.50
767.08	3801.03
767.48	3820.69
767.88	3787.92
768.29	3750.79
768.69	3724.57
769.09	3811.95
769.49	3761.71
769.89	3707.10
770.29	3680.88
770.70	3794.48
771.10	3820.69
771.50	3840.35
771.90	3752.97
772.30	3794.48
772.70	3975.79
773.10	3728.94
773.50	3737.68
773.90	3908.07
774.30	3964.87
774.71	3960.50
775.11	3988.90
775.51	3960.50
775.91	3958.31
776.31	3916.81
776.71	3984.53
777.11	3964.87
777.51	4041.32
777.91	4017.30
778.31	3967.05
778.71	4102.49
779.11	4185.50
779.51	4104.68
779.91	4109.04
780.31	4253.22
780.71	3927.73
781.11	3988.90
781.51	4233.56
781.91	4205.16
782.31	4119.97
782.71	4065.35
783.11	4063.17
783.51	4316.57
783.91	4122.15
784.31	4176.76
784.71	4303.46
785.11	4301.28
785.51	4327.49
785.91	4272.88
786.31	4231.38
786.71	4294.73
787.11	4320.94
787.50	4369.00
787.90	4237.93
788.30	4462.93
788.70	4458.56
789.10	4430.17
789.50	4445.46
789.90	4482.59
790.30	4397.40
790.70	4373.37
791.09	4456.38
791.49	4340.60
791.89	4587.45
792.29	4362.45
792.69	4550.31
793.09	4432.35
793.49	4452.01
793.88	4467.30
794.28	4556.87
794.68	4438.90
795.08	4456.38
795.48	4294.73
795.88	4344.97
796.27	4576.53
796.67	4628.96
797.07	4583.08
797.47	4731.63
797.86	4561.24
798.26	4705.41
798.66	4572.16
799.06	4677.01
799.46	4628.96
799.85	4727.26
800.25	4476.04
800.65	4738.18
801.05	4661.72
801.44	4521.92
801.84	4895.46
802.24	4666.09
802.63	4646.43
803.03	4757.84
803.43	4696.68
803.83	4722.89
804.22	4707.60
804.62	4604.93
805.02	4740.36
805.41	4727.26
805.81	4598.37
806.21	4650.80
806.60	4707.60
807.00	4670.46
807.40	4858.33
807.79	4749.10
808.19	4668.28
808.59	4801.53
808.98	4661.72
809.38	4646.43
809.77	4548.13
810.17	4832.11
810.57	4738.18
810.96	4836.48
811.36	4753.47
811.75	4672.65
812.15	4631.14
812.55	4670.46
812.94	4685.75
813.34	4777.50
813.73	4613.66
814.13	4604.93
814.53	4749.10
814.92	4733.81
815.32	4711.97
815.71	4716.34
816.11	4821.19
816.50	4576.53
816.90	4655.17
817.29	4462.93
817.69	4642.06
818.08	4467.30
818.48	4736.00
818.87	4543.76
819.27	4576.53
819.66	4631.14
820.06	4751.29
820.45	4528.47
820.85	4652.98
821.24	4589.63
821.64	4390.84
822.03	4493.52
822.43	4600.56
822.82	4469.49
823.22	4401.77
823.61	4495.70
824.00	4476.04
824.40	4403.95
824.79	4427.98
825.19	4458.56
825.58	4530.65
825.98	4452.01
826.37	4373.37
826.76	4369.00
827.16	4393.03
827.55	4329.68
827.94	4421.43
828.34	4266.33
828.73	4362.45
829.13	4377.74
829.52	4257.59
829.91	4373.37
830.31	4373.37
830.70	4281.62
831.09	4159.29
831.49	4334.05
831.88	4148.37
832.27	4358.08
832.67	4266.33
833.06	4074.09
833.45	4272.88
833.85	4240.11
834.24	4122.15
834.63	4113.41
835.02	4264.14
835.42	4087.20
835.81	4074.09
836.20	4148.37
836.60	4010.74
836.99	4050.06
837.38	4063.17
837.77	4176.76
838.17	4058.80
838.56	4115.60
838.95	3938.65
839.34	3973.61
839.74	3984.53
840.13	4060.99
840.52	4093.75
840.91	4056.62
841.30	3927.73
841.70	4045.69
842.09	3916.81
842.48	3816.32
842.87	3958.31
843.26	3916.81
843.66	4002.00
844.05	3899.33
844.44	3892.78
844.83	3731.13
845.22	3842.54
845.61	3827.24
846.00	3857.83
846.40	3794.48
846.79	3676.51
847.18	3746.42
847.57	3772.63
847.96	3877.49
848.35	3744.23
848.74	3755.16
849.13	3680.88
849.53	3781.37
849.92	3582.58
850.31	3842.54
850.70	3600.06
851.09	3676.51
851.48	3731.13
851.87	3687.44
852.26	3691.80
852.65	3652.48
853.04	3691.81
853.43	3621.90
853.82	3547.63
854.21	3610.98
854.60	3617.53
854.99	3635.01
855.38	3556.37
855.77	3514.86
856.16	3545.44
856.55	3534.52
856.94	3399.08
857.33	3414.37
857.72	3379.42
858.11	3462.43
858.50	3333.55
858.89	3257.09
859.28	3355.39
859.67	3326.99
860.06	3427.48
860.45	3259.27
860.84	3287.67
861.23	3276.75
861.62	3195.92
862.01	3361.95
862.40	3274.57
862.79	3307.33
863.18	3326.99
863.57	3228.69
863.95	3355.39
864.34	3160.97
864.73	3143.50
865.12	3241.80
865.51	3248.35
865.90	3147.86
866.29	3112.91
866.68	3154.42
867.06	3243.98
867.45	3150.05
867.84	3088.88
868.23	3128.20
868.62	3091.07
869.01	3016.79
869.40	3014.61
869.78	2999.32
870.17	2940.34
870.56	3032.09
870.95	3123.84
871.34	3132.57
871.72	2966.55
872.11	3012.43
872.50	3027.72
872.89	2942.52
873.28	2960.00
873.66	2824.56
874.05	2831.11
874.44	3001.50
874.83	2986.21
875.21	2866.06
875.60	2960.00
875.99	2885.72
876.38	2769.95
876.76	2914.12
877.15	2966.55
877.54	2789.61
877.92	2767.76
878.31	2894.46
878.70	2866.06
879.09	2828.93
879.47	2855.14
879.86	2745.92
880.25	2752.47
880.63	2743.73
881.02	2804.90
881.41	2612.66
881.79	2730.62
882.18	2656.35
882.57	2649.80
882.95	2708.78
883.34	2713.15
883.73	2726.26
884.11	2619.22
884.50	2676.01
884.88	2547.13
885.27	2669.46
885.66	2577.71
886.04	2529.65
886.43	2551.50
886.81	2693.49
887.20	2582.08
887.59	2649.80
887.97	2612.66
888.36	2660.72
888.74	2553.68
889.13	2693.49
889.52	2525.28
889.90	2627.95
890.29	2636.69
890.67	2577.71
891.06	2614.85
891.44	2638.88
891.83	2446.64
892.21	2669.46
892.60	2732.81
892.98	2553.68
893.37	2538.39
893.75	2643.24
894.14	2660.72
894.52	2531.84
894.91	2693.49
895.29	2584.26
895.68	2641.06
896.06	2645.43
896.45	2575.53
896.83	2538.39
897.22	2547.13
897.60	2641.06
897.98	2717.52
898.37	2645.43
898.75	2691.30
899.14	2671.64
899.52	2682.57
899.91	2621.40
900.29	2651.98
900.67	2660.72
901.06	2564.60
901.44	2634.51
901.83	2558.05
902.21	2680.38
902.59	2651.98
902.98	2811.45
903.36	2627.95
903.75	2684.75
904.13	2689.12
904.51	2708.78
904.90	2730.62
905.28	2651.98
905.66	2682.57
906.05	2638.88
906.43	2689.12
906.81	2643.24
907.20	2632.32
907.58	2658.54
907.96	2542.76
908.35	2555.86
908.73	2593.00
909.11	2647.61
909.49	2538.39
909.88	2553.68
910.26	2560.23
910.64	2459.75
911.02	2601.74
911.41	2514.36
911.79	2536.20
912.17	2547.13
912.55	2503.44
912.94	2468.48
913.32	2520.91
913.70	2503.44
914.08	2444.46
914.47	2402.95
914.85	2448.82
915.23	2324.31
915.61	2416.06
915.99	2346.15
916.38	2448.82
916.76	2256.59
917.14	2383.29
917.52	2383.29
917.90	2153.92
918.29	2284.99
918.67	2169.21
919.05	2247.85
919.43	2191.05
919.81	2149.55
920.19	1992.26
920.57	2127.70
920.96	1974.79
921.34	2020.66
921.72	1996.63
922.10	1952.94
922.48	1992.26
922.86	1922.36
923.24	1913.62
923.62	1883.04
924.00	1942.02
924.39	1935.47
924.77	1699.54
925.15	1765.08
925.53	1793.47
925.91	1837.16
926.29	1721.39
926.67	1603.42
927.05	1710.46
927.43	1557.55
927.81	1524.78
928.19	1640.56
928.57	1644.93
928.95	1489.83
929.33	1618.71
929.71	1518.23
930.09	1481.09
930.47	1443.95
930.85	1443.95
931.23	1461.43
931.61	1343.47
931.99	1363.13
932.37	1433.03
932.75	1282.30
933.13	1284.49
933.51	1380.60
933.89	1177.45
934.27	1295.41
934.65	1227.69
935.03	1138.12
935.41	1210.21
935.79	1212.40
936.17	1168.71
936.54	1164.34
936.92	1076.96
937.30	1059.48
937.68	1135.94
938.06	1247.35
938.44	1127.20
938.82	1068.22
939.20	1061.67
939.58	926.23
939.95	1059.48
940.33	1007.05
940.71	1000.50
941.09	980.84
941.47	1026.72
941.85	891.28
942.23	989.58
942.60	910.94
942.98	937.15
943.36	930.60
943.74	891.28
944.12	980.84
944.50	910.94
944.87	919.67
945.25	974.29
945.63	880.35
946.01	860.69
946.38	823.56
946.76	856.32
947.14	821.37
947.52	875.98
947.90	900.01
948.27	841.03
948.65	858.51
949.03	854.14
949.41	727.44
949.78	910.94
950.16	873.80
950.54	795.16
950.91	832.29
951.29	786.42
951.67	782.05
952.05	845.40
952.42	873.80
952.80	845.40
953.18	858.51
953.55	797.34
953.93	817.00
954.31	851.96
954.68	836.66
955.06	666.27
955.44	806.08
955.81	788.60
956.19	727.44
956.57	777.68
956.94	823.56
957.32	819.19
957.69	725.25
958.07	775.50
958.45	862.88
958.82	771.13
959.20	821.37
959.58	862.88
959.95	786.42
960.33	843.22
960.70	692.49
961.08	764.57
961.45	819.19
961.83	784.24
962.21	845.40
962.58	723.07
962.96	725.25
963.33	817.00
963.71	775.50
964.08	760.21
964.46	803.90
964.83	832.29
965.21	834.48
965.58	817.00
965.96	718.70
966.33	740.55
966.71	701.22
967.08	792.97
967.46	821.37
967.83	688.12
968.21	742.73
968.58	655.35
968.96	672.83
969.33	688.12
969.71	803.90
970.08	747.10
970.46	775.50
970.83	736.18
971.20	738.36
971.58	646.61
971.95	799.53
972.33	683.75
972.70	675.01
973.08	694.67
973.45	819.19
973.82	677.19
974.20	747.10
974.57	747.10
974.95	659.72
975.32	683.75
975.69	657.53
976.07	607.29
976.44	729.62
976.81	666.27
977.19	624.77
977.56	594.18
977.93	655.35
978.31	681.56
978.68	690.30
979.05	714.33
979.43	733.99
979.80	626.95
980.17	655.35
980.55	598.55
980.92	688.12
981.29	664.09
981.67	666.27
982.04	589.81
982.41	699.04
982.78	578.89
983.16	594.18
983.53	559.23
983.90	690.30
984.27	650.98
984.65	581.08
985.02	607.29
985.39	596.37
985.76	635.69
986.14	605.11
986.51	508.99
986.88	600.74
987.25	574.52
987.63	533.02
988.00	467.48
988.37	506.80
988.74	543.94
989.11	644.43
989.48	467.48
989.86	539.57
990.23	552.68
990.60	572.34
990.97	498.07
991.34	624.77
991.71	500.25
992.09	526.46
992.46	541.76
992.83	550.49
993.20	482.77
993.57	467.48
993.94	484.96
994.31	454.38
994.68	541.76
995.06	498.07
995.43	539.57
995.80	506.80
996.17	535.20
996.54	552.68
996.91	460.93
997.28	447.82
997.65	340.78
998.02	456.56
998.39	356.07
998.76	500.25
999.13	432.53
999.50	487.14
999.87	419.42
1000.24	384.47
1000.61	410.69
1000.99	380.10
1001.36	419.42
1001.73	353.89
1002.10	375.73
1002.47	401.95
1002.84	340.78
1003.21	482.77
1003.57	367.00
1003.94	397.58
1004.31	388.84
1004.68	419.42
1005.05	345.15
1005.42	327.67
1005.79	288.35
1006.16	288.35
1006.53	318.94
1006.90	288.35
1007.27	336.41
1007.64	397.58
1008.01	294.91
1008.38	323.31
1008.75	290.54
1009.12	314.57
1009.49	310.20
1009.85	340.78
1010.22	419.42
1010.59	349.52
1010.96	218.45
1011.33	318.94
1011.70	218.45
1012.07	257.77
1012.44	292.72
1012.80	286.17
1013.17	251.22
1013.54	297.09
1013.91	297.09
1014.28	277.43
1014.65	231.56
1015.01	283.98
1015.38	268.69
1015.75	286.17
1016.12	194.42
1016.49	305.83
1016.85	198.79
1017.22	273.06
1017.59	231.56
1017.96	323.31
1018.33	225.00
1018.69	194.42
1019.06	231.56
1019.43	249.03
1019.80	323.31
1020.16	205.34
1020.53	183.50
1020.90	273.06
1021.27	172.58
1021.63	264.32
1022.00	192.24
1022.37	207.53
1022.73	266.51
1023.10	144.18
1023.47	229.37
1023.84	244.66
1024.20	214.08
1024.57	214.08
1024.94	185.68
1025.30	214.08
1025.67	166.02
1026.04	288.35
1026.40	203.16
1026.77	135.44
1027.14	312.38
1027.50	148.55
1027.87	231.56
1028.23	172.58
1028.60	242.48
1028.97	183.50
1029.33	190.05
1029.70	181.31
1030.07	124.52
1030.43	220.63
1030.80	163.84
1031.16	137.62
1031.53	56.80
1031.89	273.06
1032.26	198.79
1032.63	233.74
1032.99	166.02
1033.36	115.78
1033.72	107.04
1034.09	89.56
1034.45	161.65
1034.82	181.31
1035.18	183.50
1035.55	185.68
1035.92	179.13
1036.28	170.39
1036.65	85.20
1037.01	120.15
1037.38	222.82
1037.74	192.24
1038.11	32.77
1038.47	203.16
1038.84	141.99
1039.20	131.07
1039.56	50.24
1039.93	-15.29
1040.29	133.25
1040.66	133.25
1041.02	133.25
