185.59	-13.11
186.06	-13.11
186.53	-13.11
187.00	13.11
187.48	-128.89
187.95	-56.80
188.42	-37.14
188.89	-113.59
189.36	-93.93
189.83	-50.24
190.30	41.51
190.77	4.37
191.24	-34.95
191.71	-78.64
192.18	-28.40
192.65	-63.35
193.13	-58.98
193.60	-52.43
194.07	-13.11
194.54	30.58
195.01	-34.95
195.48	-63.35
195.95	-26.21
196.42	-19.66
196.89	45.87
197.36	85.20
197.83	43.69
198.30	89.56
198.77	85.20
199.24	89.56
199.71	-26.21
200.18	-2.18
200.65	-17.48
201.12	72.09
201.59	37.14
202.05	-32.77
202.52	30.58
202.99	30.58
203.46	41.51
203.93	80.83
204.40	17.48
204.87	98.30
205.34	15.29
205.81	67.72
206.28	-21.85
206.75	80.83
207.22	-10.92
207.69	24.03
208.15	87.38
208.62	-19.66
209.09	34.95
209.56	43.69
210.03	85.20
210.50	-15.29
210.97	-34.95
211.43	21.85
211.90	91.75
212.37	-80.83
212.84	21.85
213.31	37.14
213.78	21.85
214.24	52.43
214.71	39.32
215.18	-56.80
215.65	56.80
216.12	30.58
216.58	67.72
217.05	13.11
217.52	32.77
217.99	-19.66
218.46	-19.66
218.92	65.53
219.39	21.85
219.86	43.69
220.33	56.80
220.79	24.03
221.26	34.95
221.73	-17.48
222.19	17.48
222.66	41.51
223.13	52.43
223.60	15.29
224.06	52.43
224.53	48.06
225.00	87.38
225.46	120.15
225.93	89.56
226.40	65.53
226.86	72.09
227.33	122.33
227.80	98.30
228.26	54.61
228.73	34.95
229.20	61.17
229.66	117.96
230.13	141.99
230.60	-26.21
231.06	8.74
231.53	76.46
232.00	-24.03
232.46	-8.74
232.93	50.24
233.39	10.92
233.86	4.37
234.33	21.85
234.79	17.48
235.26	32.77
235.72	83.01
236.19	-19.66
236.65	176.94
237.12	111.41
237.59	102.67
238.05	139.81
238.52	41.51
238.98	10.92
239.45	124.52
239.91	50.24
240.38	80.83
240.84	117.96
241.31	113.59
241.77	43.69
242.24	2.18
242.70	-19.66
243.17	58.98
243.63	-83.01
244.10	-54.61
244.56	6.55
245.03	-2.18
245.49	26.21
245.96	-13.11
246.42	15.29
246.89	19.66
247.35	83.01
247.81	-10.92
248.28	24.03
248.74	34.95
249.21	76.46
249.67	87.38
250.14	50.24
250.60	-41.51
251.06	13.11
251.53	-26.21
251.99	41.51
252.46	28.40
252.92	34.95
253.38	19.66
253.85	19.66
254.31	-52.43
254.77	15.29
255.24	45.87
255.70	28.40
256.16	-10.92
256.63	37.14
257.09	-102.67
257.55	45.87
258.02	-8.74
258.48	13.11
258.94	61.17
259.41	65.53
259.87	50.24
260.33	-21.84
260.80	10.92
261.26	89.56
261.72	-26.21
262.18	58.98
262.65	39.32
263.11	87.38
263.57	-58.98
264.04	100.49
264.50	21.85
264.96	-4.37
265.42	43.69
265.88	-4.37
266.35	-41.51
266.81	83.01
267.27	50.24
267.73	15.29
268.20	26.21
268.66	-10.92
269.12	2.18
269.58	13.11
270.04	-10.92
270.51	21.84
270.97	15.29
271.43	-37.14
271.89	-28.40
272.35	26.21
272.81	-43.69
273.28	-41.51
273.74	-52.43
274.20	-28.40
274.66	-76.46
275.12	80.83
275.58	0.00
276.04	39.32
276.50	80.83
276.97	-34.95
277.43	10.92
277.89	74.27
278.35	6.55
278.81	-6.55
279.27	196.61
279.73	13.11
280.19	6.55
280.65	39.32
281.11	83.01
281.57	32.77
282.03	74.27
282.50	69.90
282.96	28.40
283.42	32.77
283.88	10.92
284.34	41.51
284.80	91.75
285.26	-10.92
285.72	17.48
286.18	19.66
286.64	-78.64
287.10	26.21
287.56	19.66
288.02	8.74
288.48	87.38
288.94	41.51
289.40	-2.18
289.86	30.58
290.32	-15.29
290.78	56.80
291.23	10.92
291.69	15.29
292.15	19.66
292.61	48.06
293.07	30.58
293.53	30.58
293.99	-8.74
294.45	-61.17
294.91	-30.58
295.37	-24.03
295.83	45.87
296.29	115.78
296.74	32.77
297.20	69.90
297.66	58.98
298.12	34.95
298.58	28.40
299.04	13.11
299.50	65.53
299.95	32.77
300.41	69.90
300.87	-4.37
301.33	-19.66
301.79	-87.38
302.25	48.06
302.70	98.30
303.16	2.18
303.62	17.48
304.08	13.11
304.54	54.61
305.00	109.22
305.45	139.81
305.91	10.92
306.37	-2.18
306.83	19.66
307.28	37.14
307.74	0.00
308.20	69.90
308.66	8.74
309.11	15.29
309.57	15.29
310.03	-34.95
310.49	8.74
310.94	-4.37
311.40	91.75
311.86	63.35
312.31	6.55
312.77	56.80
313.23	-32.77
313.69	93.93
314.14	-37.14
314.60	34.95
315.06	-17.48
315.51	45.87
315.97	124.52
316.43	43.69
316.88	10.92
317.34	76.46
317.80	43.69
318.25	-2.18
318.71	30.58
319.16	2.18
319.62	43.69
320.08	54.61
320.53	63.35
320.99	34.95
321.45	74.27
321.90	61.17
322.36	100.49
322.81	-19.66
323.27	58.98
323.73	87.38
324.18	4.37
324.64	13.11
325.09	-24.03
325.55	32.77
326.00	76.46
326.46	43.69
326.91	96.12
327.37	-41.51
327.82	24.03
328.28	61.17
328.74	37.14
329.19	115.78
329.65	54.61
330.10	26.21
330.56	48.06
331.01	117.96
331.47	28.40
331.92	34.95
332.38	102.67
332.83	61.17
333.28	56.80
333.74	30.58
334.19	4.37
334.65	74.27
335.10	-30.58
335.56	48.06
336.01	0.00
336.47	0.00
336.92	0.00
337.37	80.83
337.83	48.06
338.28	87.38
338.74	69.90
339.19	-15.29
339.64	19.66
340.10	-24.03
340.55	10.92
341.01	45.87
341.46	78.64
341.91	50.24
342.37	240.30
342.82	26.21
343.27	41.51
343.73	80.83
344.18	39.32
344.63	63.35
345.09	80.83
345.54	124.52
345.99	39.32
346.45	39.32
346.90	50.24
347.35	24.03
347.81	39.32
348.26	26.21
348.71	-4.37
349.17	72.09
349.62	10.92
350.07	61.17
350.52	98.30
350.98	43.69
351.43	61.17
351.88	87.38
352.33	69.90
352.79	107.04
353.24	67.72
353.69	41.51
354.14	61.17
354.60	89.56
355.05	-4.37
355.50	72.09
355.95	102.67
356.40	141.99
356.86	100.49
357.31	157.28
357.76	157.28
358.21	48.06
358.66	28.40
359.12	135.44
359.57	83.01
360.02	161.65
360.47	96.12
360.92	69.90
361.37	24.03
361.82	111.41
362.28	76.46
362.73	102.67
363.18	26.21
363.63	181.31
364.08	133.25
364.53	122.33
364.98	78.64
365.43	113.59
365.89	137.62
366.34	74.27
366.79	96.12
367.24	135.44
367.69	135.44
368.14	150.73
368.59	120.15
369.04	72.09
369.49	194.42
369.94	172.58
370.39	166.02
370.84	139.81
371.29	203.16
371.74	207.53
372.19	93.93
372.64	135.44
373.09	104.86
373.54	179.13
373.99	146.36
374.44	144.18
374.89	170.39
375.34	141.99
375.79	170.39
376.24	102.67
376.69	227.19
377.14	264.32
377.59	242.48
378.04	185.68
378.49	214.08
378.94	185.68
379.39	198.79
379.84	266.51
380.29	179.13
380.74	96.12
381.19	181.31
381.63	242.48
382.08	266.51
382.53	214.08
382.98	297.09
383.43	222.82
383.88	233.74
384.33	268.69
384.78	238.11
385.23	286.17
385.67	257.77
386.12	220.63
386.57	135.44
387.02	194.42
387.47	303.65
387.92	190.05
388.37	314.57
388.81	238.11
389.26	353.89
389.71	273.06
390.16	288.35
390.61	288.35
391.05	351.70
391.50	238.11
391.95	318.94
392.40	382.29
392.85	216.27
393.29	297.09
393.74	329.86
394.19	316.75
394.64	273.06
395.08	360.44
395.53	336.41
395.98	329.86
396.43	242.48
396.87	406.32
397.32	299.28
397.77	340.78
398.22	347.34
398.66	329.86
399.11	404.13
399.56	384.47
400.00	259.96
400.45	353.89
400.90	323.31
401.34	356.07
401.79	386.66
402.24	415.05
402.68	312.38
403.13	410.69
403.58	397.58
404.02	364.81
404.47	391.03
404.92	369.18
405.36	301.46
405.81	384.47
406.26	412.87
406.70	450.01
407.15	391.03
407.59	541.76
408.04	336.41
408.49	522.10
408.93	412.87
409.38	384.47
409.82	474.04
410.27	347.34
410.71	334.23
411.16	340.78
411.61	498.07
412.05	463.11
412.50	425.98
412.94	447.82
413.39	513.36
413.83	524.28
414.28	456.56
414.72	408.50
415.17	513.36
415.61	489.33
416.06	504.62
416.50	504.62
416.95	430.35
417.39	570.15
417.84	554.86
418.28	456.56
418.73	458.74
419.17	504.62
419.62	487.14
420.06	480.59
420.51	528.65
420.95	567.97
421.40	611.66
421.84	508.99
422.29	508.99
422.73	592.00
423.17	550.49
423.62	616.03
424.06	685.93
424.51	511.17
424.95	447.82
425.39	589.81
425.84	511.17
426.28	592.00
426.73	550.49
427.17	613.84
427.61	635.69
428.06	559.23
428.50	624.77
428.94	565.79
429.39	581.08
429.83	618.21
430.27	618.21
430.72	489.33
431.16	565.79
431.60	539.57
432.05	585.45
432.49	681.56
432.93	670.64
433.38	618.21
433.82	688.12
434.26	626.95
434.71	659.72
435.15	716.52
435.59	642.24
436.03	714.33
436.48	602.92
436.92	751.47
437.36	753.65
437.80	716.52
438.25	801.71
438.69	860.69
439.13	760.21
439.57	836.66
440.02	723.07
440.46	827.93
440.90	766.76
441.34	718.70
441.79	777.68
442.23	738.36
442.67	858.51
443.11	851.95
443.55	799.53
443.99	690.30
444.44	733.99
444.88	834.48
445.32	884.72
445.76	913.12
446.20	941.52
446.64	825.74
447.09	919.67
447.53	910.94
447.97	956.81
448.41	972.10
448.85	897.83
449.29	921.86
449.73	956.81
450.17	1050.74
450.62	948.07
451.06	1127.20
451.50	1039.82
451.94	1109.73
452.38	1085.70
452.82	1074.77
453.26	1164.34
453.70	1127.20
454.14	1177.45
454.58	1170.89
455.02	1299.78
455.46	1157.78
455.90	1212.40
456.34	1194.92
456.78	1190.55
457.22	1225.50
457.66	1275.75
458.10	1223.32
458.54	1341.28
458.98	1393.71
459.42	1382.79
459.86	1356.57
460.30	1454.88
460.74	1365.31
461.18	1356.57
461.62	1356.57
462.06	1409.00
462.50	1498.57
462.94	1409.00
463.38	1568.47
463.82	1478.91
464.26	1537.89
464.70	1625.27
465.14	1625.27
465.58	1708.28
466.02	1708.28
466.46	1660.22
466.90	1725.75
467.34	1690.80
467.77	1795.66
468.21	1889.59
468.65	1795.66
469.09	1802.21
469.53	1852.46
469.97	1898.33
470.41	1920.18
470.85	1880.85
471.28	1865.56
471.72	2053.43
472.16	2055.61
472.60	1957.31
473.04	2169.21
473.48	2212.90
473.91	2182.32
474.35	2271.88
474.79	2127.70
475.23	2217.27
475.67	2274.06
476.11	2267.51
476.54	2378.92
476.98	2429.16
477.42	2490.33
477.86	2453.19
478.29	2304.65
478.73	2451.01
479.17	2490.33
479.61	2455.38
480.04	2516.54
480.48	2586.45
480.92	2651.98
481.36	2752.47
481.79	2793.98
482.23	2649.80
482.67	2676.01
483.11	2783.05
483.54	2802.71
483.98	2968.74
484.42	2918.49
484.85	2911.94
485.29	2975.29
485.73	2925.05
486.16	3088.88
486.60	3169.71
487.04	3193.74
487.47	3176.26
487.91	3344.47
488.35	3237.43
488.78	3344.47
489.22	3508.31
489.66	3351.02
490.09	3351.02
490.53	3549.81
490.97	3495.20
491.40	3510.49
491.84	3586.95
492.27	3466.80
492.71	3672.14
493.15	3750.79
493.58	3680.88
494.02	3718.02
494.45	3704.91
494.89	3840.35
495.32	3875.30
495.76	3783.55
496.20	3964.87
496.63	3951.76
497.07	4004.19
497.50	4159.29
497.94	4174.58
498.37	4050.06
498.81	4176.76
499.24	4161.47
499.68	4209.53
500.11	4261.96
500.55	4384.29
500.98	4336.23
501.42	4379.92
501.85	4513.18
502.29	4556.87
502.72	4705.41
503.16	4327.49
503.59	4528.47
504.03	4674.83
504.46	4736.00
504.90	4550.31
505.33	4794.98
505.77	4779.69
506.20	4727.26
506.63	4971.92
507.07	4777.50
507.50	4895.46
507.94	4976.29
508.37	5089.88
508.81	4978.48
509.24	5186.00
509.67	4991.58
510.11	5161.97
510.54	5096.44
510.98	5105.18
511.41	5196.93
511.84	5146.68
512.28	5312.70
512.71	5220.96
513.14	5207.85
513.58	5428.48
514.01	5413.19
514.44	5487.46
514.88	5295.23
515.31	5319.26
515.74	5515.86
516.18	5393.53
516.61	5122.65
517.04	5262.46
517.48	5199.11
517.91	5273.38
518.34	5275.57
518.77	5301.78
519.21	5402.27
519.64	5345.47
520.07	5489.65
520.51	5271.20
520.94	5225.32
521.37	5393.53
521.80	5456.88
522.24	5196.93
522.67	5437.22
523.10	5279.94
523.53	5395.72
523.97	5441.59
524.40	5507.12
524.83	5299.60
525.26	5358.58
525.69	5312.70
526.13	5448.14
526.56	5563.92
526.99	5345.47
527.42	5601.06
527.85	5413.19
528.28	5476.54
528.72	5561.74
529.15	5480.91
529.58	5566.11
530.01	5518.05
530.44	5710.28
530.87	5708.10
531.31	5614.16
531.74	5679.70
532.17	5483.09
532.60	5585.77
533.03	5511.49
533.46	5531.15
533.89	5561.74
534.32	5869.75
534.75	5618.53
535.19	5644.75
535.62	5764.90
536.05	5668.78
536.48	5644.75
536.91	5736.50
537.34	5778.00
537.77	5694.99
538.20	5756.16
538.63	5627.27
539.06	5970.24
539.49	5745.24
539.92	5826.06
540.35	5692.81
540.78	5968.05
541.21	5906.89
541.64	5861.01
542.07	5906.89
542.50	6040.14
542.93	5738.68
543.36	6018.30
543.79	6175.58
544.22	6007.37
544.65	6009.56
545.08	5946.21
545.51	6112.23
545.94	6142.81
546.37	6228.01
546.80	6422.43
547.23	6140.63
547.66	6271.70
548.09	6254.22
548.52	6431.17
548.95	6418.06
549.38	6249.85
549.80	6383.11
550.23	6367.82
550.66	6520.73
551.09	6662.72
551.52	6363.45
551.95	6579.71
552.38	6588.45
552.81	6413.69
553.24	6612.48
553.66	6671.46
554.09	5970.24
554.52	6732.63
554.95	6603.74
555.38	6769.77
555.81	6671.46
556.24	6824.38
556.66	6815.64
557.09	6861.51
557.52	7001.32
557.95	6813.46
558.38	6717.34
558.80	6800.35
559.23	6830.93
559.66	7200.11
560.09	7117.10
560.52	7086.52
560.94	7152.05
561.37	7023.17
561.80	7184.82
562.23	7073.41
562.65	6986.03
563.08	7318.07
563.51	7357.40
563.94	7270.02
564.36	7125.84
564.79	7512.50
565.22	7267.83
565.65	7398.90
566.07	7401.09
566.50	7261.28
566.93	7468.81
567.35	7505.94
567.78	7422.93
568.21	7519.05
568.63	7713.47
569.06	7669.78
569.49	7650.12
569.91	7532.16
570.34	7813.96
570.77	7824.88
571.19	7910.07
571.62	7840.17
572.05	8071.73
572.47	7945.03
572.90	7953.76
573.33	8025.85
573.75	8023.67
574.18	8089.20
574.60	8296.73
575.03	8229.01
575.46	8034.59
575.88	8137.26
576.31	8270.52
576.73	8132.89
577.16	8397.22
577.59	8425.62
578.01	8493.34
578.44	8447.46
578.86	8482.41
579.29	8628.78
579.71	8338.24
580.14	8366.64
580.56	8316.39
580.99	8462.75
581.41	8392.85
581.84	8296.73
582.26	8146.00
582.69	8220.27
583.11	8187.51
583.54	8329.50
583.96	8242.12
584.39	8250.86
584.81	8165.66
585.24	8204.98
585.66	8095.76
586.09	7940.66
586.51	8115.42
586.94	8191.88
587.36	8115.42
587.79	8095.76
588.21	8010.56
588.64	7896.97
589.06	8220.27
589.48	7899.15
589.91	7883.86
590.33	7896.97
590.76	7993.09
591.18	8041.14
591.60	8062.99
592.03	7894.78
592.45	8078.28
592.88	8239.93
593.30	8038.96
593.72	8104.50
594.15	7796.48
594.57	7833.62
595.00	7813.96
595.42	7754.97
595.84	7892.60
596.27	7855.46
596.69	8069.54
597.11	8006.19
597.54	7912.26
597.96	7999.64
598.38	7846.72
598.80	7785.56
599.23	7785.56
599.65	7982.16
600.07	7864.20
600.50	7927.55
600.92	7833.62
601.34	7779.00
601.77	7853.28
602.19	7785.56
602.61	7685.07
603.03	7824.88
603.46	7785.56
603.88	7779.00
604.30	7724.39
604.72	7748.42
605.15	7619.54
605.57	8023.67
605.99	7929.73
606.41	7728.76
606.83	7564.92
607.26	7741.87
607.68	7768.08
608.10	7973.42
608.52	7652.30
608.94	7739.68
609.37	7667.60
609.79	7737.50
610.21	7846.72
610.63	7709.10
611.05	7691.62
611.47	8054.25
611.90	7921.00
612.32	7912.26
612.74	7868.57
613.16	7744.05
613.58	8008.38
614.00	7713.47
614.42	8049.88
614.84	8017.12
615.27	7988.72
615.69	7809.59
616.11	7995.27
616.53	7949.40
616.95	8065.17
617.37	8231.20
617.79	8124.16
618.21	8117.60
618.63	7982.16
619.05	8021.48
619.47	8274.89
619.89	8246.49
620.31	8095.76
620.74	7940.66
621.16	8106.68
621.58	8080.47
622.00	8087.02
622.42	8135.08
622.84	8298.92
623.26	8124.16
623.68	8106.68
624.10	8290.18
624.52	7947.21
624.94	8259.59
625.36	8222.46
625.78	8111.05
626.20	8119.79
626.62	8316.39
627.03	8419.06
627.45	8397.22
627.87	8172.21
628.29	8038.96
628.71	8270.52
629.13	8405.96
629.55	8362.27
629.97	8218.09
630.39	8399.40
630.81	8226.83
631.23	8303.28
631.65	8360.08
632.07	8438.72
632.49	8582.90
632.90	8307.65
633.32	8342.61
633.74	8078.28
634.16	8497.70
634.58	8513.00
635.00	8598.19
635.42	8390.66
635.83	8183.14
636.25	8220.27
636.67	8307.65
637.09	8532.66
637.51	8497.70
637.93	8360.08
638.34	8423.43
638.76	8497.70
639.18	8545.76
639.60	8506.44
640.02	8788.24
640.44	8703.05
640.85	8578.53
641.27	8515.18
641.69	8764.21
642.11	8757.66
642.52	8823.20
642.94	8925.87
643.36	8792.61
643.78	8814.46
644.19	8851.59
644.61	8818.83
645.03	8847.22
645.45	8921.50
645.86	8753.29
646.28	8770.77
646.70	8908.39
647.12	8840.67
647.53	8925.87
647.95	8995.77
648.37	8766.40
648.78	8869.07
649.20	9157.42
649.62	8899.65
650.03	8727.08
650.45	9061.31
650.87	8958.63
651.28	8866.89
651.70	9037.28
652.12	8893.10
652.53	8991.40
652.95	8755.48
653.37	8941.16
653.78	8991.40
654.20	8984.85
654.61	8890.92
655.03	8864.70
655.45	8866.89
655.86	8956.45
656.28	8893.10
656.69	9091.89
657.11	9094.07
657.53	9008.88
657.94	8814.46
658.36	8845.04
658.77	8742.37
659.19	8827.56
659.60	8748.92
660.02	8788.24
660.44	8796.98
660.85	8685.57
661.27	8847.22
661.68	8685.57
662.10	8882.18
662.51	8633.14
662.93	8899.65
663.34	8821.01
663.76	8635.33
664.17	8814.46
664.59	8729.26
665.00	8753.29
665.42	8626.59
665.83	8925.87
666.25	8668.10
666.66	8574.16
667.08	8502.07
667.49	8563.24
667.90	8663.73
668.32	8602.56
668.73	8650.62
669.15	8484.60
669.56	8521.73
669.98	8475.86
670.39	8683.39
670.80	8628.78
671.22	8672.46
671.63	8399.40
672.05	8768.58
672.46	8519.55
672.87	8480.23
673.29	8738.00
673.70	8668.10
674.12	8768.58
674.53	8521.73
674.94	8480.23
675.36	8272.70
675.77	8416.88
676.18	8556.69
676.60	8189.69
677.01	8585.08
677.42	8510.81
677.84	8371.00
678.25	8386.30
678.66	8530.47
679.08	8495.52
679.49	8298.92
679.90	8250.86
680.31	8174.40
680.73	8303.28
681.14	8462.75
681.55	8491.15
681.97	8580.72
682.38	8067.36
682.79	8277.07
683.20	8484.60
683.62	8176.58
684.03	8336.05
684.44	8141.63
684.85	8080.47
685.27	8117.60
685.68	8388.48
686.09	8187.51
686.50	8030.22
686.91	8146.00
687.33	8191.88
687.74	8117.60
688.15	8204.98
688.56	8277.07
688.97	8154.74
689.39	8078.28
689.80	7872.94
690.21	8097.94
690.62	8128.52
691.03	8017.11
691.44	7993.09
691.86	7862.02
692.27	8045.51
692.68	8060.81
693.09	7903.52
693.50	7925.37
693.91	8012.75
694.32	7960.32
694.73	7929.74
695.15	7914.44
695.56	7851.09
695.97	7899.15
696.38	7881.68
696.79	7829.25
697.20	7931.92
697.61	7883.86
698.02	7840.17
698.43	7973.42
698.84	7647.93
699.25	7905.71
699.66	7862.02
700.07	7779.00
700.48	7857.65
700.90	7754.97
701.31	7807.40
701.72	7818.33
702.13	7794.30
702.54	8108.86
702.95	7835.80
703.36	8028.04
703.77	7798.66
704.18	7870.75
704.59	7866.38
705.00	7896.97
705.41	7877.31
705.82	7700.36
706.22	7894.78
706.63	8012.75
707.04	7695.99
707.45	7886.05
707.86	7820.51
708.27	7914.44
708.68	7737.50
709.09	7744.05
709.50	7842.36
709.91	7779.00
710.32	7798.67
710.73	7803.03
711.14	7862.02
711.55	7682.89
711.95	7761.53
712.36	7862.02
712.77	7733.13
713.18	7800.85
713.59	7842.36
714.00	7955.95
714.41	7872.94
714.82	7899.15
715.22	7809.59
715.63	7921.00
716.04	7752.79
716.45	7907.89
716.86	8017.12
717.27	7988.72
717.67	8089.20
718.08	7910.07
718.49	8100.13
718.90	8202.80
719.31	8102.31
719.71	8082.65
720.12	8010.56
720.53	8211.54
720.94	8207.17
721.35	8268.33
721.75	8034.59
722.16	8183.14
722.57	8458.38
722.98	8121.97
723.38	8373.19
723.79	8344.79
724.20	8342.61
724.61	8521.73
725.01	8541.40
725.42	8561.06
725.83	8637.51
726.23	8567.61
726.64	8755.48
727.05	8838.49
727.45	8633.14
727.86	8700.86
728.27	8875.62
728.68	8762.03
729.08	8980.48
729.49	8995.77
729.90	9281.94
730.30	9085.34
730.71	9126.84
731.11	9301.60
731.52	9161.79
731.93	9249.17
732.33	9323.45
732.74	9183.64
733.15	9410.83
733.55	9428.30
733.96	9450.15
734.36	9513.50
734.77	9908.89
735.18	9594.32
735.58	9742.87
735.99	9782.19
736.39	9865.20
736.80	9882.68
737.21	9871.76
737.61	9869.57
738.02	9935.11
738.42	10081.47
738.83	9967.87
739.23	10323.95
739.64	10339.24
740.04	10459.39
740.45	10514.00
740.85	10457.20
741.26	10572.98
741.66	11143.13
742.07	10891.92
742.47	10765.22
742.88	10815.46
743.28	10841.67
743.69	10953.08
744.09	11234.88
744.50	11158.43
744.90	11151.87
745.31	11407.46
745.71	11302.60
746.12	11582.22
746.52	11470.81
746.93	11503.58
747.33	11687.08
747.73	11641.20
748.14	11717.66
748.54	12012.57
748.95	11977.61
749.35	11861.84
749.76	12001.64
750.16	12305.29
750.56	12237.57
750.97	12377.38
751.37	12305.29
751.78	12215.72
752.18	12440.73
752.58	12510.63
752.99	12615.49
753.39	12650.44
753.79	12753.11
754.20	12794.62
754.60	13076.42
755.00	13023.99
755.41	12934.42
755.81	13021.80
756.21	13076.42
756.62	13161.61
757.02	13067.68
757.42	13294.87
757.83	13436.86
758.23	13340.74
758.63	13281.76
759.03	13345.11
759.44	13338.56
759.84	13725.21
760.24	13519.87
760.65	13550.45
761.05	13757.98
761.45	13476.18
761.85	13248.99
762.26	13747.06
762.66	13674.97
763.06	13840.99
763.46	13937.11
763.87	13934.93
764.27	13950.22
764.67	14020.12
765.07	14079.10
765.47	14304.11
765.88	14162.11
766.28	14041.97
766.68	14192.70
767.08	14588.09
767.48	14459.21
767.88	14087.84
768.29	14367.46
768.69	14256.05
769.09	14629.60
769.49	14483.24
769.89	14459.21
770.29	14210.17
770.70	14511.63
771.10	14677.66
771.50	14304.11
771.90	14653.63
772.30	14633.97
772.70	14716.98
773.10	14605.57
773.50	14430.81
773.90	14516.00
774.30	14653.63
774.71	14454.84
775.11	14730.08
775.51	14360.90
775.91	14513.82
776.31	14627.41
776.71	14470.13
777.11	14535.66
777.51	14574.98
777.91	14277.89
778.31	14461.39
778.71	14518.19
779.11	14588.09
779.51	14671.10
779.91	14653.63
780.31	14308.48
780.71	14334.69
781.11	14426.44
781.51	14325.95
781.91	14164.30
782.31	14454.84
782.71	14413.33
783.11	14179.59
783.51	14157.74
783.91	14339.06
784.31	14041.97
784.71	14668.92
785.11	14459.21
785.51	14118.42
785.91	14207.99
786.31	14218.91
786.71	14389.30
787.11	14155.56
787.50	14153.38
787.90	14083.47
788.30	14323.77
788.70	14439.54
789.10	14072.55
789.50	14183.96
789.90	13784.20
790.30	14166.48
790.70	14109.69
791.09	13797.30
791.49	13714.29
791.89	13915.27
792.29	13806.04
792.69	13703.37
793.09	13915.26
793.49	13618.17
793.88	13605.07
794.28	13644.39
794.68	13408.46
795.08	13297.05
795.48	13602.88
795.88	13559.19
796.27	13629.10
796.67	13454.34
797.07	13576.67
797.47	13692.45
797.86	13460.89
798.26	13720.84
798.66	13434.68
799.06	13098.26
799.46	13607.25
799.85	13377.88
800.25	13004.33
800.65	13087.34
801.05	13185.64
801.44	13220.59
801.84	13321.08
802.24	13281.76
802.63	12973.75
803.03	13165.98
803.43	13015.25
803.83	12962.82
804.22	13072.05
804.62	12877.63
805.02	13052.39
805.41	12954.09
805.81	12809.91
806.21	12925.69
806.60	12803.35
807.00	12879.81
807.40	12757.48
807.79	13015.25
808.19	12595.83
808.59	12580.54
808.98	12663.55
809.38	12543.40
809.77	12663.55
810.17	12892.92
810.57	12689.76
810.96	12628.59
811.36	12591.46
811.75	12512.82
812.15	12298.74
812.55	12504.08
812.94	12449.47
813.34	12265.97
813.73	12209.17
814.13	12226.65
814.53	12220.09
814.92	11962.32
815.32	12115.24
815.71	12172.03
816.11	12143.64
816.50	12043.15
816.90	12001.64
817.29	11796.30
817.69	12104.31
818.08	11868.39
818.48	11682.71
818.87	11866.20
819.27	11595.33
819.66	11835.62
820.06	11634.65
820.45	11693.63
820.85	11647.75
821.24	11665.23
821.64	11660.86
822.03	11781.01
822.43	11459.89
822.82	11639.02
823.22	11383.43
823.61	11298.23
824.00	11422.75
824.40	11276.39
824.79	11077.60
825.19	11090.71
825.58	11132.21
825.98	11213.04
826.37	11108.18
826.76	10959.64
827.16	11040.46
827.55	11116.92
827.94	11101.63
828.34	10924.68
828.73	11020.80
829.13	10883.18
829.52	10784.88
829.91	10841.67
830.31	11086.34
830.70	10841.67
831.09	10680.02
831.49	10520.55
831.88	10435.36
832.27	10597.01
832.67	10439.73
833.06	10531.47
833.45	10284.63
833.85	10605.75
834.24	10472.49
834.63	10592.64
835.02	10151.37
835.42	10334.87
835.81	10157.93
836.20	10313.02
836.60	10271.52
836.99	10245.30
837.38	10122.97
837.77	9978.80
838.17	9961.32
838.56	10122.97
838.95	10037.78
839.34	9978.80
839.74	10007.19
840.13	10096.76
840.52	9849.91
840.91	9867.39
841.30	9954.77
841.70	9447.96
842.09	9644.57
842.48	9716.66
842.87	9572.48
843.26	9482.91
843.66	9616.17
844.05	9557.19
844.44	9421.75
844.83	9434.86
845.22	9310.34
845.61	9441.41
846.00	9231.70
846.40	9450.15
846.79	9281.94
847.18	9308.15
847.57	9159.61
847.96	9153.06
848.35	9041.65
848.74	9083.15
849.13	8943.34
849.53	9052.57
849.92	8829.75
850.31	9065.68
850.70	8884.36
851.09	9076.60
851.48	8805.72
851.87	8792.61
852.26	8821.01
852.65	8919.31
853.04	8812.27
853.43	8724.89
853.82	8703.05
854.21	8681.20
854.60	8663.73
854.99	8395.03
855.38	8558.87
855.77	8412.51
856.16	8602.56
856.55	8537.03
856.94	8351.34
857.33	8246.49
857.72	8296.73
858.11	8135.08
858.50	8180.95
858.89	8078.28
859.28	8132.89
859.67	8272.70
860.06	8246.49
860.45	8392.85
860.84	8207.17
861.23	8080.47
861.62	7977.79
862.01	8058.62
862.40	8152.55
862.79	7966.87
863.18	7999.64
863.57	8056.44
863.95	8001.82
864.34	7827.06
864.73	7803.03
865.12	7691.62
865.51	7704.73
865.90	7689.44
866.29	7853.28
866.68	7534.34
867.06	7547.45
867.45	7538.71
867.84	7276.57
868.23	7479.73
868.62	7567.11
869.01	7401.09
869.40	7276.57
869.78	7385.79
870.17	7095.26
870.56	7300.60
870.95	7237.25
871.34	7302.78
871.72	7103.99
872.11	7239.43
872.50	7294.05
872.89	7374.87
873.28	7217.59
873.66	7062.49
874.05	7034.09
874.44	7064.67
874.83	7082.15
875.21	6848.41
875.60	7003.51
875.99	7108.36
876.38	6841.85
876.76	6913.94
877.15	6972.92
877.54	6966.37
877.92	6988.22
878.31	6730.44
878.70	6595.01
879.09	6597.19
879.47	6640.88
879.86	6608.11
880.25	6529.47
880.63	6686.75
881.02	6669.28
881.41	6459.57
881.79	6625.59
882.18	6553.50
882.57	6599.37
882.95	6658.36
883.34	6321.94
883.73	6457.38
884.11	6378.74
884.50	6350.34
884.88	6341.60
885.27	6282.62
885.66	6321.94
886.04	6317.57
886.43	6160.29
886.81	6249.85
887.20	6380.92
887.59	6238.93
887.97	6201.80
888.36	6197.43
888.74	6203.98
889.13	6267.33
889.52	6101.31
889.90	6206.16
890.29	6138.44
890.67	6206.16
891.06	6184.32
891.44	6289.18
891.83	6166.84
892.21	6195.24
892.60	6003.01
892.98	6315.39
893.37	6175.58
893.75	6120.97
894.14	6271.70
894.52	6380.92
894.91	6234.56
895.29	6249.85
895.68	6302.28
896.06	6273.88
896.45	6370.00
896.83	6302.28
897.22	6265.15
897.60	6208.35
897.98	6455.20
898.37	6442.09
898.75	6247.67
899.14	6442.09
899.52	6374.37
899.91	6420.25
900.29	6317.57
900.67	6293.54
901.06	6516.36
901.44	6402.77
901.83	6326.31
902.21	6389.66
902.59	6300.10
902.98	6245.49
903.36	6477.04
903.75	6407.14
904.13	6389.66
904.51	6241.12
904.90	6636.51
905.28	6361.26
905.66	6319.76
906.05	6324.13
906.43	6361.26
906.81	6295.73
907.20	6155.92
907.58	6324.13
907.96	6236.75
908.35	6057.62
908.73	6044.51
909.11	6155.92
909.49	6182.14
909.88	6079.46
910.26	5961.50
910.64	6000.82
911.02	6011.74
911.41	6147.18
911.79	5970.24
912.17	6020.48
912.55	5981.16
912.94	5904.70
913.32	5865.38
913.70	5804.22
914.08	5725.57
914.47	5791.11
914.85	5727.76
915.23	5721.21
915.61	5572.66
915.99	5629.46
916.38	5627.27
916.76	5544.26
917.14	5491.83
917.52	5321.44
917.90	5314.89
918.29	5207.85
918.67	5251.54
919.05	5266.83
919.43	5194.74
919.81	5044.01
920.19	5048.38
920.57	5050.56
920.96	4987.21
921.34	4832.11
921.72	4873.62
922.10	4646.43
922.48	4683.57
922.86	4604.93
923.24	4528.47
923.62	4519.73
924.00	4412.69
924.39	4388.66
924.77	4473.86
925.15	4283.80
925.53	4150.55
925.91	4091.57
926.29	4194.24
926.67	4004.19
927.05	3925.55
927.43	3849.09
927.81	3748.60
928.19	3759.52
928.57	3816.32
928.95	3781.37
929.33	3545.44
929.71	3617.53
930.09	3527.97
930.47	3471.17
930.85	3353.21
931.23	3368.50
931.61	3335.73
931.99	3276.75
932.37	3241.80
932.75	3185.00
933.13	3158.79
933.51	3001.50
933.89	3008.06
934.27	2957.81
934.65	2905.38
935.03	2901.02
935.41	2883.54
935.79	2857.33
936.17	2719.70
936.54	2826.74
936.92	2717.52
937.30	2702.23
937.68	2573.34
938.06	2547.13
938.44	2573.34
938.82	2431.35
939.20	2558.05
939.58	2402.95
939.95	2455.38
940.33	2398.58
940.71	2333.05
941.09	2333.05
941.47	2313.39
941.85	2311.20
942.23	2201.98
942.60	2263.14
942.98	2215.08
943.36	2171.39
943.74	2127.70
944.12	2324.31
944.50	2121.15
944.87	2118.96
945.25	2123.33
945.63	2086.20
946.01	2064.35
946.38	2018.48
946.76	1996.63
947.14	2079.64
947.52	2073.09
947.90	1990.08
948.27	2029.40
948.65	2038.14
949.03	2073.09
949.41	1990.08
949.78	1966.05
950.16	1950.76
950.54	1942.02
950.91	2029.40
951.29	1961.68
951.67	1913.62
952.05	2020.66
952.42	1891.78
952.80	1926.73
953.18	1955.13
953.55	1928.91
953.93	1834.98
954.31	2009.74
954.68	1935.47
955.06	1869.93
955.44	1948.57
955.81	1948.57
956.19	1839.35
956.57	1837.16
956.94	1876.49
957.32	1917.99
957.69	1859.01
958.07	1880.85
958.45	1952.94
958.82	1776.00
959.20	1926.73
959.58	1852.46
959.95	1909.25
960.33	1966.05
960.70	1909.25
961.08	1885.22
961.45	1848.09
961.83	1854.64
962.21	1839.35
962.58	1878.67
962.96	1891.78
963.33	1968.23
963.71	1863.38
964.08	1826.24
964.46	1874.30
964.83	1950.76
965.21	1797.84
965.58	1896.15
965.96	1791.29
966.33	1821.87
966.71	1791.29
967.08	1786.92
967.46	1815.32
967.83	1802.21
968.21	1782.55
968.58	1800.03
968.96	1671.14
969.33	1848.09
969.71	1804.40
970.08	1821.87
970.46	1859.01
970.83	1778.18
971.20	1758.52
971.58	1725.76
971.95	1760.71
972.33	1721.39
972.70	1634.01
973.08	1682.06
973.45	1688.62
973.82	1692.99
974.20	1673.33
974.57	1745.42
974.95	1793.47
975.32	1778.18
975.69	1601.24
976.07	1745.42
976.44	1738.86
976.81	1642.74
977.19	1577.21
977.56	1570.66
977.93	1603.42
978.31	1599.05
978.68	1568.47
979.05	1581.58
979.43	1671.14
979.80	1564.10
980.17	1594.68
980.55	1616.53
980.92	1579.39
981.29	1467.98
981.67	1572.84
982.04	1540.07
982.41	1540.07
982.78	1461.43
983.16	1474.54
983.53	1454.88
983.90	1435.22
984.27	1443.95
984.65	1443.95
985.02	1402.45
985.39	1382.79
985.76	1426.48
986.14	1500.75
986.51	1374.05
986.88	1426.48
987.25	1378.42
987.63	1328.18
988.00	1363.13
988.37	1291.04
988.74	1336.91
989.11	1413.37
989.48	1247.35
989.86	1343.47
990.23	1310.70
990.60	1299.78
990.97	1319.44
991.34	1304.15
991.71	1166.52
992.09	1227.69
992.46	1256.09
992.83	1354.39
993.20	1201.48
993.57	1247.35
993.94	1208.03
994.31	1181.81
994.68	1197.11
995.06	1214.58
995.43	1247.35
995.80	1131.57
996.17	1179.63
996.54	1232.06
996.91	1100.99
997.28	1142.49
997.65	996.13
998.02	1122.83
998.39	987.39
998.76	1155.60
999.13	974.29
999.50	1103.17
999.87	1037.64
1000.24	1059.48
1000.61	1046.38
1000.99	983.02
1001.36	996.13
1001.73	910.94
1002.10	1022.35
1002.47	972.10
1002.84	900.01
1003.21	987.39
1003.57	996.13
1003.94	939.34
1004.31	904.38
1004.68	900.01
1005.05	913.12
1005.42	893.46
1005.79	862.88
1006.16	764.57
1006.53	913.12
1006.90	821.37
1007.27	856.32
1007.64	871.62
1008.01	830.11
1008.38	843.22
1008.75	891.28
1009.12	860.69
1009.49	727.44
1009.85	775.50
1010.22	865.06
1010.59	747.10
1010.96	725.25
1011.33	773.31
1011.70	718.70
1012.07	773.31
1012.44	792.97
1012.80	753.65
1013.17	779.87
1013.54	729.62
1013.91	703.41
1014.28	753.65
1014.65	675.01
1015.01	795.16
1015.38	655.35
1015.75	740.55
1016.12	633.50
1016.49	716.52
1016.85	565.79
1017.22	655.35
1017.59	574.52
1017.96	640.06
1018.33	677.19
1018.69	589.82
1019.06	587.63
1019.43	624.77
1019.80	574.52
1020.16	515.54
1020.53	524.28
1020.90	574.52
1021.27	502.44
1021.63	554.86
1022.00	598.55
1022.37	515.54
1022.73	670.64
1023.10	561.42
1023.47	519.91
1023.84	583.26
1024.20	530.83
1024.57	629.14
1024.94	600.74
1025.30	570.15
1025.67	546.13
1026.04	537.39
1026.40	502.43
1026.77	434.72
1027.14	561.42
1027.50	511.17
1027.87	482.77
1028.23	463.11
1028.60	484.96
1028.97	421.61
1029.33	495.88
1029.70	498.07
1030.07	467.48
1030.43	476.22
1030.80	517.73
1031.16	423.79
1031.53	450.01
1031.89	474.04
1032.26	452.19
1032.63	467.48
1032.99	425.98
1033.36	491.51
1033.72	399.76
1034.09	345.15
1034.45	321.12
1034.82	356.07
1035.18	393.21
1035.55	467.48
1035.92	469.67
1036.28	417.24
1036.65	303.65
1037.01	340.78
1037.38	356.07
1037.74	349.52
1038.11	303.65
1038.47	356.07
1038.84	297.09
1039.20	305.83
1039.56	259.96
1039.93	299.28
1040.29	391.03
1040.66	391.03
1041.02	391.03
