185.59	-58.98
186.06	-58.98
186.53	-58.98
187.00	50.24
187.48	-28.40
187.95	-50.24
188.42	17.48
188.89	-78.64
189.36	-8.74
189.83	-85.20
190.30	43.69
190.77	-30.58
191.24	30.58
191.71	-48.06
192.18	10.92
192.65	50.24
193.13	-43.69
193.60	-39.32
194.07	-8.74
194.54	30.58
195.01	-30.58
195.48	-39.32
195.95	30.58
196.42	-32.77
196.89	80.83
197.36	133.25
197.83	100.49
198.30	107.04
198.77	58.98
199.24	54.61
199.71	-67.72
200.18	6.55
200.65	48.06
201.12	41.51
201.59	43.69
202.05	-52.43
202.52	2.18
202.99	15.29
203.46	-6.55
203.93	26.21
204.40	78.64
204.87	54.61
205.34	28.40
205.81	52.43
206.28	34.95
206.75	80.83
207.22	21.85
207.69	39.32
208.15	56.80
208.62	-15.29
209.09	28.40
209.56	30.58
210.03	13.11
210.50	-34.95
210.97	10.92
211.43	41.51
211.90	24.03
212.37	-2.18
212.84	85.20
213.31	0.00
213.78	21.85
214.24	63.35
214.71	72.09
215.18	78.64
215.65	45.87
216.12	131.07
216.58	13.11
217.05	37.14
217.52	50.24
217.99	-45.87
218.46	-32.77
218.92	15.29
219.39	39.32
219.86	41.51
220.33	48.06
220.79	6.55
221.26	-37.14
221.73	-67.72
222.19	37.14
222.66	63.35
223.13	72.09
223.60	65.53
224.06	48.06
224.53	-58.98
225.00	63.35
225.46	89.56
225.93	-15.29
226.40	-13.11
226.86	54.61
227.33	87.38
227.80	41.51
228.26	41.51
228.73	17.48
229.20	4.37
229.66	48.06
230.13	102.67
230.60	28.40
231.06	19.66
231.53	63.35
232.00	6.55
232.46	0.00
232.93	-50.24
233.39	10.92
233.86	-30.58
234.33	4.37
234.79	-4.37
235.26	4.37
235.72	78.64
236.19	24.03
236.65	131.07
237.12	-4.37
237.59	15.29
238.05	67.72
238.52	28.40
238.98	-8.74
239.45	50.24
239.91	-4.37
240.38	2.18
240.84	74.27
241.31	115.78
241.77	67.72
242.24	48.06
242.70	-21.85
243.17	104.86
243.63	-24.03
244.10	-28.40
244.56	-32.77
245.03	-17.48
245.49	-15.29
245.96	30.58
246.42	2.18
246.89	28.40
247.35	45.87
247.81	-19.66
248.28	-17.48
248.74	37.14
249.21	135.44
249.67	10.92
250.14	52.43
250.60	-43.69
251.06	39.32
251.53	13.11
251.99	45.87
252.46	2.18
252.92	37.14
253.38	13.11
253.85	10.92
254.31	-28.40
254.77	15.29
255.24	45.87
255.70	89.56
256.16	30.58
256.63	100.49
257.09	-4.37
257.55	69.90
258.02	56.80
258.48	17.48
258.94	17.48
259.41	4.37
259.87	19.66
260.33	-43.69
260.80	-24.03
261.26	45.87
261.72	-21.85
262.18	56.80
262.65	10.92
263.11	50.24
263.57	-87.38
264.04	-24.03
264.50	-26.21
264.96	17.48
265.42	32.77
265.88	8.74
266.35	54.61
266.81	78.64
267.27	28.40
267.73	0.00
268.20	8.74
268.66	39.32
269.12	32.77
269.58	2.18
270.04	-13.11
270.51	41.51
270.97	85.20
271.43	-24.03
271.89	-30.58
272.35	80.83
272.81	-2.18
273.28	-17.48
273.74	-21.84
274.20	-32.77
274.66	24.03
275.12	13.11
275.58	48.06
276.04	43.69
276.50	87.38
276.97	-52.43
277.43	15.29
277.89	83.01
278.35	21.84
278.81	-10.92
279.27	159.47
279.73	17.48
280.19	65.53
280.65	-17.48
281.11	15.29
281.57	150.73
282.03	34.95
282.50	69.90
282.96	21.85
283.42	41.51
283.88	67.72
284.34	170.39
284.80	100.49
285.26	8.74
285.72	4.37
286.18	-19.66
286.64	19.66
287.10	-39.32
287.56	13.11
288.02	13.11
288.48	-6.55
288.94	-8.74
289.40	19.66
289.86	-13.11
290.32	-56.80
290.78	13.11
291.23	26.21
291.69	37.14
292.15	34.95
292.61	-17.48
293.07	-4.37
293.53	39.32
293.99	17.48
294.45	-41.51
294.91	-30.58
295.37	50.24
295.83	-72.09
296.29	72.09
296.74	76.46
297.20	48.06
297.66	-4.37
298.12	45.87
298.58	0.00
299.04	32.77
299.50	50.24
299.95	-43.69
300.41	117.96
300.87	93.93
301.33	-13.11
301.79	-93.93
302.25	19.66
302.70	37.14
303.16	-89.56
303.62	-4.37
304.08	-48.06
304.54	28.40
305.00	187.87
305.45	157.28
305.91	32.77
306.37	19.66
306.83	45.87
307.28	28.40
307.74	13.11
308.20	26.21
308.66	-32.77
309.11	-6.55
309.57	17.48
310.03	-32.77
310.49	-30.58
310.94	-24.03
311.40	21.84
311.86	30.58
312.31	-13.11
312.77	45.87
313.23	-24.03
313.69	24.03
314.14	24.03
314.60	41.51
315.06	43.69
315.51	-8.74
315.97	32.77
316.43	-21.85
316.88	21.85
317.34	91.75
317.80	50.24
318.25	-34.95
318.71	-2.18
319.16	28.40
319.62	15.29
320.08	6.55
320.53	72.09
320.99	24.03
321.45	28.40
321.90	13.11
322.36	8.74
322.81	56.80
323.27	30.58
323.73	80.83
324.18	34.95
324.64	63.35
325.09	-13.11
325.55	63.35
326.00	43.69
326.46	76.46
326.91	67.72
327.37	45.87
327.82	32.77
328.28	74.27
328.74	65.54
329.19	133.25
329.65	61.17
330.10	48.06
330.56	67.72
331.01	76.46
331.47	34.95
331.92	91.75
332.38	74.27
332.83	124.52
333.28	67.72
333.74	4.37
334.19	65.54
334.65	113.59
335.10	30.58
335.56	50.24
336.01	-2.18
336.47	2.18
336.92	-10.92
337.37	56.80
337.83	30.58
338.28	30.58
338.74	15.29
339.19	-2.18
339.64	-4.37
340.10	-21.85
340.55	78.64
341.01	15.29
341.46	96.12
341.91	21.84
342.37	41.51
342.82	-37.14
343.27	113.59
343.73	4.37
344.18	48.06
344.63	104.86
345.09	65.53
345.54	63.35
345.99	76.46
346.45	28.40
346.90	28.40
347.35	37.14
347.81	48.06
348.26	-2.18
348.71	91.75
349.17	126.70
349.62	-37.14
350.07	61.17
350.52	93.93
350.98	120.15
351.43	-2.18
351.88	39.32
352.33	78.64
352.79	80.83
353.24	6.55
353.69	21.85
354.14	69.90
354.60	43.69
355.05	10.92
355.50	69.90
355.95	39.32
356.40	67.72
356.86	122.33
357.31	141.99
357.76	100.49
358.21	15.29
358.66	78.64
359.12	-15.29
359.57	-4.37
360.02	115.78
360.47	65.53
360.92	56.80
361.37	-21.85
361.82	69.90
362.28	45.87
362.73	56.80
363.18	-10.92
363.63	65.53
364.08	148.55
364.53	85.20
364.98	41.51
365.43	117.96
365.89	54.61
366.34	58.98
366.79	32.77
367.24	179.13
367.69	37.14
368.14	43.69
368.59	74.27
369.04	76.46
369.49	100.49
369.94	98.30
370.39	155.10
370.84	102.67
371.29	96.12
371.74	157.28
372.19	131.07
372.64	-21.85
373.09	28.40
373.54	159.47
373.99	85.20
374.44	176.94
374.89	102.67
375.34	69.90
375.79	157.28
376.24	63.35
376.69	128.89
377.14	172.58
377.59	98.30
378.04	58.98
378.49	152.92
378.94	124.52
379.39	150.73
379.84	216.27
380.29	102.67
380.74	89.56
381.19	50.24
381.63	122.33
382.08	220.63
382.53	150.73
382.98	187.87
383.43	122.33
383.88	131.07
384.33	113.59
384.78	96.12
385.23	91.75
385.67	135.44
386.12	214.08
386.57	10.92
387.02	80.83
387.47	137.62
387.92	85.20
388.37	196.61
388.81	67.72
389.26	192.24
389.71	148.55
390.16	198.79
390.61	157.28
391.05	152.91
391.50	176.94
391.95	163.84
392.40	192.24
392.85	87.38
393.29	85.20
393.74	220.63
394.19	194.42
394.64	168.21
395.08	200.97
395.53	128.89
395.98	107.04
396.43	78.64
396.87	266.51
397.32	218.45
397.77	216.27
398.22	174.76
398.66	131.07
399.11	225.00
399.56	220.63
400.00	161.65
400.45	196.61
400.90	96.12
401.34	174.76
401.79	172.58
402.24	194.42
402.68	205.34
403.13	205.34
403.58	168.21
404.02	148.55
404.47	187.87
404.92	185.68
405.36	216.27
405.81	135.44
406.26	240.29
406.70	214.08
407.15	185.68
407.59	318.94
408.04	262.14
408.49	244.66
408.93	211.90
409.38	128.89
409.82	214.08
410.27	235.93
410.71	144.18
411.16	168.21
411.61	227.19
412.05	163.84
412.50	194.42
412.94	216.27
413.39	259.96
413.83	161.65
414.28	141.99
414.72	148.55
415.17	262.14
415.61	198.79
416.06	257.77
416.50	233.74
416.95	187.87
417.39	242.48
417.84	323.31
418.28	205.34
418.73	220.63
419.17	299.28
419.62	196.61
420.06	161.65
420.51	238.11
420.95	303.65
421.40	262.14
421.84	192.24
422.29	286.17
422.73	318.94
423.17	229.37
423.62	268.69
424.06	369.18
424.51	273.06
424.95	227.19
425.39	166.02
425.84	155.10
426.28	218.45
426.73	273.06
427.17	281.80
427.61	181.31
428.06	196.61
428.50	259.96
428.94	220.63
429.39	299.28
429.83	238.11
430.27	358.26
430.72	277.43
431.16	207.53
431.60	222.82
432.05	244.66
432.49	308.01
432.93	404.13
433.38	249.03
433.82	345.15
434.26	290.54
434.71	369.18
435.15	314.57
435.59	240.29
436.03	297.09
436.48	266.51
436.92	360.44
437.36	358.26
437.80	417.24
438.25	345.15
438.69	410.69
439.13	340.78
439.57	340.78
440.02	257.77
440.46	388.84
440.90	327.67
441.34	369.18
441.79	264.32
442.23	246.85
442.67	334.23
443.11	388.84
443.55	334.23
443.99	277.43
444.44	417.24
444.88	460.93
445.32	410.69
445.76	460.93
446.20	482.77
446.64	454.38
447.09	463.11
447.53	375.73
447.97	388.84
448.41	530.83
448.85	495.88
449.29	528.65
449.73	452.19
450.17	543.94
450.62	519.91
451.06	624.77
451.50	574.52
451.94	454.38
452.38	478.41
452.82	530.83
453.26	592.00
453.70	637.87
454.14	515.54
454.58	583.26
455.02	605.11
455.46	576.71
455.90	633.51
456.34	495.88
456.78	650.98
457.22	616.03
457.66	631.32
458.10	616.03
458.54	675.01
458.98	725.25
459.42	679.38
459.86	690.30
460.30	718.70
460.74	733.99
461.18	720.89
461.62	729.62
462.06	762.39
462.50	699.04
462.94	731.81
463.38	779.87
463.82	640.06
464.26	747.10
464.70	738.36
465.14	788.60
465.58	924.04
466.02	873.80
466.46	819.19
466.90	825.74
467.34	908.75
467.77	976.47
468.21	1022.35
468.65	869.43
469.09	1000.50
469.53	897.83
469.97	961.18
470.41	980.84
470.85	1007.05
471.28	963.36
471.72	1057.30
472.16	1015.79
472.60	985.21
473.04	1037.64
473.48	1164.34
473.91	1221.14
474.35	1140.31
474.79	1072.59
475.23	1140.31
475.67	1144.68
476.11	1131.57
476.54	1286.67
476.98	1157.78
477.42	1336.91
477.86	1173.08
478.29	1221.14
478.73	1308.52
479.17	1301.96
479.61	1312.88
480.04	1249.53
480.48	1284.49
480.92	1304.15
481.36	1387.16
481.79	1406.82
482.23	1413.37
482.67	1374.05
483.11	1585.95
483.54	1435.22
483.98	1526.97
484.42	1496.38
484.85	1553.18
485.29	1647.11
485.73	1533.52
486.16	1489.83
486.60	1627.45
487.04	1546.63
487.47	1695.17
487.91	1703.91
488.35	1688.62
488.78	1662.40
489.22	1832.80
489.66	1773.81
490.09	1609.98
490.53	1850.27
490.97	1828.43
491.40	1832.80
491.84	1854.64
492.27	1815.32
492.71	1854.64
493.15	1891.78
493.58	2044.69
494.02	2005.37
494.45	1987.90
494.89	2040.32
495.32	2066.54
495.76	2020.66
496.20	1915.81
496.63	2156.10
497.07	2092.75
497.50	2188.87
497.94	2180.13
498.37	2121.15
498.81	2215.08
499.24	2167.02
499.68	2289.36
500.11	2317.75
500.55	2219.45
500.98	2313.39
501.42	2442.27
501.85	2328.68
502.29	2461.93
502.72	2453.19
503.16	2531.84
503.59	2525.28
504.03	2488.15
504.46	2555.86
504.90	2564.60
505.33	2558.05
505.77	2558.05
506.20	2588.63
506.63	2769.95
507.07	2756.84
507.50	2662.91
507.94	2673.83
508.37	2669.46
508.81	2774.32
509.24	2815.82
509.67	2848.59
510.11	2859.51
510.54	2879.17
510.98	2787.42
511.41	2896.65
511.84	2804.90
512.28	2870.43
512.71	2739.36
513.14	2931.60
513.58	2844.22
514.01	2874.80
514.44	2863.88
514.88	2905.38
515.31	2818.00
515.74	2901.02
516.18	2874.80
516.61	2870.43
517.04	2846.40
517.48	2807.08
517.91	2927.23
518.34	2894.46
518.77	2756.84
519.21	2855.14
519.64	2785.24
520.07	2826.74
520.51	2632.32
520.94	2815.82
521.37	2721.89
521.80	2750.29
522.24	2641.06
522.67	2785.24
523.10	2702.23
523.53	2730.62
523.97	2774.32
524.40	2791.79
524.83	2634.51
525.26	2721.89
525.69	2590.82
526.13	2700.04
526.56	2756.84
526.99	2579.89
527.42	2643.24
527.85	2721.89
528.28	2693.49
528.72	2704.41
529.15	2573.34
529.58	2658.54
530.01	2606.11
530.44	2660.72
530.87	2621.40
531.31	2643.24
531.74	2765.58
532.17	2700.04
532.60	2614.85
533.03	2741.55
533.46	2566.79
533.89	2658.54
534.32	2734.99
534.75	2636.69
535.19	2582.08
535.62	2638.88
536.05	2553.68
536.48	2737.18
536.91	2798.34
537.34	2636.69
537.77	2686.94
538.20	2551.50
538.63	2676.01
539.06	2662.91
539.49	2859.51
539.92	2649.80
540.35	2641.06
540.78	2885.72
541.21	2623.58
541.64	2728.44
542.07	2769.95
542.50	2756.84
542.93	2669.46
543.36	2796.16
543.79	2730.62
544.22	2859.51
544.65	2842.03
545.08	2719.70
545.51	2848.59
545.94	2907.57
546.37	2949.08
546.80	2892.28
547.23	2621.40
547.66	2783.05
548.09	3010.24
548.52	2977.47
548.95	2920.68
549.38	3049.56
549.80	3008.06
550.23	3080.14
550.66	3123.84
551.09	3067.04
551.52	3084.51
551.95	3112.91
552.38	3198.11
552.81	2964.37
553.24	3257.09
553.66	3095.44
554.09	3043.01
554.52	3261.46
554.95	3187.19
555.38	3237.43
555.81	3228.69
556.24	3224.32
556.66	3217.77
557.09	3130.39
557.52	3377.24
557.95	3307.33
558.38	3342.29
558.80	3259.27
559.23	3235.24
559.66	3567.29
560.09	3368.50
560.52	3560.74
560.94	3305.15
561.37	3385.98
561.80	3541.07
562.23	3427.48
562.65	3438.40
563.08	3683.07
563.51	3702.73
563.94	3733.31
564.36	3654.67
564.79	3689.62
565.22	3774.82
565.65	3624.09
566.07	3597.87
566.50	3530.15
566.93	3770.45
567.35	3709.28
567.78	3831.61
568.21	3864.38
568.63	3936.47
569.06	3982.34
569.49	3875.30
569.91	3921.18
570.34	3925.55
570.77	3943.02
571.19	3991.08
571.62	3988.90
572.05	4045.69
572.47	4135.26
572.90	3975.79
573.33	4178.95
573.75	4139.63
574.18	4268.51
574.60	4447.64
575.03	4314.39
575.46	4434.54
575.88	4360.26
576.31	4401.77
576.73	4390.84
577.16	4432.35
577.59	4535.02
578.01	4541.58
578.44	4478.22
578.86	4423.61
579.29	4561.24
579.71	4419.24
580.14	4336.23
580.56	4517.55
580.99	4572.16
581.41	4377.74
581.84	4338.42
582.26	4434.54
582.69	4388.66
583.11	4447.64
583.54	4410.51
583.96	4220.45
584.39	4148.37
584.81	4323.13
585.24	4205.16
585.66	4229.19
586.09	3993.27
586.51	4209.53
586.94	4222.64
587.36	4117.78
587.79	4152.73
588.21	4109.04
588.64	4130.89
589.06	3953.94
589.48	4036.96
589.91	3910.25
590.33	4021.66
590.76	4141.81
591.18	4021.66
591.60	4017.30
592.03	4124.34
592.45	3997.63
592.88	4148.37
593.30	3971.42
593.72	3779.18
594.15	3639.38
594.57	3827.24
595.00	3619.72
595.42	3770.45
595.84	3722.39
596.27	3665.59
596.69	3798.85
597.11	3728.94
597.54	3853.46
597.96	3905.89
598.38	3785.74
598.80	3578.21
599.23	3886.23
599.65	3746.42
600.07	3700.54
600.50	3838.17
600.92	3807.58
601.34	3571.66
601.77	3827.24
602.19	3545.44
602.61	3704.91
603.03	3632.82
603.46	3573.84
603.88	3604.42
604.30	3549.81
604.72	3652.48
605.15	3613.16
605.57	3669.96
605.99	3724.57
606.41	3514.86
606.83	3661.22
607.26	3538.89
607.68	3595.69
608.10	3582.58
608.52	3543.26
608.94	3538.89
609.37	3468.99
609.79	3525.78
610.21	3589.13
610.63	3652.48
611.05	3606.61
611.47	3672.14
611.90	3602.24
612.32	3700.54
612.74	3713.65
613.16	3510.49
613.58	3615.35
614.00	3617.53
614.42	3698.36
614.84	3617.53
615.27	3757.34
615.69	3571.66
616.11	3860.01
616.53	3680.88
616.95	3772.63
617.37	3860.01
617.79	3818.51
618.21	3868.75
618.63	3888.41
619.05	3742.05
619.47	3910.25
619.89	3809.77
620.31	3835.98
620.74	3676.51
621.16	3864.38
621.58	3921.18
622.00	3971.42
622.42	3866.57
622.84	4056.62
623.26	3868.75
623.68	3964.87
624.10	3827.24
624.52	3844.72
624.94	3894.96
625.36	4102.49
625.78	4130.89
626.20	4006.37
626.62	3953.94
627.03	4111.23
627.45	3886.23
627.87	3960.50
628.29	4080.65
628.71	4150.55
629.13	4168.03
629.55	4058.80
629.97	4115.60
630.39	4202.98
630.81	4152.73
631.23	4133.07
631.65	4189.87
632.07	4358.08
632.49	4296.91
632.90	4231.38
633.32	4104.68
633.74	4270.70
634.16	4159.29
634.58	4388.66
635.00	4362.45
635.42	4222.64
635.83	4292.54
636.25	4334.05
636.67	4294.73
637.09	4371.18
637.51	4517.55
637.93	4425.80
638.34	4449.83
638.76	4478.22
639.18	4406.14
639.60	4775.32
640.02	4423.61
640.44	4644.25
640.85	4661.72
641.27	4591.82
641.69	4744.73
642.11	4661.72
642.52	4941.34
642.94	5052.75
643.36	4969.74
643.78	4882.36
644.19	4919.49
644.61	5009.06
645.03	5039.64
645.45	4880.17
645.86	4998.14
646.28	4954.45
646.70	4987.21
647.12	4945.71
647.53	4987.21
647.95	4956.63
648.37	5065.86
648.78	4985.03
649.20	5002.50
649.62	5030.90
650.03	5111.73
650.45	5175.08
650.87	4934.79
651.28	5092.07
651.70	4991.58
652.12	5142.31
652.53	4956.63
652.95	5107.36
653.37	4989.40
653.78	5105.18
654.20	5030.90
654.61	5092.07
655.03	5026.53
655.45	5035.27
655.86	4982.84
656.28	4936.97
656.69	5220.96
657.11	5166.34
657.53	5161.97
657.94	5113.91
658.36	5039.64
658.77	5074.59
659.19	5135.76
659.60	5048.38
660.02	5107.36
660.44	5068.04
660.85	5203.48
661.27	5124.84
661.68	4915.12
662.10	4974.11
662.51	4939.15
662.93	5074.59
663.34	5078.96
663.76	5028.72
664.17	5046.20
664.59	4928.23
665.00	5030.90
665.42	4928.23
665.83	5004.69
666.25	5048.38
666.66	5068.04
667.08	5070.22
667.49	4858.33
667.90	4982.84
668.32	5004.69
668.73	4871.44
669.15	5148.87
669.56	4998.14
669.98	4943.52
670.39	5096.44
670.80	5074.59
671.22	4974.11
671.63	4880.17
672.05	5054.93
672.46	4985.03
672.87	4963.18
673.29	4961.00
673.70	5159.79
674.12	4753.47
674.53	4799.35
674.94	4945.71
675.36	4930.42
675.77	4893.28
676.18	4967.55
676.60	4921.68
677.01	4864.88
677.42	5019.98
677.84	4853.96
678.25	4751.29
678.66	4882.36
679.08	4893.28
679.49	4792.79
679.90	4897.65
680.31	4860.51
680.73	4923.86
681.14	5035.27
681.55	4849.59
681.97	4834.30
682.38	4829.93
682.79	4823.38
683.20	4856.14
683.62	4766.58
684.03	4762.21
684.44	4733.81
684.85	4827.74
685.27	4965.37
685.68	4790.61
686.09	4849.59
686.50	4781.87
686.91	4720.70
687.33	4840.85
687.74	4615.85
688.15	4834.30
688.56	4867.07
688.97	4661.72
689.39	4788.42
689.80	4635.51
690.21	4679.20
690.62	4757.84
691.03	4639.88
691.44	4556.87
691.86	4668.28
692.27	4607.11
692.68	4639.88
693.09	4838.67
693.50	4489.15
693.91	4565.60
694.32	4701.04
694.73	4659.54
695.15	4554.68
695.56	4458.56
695.97	4347.16
696.38	4620.22
696.79	4663.91
697.20	4725.07
697.61	4578.71
698.02	4578.71
698.43	4615.85
698.84	4528.47
699.25	4609.30
699.66	4687.94
700.07	4561.24
700.48	4543.76
700.90	4427.98
701.31	4657.35
701.72	4541.58
702.13	4631.14
702.54	4500.07
702.95	4563.42
703.36	4604.93
703.77	4482.59
704.18	4524.10
704.59	4445.46
705.00	4607.11
705.41	4591.82
705.82	4589.63
706.22	4344.97
706.63	4524.10
707.04	4430.17
707.45	4467.30
707.86	4482.59
708.27	4493.52
708.68	4379.92
709.09	4467.30
709.50	4624.59
709.91	4480.41
710.32	4390.84
710.73	4596.19
711.14	4421.43
711.55	4480.41
711.95	4650.80
712.36	4596.19
712.77	4556.87
713.18	4316.57
713.59	4484.78
714.00	4452.01
714.41	4589.63
714.82	4530.65
715.22	4480.41
715.63	4537.21
716.04	4395.21
716.45	4524.10
716.86	4417.06
717.27	4443.27
717.67	4639.88
718.08	4683.57
718.49	4659.54
718.90	4622.40
719.31	4476.04
719.71	4628.96
720.12	4670.46
720.53	4661.72
720.94	4670.46
721.35	4718.52
721.75	4781.87
722.16	4764.39
722.57	4762.21
722.98	4687.94
723.38	4720.70
723.79	4845.22
724.20	4690.12
724.61	4705.41
725.01	4786.24
725.42	4897.65
725.83	4928.23
726.23	5127.02
726.64	4995.95
727.05	4976.29
727.45	5006.87
727.86	5068.04
728.27	5098.62
728.68	4912.94
729.08	5192.56
729.49	5216.59
729.90	5225.32
730.30	5137.94
730.71	5168.53
731.11	5345.47
731.52	5282.12
731.93	5249.35
732.33	5345.47
732.74	5452.51
733.15	5437.22
733.55	5421.93
733.96	5555.18
734.36	5448.14
734.77	5629.46
735.18	5629.46
735.58	5594.50
735.99	5732.13
736.39	5697.18
736.80	5871.94
737.21	6092.57
737.61	6114.42
738.02	5909.07
738.42	5911.26
738.83	6158.11
739.23	6099.12
739.64	6254.22
740.04	6313.20
740.45	6286.99
740.85	6210.53
741.26	6483.60
741.66	7014.43
742.07	6634.33
742.47	6632.14
742.88	6568.79
743.28	6806.90
743.69	6813.46
744.09	6944.53
744.50	6944.53
744.90	6988.22
745.31	7136.76
745.71	7250.36
746.12	7283.12
746.52	7394.53
746.93	7571.48
747.33	7595.51
747.73	7634.83
748.14	7420.75
748.54	7811.77
748.95	7759.34
749.35	7754.97
749.76	8012.75
750.16	7940.66
750.56	8084.83
750.97	8187.51
751.37	8322.94
751.78	8451.83
752.18	8316.39
752.58	8471.49
752.99	8696.49
753.39	8515.18
753.79	8753.29
754.20	8783.87
754.60	8814.46
755.00	8921.50
755.41	9067.86
755.81	9102.81
756.21	8978.30
756.62	9179.27
757.02	9375.87
757.42	9522.24
757.83	9524.42
758.23	9565.93
758.63	9437.04
759.03	9635.83
759.44	9697.00
759.84	9878.31
760.24	9852.10
760.65	9878.31
761.05	10090.21
761.45	10020.30
761.85	9919.81
762.26	10278.07
762.66	10428.80
763.06	10450.65
763.46	10481.23
763.87	10511.81
764.27	10476.86
764.67	10568.61
765.07	10562.06
765.47	10830.75
765.88	10898.47
766.28	10690.94
766.68	10889.73
767.08	11088.52
767.48	11169.35
767.88	11090.71
768.29	11195.56
768.69	11226.15
769.09	11350.66
769.49	11300.42
769.89	11525.42
770.29	11282.94
770.70	11331.00
771.10	11501.39
771.50	11573.48
771.90	11392.17
772.30	11612.80
772.70	11724.21
773.10	11678.34
773.50	11776.64
773.90	11767.90
774.30	11654.31
774.71	11997.27
775.11	12054.07
775.51	12023.49
775.91	12078.10
776.31	12257.23
776.71	11844.36
777.11	11815.96
777.51	11953.58
777.91	12067.18
778.31	11997.27
778.71	12082.47
779.11	11850.91
779.51	12259.41
779.91	12174.22
780.31	12010.38
780.71	11949.22
781.11	11938.29
781.51	12228.83
781.91	12206.99
782.31	11992.90
782.71	12016.93
783.11	12152.37
783.51	12300.92
783.91	12193.88
784.31	12220.09
784.71	12381.75
785.11	12346.79
785.51	12431.99
785.91	12187.33
786.31	12375.19
786.71	12187.33
787.11	12447.28
787.50	12224.46
787.90	12335.87
788.30	12102.13
788.70	12309.66
789.10	12283.44
789.50	12099.95
789.90	11892.42
790.30	12340.24
790.70	12248.49
791.09	12165.48
791.49	12141.45
791.89	12137.08
792.29	12093.39
792.69	12123.98
793.09	12064.99
793.49	11925.19
793.88	11719.84
794.28	11842.17
794.68	11809.41
795.08	11691.44
795.48	11682.71
795.88	11781.01
796.27	11588.77
796.67	11584.40
797.07	11735.13
797.47	11912.08
797.86	11944.85
798.26	11802.85
798.66	11750.43
799.06	11545.08
799.46	11584.40
799.85	11724.21
800.25	11595.33
800.65	11702.37
801.05	11623.72
801.44	11673.97
801.84	11525.42
802.24	11656.49
802.63	11278.57
803.03	11612.80
803.43	11368.14
803.83	11285.13
804.22	11217.41
804.62	11363.77
805.02	11344.11
805.41	11462.07
805.81	11337.56
806.21	11403.09
806.60	11121.29
807.00	11226.15
807.40	11127.84
807.79	11186.82
808.19	11097.26
808.59	11020.80
808.98	11103.81
809.38	11130.03
809.77	10929.05
810.17	11304.79
810.57	11114.74
810.96	10911.58
811.36	10959.64
811.75	10961.82
812.15	10911.58
812.55	10977.11
812.94	10780.51
813.34	10780.51
813.73	10621.04
814.13	10603.56
814.53	10623.22
814.92	10586.09
815.32	10398.22
815.71	10542.40
816.11	10680.02
816.50	10542.40
816.90	10465.94
817.29	10385.11
817.69	10572.98
818.08	10341.42
818.48	10138.26
818.87	10125.16
819.27	10254.04
819.66	10138.26
820.06	10455.02
820.45	10101.13
820.85	10376.38
821.24	10103.31
821.64	10109.87
822.03	10081.47
822.43	10083.65
822.82	9926.37
823.22	9705.73
823.61	9688.26
824.00	10002.83
824.40	9775.64
824.79	9607.43
825.19	9605.25
825.58	9504.76
825.98	9683.89
826.37	9659.86
826.76	9544.08
827.16	9664.23
827.55	9491.65
827.94	9790.93
828.34	9515.68
828.73	9539.71
829.13	9375.87
829.52	9378.06
829.91	9561.56
830.31	9437.04
830.70	9384.61
831.09	9275.39
831.49	9284.12
831.88	9102.81
832.27	9388.98
832.67	9367.14
833.06	9004.51
833.45	9115.92
833.85	9054.75
834.24	9148.69
834.63	8882.18
835.02	8982.66
835.42	8742.37
835.81	8770.77
836.20	8967.37
836.60	8840.67
836.99	8831.93
837.38	8842.86
837.77	8923.68
838.17	8748.92
838.56	8687.76
838.95	8392.85
839.34	8543.58
839.74	8528.29
840.13	8578.53
840.52	8716.15
840.91	8399.40
841.30	8458.38
841.70	8412.51
842.09	8526.10
842.48	8305.47
842.87	8253.04
843.26	8355.71
843.66	8165.66
844.05	8368.82
844.44	8172.21
844.83	8161.29
845.22	8041.14
845.61	7896.97
846.00	7964.69
846.40	8137.26
846.79	7805.22
847.18	8108.86
847.57	7881.68
847.96	7846.72
848.35	7776.82
848.74	7752.79
849.13	7772.45
849.53	7702.55
849.92	7680.70
850.31	7663.23
850.70	7562.74
851.09	7661.04
851.48	7612.98
851.87	7484.10
852.26	7547.45
852.65	7582.40
853.04	7615.17
853.43	7307.15
853.82	7604.24
854.21	7481.91
854.60	7444.78
854.99	7296.23
855.38	7252.54
855.77	7256.91
856.16	7283.12
856.55	7302.78
856.94	7390.16
857.33	7361.76
857.72	7055.93
858.11	7040.64
858.50	7121.47
858.89	6968.56
859.28	7158.61
859.67	6911.76
860.06	7047.20
860.45	6883.36
860.84	6981.66
861.23	6850.59
861.62	6881.17
862.01	6846.22
862.40	6817.82
862.79	6820.01
863.18	6560.05
863.57	6608.11
863.95	6695.49
864.34	6595.01
864.73	6645.25
865.12	6758.84
865.51	6612.48
865.90	6575.34
866.29	6610.30
866.68	6492.33
867.06	6328.50
867.45	6359.08
867.84	6527.29
868.23	6446.46
868.62	6494.52
869.01	6311.02
869.40	6356.89
869.78	6175.58
870.17	6319.76
870.56	6236.75
870.95	6276.07
871.34	6330.68
871.72	6175.58
872.11	6177.77
872.50	6068.54
872.89	5983.35
873.28	6075.09
873.66	6070.73
874.05	6022.67
874.44	5983.35
874.83	5845.72
875.21	5957.13
875.60	6053.25
875.99	6022.67
876.38	5699.36
876.76	5968.05
877.15	5965.87
877.54	5843.54
877.92	5662.22
878.31	5708.10
878.70	5579.21
879.09	5555.18
879.47	5819.51
879.86	5640.38
880.25	5539.89
880.63	5703.73
881.02	5553.00
881.41	5504.94
881.79	5590.14
882.18	5426.30
882.57	5502.76
882.95	5537.71
883.34	5437.22
883.73	5299.60
884.11	5380.42
884.50	5391.35
884.88	5417.56
885.27	5354.21
885.66	5284.31
886.04	5341.10
886.43	5321.44
886.81	5247.17
887.20	5179.45
887.59	5317.07
887.97	5310.52
888.36	5210.03
888.74	5247.17
889.13	5205.66
889.52	5303.97
889.90	5288.67
890.29	5286.49
890.67	5334.55
891.06	5175.08
891.44	5336.73
891.83	5137.94
892.21	5310.52
892.60	5238.43
892.98	5214.40
893.37	5415.38
893.75	5380.42
894.14	5295.23
894.52	5212.22
894.91	5352.02
895.29	5297.41
895.68	5249.35
896.06	5212.22
896.45	5214.40
896.83	5216.59
897.22	5264.64
897.60	5469.99
897.98	5325.81
898.37	5223.14
898.75	5474.36
899.14	5301.78
899.52	5343.29
899.91	5354.21
900.29	5358.58
900.67	5356.39
901.06	5188.19
901.44	5321.44
901.83	5255.91
902.21	5347.66
902.59	5212.22
902.98	5303.97
903.36	5463.43
903.75	5424.11
904.13	5266.83
904.51	5148.87
904.90	5312.70
905.28	5323.63
905.66	5325.81
906.05	5273.38
906.43	5362.95
906.81	5369.50
907.20	5127.02
907.58	5220.96
907.96	5133.58
908.35	5127.02
908.73	5120.47
909.11	5107.36
909.49	5111.73
909.88	5214.40
910.26	5100.81
910.64	5094.25
911.02	5102.99
911.41	5068.04
911.79	5111.73
912.17	4825.56
912.55	4875.80
912.94	4821.19
913.32	4838.67
913.70	4698.86
914.08	4738.18
914.47	4687.94
914.85	4733.81
915.23	4679.20
915.61	4701.04
915.99	4683.57
916.38	4611.48
916.76	4465.12
917.14	4502.25
917.52	4497.89
917.90	4401.77
918.29	4528.47
918.67	4224.82
919.05	4185.50
919.43	4316.57
919.81	4237.93
920.19	4202.98
920.57	4194.24
920.96	4036.96
921.34	3960.50
921.72	3873.12
922.10	3932.10
922.48	3888.41
922.86	3718.02
923.24	3733.31
923.62	3790.11
924.00	3685.25
924.39	3578.21
924.77	3493.02
925.15	3412.19
925.53	3501.75
925.91	3453.69
926.29	3554.18
926.67	3423.11
927.05	3233.06
927.43	3174.08
927.81	3104.17
928.19	3067.04
928.57	3064.85
928.95	3056.12
929.33	3005.87
929.71	3014.61
930.09	2842.03
930.47	2750.29
930.85	2826.74
931.23	2824.56
931.61	2531.84
931.99	2719.70
932.37	2669.46
932.75	2599.56
933.13	2525.28
933.51	2562.42
933.89	2392.03
934.27	2409.50
934.65	2431.35
935.03	2372.37
935.41	2319.94
935.79	2280.62
936.17	2295.91
936.54	2260.96
936.92	2053.43
937.30	2173.58
937.68	2304.65
938.06	2158.29
938.44	2046.88
938.82	2005.37
939.20	2044.69
939.58	1970.42
939.95	2092.75
940.33	1957.31
940.71	2014.11
941.09	1902.70
941.47	1955.13
941.85	1935.47
942.23	1933.28
942.60	1758.52
942.98	1928.91
943.36	1832.80
943.74	1813.14
944.12	1710.46
944.50	1706.09
944.87	1758.52
945.25	1795.66
945.63	1769.44
946.01	1826.24
946.38	1605.61
946.76	1730.12
947.14	1673.33
947.52	1712.65
947.90	1782.55
948.27	1703.91
948.65	1701.73
949.03	1679.88
949.41	1498.57
949.78	1662.40
950.16	1548.81
950.54	1546.63
950.91	1697.36
951.29	1559.73
951.67	1605.61
952.05	1531.33
952.42	1520.41
952.80	1636.19
953.18	1522.60
953.55	1518.23
953.93	1601.24
954.31	1596.87
954.68	1513.86
955.06	1463.62
955.44	1594.68
955.81	1603.42
956.19	1533.52
956.57	1570.66
956.94	1581.58
957.32	1640.56
957.69	1492.01
958.07	1618.71
958.45	1599.05
958.82	1483.28
959.20	1575.02
959.58	1557.55
959.95	1496.38
960.33	1590.32
960.70	1498.57
961.08	1502.94
961.45	1561.92
961.83	1518.23
962.21	1542.26
962.58	1446.14
962.96	1492.01
963.33	1647.11
963.71	1546.63
964.08	1478.91
964.46	1544.44
964.83	1564.10
965.21	1531.33
965.58	1489.83
965.96	1609.98
966.33	1570.66
966.71	1424.29
967.08	1522.60
967.46	1522.60
967.83	1467.98
968.21	1516.04
968.58	1426.48
968.96	1485.46
969.33	1413.37
969.71	1395.90
970.08	1424.29
970.46	1472.35
970.83	1507.30
971.20	1618.71
971.58	1371.87
971.95	1496.38
972.33	1454.88
972.70	1360.94
973.08	1382.79
973.45	1343.47
973.82	1448.32
974.20	1476.72
974.57	1402.45
974.95	1485.46
975.32	1391.53
975.69	1315.07
976.07	1232.06
976.44	1387.16
976.81	1393.71
977.19	1395.90
977.56	1260.46
977.93	1293.22
978.31	1378.42
978.68	1280.12
979.05	1426.48
979.43	1343.47
979.80	1343.47
980.17	1157.78
980.55	1282.30
980.92	1297.59
981.29	1258.27
981.67	1262.64
982.04	1251.72
982.41	1301.96
982.78	1247.35
983.16	1184.00
983.53	1232.06
983.90	1199.29
984.27	1186.18
984.65	1236.43
985.02	1229.87
985.39	1133.76
985.76	1188.37
986.14	1234.24
986.51	1066.04
986.88	1166.52
987.25	1122.83
987.63	1094.43
988.00	1052.93
988.37	1107.54
988.74	1146.86
989.11	1225.50
989.48	993.95
989.86	1129.39
990.23	1111.91
990.60	1109.73
990.97	1017.98
991.34	1109.73
991.71	1044.19
992.09	1039.82
992.46	1004.87
992.83	1011.42
993.20	862.88
993.57	921.86
993.94	882.54
994.31	943.70
994.68	900.01
995.06	1028.90
995.43	1098.80
995.80	906.57
996.17	945.89
996.54	854.14
996.91	865.06
997.28	952.44
997.65	889.09
998.02	856.32
998.39	854.14
998.76	882.54
999.13	843.22
999.50	976.47
999.87	810.45
1000.24	873.80
1000.61	830.11
1000.99	873.80
1001.36	845.40
1001.73	823.56
1002.10	856.32
1002.47	814.82
1002.84	799.53
1003.21	836.66
1003.57	727.44
1003.94	797.34
1004.31	753.65
1004.68	795.16
1005.05	808.26
1005.42	775.50
1005.79	602.92
1006.16	681.56
1006.53	720.88
1006.90	650.98
1007.27	640.06
1007.64	740.55
1008.01	633.50
1008.38	648.80
1008.75	624.77
1009.12	709.96
1009.49	716.52
1009.85	655.35
1010.22	736.18
1010.59	677.19
1010.96	609.48
1011.33	570.15
1011.70	629.14
1012.07	602.92
1012.44	613.84
1012.80	670.64
1013.17	661.90
1013.54	524.28
1013.91	646.61
1014.28	570.15
1014.65	600.74
1015.01	587.63
1015.38	563.60
1015.75	594.18
1016.12	528.65
1016.49	513.36
1016.85	474.04
1017.22	600.74
1017.59	471.85
1017.96	491.51
1018.33	498.07
1018.69	445.64
1019.06	533.02
1019.43	517.73
1019.80	487.14
1020.16	445.64
1020.53	517.73
1020.90	528.65
1021.27	428.16
1021.63	417.24
1022.00	504.62
1022.37	478.41
1022.73	487.14
1023.10	454.38
1023.47	447.82
1023.84	513.36
1024.20	415.06
1024.57	502.43
1024.94	401.95
1025.30	439.08
1025.67	340.78
1026.04	428.16
1026.40	386.66
1026.77	406.32
1027.14	434.72
1027.50	336.41
1027.87	406.32
1028.23	371.36
1028.60	443.45
1028.97	415.06
1029.33	436.90
1029.70	347.34
1030.07	316.75
1030.43	415.05
1030.80	332.04
1031.16	351.70
1031.53	332.04
1031.89	382.29
1032.26	380.10
1032.63	388.84
1032.99	358.26
1033.36	321.12
1033.72	340.78
1034.09	277.43
1034.45	277.43
1034.82	281.80
1035.18	382.29
1035.55	340.78
1035.92	404.13
1036.28	375.73
1036.65	229.37
1037.01	242.48
1037.38	264.32
1037.74	290.54
1038.11	268.69
1038.47	351.70
1038.84	211.90
1039.20	238.11
1039.56	220.63
1039.93	281.80
1040.29	216.27
1040.66	216.27
1041.02	216.27
