185.59	30.58
186.06	30.58
186.53	30.58
187.00	-19.66
187.48	-34.95
187.95	10.92
188.42	28.40
188.89	-85.20
189.36	-67.72
189.83	-15.29
190.30	87.38
190.77	-6.55
191.24	76.46
191.71	2.18
192.18	8.74
192.65	65.54
193.13	-100.49
193.60	21.85
194.07	26.21
194.54	109.22
195.01	43.69
195.48	-10.92
195.95	56.80
196.42	54.61
196.89	109.23
197.36	172.58
197.83	159.47
198.30	144.18
198.77	117.96
199.24	61.17
199.71	6.55
200.18	58.98
200.65	80.83
201.12	65.53
201.59	100.49
202.05	8.74
202.52	63.35
202.99	26.21
203.46	34.95
203.93	85.20
204.40	0.00
204.87	93.93
205.34	98.30
205.81	96.12
206.28	109.22
206.75	144.18
207.22	56.80
207.69	133.25
208.15	93.93
208.62	100.49
209.09	83.01
209.56	76.46
210.03	76.46
210.50	24.03
210.97	96.12
211.43	111.41
211.90	69.90
212.37	-34.95
212.84	111.41
213.31	96.12
213.78	139.81
214.24	58.98
214.71	50.24
215.18	6.55
215.65	85.20
216.12	98.30
216.58	78.64
217.05	15.29
217.52	50.24
217.99	34.95
218.46	13.11
218.92	63.35
219.39	37.14
219.86	76.46
220.33	89.56
220.79	15.29
221.26	43.69
221.73	78.64
222.19	85.20
222.66	96.12
223.13	24.03
223.60	45.87
224.06	54.61
224.53	37.14
225.00	63.35
225.46	87.38
225.93	87.38
226.40	48.06
226.86	102.67
227.33	102.67
227.80	85.20
228.26	48.06
228.73	107.04
229.20	15.29
229.66	63.35
230.13	96.12
230.60	56.80
231.06	109.23
231.53	133.25
232.00	39.32
232.46	-8.74
232.93	78.64
233.39	109.23
233.86	98.30
234.33	52.43
234.79	83.01
235.26	30.58
235.72	98.30
236.19	72.09
236.65	170.39
237.12	56.80
237.59	19.66
238.05	89.56
238.52	15.29
238.98	30.58
239.45	196.61
239.91	74.27
240.38	91.75
240.84	87.38
241.31	128.89
241.77	87.38
242.24	120.15
242.70	63.35
243.17	78.64
243.63	26.21
244.10	6.55
244.56	6.55
245.03	85.20
245.49	45.87
245.96	78.64
246.42	72.09
246.89	115.78
247.35	93.93
247.81	0.00
248.28	74.27
248.74	58.98
249.21	61.17
249.67	98.30
250.14	91.75
250.60	32.77
251.06	111.41
251.53	102.67
251.99	58.98
252.46	65.53
252.92	2.18
253.38	146.36
253.85	72.09
254.31	52.43
254.77	67.72
255.24	104.86
255.70	104.86
256.16	21.85
256.63	43.69
257.09	24.03
257.55	150.73
258.02	37.14
258.48	24.03
258.94	111.41
259.41	87.38
259.87	113.59
260.33	34.95
260.80	-2.18
261.26	126.70
261.72	-17.48
262.18	30.58
262.65	65.54
263.11	107.04
263.57	4.37
264.04	63.35
264.50	137.62
264.96	74.27
265.42	96.12
265.88	72.09
266.35	89.56
266.81	74.27
267.27	111.41
267.73	96.12
268.20	61.17
268.66	131.07
269.12	74.27
269.58	109.23
270.04	-26.21
270.51	50.24
270.97	76.46
271.43	19.66
271.89	-4.37
272.35	124.52
272.81	17.48
273.28	-15.29
273.74	39.32
274.20	24.03
274.66	21.84
275.12	63.35
275.58	67.72
276.04	122.33
276.50	74.27
276.97	-8.74
277.43	24.03
277.89	10.92
278.35	0.00
278.81	76.46
279.27	181.31
279.73	17.48
280.19	139.81
280.65	111.41
281.11	13.11
281.57	98.30
282.03	85.20
282.50	135.44
282.96	157.28
283.42	54.61
283.88	54.61
284.34	146.36
284.80	115.78
285.26	83.01
285.72	74.27
286.18	15.29
286.64	54.61
287.10	21.85
287.56	100.49
288.02	32.77
288.48	54.61
288.94	21.85
289.40	56.80
289.86	74.27
290.32	-13.11
290.78	-39.32
291.23	85.20
291.69	91.75
292.15	2.18
292.61	87.38
293.07	67.72
293.53	8.74
293.99	111.41
294.45	39.32
294.91	48.06
295.37	39.32
295.83	65.53
296.29	76.46
296.74	74.27
297.20	98.30
297.66	89.56
298.12	48.06
298.58	24.03
299.04	96.12
299.50	34.95
299.95	113.59
300.41	131.07
300.87	104.86
301.33	32.77
301.79	-4.37
302.25	87.38
302.70	113.59
303.16	-2.18
303.62	128.89
304.08	54.61
304.54	104.86
305.00	168.21
305.45	157.28
305.91	67.72
306.37	17.48
306.83	-6.55
307.28	80.83
307.74	30.58
308.20	28.40
308.66	74.27
309.11	48.06
309.57	126.70
310.03	69.90
310.49	54.61
310.94	30.58
311.40	10.92
311.86	37.14
312.31	28.40
312.77	176.94
313.23	85.20
313.69	87.38
314.14	67.72
314.60	111.41
315.06	30.58
315.51	50.24
315.97	104.86
316.43	61.17
316.88	54.61
317.34	126.70
317.80	128.89
318.25	-37.14
318.71	2.18
319.16	100.49
319.62	135.44
320.08	52.43
320.53	89.56
320.99	98.30
321.45	131.07
321.90	76.46
322.36	128.89
322.81	2.18
323.27	74.27
323.73	146.36
324.18	131.07
324.64	83.01
325.09	56.80
325.55	72.09
326.00	45.87
326.46	63.35
326.91	48.06
327.37	69.90
327.82	83.01
328.28	137.62
328.74	61.17
329.19	104.86
329.65	91.75
330.10	85.20
330.56	100.49
331.01	170.39
331.47	120.15
331.92	85.20
332.38	146.36
332.83	187.87
333.28	34.95
333.74	58.98
334.19	34.95
334.65	45.87
335.10	41.51
335.56	74.27
336.01	83.01
336.47	-2.18
336.92	113.59
337.37	170.39
337.83	54.61
338.28	157.28
338.74	107.04
339.19	43.69
339.64	10.92
340.10	0.00
340.55	41.51
341.01	41.51
341.46	89.56
341.91	67.72
342.37	0.00
342.82	54.61
343.27	141.99
343.73	91.75
344.18	61.17
344.63	67.72
345.09	87.38
345.54	148.55
345.99	74.27
346.45	111.41
346.90	150.73
347.35	91.75
347.81	83.01
348.26	58.98
348.71	76.46
349.17	83.01
349.62	24.03
350.07	78.64
350.52	72.09
350.98	87.38
351.43	63.35
351.88	155.10
352.33	135.44
352.79	146.36
353.24	32.77
353.69	104.86
354.14	111.41
354.60	155.10
355.05	89.56
355.50	32.77
355.95	89.56
356.40	117.96
356.86	111.41
357.31	148.55
357.76	109.22
358.21	48.06
358.66	113.59
359.12	109.23
359.57	67.72
360.02	176.94
360.47	144.18
360.92	139.81
361.37	43.69
361.82	72.09
362.28	10.92
362.73	80.83
363.18	48.06
363.63	141.99
364.08	107.04
364.53	141.99
364.98	137.62
365.43	161.65
365.89	100.49
366.34	76.46
366.79	133.25
367.24	190.05
367.69	85.20
368.14	109.22
368.59	135.44
369.04	117.96
369.49	172.58
369.94	161.65
370.39	141.99
370.84	161.65
371.29	231.56
371.74	152.91
372.19	93.93
372.64	93.93
373.09	183.50
373.54	120.15
373.99	87.38
374.44	183.50
374.89	117.96
375.34	115.78
375.79	192.24
376.24	124.52
376.69	227.19
377.14	222.82
377.59	166.02
378.04	187.87
378.49	176.94
378.94	181.31
379.39	187.87
379.84	229.37
380.29	231.56
380.74	124.52
381.19	209.71
381.63	181.31
382.08	249.03
382.53	157.28
382.98	246.85
383.43	308.01
383.88	225.00
384.33	257.77
384.78	225.00
385.23	246.85
385.67	288.35
386.12	251.22
386.57	203.16
387.02	157.28
387.47	259.96
387.92	166.02
388.37	235.93
388.81	218.45
389.26	301.46
389.71	242.48
390.16	225.00
390.61	275.25
391.05	345.15
391.50	259.96
391.95	249.03
392.40	305.83
392.85	259.96
393.29	283.98
393.74	270.88
394.19	262.14
394.64	229.37
395.08	225.00
395.53	225.00
395.98	259.96
396.43	246.85
396.87	301.46
397.32	349.52
397.77	358.26
398.22	290.54
398.66	294.91
399.11	308.01
399.56	332.04
400.00	294.91
400.45	303.65
400.90	270.88
401.34	290.54
401.79	314.57
402.24	329.86
402.68	336.41
403.13	340.78
403.58	292.72
404.02	279.62
404.47	332.04
404.92	338.60
405.36	292.72
405.81	299.28
406.26	367.00
406.70	279.62
407.15	286.17
407.59	454.38
408.04	277.43
408.49	382.29
408.93	310.20
409.38	334.23
409.82	279.62
410.27	275.25
410.71	329.86
411.16	301.46
411.61	358.26
412.05	408.50
412.50	334.23
412.94	380.10
413.39	417.24
413.83	356.07
414.28	360.44
414.72	301.46
415.17	391.03
415.61	377.92
416.06	500.25
416.50	367.00
416.95	334.23
417.39	384.47
417.84	460.93
418.28	428.16
418.73	406.32
419.17	456.56
419.62	443.45
420.06	384.47
420.51	430.35
420.95	434.72
421.40	487.14
421.84	356.07
422.29	487.14
422.73	454.38
423.17	465.30
423.62	441.27
424.06	495.88
424.51	386.66
424.95	428.16
425.39	447.82
425.84	371.36
426.28	430.35
426.73	441.27
427.17	458.74
427.61	443.45
428.06	445.64
428.50	561.42
428.94	482.77
429.39	504.62
429.83	552.68
430.27	563.60
430.72	504.62
431.16	500.25
431.60	460.93
432.05	432.53
432.49	519.91
432.93	607.29
433.38	515.54
433.82	559.23
434.26	441.27
434.71	559.23
435.15	563.60
435.59	559.23
436.03	629.14
436.48	552.68
436.92	585.45
437.36	605.11
437.80	648.80
438.25	664.09
438.69	644.43
439.13	657.53
439.57	648.80
440.02	565.79
440.46	655.35
440.90	557.05
441.34	594.18
441.79	620.40
442.23	633.50
442.67	637.87
443.11	655.35
443.55	677.19
443.99	642.24
444.44	629.14
444.88	657.53
445.32	762.39
445.76	744.91
446.20	773.31
446.64	742.73
447.09	744.91
447.53	742.73
447.97	779.87
448.41	830.11
448.85	801.71
449.29	830.11
449.73	858.51
450.17	926.23
450.62	871.62
451.06	998.32
451.50	943.70
451.94	974.29
452.38	843.22
452.82	871.62
453.26	1017.98
453.70	1048.56
454.14	1063.85
454.58	989.58
455.02	1042.01
455.46	980.84
455.90	1090.07
456.34	969.92
456.78	1002.69
457.22	1114.10
457.66	1109.73
458.10	1127.20
458.54	1151.23
458.98	1111.91
459.42	1181.81
459.86	1173.08
460.30	1186.18
460.74	1271.38
461.18	1168.71
461.62	1229.87
462.06	1295.41
462.50	1192.74
462.94	1109.73
463.38	1288.86
463.82	1262.64
464.26	1291.04
464.70	1354.39
465.14	1312.88
465.58	1430.85
466.02	1341.28
466.46	1498.57
466.90	1516.04
467.34	1511.67
467.77	1446.14
468.21	1592.50
468.65	1601.24
469.09	1575.02
469.53	1522.60
469.97	1627.45
470.41	1548.81
470.85	1644.93
471.28	1581.58
471.72	1826.24
472.16	1679.88
472.60	1727.94
473.04	1810.95
473.48	1917.99
473.91	1931.10
474.35	1863.38
474.79	1769.44
475.23	1872.12
475.67	1970.42
476.11	1994.45
476.54	2031.58
476.98	1942.02
477.42	1998.82
477.86	2092.75
478.29	1987.90
478.73	2204.16
479.17	2127.70
479.61	2153.92
480.04	2123.33
480.48	2260.96
480.92	2335.23
481.36	2306.83
481.79	2313.39
482.23	2385.47
482.67	2330.86
483.11	2422.61
483.54	2311.20
483.98	2464.12
484.42	2453.19
484.85	2603.92
485.29	2555.87
485.73	2509.99
486.16	2595.19
486.60	2682.57
487.04	2693.49
487.47	2728.44
487.91	2815.82
488.35	2798.34
488.78	2783.05
489.22	2975.29
489.66	2909.75
490.09	2977.47
490.53	3091.07
490.97	2981.84
491.40	3119.47
491.84	3064.85
492.27	3206.85
492.71	3248.35
493.15	3158.79
493.58	3204.66
494.02	3198.11
494.45	3278.93
494.89	3316.07
495.32	3377.24
495.76	3431.85
496.20	3344.47
496.63	3370.68
497.07	3580.40
497.50	3659.04
497.94	3503.94
498.37	3691.81
498.81	3521.41
499.24	3704.91
499.68	3536.71
500.11	3711.47
500.55	3715.83
500.98	3916.81
501.42	3947.39
501.85	3997.63
502.29	4122.15
502.72	4008.56
503.16	4050.06
503.59	3918.99
504.03	4052.25
504.46	4196.42
504.90	4192.06
505.33	4200.79
505.77	3977.97
506.20	4296.91
506.63	4408.32
507.07	4200.79
507.50	4369.00
507.94	4275.07
508.37	4493.52
508.81	4452.01
509.24	4563.42
509.67	4563.42
510.11	4760.03
510.54	4639.88
510.98	4484.78
511.41	4473.86
511.84	4674.83
512.28	4685.75
512.71	4716.34
513.14	4753.47
513.58	4707.60
514.01	4766.58
514.44	4746.92
514.88	4692.31
515.31	4690.12
515.74	4985.03
516.18	4877.99
516.61	4908.57
517.04	4731.63
517.48	4779.69
517.91	4864.88
518.34	4766.58
518.77	4615.85
519.21	4880.17
519.64	4834.30
520.07	4899.83
520.51	4845.22
520.94	4720.70
521.37	4770.95
521.80	4963.18
522.24	4764.39
522.67	4864.88
523.10	4838.67
523.53	4760.03
523.97	4864.88
524.40	4954.45
524.83	4945.71
525.26	4847.41
525.69	4731.63
526.13	4904.20
526.56	4958.82
526.99	4919.49
527.42	4947.89
527.85	4858.33
528.28	4926.05
528.72	4773.13
529.15	4740.36
529.58	5052.75
530.01	4819.01
530.44	5024.35
530.87	4947.89
531.31	4976.29
531.74	5332.36
532.17	4936.97
532.60	4928.23
533.03	4856.14
533.46	4893.28
533.89	5046.20
534.32	5124.84
534.75	4934.79
535.19	5098.62
535.62	4967.55
536.05	4921.68
536.48	5100.81
536.91	5236.25
537.34	5017.80
537.77	5255.91
538.20	5118.28
538.63	5048.38
539.06	5172.90
539.49	5188.19
539.92	5255.91
540.35	5319.26
540.78	5199.11
541.21	5234.06
541.64	5214.40
542.07	5275.57
542.50	5441.59
542.93	5249.35
543.36	5435.04
543.79	5402.27
544.22	5301.78
544.65	5476.54
545.08	5389.16
545.51	5522.42
545.94	5590.14
546.37	5478.73
546.80	5666.59
547.23	5518.05
547.66	5605.43
548.09	5681.88
548.52	5723.39
548.95	5542.08
549.38	5581.40
549.80	5598.87
550.23	5780.19
550.66	5594.50
551.09	5703.73
551.52	5703.73
551.95	5954.95
552.38	5928.73
552.81	5729.94
553.24	5946.21
553.66	6103.49
554.09	6269.51
554.52	6013.93
554.95	6068.54
555.38	6129.71
555.81	6105.68
556.24	6103.49
556.66	6243.30
557.09	6280.44
557.52	6210.53
557.95	6120.97
558.38	6228.01
558.80	6282.62
559.23	6286.99
559.66	6374.37
560.09	6335.05
560.52	6409.32
560.94	6350.34
561.37	6385.29
561.80	6339.42
562.23	6337.23
562.65	6435.54
563.08	6544.76
563.51	6538.21
563.94	6527.29
564.36	6581.90
564.79	6664.91
565.22	6616.85
565.65	6741.37
566.07	6525.10
566.50	6669.28
566.93	6769.77
567.35	7069.04
567.78	6903.02
568.21	6743.55
568.63	7005.69
569.06	6962.00
569.49	6983.85
569.91	6903.02
570.34	6929.23
570.77	7320.26
571.19	7239.43
571.62	7162.98
572.05	7276.57
572.47	7158.61
572.90	7112.73
573.33	7077.78
573.75	7405.46
574.18	7346.47
574.60	7278.75
575.03	7477.54
575.46	7462.25
575.88	7516.86
576.31	7449.14
576.73	7505.94
577.16	7534.34
577.59	7623.91
578.01	7641.38
578.44	7626.09
578.86	7713.47
579.29	7853.28
579.71	7486.28
580.14	7730.95
580.56	7711.28
580.99	7534.34
581.41	7523.42
581.84	7693.81
582.26	7634.83
582.69	7619.54
583.11	7654.49
583.54	7543.08
583.96	7654.49
584.39	7488.47
584.81	7361.76
585.24	7444.78
585.66	7510.31
586.09	7062.49
586.51	7599.88
586.94	7481.91
587.36	7438.22
587.79	7414.19
588.21	7366.13
588.64	7259.09
589.06	7329.00
589.48	7407.64
589.91	7329.00
590.33	7359.58
590.76	7315.89
591.18	7335.55
591.60	7169.53
592.03	7117.10
592.45	7239.43
592.88	7442.59
593.30	7211.03
593.72	7235.06
594.15	7106.18
594.57	7176.08
595.00	7099.63
595.42	7073.41
595.84	7119.29
596.27	7241.62
596.69	7029.72
597.11	7082.15
597.54	6981.66
597.96	7064.67
598.38	7093.07
598.80	7125.84
599.23	7245.99
599.65	7187.00
600.07	7097.44
600.50	7112.73
600.92	7171.71
601.34	7010.06
601.77	7097.44
602.19	6994.77
602.61	7187.00
603.03	6935.79
603.46	7108.36
603.88	7047.20
604.30	7112.73
604.72	6929.23
605.15	6959.82
605.57	6916.13
605.99	7090.89
606.41	6946.71
606.83	7075.60
607.26	7090.89
607.68	7005.69
608.10	6660.54
608.52	7084.33
608.94	6850.59
609.37	7001.32
609.79	7073.41
610.21	7082.15
610.63	7034.09
611.05	6903.02
611.47	7034.09
611.90	6916.13
612.32	7136.76
612.74	7136.76
613.16	7079.96
613.58	6990.40
614.00	6979.48
614.42	7176.08
614.84	7110.55
615.27	7337.74
615.69	7128.02
616.11	7042.83
616.53	7064.67
616.95	7042.83
617.37	7392.35
617.79	7270.02
618.21	7313.71
618.63	7241.62
619.05	7278.75
619.47	7455.70
619.89	7304.97
620.31	7320.26
620.74	7283.12
621.16	7274.38
621.58	7232.88
622.00	7180.45
622.42	7357.40
622.84	7326.81
623.26	7289.68
623.68	7433.85
624.10	7558.37
624.52	7195.74
624.94	7438.22
625.36	7355.21
625.78	7486.28
626.20	7416.38
626.62	7396.72
627.03	7785.56
627.45	7532.16
627.87	7300.60
628.29	7318.08
628.71	7390.16
629.13	7643.57
629.55	7457.88
629.97	7438.22
630.39	7484.10
630.81	7468.81
631.23	7615.17
631.65	7554.00
632.07	7479.73
632.49	7628.27
632.90	7643.57
633.32	7529.97
633.74	7669.78
634.16	7440.41
634.58	7610.80
635.00	7744.05
635.42	7444.78
635.83	7634.83
636.25	7643.57
636.67	7768.08
637.09	7626.09
637.51	7794.30
637.93	7608.61
638.34	7626.09
638.76	7656.67
639.18	7715.65
639.60	7883.86
640.02	7709.10
640.44	7772.45
640.85	7807.40
641.27	7955.95
641.69	7765.90
642.11	8100.13
642.52	8078.28
642.94	8172.21
643.36	8078.28
643.78	8100.13
644.19	8170.03
644.61	8239.93
645.03	7966.87
645.45	8100.13
645.86	8108.86
646.28	8089.20
646.70	8045.51
647.12	7949.40
647.53	7966.87
647.95	7907.89
648.37	7988.72
648.78	8084.83
649.20	8034.59
649.62	8261.78
650.03	8058.62
650.45	8091.39
650.87	8213.72
651.28	8014.93
651.70	8139.45
652.12	8028.04
652.53	8089.20
652.95	8062.99
653.37	8038.96
653.78	8156.92
654.20	8056.44
654.61	8130.71
655.03	7942.84
655.45	7903.52
655.86	7951.58
656.28	7927.55
656.69	8087.02
657.11	7979.98
657.53	8159.11
657.94	8041.14
658.36	7842.36
658.77	7995.27
659.19	8174.40
659.60	7995.27
660.02	7990.90
660.44	7872.94
660.85	7984.35
661.27	7899.15
661.68	7934.10
662.10	8080.47
662.51	8115.42
662.93	7807.40
663.34	7960.32
663.76	7960.32
664.17	7975.61
664.59	7877.31
665.00	7835.80
665.42	7888.23
665.83	7741.87
666.25	7774.64
666.66	7794.30
667.08	7763.71
667.49	7855.46
667.90	7853.28
668.32	7746.24
668.73	7549.63
669.15	7877.31
669.56	7818.33
669.98	7990.90
670.39	7966.87
670.80	7693.81
671.22	7781.19
671.63	7702.55
672.05	7722.21
672.46	7658.86
672.87	7752.79
673.29	7481.91
673.70	7527.79
674.12	7510.31
674.53	7556.19
674.94	7678.52
675.36	7479.73
675.77	7512.50
676.18	7626.09
676.60	7628.27
677.01	7573.66
677.42	7536.52
677.84	7538.71
678.25	7462.25
678.66	7414.19
679.08	7363.95
679.49	7527.79
679.90	7497.20
680.31	7538.71
680.73	7377.06
681.14	7569.29
681.55	7634.83
681.97	7366.13
682.38	7154.24
682.79	7396.72
683.20	7381.43
683.62	7298.41
684.03	7608.61
684.44	7141.13
684.85	7165.16
685.27	7200.11
685.68	7101.81
686.09	7304.97
686.50	7304.97
686.91	7243.80
687.33	7377.06
687.74	7167.34
688.15	7189.19
688.56	7200.11
688.97	7132.39
689.39	7221.96
689.80	7180.45
690.21	7117.10
690.62	7138.95
691.03	6996.95
691.44	7213.22
691.86	7195.74
692.27	6996.95
692.68	7040.64
693.09	7136.76
693.50	6913.94
693.91	6850.59
694.32	6922.68
694.73	7073.41
695.15	7114.92
695.56	7001.32
695.97	6824.38
696.38	6927.05
696.79	6959.82
697.20	7086.52
697.61	6957.63
698.02	6761.03
698.43	6865.88
698.84	6841.85
699.25	7016.61
699.66	6975.11
700.07	6782.87
700.48	6837.49
700.90	6664.91
701.31	6846.22
701.72	6712.97
702.13	6868.07
702.54	6754.47
702.95	6719.52
703.36	6900.84
703.77	6780.69
704.18	6872.44
704.59	6804.72
705.00	6750.11
705.41	6684.57
705.82	6612.48
706.22	6850.59
706.63	6892.10
707.04	6791.61
707.45	6656.17
707.86	6682.39
708.27	6688.94
708.68	6479.23
709.09	6588.45
709.50	6566.61
709.91	6442.09
710.32	6505.44
710.73	6531.66
711.14	6752.29
711.55	6581.90
711.95	6695.49
712.36	6643.06
712.77	6581.90
713.18	6540.39
713.59	6745.74
714.00	6640.88
714.41	6581.90
714.82	6590.64
715.22	6343.79
715.63	6686.75
716.04	6601.56
716.45	6505.44
716.86	6758.84
717.27	6549.13
717.67	6780.69
718.08	6793.80
718.49	6697.68
718.90	6791.61
719.31	6542.58
719.71	6667.09
720.12	6750.10
720.53	6798.16
720.94	6691.12
721.35	6619.04
721.75	6691.12
722.16	6625.59
722.57	6693.31
722.98	6656.17
723.38	6844.04
723.79	6798.16
724.20	6758.84
724.61	6723.89
725.01	6737.00
725.42	7114.92
725.83	6876.81
726.23	6981.66
726.64	6837.48
727.05	7045.01
727.45	7053.75
727.86	6924.86
728.27	6870.25
728.68	6868.07
729.08	7106.18
729.49	7051.57
729.90	7121.47
730.30	7119.29
730.71	7066.86
731.11	7270.02
731.52	7197.93
731.93	7134.58
732.33	7090.89
732.74	7390.16
733.15	7287.49
733.55	7468.81
733.96	7318.08
734.36	7484.10
734.77	7497.20
735.18	7547.45
735.58	7602.06
735.99	7724.39
736.39	7558.37
736.80	7702.55
737.21	7809.59
737.61	7833.62
738.02	7894.78
738.42	7776.82
738.83	7853.28
739.23	7977.79
739.64	8222.46
740.04	8458.38
740.45	8143.82
740.85	7982.16
741.26	8139.45
741.66	8574.16
742.07	8405.96
742.47	8384.11
742.88	8351.34
743.28	8515.18
743.69	8593.82
744.09	8685.57
744.50	8934.61
744.90	8851.59
745.31	9115.92
745.71	9030.72
746.12	9113.73
746.52	9115.92
746.93	9155.24
747.33	9373.69
747.73	9249.17
748.14	9461.07
748.54	9581.22
748.95	9638.01
749.35	9771.27
749.76	9758.16
750.16	9913.26
750.56	9989.72
750.97	10018.12
751.37	10031.22
751.78	10219.09
752.18	10328.32
752.58	10164.48
752.99	10503.08
753.39	10402.59
753.79	10378.56
754.20	10514.00
754.60	10813.28
755.00	10763.03
755.41	10673.47
755.81	10929.05
756.21	10856.96
756.62	11060.12
757.02	11418.38
757.42	11158.43
757.83	11339.74
758.23	11418.38
758.63	11274.20
759.03	11407.46
759.44	11545.08
759.84	11789.75
760.24	11815.96
760.65	11774.46
761.05	12049.70
761.45	11894.60
761.85	11787.56
762.26	11826.88
762.66	11914.26
763.06	11802.85
763.46	12370.82
763.87	12062.81
764.27	12196.06
764.67	12654.81
765.07	12539.03
765.47	12659.18
765.88	12613.30
766.28	12488.79
766.68	12563.06
767.08	12740.00
767.48	12729.08
767.88	12798.99
768.29	12731.27
768.69	13002.14
769.09	12938.79
769.49	13144.14
769.89	13190.01
770.29	13096.08
770.70	13141.95
771.10	13113.55
771.50	13041.46
771.90	13185.64
772.30	13222.78
772.70	13506.76
773.10	13299.24
773.50	13312.34
773.90	13552.64
774.30	13310.16
774.71	13712.11
775.11	13353.85
775.51	13463.07
775.91	13557.01
776.31	13605.07
776.71	13356.03
777.11	13388.80
777.51	13782.01
777.91	13709.92
778.31	13615.99
778.71	13701.18
779.11	13589.77
779.51	13840.99
779.91	13851.91
780.31	13806.04
780.71	13484.92
781.11	13565.74
781.51	13744.87
781.91	13865.02
782.31	13913.08
782.71	13834.44
783.11	13674.97
783.51	13530.79
783.91	13672.79
784.31	13716.48
784.71	13919.63
785.11	13729.58
785.51	13799.49
785.91	13921.82
786.31	13642.20
786.71	14024.49
787.11	13989.54
787.50	13764.53
787.90	13635.65
788.30	14002.64
788.70	14050.70
789.10	13827.88
789.50	13712.11
789.90	13532.98
790.30	13851.91
790.70	13574.48
791.09	13469.63
791.49	13629.10
791.89	13736.14
792.29	13674.97
792.69	13650.94
793.09	13491.47
793.49	13251.18
793.88	13157.24
794.28	13421.57
794.68	13377.88
795.08	13181.27
795.48	13327.63
795.88	13347.30
796.27	13172.54
796.67	13056.76
797.07	13209.67
797.47	13141.95
797.86	13032.73
798.26	13515.50
798.66	13388.80
799.06	13124.48
799.46	13334.19
799.85	13085.16
800.25	12936.61
800.65	12973.75
801.05	12934.42
801.44	13019.62
801.84	13109.18
802.24	12943.16
802.63	12930.06
803.03	12895.10
803.43	13006.51
803.83	12956.27
804.22	12650.44
804.62	12477.86
805.02	12691.94
805.41	12681.02
805.81	12722.53
806.21	12670.10
806.60	12556.51
807.00	12536.85
807.40	12445.10
807.79	12504.08
808.19	12622.04
808.59	12567.43
808.98	12344.61
809.38	12580.54
809.77	12377.38
810.17	12462.57
810.57	12331.50
810.96	12274.71
811.36	12362.09
811.75	12126.16
812.15	12023.49
812.55	11988.54
812.94	12226.65
813.34	11872.76
813.73	11868.39
814.13	11909.89
814.53	11890.23
814.92	11813.78
815.32	11947.03
815.71	11839.99
816.11	11802.85
816.50	11732.95
816.90	11636.83
817.29	11669.60
817.69	11512.32
818.08	11829.07
818.48	11590.96
818.87	11545.08
819.27	11538.53
819.66	11287.31
820.06	11409.64
820.45	11566.93
820.85	11490.47
821.24	11103.81
821.64	11247.99
822.03	11208.67
822.43	11280.76
822.82	11337.55
823.22	10931.24
823.61	11027.36
824.00	10966.19
824.40	10830.75
824.79	10835.12
825.19	10846.04
825.58	10835.12
825.98	10880.99
826.37	10872.26
826.76	10621.04
827.16	10509.63
827.55	10752.11
827.94	10723.71
828.34	10870.07
828.73	10393.85
829.13	10444.09
829.52	10476.86
829.91	10592.64
830.31	10382.93
830.70	10212.54
831.09	10264.97
831.49	10404.77
831.88	10269.33
832.27	10374.19
832.67	10269.33
833.06	10131.71
833.45	10090.21
833.85	10308.66
834.24	10153.56
834.63	10168.85
835.02	9985.35
835.42	9954.77
835.81	9755.98
836.20	9913.26
836.60	9786.56
836.99	9635.83
837.38	9793.11
837.77	9926.37
838.17	9943.84
838.56	9631.46
838.95	9613.98
839.34	9681.70
839.74	9581.22
840.13	9814.96
840.52	9364.95
840.91	9655.49
841.30	9395.53
841.70	9417.38
842.09	9194.56
842.48	9231.70
842.87	9083.15
843.26	9094.07
843.66	9024.17
844.05	9281.94
844.44	9166.16
844.83	9135.58
845.22	8858.15
845.61	8945.53
846.00	8919.31
846.40	8796.98
846.79	8862.52
847.18	8882.18
847.57	8904.02
847.96	8753.29
848.35	8869.07
848.74	8709.60
849.13	8628.78
849.53	8644.07
849.92	8488.97
850.31	8617.85
850.70	8685.57
851.09	8248.67
851.48	8451.83
851.87	8471.49
852.26	8449.65
852.65	8386.30
853.04	8032.41
853.43	8279.26
853.82	8342.61
854.21	8403.77
854.60	8071.73
854.99	8307.65
855.38	8052.07
855.77	8303.28
856.16	8014.93
856.55	8019.30
856.94	7792.11
857.33	7971.24
857.72	7914.44
858.11	7781.19
858.50	7783.37
858.89	7787.74
859.28	7687.26
859.67	7669.78
860.06	7772.45
860.45	7619.54
860.84	7737.50
861.23	7713.47
861.62	7554.00
862.01	7551.82
862.40	7451.33
862.79	7645.75
863.18	7510.31
863.57	7350.84
863.95	7658.86
864.34	7206.67
864.73	7241.62
865.12	7322.44
865.51	7178.27
865.90	7355.21
866.29	7213.22
866.68	7184.82
867.06	7010.06
867.45	7130.21
867.84	7036.27
868.23	7110.55
868.62	7053.75
869.01	6983.85
869.40	6854.96
869.78	6813.46
870.17	6909.57
870.56	6964.19
870.95	6929.23
871.34	6872.44
871.72	6824.38
872.11	6968.56
872.50	6747.92
872.89	6710.78
873.28	6682.39
873.66	6651.80
874.05	6586.27
874.44	6549.13
874.83	6623.40
875.21	6396.22
875.60	6389.66
875.99	6522.92
876.38	6278.25
876.76	6394.03
877.15	6391.85
877.54	6289.18
877.92	6481.41
878.31	6225.82
878.70	6418.06
879.09	6311.02
879.47	6284.81
879.86	6252.04
880.25	6234.56
880.63	6171.21
881.02	6278.25
881.41	6020.48
881.79	6203.98
882.18	6077.28
882.57	6162.47
882.95	6027.04
883.34	5915.63
883.73	5981.16
884.11	5898.15
884.50	6075.09
884.88	6138.45
885.27	5882.86
885.66	5891.60
886.04	5629.46
886.43	5810.77
886.81	5686.25
887.20	5769.26
887.59	5815.14
887.97	5802.03
888.36	5826.06
888.74	5668.78
889.13	5692.81
889.52	5771.45
889.90	5542.08
890.29	5651.30
890.67	5819.51
891.06	5622.90
891.44	5760.53
891.83	5590.14
892.21	5738.68
892.60	5773.63
892.98	5753.97
893.37	5786.74
893.75	5819.51
894.14	5719.02
894.52	5795.48
894.91	5985.53
895.29	5686.25
895.68	5806.40
896.06	5847.91
896.45	5880.67
896.83	5804.22
897.22	5721.21
897.60	5926.55
897.98	5885.04
898.37	5797.66
898.75	5911.26
899.14	5950.58
899.52	5592.32
899.91	5874.12
900.29	5821.69
900.67	5954.95
901.06	5732.13
901.44	5799.85
901.83	5769.26
902.21	5843.54
902.59	5817.32
902.98	5705.91
903.36	5845.72
903.75	5773.63
904.13	5893.78
904.51	5710.28
904.90	5782.37
905.28	5749.60
905.66	5721.21
906.05	5810.77
906.43	5677.52
906.81	5745.24
907.20	5572.66
907.58	5585.77
907.96	5738.68
908.35	5622.90
908.73	5557.37
909.11	5708.10
909.49	5684.07
909.88	5478.73
910.26	5382.61
910.64	5472.17
911.02	5666.59
911.41	5509.31
911.79	5426.30
912.17	5579.21
912.55	5338.92
912.94	5358.58
913.32	5286.49
913.70	5146.68
914.08	5269.01
914.47	5234.06
914.85	5295.23
915.23	5109.55
915.61	5129.21
915.99	5068.04
916.38	5044.01
916.76	5061.49
917.14	5004.69
917.52	4980.66
917.90	4810.27
918.29	4873.62
918.67	4687.94
919.05	4755.66
919.43	4779.69
919.81	4742.55
920.19	4690.12
920.57	4574.34
920.96	4408.32
921.34	4469.49
921.72	4508.81
922.10	4283.80
922.48	4259.78
922.86	4144.00
923.24	4157.10
923.62	4159.29
924.00	4047.88
924.39	3971.42
924.77	3881.86
925.15	3781.37
925.53	3877.49
925.91	3737.68
926.29	3737.68
926.67	3508.31
927.05	3556.37
927.43	3556.37
927.81	3423.11
928.19	3510.49
928.57	3451.51
928.95	3337.92
929.33	3344.47
929.71	3423.11
930.09	3189.37
930.47	3016.79
930.85	3110.73
931.23	3043.01
931.61	2951.26
931.99	2992.77
932.37	2876.99
932.75	2772.13
933.13	2787.42
933.51	2842.03
933.89	2579.89
934.27	2686.94
934.65	2627.95
935.03	2667.27
935.41	2708.78
935.79	2479.41
936.17	2582.08
936.54	2418.24
936.92	2389.84
937.30	2337.42
937.68	2409.50
938.06	2389.84
938.44	2396.40
938.82	2339.60
939.20	2315.57
939.58	2236.93
939.95	2140.81
940.33	2228.19
940.71	2112.41
941.09	2108.04
941.47	2121.15
941.85	2035.95
942.23	2064.35
942.60	2099.30
942.98	2005.37
943.36	1942.02
943.74	2027.22
944.12	1924.54
944.50	1874.30
944.87	1944.21
945.25	2001.00
945.63	1885.22
946.01	1911.44
946.38	1920.18
946.76	1872.12
947.14	1813.14
947.52	1907.07
947.90	1876.49
948.27	1917.99
948.65	1867.75
949.03	1810.95
949.41	1699.54
949.78	1776.00
950.16	1793.47
950.54	1832.80
950.91	1869.93
951.29	1832.80
951.67	1756.34
952.05	1649.30
952.42	1721.39
952.80	1717.02
953.18	1692.99
953.55	1751.97
953.93	1695.17
954.31	1749.78
954.68	1804.40
955.06	1585.95
955.44	1743.23
955.81	1743.23
956.19	1658.04
956.57	1675.51
956.94	1725.75
957.32	1673.33
957.69	1590.32
958.07	1699.54
958.45	1769.45
958.82	1579.39
959.20	1710.46
959.58	1736.68
959.95	1712.65
960.33	1815.32
960.70	1594.68
961.08	1789.11
961.45	1725.76
961.83	1736.68
962.21	1660.22
962.58	1688.62
962.96	1675.51
963.33	1640.56
963.71	1723.57
964.08	1618.71
964.46	1616.53
964.83	1686.43
965.21	1738.86
965.58	1653.67
965.96	1644.93
966.33	1557.55
966.71	1575.02
967.08	1662.40
967.46	1734.49
967.83	1616.53
968.21	1677.70
968.58	1607.79
968.96	1555.36
969.33	1575.02
969.71	1585.95
970.08	1535.70
970.46	1581.58
970.83	1596.87
971.20	1607.79
971.58	1478.91
971.95	1692.99
972.33	1485.46
972.70	1478.91
973.08	1520.41
973.45	1629.64
973.82	1599.05
974.20	1498.57
974.57	1524.78
974.95	1380.60
975.32	1572.84
975.69	1448.32
976.07	1505.12
976.44	1577.21
976.81	1395.90
977.19	1430.85
977.56	1347.84
977.93	1384.97
978.31	1435.22
978.68	1470.17
979.05	1461.43
979.43	1426.48
979.80	1395.90
980.17	1304.15
980.55	1472.35
980.92	1413.37
981.29	1343.47
981.67	1330.36
982.04	1476.72
982.41	1492.01
982.78	1301.96
983.16	1312.88
983.53	1367.50
983.90	1334.73
984.27	1306.33
984.65	1205.84
985.02	1315.07
985.39	1197.11
985.76	1184.00
986.14	1389.34
986.51	1131.57
986.88	1212.40
987.25	1223.32
987.63	1159.97
988.00	1072.59
988.37	1164.34
988.74	1184.00
989.11	1218.95
989.48	1114.10
989.86	1125.02
990.23	1199.29
990.60	1225.50
990.97	1105.36
991.34	1131.57
991.71	1120.65
992.09	1068.22
992.46	1111.91
992.83	1135.94
993.20	915.31
993.57	1052.93
993.94	1120.65
994.31	978.66
994.68	1070.40
995.06	1107.54
995.43	1133.76
995.80	965.55
996.17	1026.72
996.54	1085.70
996.91	976.47
997.28	965.55
997.65	873.80
998.02	939.33
998.39	917.49
998.76	983.02
999.13	1004.87
999.50	1007.05
999.87	948.07
1000.24	875.98
1000.61	961.18
1000.99	862.88
1001.36	959.00
1001.73	830.11
1002.10	893.46
1002.47	991.76
1002.84	889.09
1003.21	862.88
1003.57	858.51
1003.94	788.60
1004.31	862.88
1004.68	753.65
1005.05	836.66
1005.42	808.26
1005.79	814.82
1006.16	709.96
1006.53	792.97
1006.90	699.04
1007.27	679.38
1007.64	810.45
1008.01	806.08
1008.38	777.68
1008.75	709.96
1009.12	810.45
1009.49	760.21
1009.85	707.78
1010.22	747.10
1010.59	740.55
1010.96	655.35
1011.33	672.83
1011.70	664.09
1012.07	602.92
1012.44	666.27
1012.80	659.72
1013.17	672.83
1013.54	626.95
1013.91	605.11
1014.28	655.35
1014.65	574.52
1015.01	696.86
1015.38	583.26
1015.75	672.83
1016.12	675.01
1016.49	563.60
1016.85	432.53
1017.22	609.48
1017.59	530.83
1017.96	546.12
1018.33	557.05
1018.69	594.18
1019.06	561.42
1019.43	565.79
1019.80	583.26
1020.16	530.83
1020.53	504.62
1020.90	478.41
1021.27	428.16
1021.63	471.85
1022.00	445.64
1022.37	506.80
1022.73	504.62
1023.10	508.99
1023.47	423.79
1023.84	541.76
1024.20	480.59
1024.57	456.56
1024.94	500.25
1025.30	552.68
1025.67	395.39
1026.04	480.59
1026.40	439.08
1026.77	406.32
1027.14	502.43
1027.50	460.93
1027.87	491.51
1028.23	421.61
1028.60	502.44
1028.97	425.98
1029.33	432.53
1029.70	375.73
1030.07	356.07
1030.43	506.80
1030.80	436.90
1031.16	367.00
1031.53	404.13
1031.89	458.75
1032.26	395.39
1032.63	447.82
1032.99	439.08
1033.36	367.00
1033.72	367.00
1034.09	329.86
1034.45	364.81
1034.82	288.35
1035.18	364.81
1035.55	316.75
1035.92	371.36
1036.28	332.04
1036.65	231.56
1037.01	327.67
1037.38	358.26
1037.74	294.91
1038.11	318.94
1038.47	349.52
1038.84	244.66
1039.20	323.31
1039.56	253.40
1039.93	325.49
1040.29	334.23
1040.66	334.23
1041.02	334.23
