185.59	-10.92
186.06	-10.92
186.53	-10.92
187.00	-17.48
187.48	-54.61
187.95	-17.48
188.42	-26.21
188.89	-102.67
189.36	-48.06
189.83	-58.98
190.30	-48.06
190.77	24.03
191.24	19.66
191.71	-8.74
192.18	50.24
192.65	-10.92
193.13	-72.09
193.60	-56.80
194.07	21.85
194.54	50.24
195.01	6.55
195.48	6.55
195.95	34.95
196.42	15.29
196.89	41.51
197.36	78.64
197.83	135.44
198.30	120.15
198.77	96.12
199.24	41.51
199.71	6.55
200.18	168.21
200.65	52.43
201.12	80.83
201.59	111.41
202.05	-34.95
202.52	85.20
202.99	135.44
203.46	67.72
203.93	39.32
204.40	0.00
204.87	37.14
205.34	96.12
205.81	67.72
206.28	28.40
206.75	135.44
207.22	58.98
207.69	78.64
208.15	63.35
208.62	2.18
209.09	102.67
209.56	56.80
210.03	98.30
210.50	100.49
210.97	13.11
211.43	80.83
211.90	65.53
212.37	34.95
212.84	63.35
213.31	78.64
213.78	48.06
214.24	74.27
214.71	19.66
215.18	17.48
215.65	34.95
216.12	34.95
216.58	54.61
217.05	4.37
217.52	78.64
217.99	13.11
218.46	-15.29
218.92	96.12
219.39	61.17
219.86	65.54
220.33	26.21
220.79	4.37
221.26	-15.29
221.73	-6.55
222.19	13.11
222.66	24.03
223.13	32.77
223.60	-8.74
224.06	56.80
224.53	120.15
225.00	83.01
225.46	87.38
225.93	34.95
226.40	41.51
226.86	148.55
227.33	139.81
227.80	98.30
228.26	78.64
228.73	43.69
229.20	124.52
229.66	113.59
230.13	76.46
230.60	93.93
231.06	52.43
231.53	19.66
232.00	10.92
232.46	-6.55
232.93	37.14
233.39	98.30
233.86	43.69
234.33	69.90
234.79	67.72
235.26	72.09
235.72	100.49
236.19	102.67
236.65	150.73
237.12	54.61
237.59	26.21
238.05	76.46
238.52	15.29
238.98	41.51
239.45	120.15
239.91	34.95
240.38	124.52
240.84	113.59
241.31	85.20
241.77	170.39
242.24	100.49
242.70	4.37
243.17	150.73
243.63	-6.55
244.10	-19.66
244.56	32.77
245.03	43.69
245.49	32.77
245.96	32.77
246.42	41.51
246.89	80.83
247.35	111.41
247.81	-13.11
248.28	80.83
248.74	122.33
249.21	69.90
249.67	21.85
250.14	100.49
250.60	72.09
251.06	126.70
251.53	65.53
251.99	17.48
252.46	69.90
252.92	61.17
253.38	124.52
253.85	115.78
254.31	-17.48
254.77	26.21
255.24	152.91
255.70	126.70
256.16	-4.37
256.63	45.87
257.09	24.03
257.55	91.75
258.02	8.74
258.48	111.41
258.94	4.37
259.41	93.93
259.87	78.64
260.33	4.37
260.80	-43.69
261.26	115.78
261.72	28.40
262.18	80.83
262.65	-19.66
263.11	185.68
263.57	-54.61
264.04	45.87
264.50	21.85
264.96	65.53
265.42	111.41
265.88	6.55
266.35	131.07
266.81	50.24
267.27	34.95
267.73	65.53
268.20	21.85
268.66	41.51
269.12	13.11
269.58	93.93
270.04	63.35
270.51	131.07
270.97	87.38
271.43	-2.18
271.89	37.14
272.35	117.96
272.81	8.74
273.28	67.72
273.74	61.17
274.20	-43.69
274.66	6.55
275.12	67.72
275.58	58.98
276.04	126.70
276.50	78.64
276.97	-17.48
277.43	2.18
277.89	54.61
278.35	-24.03
278.81	107.04
279.27	139.81
279.73	43.69
280.19	58.98
280.65	72.09
281.11	24.03
281.57	78.64
282.03	72.09
282.50	39.32
282.96	78.64
283.42	76.46
283.88	89.56
284.34	65.53
284.80	144.18
285.26	10.92
285.72	152.92
286.18	98.30
286.64	26.21
287.10	-2.18
287.56	-21.84
288.02	4.37
288.48	100.49
288.94	52.43
289.40	28.40
289.86	117.96
290.32	-26.21
290.78	6.55
291.23	41.51
291.69	4.37
292.15	4.37
292.61	19.66
293.07	10.92
293.53	96.12
293.99	48.06
294.45	21.85
294.91	65.53
295.37	19.66
295.83	45.87
296.29	115.78
296.74	157.28
297.20	113.59
297.66	83.01
298.12	24.03
298.58	76.46
299.04	126.70
299.50	87.38
299.95	54.61
300.41	89.56
300.87	50.24
301.33	-65.53
301.79	4.37
302.25	120.15
302.70	6.55
303.16	30.58
303.62	63.35
304.08	58.98
304.54	109.23
305.00	155.10
305.45	157.28
305.91	-15.29
306.37	54.61
306.83	34.95
307.28	52.43
307.74	6.55
308.20	26.21
308.66	6.55
309.11	15.29
309.57	69.90
310.03	65.54
310.49	61.17
310.94	111.41
311.40	39.32
311.86	117.96
312.31	43.69
312.77	135.44
313.23	41.51
313.69	41.51
314.14	98.30
314.60	100.49
315.06	-39.32
315.51	6.55
315.97	124.52
316.43	24.03
316.88	0.00
317.34	56.80
317.80	131.07
318.25	-13.11
318.71	32.77
319.16	19.66
319.62	76.46
320.08	83.01
320.53	96.12
320.99	43.69
321.45	107.04
321.90	45.87
322.36	83.01
322.81	37.14
323.27	89.56
323.73	61.17
324.18	93.93
324.64	45.87
325.09	69.90
325.55	76.46
326.00	39.32
326.46	100.49
326.91	41.51
327.37	-24.03
327.82	80.83
328.28	100.49
328.74	120.15
329.19	80.83
329.65	54.61
330.10	100.49
330.56	69.90
331.01	115.78
331.47	45.87
331.92	65.54
332.38	109.23
332.83	113.59
333.28	41.51
333.74	63.35
334.19	-50.24
334.65	141.99
335.10	63.35
335.56	65.53
336.01	74.27
336.47	26.21
336.92	13.11
337.37	61.17
337.83	111.41
338.28	163.84
338.74	78.64
339.19	28.40
339.64	58.98
340.10	-10.92
340.55	126.70
341.01	80.83
341.46	150.73
341.91	58.98
342.37	85.20
342.82	56.80
343.27	124.52
343.73	102.67
344.18	65.53
344.63	113.59
345.09	128.89
345.54	133.25
345.99	141.99
346.45	96.12
346.90	109.23
347.35	85.20
347.81	122.33
348.26	52.43
348.71	102.67
349.17	150.73
349.62	34.95
350.07	26.21
350.52	100.49
350.98	124.52
351.43	96.12
351.88	61.17
352.33	139.81
352.79	76.46
353.24	-32.77
353.69	61.17
354.14	65.53
354.60	131.07
355.05	115.78
355.50	67.72
355.95	69.90
356.40	174.76
356.86	124.52
357.31	157.28
357.76	170.39
358.21	39.32
358.66	111.41
359.12	104.86
359.57	111.41
360.02	266.51
360.47	205.34
360.92	93.93
361.37	104.86
361.82	104.86
362.28	21.85
362.73	137.62
363.18	137.62
363.63	170.39
364.08	155.10
364.53	135.44
364.98	150.73
365.43	148.55
365.89	192.24
366.34	174.76
366.79	150.73
367.24	187.87
367.69	179.13
368.14	104.86
368.59	128.89
369.04	74.27
369.49	216.27
369.94	150.73
370.39	159.47
370.84	185.68
371.29	187.87
371.74	159.47
372.19	166.02
372.64	150.73
373.09	198.79
373.54	126.70
373.99	133.25
374.44	262.14
374.89	218.45
375.34	115.78
375.79	183.50
376.24	179.13
376.69	281.80
377.14	257.77
377.59	216.27
378.04	205.34
378.49	128.89
378.94	229.37
379.39	238.11
379.84	279.62
380.29	273.06
380.74	198.79
381.19	187.87
381.63	207.53
382.08	299.28
382.53	218.45
382.98	318.94
383.43	259.96
383.88	292.72
384.33	279.62
384.78	159.47
385.23	220.63
385.67	332.04
386.12	292.72
386.57	207.53
387.02	233.74
387.47	301.46
387.92	244.66
388.37	367.00
388.81	220.63
389.26	351.70
389.71	198.79
390.16	277.43
390.61	375.73
391.05	349.52
391.50	297.09
391.95	329.86
392.40	332.04
392.85	288.35
393.29	358.26
393.74	347.34
394.19	305.83
394.64	327.67
395.08	384.47
395.53	316.75
395.98	244.66
396.43	262.14
396.87	386.66
397.32	358.26
397.77	351.70
398.22	395.39
398.66	382.29
399.11	358.26
399.56	408.50
400.00	316.75
400.45	386.66
400.90	305.83
401.34	380.10
401.79	353.89
402.24	456.56
402.68	454.38
403.13	393.21
403.58	456.56
404.02	338.60
404.47	495.88
404.92	356.07
405.36	327.68
405.81	452.19
406.26	458.74
406.70	441.27
407.15	450.01
407.59	467.48
408.04	443.45
408.49	489.33
408.93	463.11
409.38	480.59
409.82	478.41
410.27	439.08
410.71	528.65
411.16	484.96
411.61	498.07
412.05	484.96
412.50	543.94
412.94	526.46
413.39	526.46
413.83	594.18
414.28	478.41
414.72	530.83
415.17	533.02
415.61	592.00
416.06	602.92
416.50	626.95
416.95	471.85
417.39	642.24
417.84	622.58
418.28	546.12
418.73	672.83
419.17	703.41
419.62	574.52
420.06	648.80
420.51	637.87
420.95	747.10
421.40	688.12
421.84	692.49
422.29	679.38
422.73	729.62
423.17	692.49
423.62	720.88
424.06	784.24
424.51	701.22
424.95	709.96
425.39	692.49
425.84	668.46
426.28	795.16
426.73	690.30
427.17	749.28
427.61	731.81
428.06	738.36
428.50	725.25
428.94	716.52
429.39	884.72
429.83	755.84
430.27	830.11
430.72	862.88
431.16	806.08
431.60	747.10
432.05	871.62
432.49	821.37
432.93	834.48
433.38	762.39
433.82	865.06
434.26	806.08
434.71	961.18
435.15	943.70
435.59	784.24
436.03	878.17
436.48	882.54
436.92	943.70
437.36	952.44
437.80	987.39
438.25	980.84
438.69	908.75
439.13	978.66
439.57	1004.87
440.02	926.23
440.46	989.58
440.90	939.34
441.34	913.12
441.79	993.95
442.23	978.66
442.67	932.78
443.11	952.44
443.55	1020.16
443.99	1007.05
444.44	1011.42
444.88	1057.30
445.32	1061.67
445.76	1063.85
446.20	1184.00
446.64	1120.65
447.09	1070.41
447.53	1042.01
447.97	1094.43
448.41	1216.77
448.85	1212.40
449.29	1249.53
449.73	1247.35
450.17	1319.44
450.62	1232.06
451.06	1256.09
451.50	1175.26
451.94	1216.77
452.38	1216.77
452.82	1218.95
453.26	1413.37
453.70	1264.83
454.14	1354.39
454.58	1347.84
455.02	1356.57
455.46	1343.47
455.90	1446.14
456.34	1358.76
456.78	1378.42
457.22	1544.44
457.66	1485.46
458.10	1500.75
458.54	1518.23
458.98	1620.90
459.42	1583.76
459.86	1581.58
460.30	1640.56
460.74	1710.46
461.18	1634.01
461.62	1535.70
462.06	1653.67
462.50	1682.06
462.94	1607.79
463.38	1797.84
463.82	1620.90
464.26	1717.02
464.70	1793.47
465.14	1865.56
465.58	1837.16
466.02	1889.59
466.46	1837.16
466.90	1924.54
467.34	1963.87
467.77	2007.56
468.21	2088.38
468.65	2160.47
469.09	2127.70
469.53	2094.94
469.97	2134.26
470.41	2066.54
470.85	2142.99
471.28	2221.64
471.72	2245.67
472.16	2223.82
472.60	2315.57
473.04	2311.20
473.48	2501.25
473.91	2359.26
474.35	2470.67
474.79	2448.82
475.23	2385.47
475.67	2562.42
476.11	2411.69
476.54	2584.26
476.98	2606.11
477.42	2745.92
477.86	2547.13
478.29	2737.18
478.73	2811.45
479.17	2704.41
479.61	2769.95
480.04	2787.42
480.48	2931.60
480.92	2890.09
481.36	3075.78
481.79	3049.56
482.23	3049.56
482.67	3001.50
483.11	3130.39
483.54	3158.79
483.98	3198.11
484.42	3163.16
484.85	3270.20
485.29	3270.20
485.73	3278.93
486.16	3359.76
486.60	3351.02
487.04	3451.51
487.47	3431.85
487.91	3525.78
488.35	3346.65
488.78	3521.41
489.22	3584.76
489.66	3510.49
490.09	3560.74
490.53	3661.22
490.97	3722.39
491.40	3768.26
491.84	3665.59
492.27	3877.49
492.71	3818.51
493.15	3975.79
493.58	3851.27
494.02	3945.21
494.45	3977.97
494.89	3925.55
495.32	4032.59
495.76	4119.97
496.20	4161.47
496.63	4316.57
497.07	4218.27
497.50	4320.94
497.94	4231.38
498.37	4388.66
498.81	4427.98
499.24	4338.42
499.68	4366.82
500.11	4432.35
500.55	4362.45
500.98	4438.90
501.42	4598.37
501.85	4635.51
502.29	4781.87
502.72	4711.97
503.16	4543.76
503.59	4539.39
504.03	4853.96
504.46	4834.30
504.90	4836.48
505.33	4803.72
505.77	4965.37
506.20	4849.59
506.63	4908.57
507.07	4860.51
507.50	5026.53
507.94	5087.70
508.37	4882.36
508.81	5269.01
509.24	4952.26
509.67	5146.68
510.11	5164.16
510.54	5314.89
510.98	5124.84
511.41	5151.05
511.84	5144.50
512.28	5251.54
512.71	5306.15
513.14	5419.74
513.58	5395.72
514.01	5419.74
514.44	5544.26
514.88	5448.14
515.31	5474.36
515.74	5771.45
516.18	5653.49
516.61	5557.37
517.04	5577.03
517.48	5638.19
517.91	5791.11
518.34	5850.09
518.77	5823.88
519.21	5930.92
519.64	5773.63
520.07	5887.23
520.51	5847.91
520.94	5983.35
521.37	6140.63
521.80	6110.05
522.24	6044.51
522.67	6107.86
523.10	6090.39
523.53	6300.10
523.97	6280.44
524.40	6284.81
524.83	6332.87
525.26	6223.64
525.69	6426.80
526.13	6477.04
526.56	6496.70
526.99	6553.50
527.42	6370.00
527.85	6444.28
528.28	6588.45
528.72	6728.26
529.15	6638.70
529.58	6787.24
530.01	6608.11
530.44	7036.27
530.87	6549.13
531.31	6800.35
531.74	6870.25
532.17	6883.36
532.60	6898.65
533.03	6999.14
533.46	7016.61
533.89	7020.98
534.32	7034.09
534.75	6983.85
535.19	7128.02
535.62	7296.23
536.05	7350.84
536.48	7261.28
536.91	7436.04
537.34	7274.38
537.77	7287.49
538.20	7353.03
538.63	7499.39
539.06	7337.74
539.49	7667.60
539.92	7331.18
540.35	7578.03
540.78	7470.99
541.21	7556.19
541.64	7534.34
542.07	7588.95
542.50	7641.38
542.93	7588.95
543.36	7484.10
543.79	7619.54
544.22	7949.40
544.65	7661.04
545.08	7551.82
545.51	7840.17
545.94	7750.61
546.37	7844.54
546.80	8001.82
547.23	7746.24
547.66	7730.95
548.09	8087.02
548.52	8062.99
548.95	7907.89
549.38	7890.41
549.80	7881.68
550.23	8130.71
550.66	8019.30
551.09	7846.72
551.52	8111.05
551.95	8014.93
552.38	7988.72
552.81	8108.86
553.24	7997.45
553.66	8224.64
554.09	7573.66
554.52	8137.26
554.95	8322.94
555.38	8202.80
555.81	7953.76
556.24	8222.46
556.66	8283.62
557.09	8189.69
557.52	8305.47
557.95	8261.78
558.38	8360.08
558.80	8211.54
559.23	8414.69
559.66	8353.53
560.09	8287.99
560.52	8414.69
560.94	8495.52
561.37	8233.38
561.80	8346.97
562.23	8268.33
562.65	8462.75
563.08	8392.85
563.51	8467.12
563.94	8432.17
564.36	8427.80
564.79	8679.02
565.22	8421.25
565.65	8475.86
566.07	8508.63
566.50	8604.75
566.93	8751.11
567.35	8486.78
567.78	8526.10
568.21	8526.10
568.63	8641.88
569.06	8672.46
569.49	8530.47
569.91	8556.69
570.34	8526.10
570.77	8727.08
571.19	8740.18
571.62	8504.26
572.05	8587.27
572.47	8521.73
572.90	8277.07
573.33	8554.50
573.75	8491.15
574.18	8484.60
574.60	8436.54
575.03	8633.14
575.46	8287.99
575.88	8460.57
576.31	8585.08
576.73	8386.30
577.16	8580.72
577.59	8432.17
578.01	8578.53
578.44	8401.59
578.86	8550.13
579.29	8569.79
579.71	8499.89
580.14	8556.69
580.56	8630.96
580.99	8672.46
581.41	8475.86
581.84	8545.76
582.26	8620.04
582.69	8574.16
583.11	8574.16
583.54	8818.83
583.96	8659.36
584.39	8604.75
584.81	8713.97
585.24	8687.76
585.66	8622.22
586.09	8659.36
586.51	8842.86
586.94	8821.01
587.36	8871.25
587.79	8934.60
588.21	8952.08
588.64	9144.32
589.06	8866.89
589.48	9087.52
589.91	8772.95
590.33	9076.60
590.76	8851.59
591.18	9067.86
591.60	9122.47
592.03	8901.84
592.45	9094.07
592.88	9338.74
593.30	9043.83
593.72	9308.15
594.15	9216.41
594.57	9091.89
595.00	9008.88
595.42	9295.05
595.84	9153.06
596.27	9161.79
596.69	9358.40
597.11	9404.27
597.54	9489.47
597.96	9229.51
598.38	9301.60
598.80	9358.40
599.23	9314.71
599.65	9509.13
600.07	9386.80
600.50	9441.41
600.92	9581.22
601.34	9500.39
601.77	9657.67
602.19	9340.92
602.61	9430.49
603.03	9570.29
603.46	9515.68
603.88	9515.68
604.30	9450.15
604.72	9408.64
605.15	9714.47
605.57	9657.67
605.99	9657.67
606.41	9683.89
606.83	9467.62
607.26	9644.57
607.68	9620.54
608.10	9613.98
608.52	9585.59
608.94	9397.72
609.37	9812.77
609.79	9535.34
610.21	9655.49
610.63	9600.88
611.05	9670.78
611.47	9624.91
611.90	9648.94
612.32	9646.75
612.74	9524.42
613.16	9447.96
613.58	9513.50
614.00	9539.71
614.42	9474.18
614.84	9574.66
615.27	9600.88
615.69	9450.15
616.11	9489.47
616.53	9585.59
616.95	9443.59
617.37	9843.36
617.79	9576.85
618.21	9627.09
618.63	9648.94
619.05	9487.28
619.47	9755.98
619.89	9393.35
620.31	9530.97
620.74	9613.98
621.16	9559.37
621.58	9535.34
622.00	9485.10
622.42	9367.14
622.84	9672.97
623.26	9347.48
623.68	9613.98
624.10	9441.41
624.52	9533.16
624.94	9404.27
625.36	9766.90
625.78	9544.08
626.20	9362.77
626.62	9496.02
627.03	9489.47
627.45	9452.33
627.87	9386.80
628.29	9212.04
628.71	9445.78
629.13	9190.19
629.55	9255.73
629.97	9124.66
630.39	9301.60
630.81	9159.61
631.23	9109.36
631.65	9349.66
632.07	9336.55
632.49	9255.73
632.90	9030.72
633.32	9074.41
633.74	9102.81
634.16	8971.74
634.58	9126.84
635.00	9083.15
635.42	9046.01
635.83	9094.07
636.25	9142.13
636.67	9061.31
637.09	8945.53
637.51	8930.24
637.93	8952.08
638.34	8709.60
638.76	8700.86
639.18	8657.17
639.60	8825.38
640.02	8722.71
640.44	8812.27
640.85	8637.51
641.27	8613.48
641.69	8388.48
642.11	8510.81
642.52	8637.51
642.94	8676.83
643.36	8495.52
643.78	8665.91
644.19	8676.83
644.61	8401.59
645.03	8231.20
645.45	8268.33
645.86	8226.83
646.28	8412.51
646.70	8458.38
647.12	8421.25
647.53	8368.82
647.95	8515.18
648.37	8486.78
648.78	8126.34
649.20	8364.45
649.62	8202.80
650.03	8349.16
650.45	8287.99
650.87	8189.69
651.28	8257.41
651.70	8150.37
652.12	8316.39
652.53	8006.19
652.95	8191.88
653.37	8167.85
653.78	8259.59
654.20	7971.24
654.61	8327.31
655.03	8331.68
655.45	8084.83
655.86	8102.31
656.28	8056.44
656.69	8351.34
657.11	8231.20
657.53	8139.45
657.94	7969.06
658.36	8014.93
658.77	7938.47
659.19	8224.64
659.60	8121.97
660.02	8100.13
660.44	7945.03
660.85	7988.72
661.27	7907.89
661.68	7971.24
662.10	7982.16
662.51	7877.31
662.93	7934.10
663.34	7949.40
663.76	7990.90
664.17	7912.26
664.59	7921.00
665.00	7949.40
665.42	7661.04
665.83	7831.43
666.25	7741.87
666.66	7654.49
667.08	7800.85
667.49	7643.57
667.90	7728.76
668.32	7689.44
668.73	7896.97
669.15	7733.13
669.56	7859.83
669.98	7527.79
670.39	7787.74
670.80	7663.23
671.22	7628.27
671.63	7724.39
672.05	7746.24
672.46	7595.51
672.87	7744.05
673.29	7416.38
673.70	7505.94
674.12	7674.15
674.53	7479.73
674.94	7479.73
675.36	7516.86
675.77	7505.94
676.18	7525.60
676.60	7656.67
677.01	7492.83
677.42	7464.44
677.84	7628.27
678.25	7287.49
678.66	7549.63
679.08	7320.26
679.49	7486.28
679.90	7350.84
680.31	7357.40
680.73	7381.43
681.14	7309.34
681.55	7370.50
681.97	7348.66
682.38	7245.99
682.79	7512.50
683.20	7385.79
683.62	7123.65
684.03	7259.09
684.44	7256.91
684.85	7132.39
685.27	7152.05
685.68	7162.98
686.09	7241.62
686.50	7252.54
686.91	7261.28
687.33	7106.18
687.74	7145.50
688.15	7130.21
688.56	7025.35
688.97	7256.91
689.39	7294.05
689.80	7093.07
690.21	6896.47
690.62	6959.82
691.03	6996.95
691.44	7134.58
691.86	7040.64
692.27	7077.78
692.68	6758.84
693.09	7066.86
693.50	6929.23
693.91	7088.70
694.32	7097.44
694.73	6946.71
695.15	6990.40
695.56	6767.58
695.97	6697.68
696.38	6933.60
696.79	7005.69
697.20	6933.60
697.61	6931.42
698.02	6944.53
698.43	6835.30
698.84	6905.20
699.25	6671.46
699.66	6806.90
700.07	6793.80
700.48	6629.96
700.90	6728.26
701.31	6673.65
701.72	6852.78
702.13	6752.29
702.54	6664.91
702.95	6688.94
703.36	6691.12
703.77	6852.78
704.18	6579.71
704.59	6743.55
705.00	6621.22
705.41	6645.25
705.82	6468.30
706.22	6715.15
706.63	6568.79
707.04	6660.54
707.45	6385.29
707.86	6584.08
708.27	6640.88
708.68	6544.76
709.09	6525.10
709.50	6494.52
709.91	6538.21
710.32	6584.08
710.73	6496.70
711.14	6610.30
711.55	6649.62
711.95	6564.42
712.36	6610.30
712.77	6404.95
713.18	6380.92
713.59	6383.11
714.00	6511.99
714.41	6553.50
714.82	6426.80
715.22	6424.61
715.63	6522.92
716.04	6234.56
716.45	6459.57
716.86	6293.54
717.27	6343.79
717.67	6402.77
718.08	6365.63
718.49	6453.01
718.90	6409.32
719.31	6407.14
719.71	6232.38
720.12	6485.78
720.53	6536.02
720.94	6529.47
721.35	6297.91
721.75	6487.96
722.16	6162.47
722.57	6415.88
722.98	6350.34
723.38	6380.92
723.79	6643.06
724.20	6448.64
724.61	6461.75
725.01	6383.11
725.42	6487.96
725.83	6245.49
726.23	6256.41
726.64	6404.95
727.05	6516.36
727.45	6603.74
727.86	6450.83
728.27	6466.12
728.68	6632.14
729.08	6470.49
729.49	6483.60
729.90	6688.94
730.30	6678.02
730.71	6542.58
731.11	6750.11
731.52	6704.23
731.93	6603.74
732.33	6697.68
732.74	6806.90
733.15	6999.14
733.55	6767.58
733.96	6931.42
734.36	6767.58
734.77	6892.10
735.18	6872.44
735.58	7012.24
735.99	7012.24
736.39	6900.84
736.80	7103.99
737.21	7049.38
737.61	7079.96
738.02	7232.88
738.42	7298.41
738.83	7291.86
739.23	7289.68
739.64	7237.25
740.04	7300.60
740.45	7355.21
740.85	7215.40
741.26	7599.88
741.66	7735.31
742.07	7593.32
742.47	7680.70
742.88	7486.28
743.28	7770.27
743.69	7853.28
744.09	7848.91
744.50	8030.22
744.90	7942.84
745.31	7936.29
745.71	8222.46
746.12	8218.09
746.52	8176.58
746.93	8176.58
747.33	8290.18
747.73	8390.66
748.14	8440.91
748.54	8408.14
748.95	8654.99
749.35	8556.69
749.76	8755.48
750.16	8762.03
750.56	8971.74
750.97	8917.13
751.37	8956.45
751.78	9284.12
752.18	9194.56
752.58	9284.12
752.99	9281.94
753.39	9358.40
753.79	9423.93
754.20	9467.62
754.60	9790.93
755.00	9533.16
755.41	9539.71
755.81	9895.78
756.21	9867.39
756.62	9788.74
757.02	10147.00
757.42	10057.44
757.83	10103.31
758.23	10225.64
758.63	10050.88
759.03	10468.12
759.44	10374.19
759.84	10533.66
760.24	10518.37
760.65	10492.15
761.05	10638.52
761.45	10498.71
761.85	10468.12
762.26	10797.98
762.66	10948.71
763.06	10933.42
763.46	10894.10
763.87	11057.94
764.27	11123.47
764.67	11151.87
765.07	11064.49
765.47	11160.61
765.88	11344.11
766.28	11383.43
766.68	11381.24
767.08	11772.27
767.48	11501.39
767.88	11564.74
768.29	11518.87
768.69	11569.11
769.09	11654.31
769.49	12060.62
769.89	12001.64
770.29	11835.62
770.70	11829.07
771.10	11846.54
771.50	11916.45
771.90	11949.22
772.30	12268.15
772.70	12176.40
773.10	12049.70
773.50	12228.83
773.90	12318.40
774.30	12148.00
774.71	12305.29
775.11	12296.55
775.51	12473.50
775.91	12172.03
776.31	12576.17
776.71	12233.20
777.11	12182.96
777.51	12595.83
777.91	12458.20
778.31	12451.65
778.71	12715.97
779.11	12405.78
779.51	12549.95
779.91	12722.53
780.31	12508.45
780.71	12543.40
781.11	12200.43
781.51	12571.80
781.91	12622.04
782.31	12628.59
782.71	12261.60
783.11	12351.16
783.51	12672.28
783.91	12403.59
784.31	12637.33
784.71	12871.07
785.11	12630.78
785.51	12525.92
785.91	12718.16
786.31	12602.38
786.71	12528.11
787.11	12707.24
787.50	12735.64
787.90	12370.82
788.30	12724.71
788.70	12600.20
789.10	12744.37
789.50	12722.53
789.90	12718.16
790.30	12678.84
790.70	12362.09
791.09	12560.88
791.49	12285.63
791.89	12580.54
792.29	12475.68
792.69	12471.31
793.09	12370.82
793.49	12206.99
793.88	12429.80
794.28	12226.65
794.68	12305.29
795.08	11973.24
795.48	12303.10
795.88	12456.02
796.27	12307.47
796.67	12344.61
797.07	12001.64
797.47	12462.57
797.86	12353.35
798.26	12392.67
798.66	12355.53
799.06	12167.66
799.46	12318.40
799.85	12121.79
800.25	11837.81
800.65	12338.06
801.05	11818.14
801.44	12062.81
801.84	12145.82
802.24	12213.54
802.63	12071.55
803.03	12019.12
803.43	11988.54
803.83	11623.72
804.22	11839.99
804.62	11949.22
805.02	11791.93
805.41	11748.24
805.81	11770.09
806.21	11772.27
806.60	11667.41
807.00	11680.52
807.40	11770.09
807.79	11632.46
808.19	11687.07
808.59	11540.71
808.98	11796.30
809.38	11726.40
809.77	11348.48
810.17	11789.75
810.57	11494.84
810.96	11226.15
811.36	11407.46
811.75	11315.71
812.15	11162.80
812.55	11313.53
812.94	11267.65
813.34	11387.80
813.73	11250.18
814.13	11287.31
814.53	11217.41
814.92	11162.80
815.32	10929.05
815.71	11210.85
816.11	10699.68
816.50	10911.58
816.90	10813.28
817.29	10747.74
817.69	10883.18
818.08	10876.63
818.48	11047.02
818.87	10878.81
819.27	10441.91
819.66	10575.16
820.06	10959.64
820.45	10590.46
820.85	10760.85
821.24	10642.88
821.64	10378.56
822.03	10566.43
822.43	10540.21
822.82	10243.12
823.22	10302.10
823.61	10225.64
824.00	10177.59
824.40	10203.80
824.79	10247.49
825.19	9998.46
825.58	9924.18
825.98	10094.57
826.37	10125.16
826.76	9978.80
827.16	10297.73
827.55	10005.01
827.94	10061.81
828.34	9976.61
828.73	9843.36
829.13	9959.14
829.52	9810.59
829.91	10029.04
830.31	9703.55
830.70	9535.34
831.09	9432.67
831.49	9738.50
831.88	9406.46
832.27	9594.32
832.67	9607.43
833.06	9292.86
833.45	9594.32
833.85	9476.36
834.24	9181.45
834.63	9314.71
835.02	9159.61
835.42	8993.59
835.81	9271.02
836.20	9170.53
836.60	9118.10
836.99	9196.74
837.38	9177.08
837.77	9137.76
838.17	9056.94
838.56	9015.43
838.95	8963.00
839.34	9039.46
839.74	8960.82
840.13	8914.94
840.52	8836.30
840.91	8779.51
841.30	8766.40
841.70	8620.04
842.09	8596.01
842.48	8585.09
842.87	8609.11
843.26	8322.95
843.66	8523.92
844.05	8611.30
844.44	8342.61
844.83	8416.88
845.22	8353.53
845.61	8194.06
846.00	8178.77
846.40	8478.04
846.79	8220.27
847.18	8320.76
847.57	8119.79
847.96	8139.45
848.35	7955.95
848.74	8038.96
849.13	7921.00
849.53	8036.78
849.92	7779.00
850.31	7979.98
850.70	7798.67
851.09	7844.54
851.48	7634.83
851.87	7851.09
852.26	7658.86
852.65	7774.64
853.04	7667.59
853.43	7689.44
853.82	7556.19
854.21	7774.64
854.60	7619.54
854.99	7534.34
855.38	7457.88
855.77	7693.81
856.16	7525.60
856.55	7372.69
856.94	7331.18
857.33	7366.13
857.72	7475.36
858.11	7154.24
858.50	7374.87
858.89	7191.37
859.28	7121.47
859.67	7034.09
860.06	7241.62
860.45	7025.35
860.84	7051.57
861.23	7093.07
861.62	6889.91
862.01	7062.49
862.40	6892.10
862.79	7082.15
863.18	6887.73
863.57	6990.40
863.95	7001.32
864.34	6922.68
864.73	6809.09
865.12	6715.15
865.51	6763.21
865.90	6883.36
866.29	6763.21
866.68	6820.01
867.06	6601.56
867.45	6588.45
867.84	6667.09
868.23	6544.76
868.62	6409.32
869.01	6496.70
869.40	6361.26
869.78	6505.44
870.17	6177.77
870.56	6387.48
870.95	6228.01
871.34	6463.94
871.72	6356.90
872.11	6228.01
872.50	6147.18
872.89	6293.54
873.28	6230.19
873.66	6195.24
874.05	6197.43
874.44	6311.02
874.83	6131.89
875.21	6105.68
875.60	6190.87
875.99	6190.87
876.38	5830.43
876.76	6105.68
877.15	5961.50
877.54	5902.52
877.92	5793.29
878.31	5992.08
878.70	5878.49
879.09	5797.66
879.47	5826.06
879.86	5771.45
880.25	6096.94
880.63	5784.56
881.02	5710.28
881.41	5474.36
881.79	5725.57
882.18	5662.22
882.57	5646.93
882.95	5662.22
883.34	5664.41
883.73	5439.41
884.11	5598.87
884.50	5568.29
884.88	5539.89
885.27	5546.45
885.66	5498.39
886.04	5432.85
886.43	5498.39
886.81	5391.35
887.20	5282.12
887.59	5441.59
887.97	5330.18
888.36	5498.39
888.74	5544.26
889.13	5365.13
889.52	5445.96
889.90	5411.01
890.29	5181.63
890.67	5465.62
891.06	5686.25
891.44	5310.52
891.83	5203.48
892.21	5389.16
892.60	5485.28
892.98	5404.45
893.37	5295.23
893.75	5443.77
894.14	5284.31
894.52	5520.23
894.91	5692.81
895.29	5338.92
895.68	5430.67
896.06	5537.71
896.45	5437.22
896.83	5347.66
897.22	5452.51
897.60	5494.02
897.98	5419.74
898.37	5537.71
898.75	5515.86
899.14	5404.45
899.52	5404.45
899.91	5452.51
900.29	5338.92
900.67	5325.81
901.06	5376.05
901.44	5404.45
901.83	5247.17
902.21	5301.78
902.59	5513.68
902.98	5518.05
903.36	5542.08
903.75	5415.38
904.13	5295.23
904.51	5314.89
904.90	5378.24
905.28	5478.73
905.66	5437.22
906.05	5286.49
906.43	5404.45
906.81	5358.58
907.20	5124.84
907.58	5297.41
907.96	5231.88
908.35	5286.49
908.73	5159.79
909.11	5085.52
909.49	5236.25
909.88	5050.56
910.26	5087.70
910.64	5148.87
911.02	5076.78
911.41	5098.62
911.79	5065.86
912.17	5039.64
912.55	5107.36
912.94	5024.35
913.32	4976.29
913.70	4858.33
914.08	4794.98
914.47	4827.74
914.85	4915.12
915.23	4840.85
915.61	4884.54
915.99	4705.41
916.38	4714.15
916.76	4744.73
917.14	4535.02
917.52	4707.60
917.90	4620.22
918.29	4600.56
918.67	4399.58
919.05	4399.58
919.43	4085.02
919.81	4390.84
920.19	4093.75
920.57	4176.76
920.96	4109.04
921.34	4093.75
921.72	4023.85
922.10	3899.33
922.48	3870.93
922.86	3700.54
923.24	3742.05
923.62	3713.65
924.00	3707.10
924.39	3652.48
924.77	3576.03
925.15	3442.77
925.53	3353.21
925.91	3423.11
926.29	3545.44
926.67	3326.99
927.05	3160.97
927.43	3252.72
927.81	3178.45
928.19	3322.62
928.57	3222.14
928.95	3056.12
929.33	3191.55
929.71	3080.14
930.09	2901.02
930.47	2780.87
930.85	2809.27
931.23	2879.17
931.61	2573.34
931.99	2588.63
932.37	2656.35
932.75	2547.13
933.13	2660.72
933.51	2527.47
933.89	2470.67
934.27	2368.00
934.65	2409.50
935.03	2258.77
935.41	2507.81
935.79	2230.37
936.17	2339.60
936.54	2230.37
936.92	2234.74
937.30	2228.19
937.68	2302.46
938.06	2354.89
938.44	2180.13
938.82	2103.67
939.20	2103.67
939.58	2094.94
939.95	2055.61
940.33	2035.95
940.71	1959.50
941.09	1952.94
941.47	2014.11
941.85	1976.97
942.23	1944.20
942.60	1904.88
942.98	1854.64
943.36	1760.71
943.74	1819.69
944.12	1721.39
944.50	1732.31
944.87	1845.90
945.25	1806.58
945.63	1749.78
946.01	1758.52
946.38	1762.89
946.76	1719.20
947.14	1703.91
947.52	1741.05
947.90	1723.57
948.27	1717.02
948.65	1642.74
949.03	1795.66
949.41	1561.92
949.78	1721.39
950.16	1559.73
950.54	1618.71
950.91	1668.96
951.29	1623.08
951.67	1684.25
952.05	1548.81
952.42	1592.50
952.80	1640.56
953.18	1575.02
953.55	1577.21
953.93	1566.29
954.31	1664.59
954.68	1522.60
955.06	1546.63
955.44	1664.59
955.81	1664.59
956.19	1592.50
956.57	1594.68
956.94	1638.38
957.32	1603.42
957.69	1505.12
958.07	1516.04
958.45	1612.16
958.82	1533.52
959.20	1583.76
959.58	1614.35
959.95	1559.73
960.33	1566.29
960.70	1393.71
961.08	1594.68
961.45	1559.73
961.83	1546.63
962.21	1546.63
962.58	1570.66
962.96	1540.07
963.33	1620.90
963.71	1579.39
964.08	1472.35
964.46	1526.97
964.83	1599.05
965.21	1555.36
965.58	1546.63
965.96	1513.86
966.33	1474.54
966.71	1555.36
967.08	1520.41
967.46	1583.76
967.83	1428.66
968.21	1557.55
968.58	1476.72
968.96	1437.40
969.33	1437.40
969.71	1588.13
970.08	1498.57
970.46	1454.88
970.83	1463.61
971.20	1428.66
971.58	1439.59
971.95	1507.30
972.33	1339.10
972.70	1470.17
973.08	1561.92
973.45	1439.59
973.82	1328.18
974.20	1463.61
974.57	1339.10
974.95	1402.45
975.32	1465.80
975.69	1395.90
976.07	1350.02
976.44	1398.08
976.81	1402.45
977.19	1315.07
977.56	1343.47
977.93	1378.42
978.31	1304.15
978.68	1321.62
979.05	1430.85
979.43	1395.90
979.80	1286.67
980.17	1205.84
980.55	1240.80
980.92	1271.38
981.29	1304.15
981.67	1308.52
982.04	1245.16
982.41	1271.38
982.78	1149.05
983.16	1155.60
983.53	1173.08
983.90	1223.32
984.27	1234.24
984.65	1186.18
985.02	1225.50
985.39	1234.24
985.76	1188.37
986.14	1251.72
986.51	1177.45
986.88	1159.97
987.25	1070.41
987.63	1140.31
988.00	1066.04
988.37	1085.70
988.74	1090.07
989.11	1181.81
989.48	1076.96
989.86	1111.91
990.23	1055.11
990.60	1063.85
990.97	969.92
991.34	1061.67
991.71	1017.98
992.09	978.66
992.46	1081.33
992.83	1020.16
993.20	906.57
993.57	983.02
993.94	998.32
994.31	948.07
994.68	980.84
995.06	950.26
995.43	980.84
995.80	882.54
996.17	943.70
996.54	969.92
996.91	889.09
997.28	950.26
997.65	952.44
998.02	924.04
998.39	862.88
998.76	921.86
999.13	771.13
999.50	830.11
999.87	849.77
1000.24	821.37
1000.61	841.03
1000.99	873.80
1001.36	786.42
1001.73	782.05
1002.10	764.58
1002.47	854.14
1002.84	854.14
1003.21	843.22
1003.57	801.71
1003.94	823.56
1004.31	801.71
1004.68	703.41
1005.05	812.63
1005.42	753.65
1005.79	644.43
1006.16	744.91
1006.53	803.90
1006.90	664.09
1007.27	753.65
1007.64	755.84
1008.01	670.64
1008.38	727.44
1008.75	699.04
1009.12	806.08
1009.49	602.92
1009.85	694.67
1010.22	777.68
1010.59	626.95
1010.96	589.82
1011.33	598.55
1011.70	585.45
1012.07	618.21
1012.44	657.53
1012.80	585.45
1013.17	635.69
1013.54	517.73
1013.91	605.11
1014.28	620.40
1014.65	616.03
1015.01	559.23
1015.38	539.57
1015.75	587.63
1016.12	567.97
1016.49	539.57
1016.85	474.04
1017.22	548.31
1017.59	463.11
1017.96	482.77
1018.33	506.80
1018.69	480.59
1019.06	478.41
1019.43	626.95
1019.80	508.99
1020.16	450.01
1020.53	478.41
1020.90	519.91
1021.27	421.61
1021.63	515.54
1022.00	528.65
1022.37	519.91
1022.73	533.02
1023.10	380.10
1023.47	504.62
1023.84	447.82
1024.20	491.51
1024.57	508.99
1024.94	432.53
1025.30	513.36
1025.67	456.56
1026.04	347.34
1026.40	419.42
1026.77	325.49
1027.14	474.04
1027.50	445.64
1027.87	425.98
1028.23	397.58
1028.60	415.05
1028.97	393.21
1029.33	460.93
1029.70	397.58
1030.07	321.12
1030.43	380.10
1030.80	391.03
1031.16	371.36
1031.53	406.32
1031.89	404.13
1032.26	367.00
1032.63	417.24
1032.99	382.29
1033.36	384.47
1033.72	377.92
1034.09	310.20
1034.45	299.28
1034.82	270.88
1035.18	432.53
1035.55	360.44
1035.92	395.39
1036.28	340.78
1036.65	238.11
1037.01	227.19
1037.38	225.00
1037.74	351.70
1038.11	297.09
1038.47	301.46
1038.84	299.28
1039.20	268.69
1039.56	262.14
1039.93	329.86
1040.29	279.62
1040.66	279.62
1041.02	279.62
