# y A!D0!N(Q) Error
     0.300000      0.98265409    0.0027857370
     0.500000      0.97382562    0.0020212099
     0.700000      0.95893923    0.0021061668
     0.900000      0.94119249    0.0021163361
      1.10000      0.92572251    0.0019816311
      1.30000      0.89529319    0.0019547484
      1.50000      0.87744678    0.0019612735
      1.70000      0.84276521    0.0017529198
      1.90000      0.84802348    0.0015576092
