# y A!D0!N(Q) Error
     0.300000      0.96032461    0.0024361453
     0.500000      0.94299581    0.0019467065
     0.700000      0.91622188    0.0020988816
     0.900000      0.88583564    0.0022153894
      1.10000      0.84784517    0.0022839583
      1.30000      0.81180008    0.0022273044
      1.50000      0.77220680    0.0022948562
      1.70000      0.75814006    0.0020831056
      1.90000      0.72029321    0.0021209854
