# y A!D0!N(Q) Error
     0.300000      0.96006061    0.0040912065
     0.500000      0.93400895    0.0031208621
     0.700000      0.88556078    0.0034744054
     0.900000      0.82523868    0.0037211186
      1.10000      0.76095171    0.0040368400
      1.30000      0.71926935    0.0040445814
      1.50000      0.72493366    0.0041293137
      1.70000      0.73514688    0.0041386122
      1.90000      0.66329274    0.0045627470
