# y A!D0!N(Q) Error
     0.300000      0.96674672    0.0044311855
     0.500000      0.93364095    0.0041803503
     0.700000      0.88580872    0.0049602901
     0.900000      0.82666871    0.0064662220
      1.10000      0.74826553    0.0079160807
      1.30000      0.70864963    0.0075013347
      1.50000      0.68575938    0.0093458613
      1.70000      0.53647198     0.017191603
      1.90000      0.61345100    0.0079703300
