nm, A
1200.000000, 0.018255
1198.000000, 0.018860
1196.000000, 0.018848
1194.000000, 0.018786
1192.000000, 0.018615
1190.000000, 0.017936
1188.000000, 0.016880
1186.000000, 0.015512
1184.000000, 0.014303
1182.000000, 0.012837
1180.000000, 0.011408
1178.000000, 0.009778
1176.000000, 0.008181
1174.000000, 0.006919
1172.000000, 0.005401
1170.000000, 0.004294
1168.000000, 0.003071
1166.000000, 0.002018
1164.000000, 0.000968
1162.000000, 0.000272
1160.000000, -0.000599
1158.000000, -0.001467
1156.000000, -0.002043
1154.000000, -0.002991
1152.000000, -0.003583
1150.000000, -0.003926
1148.000000, -0.004843
1146.000000, -0.005358
1144.000000, -0.006219
1142.000000, -0.006803
1140.000000, -0.007283
1138.000000, -0.007872
1136.000000, -0.008288
1134.000000, -0.008709
1132.000000, -0.009012
1130.000000, -0.009528
1128.000000, -0.009797
1126.000000, -0.010055
1124.000000, -0.010079
1122.000000, -0.010548
1120.000000, -0.010925
1118.000000, -0.010851
1116.000000, -0.010975
1114.000000, -0.011323
1112.000000, -0.011224
1110.000000, -0.011418
1108.000000, -0.011325
1106.000000, -0.011612
1104.000000, -0.011798
1102.000000, -0.011640
1100.000000, -0.011661
1098.000000, -0.011606
1096.000000, -0.011713
1094.000000, -0.011788
1092.000000, -0.011712
1090.000000, -0.011836
1088.000000, -0.011708
1086.000000, -0.011665
1084.000000, -0.011840
1082.000000, -0.011757
1080.000000, -0.011850
1078.000000, -0.011747
1076.000000, -0.011671
1074.000000, -0.011677
1072.000000, -0.011639
1070.000000, -0.011673
1068.000000, -0.011690
1066.000000, -0.011678
1064.000000, -0.011533
1062.000000, -0.011607
1060.000000, -0.011713
1058.000000, -0.011696
1056.000000, -0.011596
1054.000000, -0.011485
1052.000000, -0.011509
1050.000000, -0.011521
1048.000000, -0.011530
1046.000000, -0.011391
1044.000000, -0.011575
1042.000000, -0.011435
1040.000000, -0.011550
1038.000000, -0.011548
1036.000000, -0.011341
1034.000000, -0.011420
1032.000000, -0.011474
1030.000000, -0.011678
1028.000000, -0.011608
1026.000000, -0.011742
1024.000000, -0.011787
1022.000000, -0.011638
1020.000000, -0.011919
1018.000000, -0.011923
1016.000000, -0.012133
1014.000000, -0.012259
1012.000000, -0.012449
1010.000000, -0.012537
1008.000000, -0.012675
1006.000000, -0.012684
1004.000000, -0.012810
1002.000000, -0.012943
1000.000000, -0.013023
998.000000, -0.013235
996.000000, -0.013397
994.000000, -0.013563
992.000000, -0.013595
990.000000, -0.013593
988.000000, -0.013796
986.000000, -0.013942
984.000000, -0.014136
982.000000, -0.014206
980.000000, -0.014135
978.000000, -0.014469
976.000000, -0.014199
974.000000, -0.013909
972.000000, -0.014360
970.000000, -0.014204
968.000000, -0.014163
966.000000, -0.014227
964.000000, -0.014490
962.000000, -0.014782
960.000000, -0.014734
958.000000, -0.014538
956.000000, -0.014463
954.000000, -0.014212
952.000000, -0.014209
950.000000, -0.014090
948.000000, -0.013704
946.000000, -0.014012
944.000000, -0.014063
942.000000, -0.013921
940.000000, -0.013896
938.000000, -0.013764
936.000000, -0.013502
934.000000, -0.013627
932.000000, -0.013595
930.000000, -0.013590
928.000000, -0.013428
926.000000, -0.013073
924.000000, -0.013133
922.000000, -0.013007
920.000000, -0.012791
918.000000, -0.013037
916.000000, -0.013546
914.000000, -0.013277
912.000000, -0.012832
910.000000, -0.013079
908.000000, -0.013603
906.000000, -0.013776
904.000000, -0.014083
902.000000, -0.014160
900.000000, -0.014324
898.000000, -0.014975
896.000000, -0.014869
894.000000, -0.014503
892.000000, -0.014649
890.000000, -0.015137
888.000000, -0.015788
886.000000, -0.015884
884.000000, -0.016309
882.000000, -0.016473
880.000000, -0.015824
878.000000, -0.015909
876.000000, -0.016789
874.000000, -0.016505
872.000000, -0.016266
870.000000, -0.016158
868.000000, -0.016298
866.000000, -0.017304
864.000000, -0.017585
862.000000, -0.015981
860.000000, -0.015346
858.000000, -0.014100
856.000000, -0.016652
854.000000, -0.020103
852.000000, -0.016999
850.000000, -0.014220
848.000000, -0.016066
846.000000, -0.016194
844.000000, -0.015784
842.000000, -0.014931
840.000000, -0.016097
838.000000, -0.017665
836.000000, -0.016935
834.000000, -0.017744
832.000000, -0.018986
830.000000, -0.017792
828.000000, -0.015726
826.000000, -0.014883
824.000000, -0.016664
822.000000, -0.018607
820.000000, -0.017579
818.000000, -0.015493
816.000000, -0.015804
814.000000, -0.017666
812.000000, -0.015702
810.000000, -0.015473
808.000000, -0.016830
806.000000, -0.016221
804.000000, -0.016059
802.000000, -0.014581
800.000000, -0.013226
798.000000, -0.012462
796.000000, -0.011768
794.000000, -0.010094
792.000000, -0.008115
790.000000, -0.005335
788.000000, -0.002601
786.000000, 0.000891
784.000000, 0.005300
782.000000, 0.008249
780.000000, 0.014031
778.000000, 0.021076
776.000000, 0.027549
774.000000, 0.037593
772.000000, 0.049133
770.000000, 0.061378
768.000000, 0.077268
766.000000, 0.094617
764.000000, 0.115190
762.000000, 0.139400
760.000000, 0.166662
758.000000, 0.196982
756.000000, 0.232582
754.000000, 0.272337
752.000000, 0.315379
750.000000, 0.361885
748.000000, 0.410387
746.000000, 0.461615
744.000000, 0.515338
742.000000, 0.569705
740.000000, 0.622574
738.000000, 0.675696
736.000000, 0.726331
734.000000, 0.774308
732.000000, 0.818360
730.000000, 0.858839
728.000000, 0.894931
726.000000, 0.925769
724.000000, 0.950105
722.000000, 0.972784
720.000000, 0.991868
718.000000, 1.008297
716.000000, 1.018647
714.000000, 1.028948
712.000000, 1.036022
710.000000, 1.043469
708.000000, 1.048920
706.000000, 1.051998
704.000000, 1.055300
702.000000, 1.056850
700.000000, 1.058351
698.000000, 1.061521
696.000000, 1.063442
694.000000, 1.065122
692.000000, 1.065777
690.000000, 1.067172
688.000000, 1.066961
686.000000, 1.068514
684.000000, 1.069277
682.000000, 1.069527
680.000000, 1.070718
678.000000, 1.070194
676.000000, 1.071924
674.000000, 1.072573
672.000000, 1.072810
670.000000, 1.071893
668.000000, 1.072444
666.000000, 1.073503
664.000000, 1.074003
662.000000, 1.074080
660.000000, 1.073592
658.000000, 1.074650
656.000000, 1.073754
654.000000, 1.074854
652.000000, 1.076085
650.000000, 1.076605
648.000000, 1.076309
646.000000, 1.077998
644.000000, 1.077012
642.000000, 1.076203
640.000000, 1.076827
638.000000, 1.077329
636.000000, 1.079490
634.000000, 1.078717
632.000000, 1.078547
630.000000, 1.078868
628.000000, 1.078456
626.000000, 1.078241
624.000000, 1.078938
622.000000, 1.078951
620.000000, 1.080811
618.000000, 1.078973
616.000000, 1.078779
614.000000, 1.079402
612.000000, 1.080850
610.000000, 1.079178
608.000000, 1.080430
606.000000, 1.079755
604.000000, 1.081349
602.000000, 1.081101
600.000000, 1.080864
598.000000, 1.079861
596.000000, 1.080738
594.000000, 1.080477
592.000000, 1.079485
590.000000, 1.079630
588.000000, 1.079870
586.000000, 1.080548
584.000000, 1.080617
582.000000, 1.080662
580.000000, 1.079924
578.000000, 1.079331
576.000000, 1.080982
574.000000, 1.080281
572.000000, 1.079936
570.000000, 1.078804
568.000000, 1.079298
566.000000, 1.078417
564.000000, 1.078583
562.000000, 1.078290
560.000000, 1.076471
558.000000, 1.077794
556.000000, 1.077735
554.000000, 1.077829
552.000000, 1.076834
550.000000, 1.076742
548.000000, 1.075620
546.000000, 1.075396
544.000000, 1.074753
542.000000, 1.074746
540.000000, 1.075113
538.000000, 1.074496
536.000000, 1.073240
534.000000, 1.073327
532.000000, 1.072953
530.000000, 1.072137
528.000000, 1.072445
526.000000, 1.071992
524.000000, 1.071694
522.000000, 1.071028
520.000000, 1.070826
518.000000, 1.070615
516.000000, 1.069837
514.000000, 1.069981
512.000000, 1.069185
510.000000, 1.069140
508.000000, 1.068091
506.000000, 1.068074
504.000000, 1.067136
502.000000, 1.067971
500.000000, 1.066454
