<?xml version="1.0" encoding="utf-8" standalone="no"?>
<!DOCTYPE svg PUBLIC "-//W3C//DTD SVG 1.1//EN"
  "http://www.w3.org/Graphics/SVG/1.1/DTD/svg11.dtd">
<!-- Created with matplotlib (http://matplotlib.org/) -->
<svg height="720pt" version="1.1" viewBox="0 0 720 720" width="720pt" xmlns="http://www.w3.org/2000/svg" xmlns:xlink="http://www.w3.org/1999/xlink">
 <defs>
  <style type="text/css">
*{stroke-linecap:butt;stroke-linejoin:round;}
  </style>
 </defs>
 <g id="figure_1">
  <g id="patch_1">
   <path d="M 0 720 
L 720 720 
L 720 0 
L 0 0 
z
" style="fill:#ffffff;"/>
  </g>
  <g id="patch_2">
   <path d="M 14.3 705.7 
L 705.7 705.7 
L 705.7 14.3 
L 14.3 14.3 
z
" style="fill:#ffffff;"/>
  </g>
  <g id="pane3d_1">
   <g id="patch_3">
    <path d="M 105.955754 552.924966 
L 303.838051 383.409353 
L 300.543521 59.492836 
L 91.627989 211.79913 
" style="fill:#f2f2f2;opacity:0.5;stroke:#f2f2f2;stroke-linejoin:miter;"/>
   </g>
  </g>
  <g id="pane3d_2">
   <g id="patch_4">
    <path d="M 303.838051 383.409353 
L 624.388769 478.17952 
L 637.800227 144.495433 
L 300.543521 59.492836 
" style="fill:#e6e6e6;opacity:0.5;stroke:#e6e6e6;stroke-linejoin:miter;"/>
   </g>
  </g>
  <g id="pane3d_3">
   <g id="patch_5">
    <path d="M 105.955754 552.924966 
L 443.218422 663.300268 
L 624.388769 478.17952 
L 303.838051 383.409353 
" style="fill:#ececec;opacity:0.5;stroke:#ececec;stroke-linejoin:miter;"/>
   </g>
  </g>
  <g id="axis3d_1">
   <g id="line2d_1">
    <path d="M 105.955754 552.924966 
L 443.218422 663.300268 
" style="fill:none;stroke:#000000;stroke-linecap:square;stroke-width:0.8;"/>
   </g>
   <g id="text_1">
    <!-- Energy (meV) -->
    <defs>
     <path d="M 9.8125 72.90625 
L 55.90625 72.90625 
L 55.90625 64.59375 
L 19.671875 64.59375 
L 19.671875 43.015625 
L 54.390625 43.015625 
L 54.390625 34.71875 
L 19.671875 34.71875 
L 19.671875 8.296875 
L 56.78125 8.296875 
L 56.78125 0 
L 9.8125 0 
z
" id="DejaVuSans-45"/>
     <path d="M 54.890625 33.015625 
L 54.890625 0 
L 45.90625 0 
L 45.90625 32.71875 
Q 45.90625 40.484375 42.875 44.328125 
Q 39.84375 48.1875 33.796875 48.1875 
Q 26.515625 48.1875 22.3125 43.546875 
Q 18.109375 38.921875 18.109375 30.90625 
L 18.109375 0 
L 9.078125 0 
L 9.078125 54.6875 
L 18.109375 54.6875 
L 18.109375 46.1875 
Q 21.34375 51.125 25.703125 53.5625 
Q 30.078125 56 35.796875 56 
Q 45.21875 56 50.046875 50.171875 
Q 54.890625 44.34375 54.890625 33.015625 
z
" id="DejaVuSans-6e"/>
     <path d="M 56.203125 29.59375 
L 56.203125 25.203125 
L 14.890625 25.203125 
Q 15.484375 15.921875 20.484375 11.0625 
Q 25.484375 6.203125 34.421875 6.203125 
Q 39.59375 6.203125 44.453125 7.46875 
Q 49.3125 8.734375 54.109375 11.28125 
L 54.109375 2.78125 
Q 49.265625 0.734375 44.1875 -0.34375 
Q 39.109375 -1.421875 33.890625 -1.421875 
Q 20.796875 -1.421875 13.15625 6.1875 
Q 5.515625 13.8125 5.515625 26.8125 
Q 5.515625 40.234375 12.765625 48.109375 
Q 20.015625 56 32.328125 56 
Q 43.359375 56 49.78125 48.890625 
Q 56.203125 41.796875 56.203125 29.59375 
z
M 47.21875 32.234375 
Q 47.125 39.59375 43.09375 43.984375 
Q 39.0625 48.390625 32.421875 48.390625 
Q 24.90625 48.390625 20.390625 44.140625 
Q 15.875 39.890625 15.1875 32.171875 
z
" id="DejaVuSans-65"/>
     <path d="M 41.109375 46.296875 
Q 39.59375 47.171875 37.8125 47.578125 
Q 36.03125 48 33.890625 48 
Q 26.265625 48 22.1875 43.046875 
Q 18.109375 38.09375 18.109375 28.8125 
L 18.109375 0 
L 9.078125 0 
L 9.078125 54.6875 
L 18.109375 54.6875 
L 18.109375 46.1875 
Q 20.953125 51.171875 25.484375 53.578125 
Q 30.03125 56 36.53125 56 
Q 37.453125 56 38.578125 55.875 
Q 39.703125 55.765625 41.0625 55.515625 
z
" id="DejaVuSans-72"/>
     <path d="M 45.40625 27.984375 
Q 45.40625 37.75 41.375 43.109375 
Q 37.359375 48.484375 30.078125 48.484375 
Q 22.859375 48.484375 18.828125 43.109375 
Q 14.796875 37.75 14.796875 27.984375 
Q 14.796875 18.265625 18.828125 12.890625 
Q 22.859375 7.515625 30.078125 7.515625 
Q 37.359375 7.515625 41.375 12.890625 
Q 45.40625 18.265625 45.40625 27.984375 
z
M 54.390625 6.78125 
Q 54.390625 -7.171875 48.1875 -13.984375 
Q 42 -20.796875 29.203125 -20.796875 
Q 24.46875 -20.796875 20.265625 -20.09375 
Q 16.0625 -19.390625 12.109375 -17.921875 
L 12.109375 -9.1875 
Q 16.0625 -11.328125 19.921875 -12.34375 
Q 23.78125 -13.375 27.78125 -13.375 
Q 36.625 -13.375 41.015625 -8.765625 
Q 45.40625 -4.15625 45.40625 5.171875 
L 45.40625 9.625 
Q 42.625 4.78125 38.28125 2.390625 
Q 33.9375 0 27.875 0 
Q 17.828125 0 11.671875 7.65625 
Q 5.515625 15.328125 5.515625 27.984375 
Q 5.515625 40.671875 11.671875 48.328125 
Q 17.828125 56 27.875 56 
Q 33.9375 56 38.28125 53.609375 
Q 42.625 51.21875 45.40625 46.390625 
L 45.40625 54.6875 
L 54.390625 54.6875 
z
" id="DejaVuSans-67"/>
     <path d="M 32.171875 -5.078125 
Q 28.375 -14.84375 24.75 -17.8125 
Q 21.140625 -20.796875 15.09375 -20.796875 
L 7.90625 -20.796875 
L 7.90625 -13.28125 
L 13.1875 -13.28125 
Q 16.890625 -13.28125 18.9375 -11.515625 
Q 21 -9.765625 23.484375 -3.21875 
L 25.09375 0.875 
L 2.984375 54.6875 
L 12.5 54.6875 
L 29.59375 11.921875 
L 46.6875 54.6875 
L 56.203125 54.6875 
z
" id="DejaVuSans-79"/>
     <path id="DejaVuSans-20"/>
     <path d="M 31 75.875 
Q 24.46875 64.65625 21.28125 53.65625 
Q 18.109375 42.671875 18.109375 31.390625 
Q 18.109375 20.125 21.3125 9.0625 
Q 24.515625 -2 31 -13.1875 
L 23.1875 -13.1875 
Q 15.875 -1.703125 12.234375 9.375 
Q 8.59375 20.453125 8.59375 31.390625 
Q 8.59375 42.28125 12.203125 53.3125 
Q 15.828125 64.359375 23.1875 75.875 
z
" id="DejaVuSans-28"/>
     <path d="M 52 44.1875 
Q 55.375 50.25 60.0625 53.125 
Q 64.75 56 71.09375 56 
Q 79.640625 56 84.28125 50.015625 
Q 88.921875 44.046875 88.921875 33.015625 
L 88.921875 0 
L 79.890625 0 
L 79.890625 32.71875 
Q 79.890625 40.578125 77.09375 44.375 
Q 74.3125 48.1875 68.609375 48.1875 
Q 61.625 48.1875 57.5625 43.546875 
Q 53.515625 38.921875 53.515625 30.90625 
L 53.515625 0 
L 44.484375 0 
L 44.484375 32.71875 
Q 44.484375 40.625 41.703125 44.40625 
Q 38.921875 48.1875 33.109375 48.1875 
Q 26.21875 48.1875 22.15625 43.53125 
Q 18.109375 38.875 18.109375 30.90625 
L 18.109375 0 
L 9.078125 0 
L 9.078125 54.6875 
L 18.109375 54.6875 
L 18.109375 46.1875 
Q 21.1875 51.21875 25.484375 53.609375 
Q 29.78125 56 35.6875 56 
Q 41.65625 56 45.828125 52.96875 
Q 50 49.953125 52 44.1875 
z
" id="DejaVuSans-6d"/>
     <path d="M 28.609375 0 
L 0.78125 72.90625 
L 11.078125 72.90625 
L 34.1875 11.53125 
L 57.328125 72.90625 
L 67.578125 72.90625 
L 39.796875 0 
z
" id="DejaVuSans-56"/>
     <path d="M 8.015625 75.875 
L 15.828125 75.875 
Q 23.140625 64.359375 26.78125 53.3125 
Q 30.421875 42.28125 30.421875 31.390625 
Q 30.421875 20.453125 26.78125 9.375 
Q 23.140625 -1.703125 15.828125 -13.1875 
L 8.015625 -13.1875 
Q 14.5 -2 17.703125 9.0625 
Q 20.90625 20.125 20.90625 31.390625 
Q 20.90625 42.671875 17.703125 53.65625 
Q 14.5 64.65625 8.015625 75.875 
z
" id="DejaVuSans-29"/>
    </defs>
    <g transform="translate(223.235704 634.866422)rotate(-341.878381)scale(0.1 -0.1)">
     <use xlink:href="#DejaVuSans-45"/>
     <use x="63.183594" xlink:href="#DejaVuSans-6e"/>
     <use x="126.5625" xlink:href="#DejaVuSans-65"/>
     <use x="188.085938" xlink:href="#DejaVuSans-72"/>
     <use x="229.183594" xlink:href="#DejaVuSans-67"/>
     <use x="292.660156" xlink:href="#DejaVuSans-79"/>
     <use x="351.839844" xlink:href="#DejaVuSans-20"/>
     <use x="383.626953" xlink:href="#DejaVuSans-28"/>
     <use x="422.640625" xlink:href="#DejaVuSans-6d"/>
     <use x="520.052734" xlink:href="#DejaVuSans-65"/>
     <use x="581.576172" xlink:href="#DejaVuSans-56"/>
     <use x="649.984375" xlink:href="#DejaVuSans-29"/>
    </g>
   </g>
   <g id="Line3DCollection_1">
    <path d="M 112.405395 555.035728 
L 309.9883 385.227661 
L 307.000488 61.120259 
" style="fill:none;stroke:#b0b0b0;stroke-width:0.8;"/>
    <path d="M 151.346828 567.780016 
L 347.105287 396.201223 
L 345.979985 70.944699 
" style="fill:none;stroke:#b0b0b0;stroke-width:0.8;"/>
    <path d="M 190.710742 580.662568 
L 384.595721 407.285193 
L 385.371619 80.873015 
" style="fill:none;stroke:#b0b0b0;stroke-width:0.8;"/>
    <path d="M 230.50405 593.685646 
L 422.465267 418.481247 
L 425.181961 90.906863 
" style="fill:none;stroke:#b0b0b0;stroke-width:0.8;"/>
    <path d="M 270.733816 606.851564 
L 460.719705 429.791094 
L 465.417724 101.047934 
" style="fill:none;stroke:#b0b0b0;stroke-width:0.8;"/>
    <path d="M 311.40726 620.162684 
L 499.364933 441.216477 
L 506.085763 111.297957 
" style="fill:none;stroke:#b0b0b0;stroke-width:0.8;"/>
    <path d="M 352.531764 633.621421 
L 538.406969 452.759176 
L 547.193082 121.658696 
" style="fill:none;stroke:#b0b0b0;stroke-width:0.8;"/>
    <path d="M 394.114871 647.230244 
L 577.851957 464.421006 
L 588.746836 132.131956 
" style="fill:none;stroke:#b0b0b0;stroke-width:0.8;"/>
    <path d="M 436.164297 660.991678 
L 617.706168 476.203822 
L 630.75434 142.719579 
" style="fill:none;stroke:#b0b0b0;stroke-width:0.8;"/>
   </g>
   <g id="xtick_1">
    <g id="line2d_2">
     <path d="M 114.107437 553.572948 
L 108.994977 557.966734 
" style="fill:none;stroke:#000000;stroke-linecap:square;stroke-width:0.8;"/>
    </g>
    <g id="text_2">
     <!-- −10.0 -->
     <defs>
      <path d="M 10.59375 35.5 
L 73.1875 35.5 
L 73.1875 27.203125 
L 10.59375 27.203125 
z
" id="DejaVuSans-2212"/>
      <path d="M 12.40625 8.296875 
L 28.515625 8.296875 
L 28.515625 63.921875 
L 10.984375 60.40625 
L 10.984375 69.390625 
L 28.421875 72.90625 
L 38.28125 72.90625 
L 38.28125 8.296875 
L 54.390625 8.296875 
L 54.390625 0 
L 12.40625 0 
z
" id="DejaVuSans-31"/>
      <path d="M 31.78125 66.40625 
Q 24.171875 66.40625 20.328125 58.90625 
Q 16.5 51.421875 16.5 36.375 
Q 16.5 21.390625 20.328125 13.890625 
Q 24.171875 6.390625 31.78125 6.390625 
Q 39.453125 6.390625 43.28125 13.890625 
Q 47.125 21.390625 47.125 36.375 
Q 47.125 51.421875 43.28125 58.90625 
Q 39.453125 66.40625 31.78125 66.40625 
z
M 31.78125 74.21875 
Q 44.046875 74.21875 50.515625 64.515625 
Q 56.984375 54.828125 56.984375 36.375 
Q 56.984375 17.96875 50.515625 8.265625 
Q 44.046875 -1.421875 31.78125 -1.421875 
Q 19.53125 -1.421875 13.0625 8.265625 
Q 6.59375 17.96875 6.59375 36.375 
Q 6.59375 54.828125 13.0625 64.515625 
Q 19.53125 74.21875 31.78125 74.21875 
z
" id="DejaVuSans-30"/>
      <path d="M 10.6875 12.40625 
L 21 12.40625 
L 21 0 
L 10.6875 0 
z
" id="DejaVuSans-2e"/>
     </defs>
     <g transform="translate(90.702595 578.828058)scale(0.1 -0.1)">
      <use xlink:href="#DejaVuSans-2212"/>
      <use x="83.789062" xlink:href="#DejaVuSans-31"/>
      <use x="147.412109" xlink:href="#DejaVuSans-30"/>
      <use x="211.035156" xlink:href="#DejaVuSans-2e"/>
      <use x="242.822266" xlink:href="#DejaVuSans-30"/>
     </g>
    </g>
   </g>
   <g id="xtick_2">
    <g id="line2d_3">
     <path d="M 153.033802 566.301414 
L 147.966568 570.742754 
" style="fill:none;stroke:#000000;stroke-linecap:square;stroke-width:0.8;"/>
    </g>
    <g id="text_3">
     <!-- −7.5 -->
     <defs>
      <path d="M 8.203125 72.90625 
L 55.078125 72.90625 
L 55.078125 68.703125 
L 28.609375 0 
L 18.3125 0 
L 43.21875 64.59375 
L 8.203125 64.59375 
z
" id="DejaVuSans-37"/>
      <path d="M 10.796875 72.90625 
L 49.515625 72.90625 
L 49.515625 64.59375 
L 19.828125 64.59375 
L 19.828125 46.734375 
Q 21.96875 47.46875 24.109375 47.828125 
Q 26.265625 48.1875 28.421875 48.1875 
Q 40.625 48.1875 47.75 41.5 
Q 54.890625 34.8125 54.890625 23.390625 
Q 54.890625 11.625 47.5625 5.09375 
Q 40.234375 -1.421875 26.90625 -1.421875 
Q 22.3125 -1.421875 17.546875 -0.640625 
Q 12.796875 0.140625 7.71875 1.703125 
L 7.71875 11.625 
Q 12.109375 9.234375 16.796875 8.0625 
Q 21.484375 6.890625 26.703125 6.890625 
Q 35.15625 6.890625 40.078125 11.328125 
Q 45.015625 15.765625 45.015625 23.390625 
Q 45.015625 31 40.078125 35.4375 
Q 35.15625 39.890625 26.703125 39.890625 
Q 22.75 39.890625 18.8125 39.015625 
Q 14.890625 38.140625 10.796875 36.28125 
z
" id="DejaVuSans-35"/>
     </defs>
     <g transform="translate(132.823135 591.670362)scale(0.1 -0.1)">
      <use xlink:href="#DejaVuSans-2212"/>
      <use x="83.789062" xlink:href="#DejaVuSans-37"/>
      <use x="147.412109" xlink:href="#DejaVuSans-2e"/>
      <use x="179.199219" xlink:href="#DejaVuSans-35"/>
     </g>
    </g>
   </g>
   <g id="xtick_3">
    <g id="line2d_4">
     <path d="M 192.38222 579.167886 
L 187.361497 583.657556 
" style="fill:none;stroke:#000000;stroke-linecap:square;stroke-width:0.8;"/>
    </g>
    <g id="text_4">
     <!-- −5.0 -->
     <g transform="translate(172.185235 604.652111)scale(0.1 -0.1)">
      <use xlink:href="#DejaVuSans-2212"/>
      <use x="83.789062" xlink:href="#DejaVuSans-35"/>
      <use x="147.412109" xlink:href="#DejaVuSans-2e"/>
      <use x="179.199219" xlink:href="#DejaVuSans-30"/>
     </g>
    </g>
   </g>
   <g id="xtick_4">
    <g id="line2d_5">
     <path d="M 232.159593 592.174621 
L 227.186701 596.713415 
" style="fill:none;stroke:#000000;stroke-linecap:square;stroke-width:0.8;"/>
    </g>
    <g id="text_5">
     <!-- −2.5 -->
     <defs>
      <path d="M 19.1875 8.296875 
L 53.609375 8.296875 
L 53.609375 0 
L 7.328125 0 
L 7.328125 8.296875 
Q 12.9375 14.109375 22.625 23.890625 
Q 32.328125 33.6875 34.8125 36.53125 
Q 39.546875 41.84375 41.421875 45.53125 
Q 43.3125 49.21875 43.3125 52.78125 
Q 43.3125 58.59375 39.234375 62.25 
Q 35.15625 65.921875 28.609375 65.921875 
Q 23.96875 65.921875 18.8125 64.3125 
Q 13.671875 62.703125 7.8125 59.421875 
L 7.8125 69.390625 
Q 13.765625 71.78125 18.9375 73 
Q 24.125 74.21875 28.421875 74.21875 
Q 39.75 74.21875 46.484375 68.546875 
Q 53.21875 62.890625 53.21875 53.421875 
Q 53.21875 48.921875 51.53125 44.890625 
Q 49.859375 40.875 45.40625 35.40625 
Q 44.1875 33.984375 37.640625 27.21875 
Q 31.109375 20.453125 19.1875 8.296875 
z
" id="DejaVuSans-32"/>
     </defs>
     <g transform="translate(211.977069 617.775587)scale(0.1 -0.1)">
      <use xlink:href="#DejaVuSans-2212"/>
      <use x="83.789062" xlink:href="#DejaVuSans-32"/>
      <use x="147.412109" xlink:href="#DejaVuSans-2e"/>
      <use x="179.199219" xlink:href="#DejaVuSans-35"/>
     </g>
    </g>
   </g>
   <g id="xtick_5">
    <g id="line2d_6">
     <path d="M 272.372973 605.323925 
L 267.449266 609.912654 
" style="fill:none;stroke:#000000;stroke-linecap:square;stroke-width:0.8;"/>
    </g>
    <g id="text_6">
     <!-- 0.0 -->
     <g transform="translate(256.395557 631.043124)scale(0.1 -0.1)">
      <use xlink:href="#DejaVuSans-30"/>
      <use x="63.623047" xlink:href="#DejaVuSans-2e"/>
      <use x="95.410156" xlink:href="#DejaVuSans-30"/>
     </g>
    </g>
   </g>
   <g id="xtick_6">
    <g id="line2d_7">
     <path d="M 313.029568 618.618156 
L 308.156438 623.257648 
" style="fill:none;stroke:#000000;stroke-linecap:square;stroke-width:0.8;"/>
    </g>
    <g id="text_7">
     <!-- 2.5 -->
     <g transform="translate(297.068244 644.457109)scale(0.1 -0.1)">
      <use xlink:href="#DejaVuSans-32"/>
      <use x="63.623047" xlink:href="#DejaVuSans-2e"/>
      <use x="95.410156" xlink:href="#DejaVuSans-35"/>
     </g>
    </g>
   </g>
   <g id="xtick_7">
    <g id="line2d_8">
     <path d="M 354.136748 632.059722 
L 349.315622 636.750824 
" style="fill:none;stroke:#000000;stroke-linecap:square;stroke-width:0.8;"/>
    </g>
    <g id="text_8">
     <!-- 5.0 -->
     <g transform="translate(338.192366 658.019978)scale(0.1 -0.1)">
      <use xlink:href="#DejaVuSans-35"/>
      <use x="63.623047" xlink:href="#DejaVuSans-2e"/>
      <use x="95.410156" xlink:href="#DejaVuSans-30"/>
     </g>
    </g>
   </g>
   <g id="xtick_8">
    <g id="line2d_9">
     <path d="M 395.702043 645.651087 
L 390.934389 650.394665 
" style="fill:none;stroke:#000000;stroke-linecap:square;stroke-width:0.8;"/>
    </g>
    <g id="text_9">
     <!-- 7.5 -->
     <g transform="translate(379.775481 671.734224)scale(0.1 -0.1)">
      <use xlink:href="#DejaVuSans-37"/>
      <use x="63.623047" xlink:href="#DejaVuSans-2e"/>
      <use x="95.410156" xlink:href="#DejaVuSans-35"/>
     </g>
    </g>
   </g>
   <g id="xtick_9">
    <g id="line2d_10">
     <path d="M 437.733155 659.394769 
L 433.020478 664.191708 
" style="fill:none;stroke:#000000;stroke-linecap:square;stroke-width:0.8;"/>
    </g>
    <g id="text_10">
     <!-- 10.0 -->
     <g transform="translate(418.644066 685.602397)scale(0.1 -0.1)">
      <use xlink:href="#DejaVuSans-31"/>
      <use x="63.623047" xlink:href="#DejaVuSans-30"/>
      <use x="127.246094" xlink:href="#DejaVuSans-2e"/>
      <use x="159.033203" xlink:href="#DejaVuSans-30"/>
     </g>
    </g>
   </g>
  </g>
  <g id="axis3d_2">
   <g id="line2d_11">
    <path d="M 624.388769 478.17952 
L 443.218422 663.300268 
" style="fill:none;stroke:#000000;stroke-linecap:square;stroke-width:0.8;"/>
   </g>
   <g id="text_11">
    <!-- Q ($A^{-1}$) -->
    <defs>
     <path d="M 39.40625 66.21875 
Q 28.65625 66.21875 22.328125 58.203125 
Q 16.015625 50.203125 16.015625 36.375 
Q 16.015625 22.609375 22.328125 14.59375 
Q 28.65625 6.59375 39.40625 6.59375 
Q 50.140625 6.59375 56.421875 14.59375 
Q 62.703125 22.609375 62.703125 36.375 
Q 62.703125 50.203125 56.421875 58.203125 
Q 50.140625 66.21875 39.40625 66.21875 
z
M 53.21875 1.3125 
L 66.21875 -12.890625 
L 54.296875 -12.890625 
L 43.5 -1.21875 
Q 41.890625 -1.3125 41.03125 -1.359375 
Q 40.1875 -1.421875 39.40625 -1.421875 
Q 24.03125 -1.421875 14.8125 8.859375 
Q 5.609375 19.140625 5.609375 36.375 
Q 5.609375 53.65625 14.8125 63.9375 
Q 24.03125 74.21875 39.40625 74.21875 
Q 54.734375 74.21875 63.90625 63.9375 
Q 73.09375 53.65625 73.09375 36.375 
Q 73.09375 23.6875 67.984375 14.640625 
Q 62.890625 5.609375 53.21875 1.3125 
z
" id="DejaVuSans-51"/>
     <path d="M 36.8125 72.90625 
L 48 72.90625 
L 61.53125 0 
L 51.21875 0 
L 48.1875 18.703125 
L 15.375 18.703125 
L 5.078125 0 
L -5.328125 0 
z
M 40.375 63.1875 
L 19.921875 26.90625 
L 46.6875 26.90625 
z
" id="DejaVuSans-Oblique-41"/>
    </defs>
    <g transform="translate(549.852599 612.480106)rotate(-45.617904)scale(0.1 -0.1)">
     <use transform="translate(0 0.684375)" xlink:href="#DejaVuSans-51"/>
     <use transform="translate(78.710938 0.684375)" xlink:href="#DejaVuSans-20"/>
     <use transform="translate(110.498047 0.684375)" xlink:href="#DejaVuSans-28"/>
     <use transform="translate(149.511719 0.684375)" xlink:href="#DejaVuSans-Oblique-41"/>
     <use transform="translate(224.936693 38.965625)scale(0.7)" xlink:href="#DejaVuSans-2212"/>
     <use transform="translate(283.589036 38.965625)scale(0.7)" xlink:href="#DejaVuSans-31"/>
     <use transform="translate(330.859544 0.684375)" xlink:href="#DejaVuSans-29"/>
    </g>
   </g>
   <g id="Line3DCollection_2">
    <path d="M 118.077578 192.516509 
L 130.923284 531.536564 
L 466.144419 639.874373 
" style="fill:none;stroke:#b0b0b0;stroke-width:0.8;"/>
    <path d="M 142.048057 175.041242 
L 153.57189 512.134665 
L 486.924306 618.641382 
" style="fill:none;stroke:#b0b0b0;stroke-width:0.8;"/>
    <path d="M 165.603188 157.868777 
L 175.847787 493.052047 
L 507.346668 597.773712 
" style="fill:none;stroke:#b0b0b0;stroke-width:0.8;"/>
    <path d="M 188.753676 140.99131 
L 197.7601 474.280892 
L 527.420652 577.262017 
" style="fill:none;stroke:#b0b0b0;stroke-width:0.8;"/>
    <path d="M 211.509857 124.401305 
L 219.317659 455.813638 
L 547.155098 557.097264 
" style="fill:none;stroke:#b0b0b0;stroke-width:0.8;"/>
    <path d="M 233.881722 108.09148 
L 240.529009 437.642962 
L 566.558547 537.270724 
" style="fill:none;stroke:#b0b0b0;stroke-width:0.8;"/>
    <path d="M 255.878923 92.054797 
L 261.402424 419.761778 
L 585.639258 517.77396 
" style="fill:none;stroke:#b0b0b0;stroke-width:0.8;"/>
    <path d="M 277.510795 76.284451 
L 281.945916 402.163223 
L 604.405217 498.598811 
" style="fill:none;stroke:#b0b0b0;stroke-width:0.8;"/>
   </g>
   <g id="xtick_10">
    <g id="line2d_12">
     <path d="M 463.339454 638.967855 
L 471.760589 641.689424 
" style="fill:none;stroke:#000000;stroke-linecap:square;stroke-width:0.8;"/>
    </g>
    <g id="text_12">
     <!-- 0.4 -->
     <defs>
      <path d="M 37.796875 64.3125 
L 12.890625 25.390625 
L 37.796875 25.390625 
z
M 35.203125 72.90625 
L 47.609375 72.90625 
L 47.609375 25.390625 
L 58.015625 25.390625 
L 58.015625 17.1875 
L 47.609375 17.1875 
L 47.609375 0 
L 37.796875 0 
L 37.796875 17.1875 
L 4.890625 17.1875 
L 4.890625 26.703125 
z
" id="DejaVuSans-34"/>
     </defs>
     <g transform="translate(469.226255 661.653644)scale(0.1 -0.1)">
      <use xlink:href="#DejaVuSans-30"/>
      <use x="63.623047" xlink:href="#DejaVuSans-2e"/>
      <use x="95.410156" xlink:href="#DejaVuSans-34"/>
     </g>
    </g>
   </g>
   <g id="xtick_11">
    <g id="line2d_13">
     <path d="M 484.136041 617.750526 
L 492.506988 620.425059 
" style="fill:none;stroke:#000000;stroke-linecap:square;stroke-width:0.8;"/>
    </g>
    <g id="text_13">
     <!-- 0.6 -->
     <defs>
      <path d="M 33.015625 40.375 
Q 26.375 40.375 22.484375 35.828125 
Q 18.609375 31.296875 18.609375 23.390625 
Q 18.609375 15.53125 22.484375 10.953125 
Q 26.375 6.390625 33.015625 6.390625 
Q 39.65625 6.390625 43.53125 10.953125 
Q 47.40625 15.53125 47.40625 23.390625 
Q 47.40625 31.296875 43.53125 35.828125 
Q 39.65625 40.375 33.015625 40.375 
z
M 52.59375 71.296875 
L 52.59375 62.3125 
Q 48.875 64.0625 45.09375 64.984375 
Q 41.3125 65.921875 37.59375 65.921875 
Q 27.828125 65.921875 22.671875 59.328125 
Q 17.53125 52.734375 16.796875 39.40625 
Q 19.671875 43.65625 24.015625 45.921875 
Q 28.375 48.1875 33.59375 48.1875 
Q 44.578125 48.1875 50.953125 41.515625 
Q 57.328125 34.859375 57.328125 23.390625 
Q 57.328125 12.15625 50.6875 5.359375 
Q 44.046875 -1.421875 33.015625 -1.421875 
Q 20.359375 -1.421875 13.671875 8.265625 
Q 6.984375 17.96875 6.984375 36.375 
Q 6.984375 53.65625 15.1875 63.9375 
Q 23.390625 74.21875 37.203125 74.21875 
Q 40.921875 74.21875 44.703125 73.484375 
Q 48.484375 72.75 52.59375 71.296875 
z
" id="DejaVuSans-36"/>
     </defs>
     <g transform="translate(489.905711 640.302445)scale(0.1 -0.1)">
      <use xlink:href="#DejaVuSans-30"/>
      <use x="63.623047" xlink:href="#DejaVuSans-2e"/>
      <use x="95.410156" xlink:href="#DejaVuSans-36"/>
     </g>
    </g>
   </g>
   <g id="xtick_12">
    <g id="line2d_14">
     <path d="M 504.574945 596.898115 
L 512.896176 599.526821 
" style="fill:none;stroke:#000000;stroke-linecap:square;stroke-width:0.8;"/>
    </g>
    <g id="text_14">
     <!-- 0.8 -->
     <defs>
      <path d="M 31.78125 34.625 
Q 24.75 34.625 20.71875 30.859375 
Q 16.703125 27.09375 16.703125 20.515625 
Q 16.703125 13.921875 20.71875 10.15625 
Q 24.75 6.390625 31.78125 6.390625 
Q 38.8125 6.390625 42.859375 10.171875 
Q 46.921875 13.96875 46.921875 20.515625 
Q 46.921875 27.09375 42.890625 30.859375 
Q 38.875 34.625 31.78125 34.625 
z
M 21.921875 38.8125 
Q 15.578125 40.375 12.03125 44.71875 
Q 8.5 49.078125 8.5 55.328125 
Q 8.5 64.0625 14.71875 69.140625 
Q 20.953125 74.21875 31.78125 74.21875 
Q 42.671875 74.21875 48.875 69.140625 
Q 55.078125 64.0625 55.078125 55.328125 
Q 55.078125 49.078125 51.53125 44.71875 
Q 48 40.375 41.703125 38.8125 
Q 48.828125 37.15625 52.796875 32.3125 
Q 56.78125 27.484375 56.78125 20.515625 
Q 56.78125 9.90625 50.3125 4.234375 
Q 43.84375 -1.421875 31.78125 -1.421875 
Q 19.734375 -1.421875 13.25 4.234375 
Q 6.78125 9.90625 6.78125 20.515625 
Q 6.78125 27.484375 10.78125 32.3125 
Q 14.796875 37.15625 21.921875 38.8125 
z
M 18.3125 54.390625 
Q 18.3125 48.734375 21.84375 45.5625 
Q 25.390625 42.390625 31.78125 42.390625 
Q 38.140625 42.390625 41.71875 45.5625 
Q 45.3125 48.734375 45.3125 54.390625 
Q 45.3125 60.0625 41.71875 63.234375 
Q 38.140625 66.40625 31.78125 66.40625 
Q 25.390625 66.40625 21.84375 63.234375 
Q 18.3125 60.0625 18.3125 54.390625 
z
" id="DejaVuSans-38"/>
     </defs>
     <g transform="translate(510.229448 619.318519)scale(0.1 -0.1)">
      <use xlink:href="#DejaVuSans-30"/>
      <use x="63.623047" xlink:href="#DejaVuSans-2e"/>
      <use x="95.410156" xlink:href="#DejaVuSans-38"/>
     </g>
    </g>
   </g>
   <g id="xtick_13">
    <g id="line2d_15">
     <path d="M 524.665315 576.40129 
L 532.937301 578.985337 
" style="fill:none;stroke:#000000;stroke-linecap:square;stroke-width:0.8;"/>
    </g>
    <g id="text_15">
     <!-- 1.0 -->
     <g transform="translate(530.206567 598.69247)scale(0.1 -0.1)">
      <use xlink:href="#DejaVuSans-31"/>
      <use x="63.623047" xlink:href="#DejaVuSans-2e"/>
      <use x="95.410156" xlink:href="#DejaVuSans-30"/>
     </g>
    </g>
   </g>
   <g id="xtick_14">
    <g id="line2d_16">
     <path d="M 544.41599 556.251031 
L 552.639201 558.791548 
" style="fill:none;stroke:#000000;stroke-linecap:square;stroke-width:0.8;"/>
    </g>
    <g id="text_16">
     <!-- 1.2 -->
     <g transform="translate(549.845861 578.415221)scale(0.1 -0.1)">
      <use xlink:href="#DejaVuSans-31"/>
      <use x="63.623047" xlink:href="#DejaVuSans-2e"/>
      <use x="95.410156" xlink:href="#DejaVuSans-32"/>
     </g>
    </g>
   </g>
   <g id="xtick_15">
    <g id="line2d_17">
     <path d="M 563.835515 536.438623 
L 572.010415 538.9367 
" style="fill:none;stroke:#000000;stroke-linecap:square;stroke-width:0.8;"/>
    </g>
    <g id="text_17">
     <!-- 1.4 -->
     <g transform="translate(569.155827 558.477998)scale(0.1 -0.1)">
      <use xlink:href="#DejaVuSans-31"/>
      <use x="63.623047" xlink:href="#DejaVuSans-2e"/>
      <use x="95.410156" xlink:href="#DejaVuSans-34"/>
     </g>
    </g>
   </g>
   <g id="xtick_16">
    <g id="line2d_18">
     <path d="M 582.932148 516.955639 
L 591.0592 519.412331 
" style="fill:none;stroke:#000000;stroke-linecap:square;stroke-width:0.8;"/>
    </g>
    <g id="text_18">
     <!-- 1.6 -->
     <g transform="translate(588.14468 538.872319)scale(0.1 -0.1)">
      <use xlink:href="#DejaVuSans-31"/>
      <use x="63.623047" xlink:href="#DejaVuSans-2e"/>
      <use x="95.410156" xlink:href="#DejaVuSans-36"/>
     </g>
    </g>
   </g>
   <g id="xtick_17">
    <g id="line2d_19">
     <path d="M 601.713877 497.793932 
L 609.79354 500.210259 
" style="fill:none;stroke:#000000;stroke-linecap:square;stroke-width:0.8;"/>
    </g>
    <g id="text_19">
     <!-- 1.8 -->
     <g transform="translate(606.820363 519.589982)scale(0.1 -0.1)">
      <use xlink:href="#DejaVuSans-31"/>
      <use x="63.623047" xlink:href="#DejaVuSans-2e"/>
      <use x="95.410156" xlink:href="#DejaVuSans-38"/>
     </g>
    </g>
   </g>
  </g>
  <g id="axis3d_3">
   <g id="line2d_20">
    <path d="M 624.388769 478.17952 
L 637.800227 144.495433 
" style="fill:none;stroke:#000000;stroke-linecap:square;stroke-width:0.8;"/>
   </g>
   <g id="text_20">
    <!-- Intensity (A.U.) -->
    <defs>
     <path d="M 9.8125 72.90625 
L 19.671875 72.90625 
L 19.671875 0 
L 9.8125 0 
z
" id="DejaVuSans-49"/>
     <path d="M 18.3125 70.21875 
L 18.3125 54.6875 
L 36.8125 54.6875 
L 36.8125 47.703125 
L 18.3125 47.703125 
L 18.3125 18.015625 
Q 18.3125 11.328125 20.140625 9.421875 
Q 21.96875 7.515625 27.59375 7.515625 
L 36.8125 7.515625 
L 36.8125 0 
L 27.59375 0 
Q 17.1875 0 13.234375 3.875 
Q 9.28125 7.765625 9.28125 18.015625 
L 9.28125 47.703125 
L 2.6875 47.703125 
L 2.6875 54.6875 
L 9.28125 54.6875 
L 9.28125 70.21875 
z
" id="DejaVuSans-74"/>
     <path d="M 44.28125 53.078125 
L 44.28125 44.578125 
Q 40.484375 46.53125 36.375 47.5 
Q 32.28125 48.484375 27.875 48.484375 
Q 21.1875 48.484375 17.84375 46.4375 
Q 14.5 44.390625 14.5 40.28125 
Q 14.5 37.15625 16.890625 35.375 
Q 19.28125 33.59375 26.515625 31.984375 
L 29.59375 31.296875 
Q 39.15625 29.25 43.1875 25.515625 
Q 47.21875 21.78125 47.21875 15.09375 
Q 47.21875 7.46875 41.1875 3.015625 
Q 35.15625 -1.421875 24.609375 -1.421875 
Q 20.21875 -1.421875 15.453125 -0.5625 
Q 10.6875 0.296875 5.421875 2 
L 5.421875 11.28125 
Q 10.40625 8.6875 15.234375 7.390625 
Q 20.0625 6.109375 24.8125 6.109375 
Q 31.15625 6.109375 34.5625 8.28125 
Q 37.984375 10.453125 37.984375 14.40625 
Q 37.984375 18.0625 35.515625 20.015625 
Q 33.0625 21.96875 24.703125 23.78125 
L 21.578125 24.515625 
Q 13.234375 26.265625 9.515625 29.90625 
Q 5.8125 33.546875 5.8125 39.890625 
Q 5.8125 47.609375 11.28125 51.796875 
Q 16.75 56 26.8125 56 
Q 31.78125 56 36.171875 55.265625 
Q 40.578125 54.546875 44.28125 53.078125 
z
" id="DejaVuSans-73"/>
     <path d="M 9.421875 54.6875 
L 18.40625 54.6875 
L 18.40625 0 
L 9.421875 0 
z
M 9.421875 75.984375 
L 18.40625 75.984375 
L 18.40625 64.59375 
L 9.421875 64.59375 
z
" id="DejaVuSans-69"/>
     <path d="M 34.1875 63.1875 
L 20.796875 26.90625 
L 47.609375 26.90625 
z
M 28.609375 72.90625 
L 39.796875 72.90625 
L 67.578125 0 
L 57.328125 0 
L 50.6875 18.703125 
L 17.828125 18.703125 
L 11.1875 0 
L 0.78125 0 
z
" id="DejaVuSans-41"/>
     <path d="M 8.6875 72.90625 
L 18.609375 72.90625 
L 18.609375 28.609375 
Q 18.609375 16.890625 22.84375 11.734375 
Q 27.09375 6.59375 36.625 6.59375 
Q 46.09375 6.59375 50.34375 11.734375 
Q 54.59375 16.890625 54.59375 28.609375 
L 54.59375 72.90625 
L 64.5 72.90625 
L 64.5 27.390625 
Q 64.5 13.140625 57.4375 5.859375 
Q 50.390625 -1.421875 36.625 -1.421875 
Q 22.796875 -1.421875 15.734375 5.859375 
Q 8.6875 13.140625 8.6875 27.390625 
z
" id="DejaVuSans-55"/>
    </defs>
    <g transform="translate(667.823142 348.426314)rotate(-87.698402)scale(0.1 -0.1)">
     <use xlink:href="#DejaVuSans-49"/>
     <use x="29.492188" xlink:href="#DejaVuSans-6e"/>
     <use x="92.871094" xlink:href="#DejaVuSans-74"/>
     <use x="132.080078" xlink:href="#DejaVuSans-65"/>
     <use x="193.603516" xlink:href="#DejaVuSans-6e"/>
     <use x="256.982422" xlink:href="#DejaVuSans-73"/>
     <use x="309.082031" xlink:href="#DejaVuSans-69"/>
     <use x="336.865234" xlink:href="#DejaVuSans-74"/>
     <use x="376.074219" xlink:href="#DejaVuSans-79"/>
     <use x="435.253906" xlink:href="#DejaVuSans-20"/>
     <use x="467.041016" xlink:href="#DejaVuSans-28"/>
     <use x="506.054688" xlink:href="#DejaVuSans-41"/>
     <use x="574.447266" xlink:href="#DejaVuSans-2e"/>
     <use x="606.234375" xlink:href="#DejaVuSans-55"/>
     <use x="679.427734" xlink:href="#DejaVuSans-2e"/>
     <use x="711.214844" xlink:href="#DejaVuSans-29"/>
    </g>
   </g>
   <g id="Line3DCollection_3">
    <path d="M 626.757178 419.252273 
L 303.255207 326.104346 
L 103.429114 492.768876 
" style="fill:none;stroke:#b0b0b0;stroke-width:0.8;"/>
    <path d="M 628.948088 364.74128 
L 302.716442 273.133286 
L 101.090463 437.088579 
" style="fill:none;stroke:#b0b0b0;stroke-width:0.8;"/>
    <path d="M 631.176613 309.294411 
L 302.168821 219.291463 
L 98.710311 380.420202 
" style="fill:none;stroke:#b0b0b0;stroke-width:0.8;"/>
    <path d="M 633.44373 252.887354 
L 301.612123 164.557229 
L 96.287544 322.737208 
" style="fill:none;stroke:#b0b0b0;stroke-width:0.8;"/>
    <path d="M 635.75045 195.49495 
L 301.046121 108.90821 
L 93.821007 264.012104 
" style="fill:none;stroke:#b0b0b0;stroke-width:0.8;"/>
   </g>
   <g id="xtick_18">
    <g id="line2d_21">
     <path d="M 624.057096 418.474821 
L 632.163004 420.808806 
" style="fill:none;stroke:#000000;stroke-linecap:square;stroke-width:0.8;"/>
    </g>
    <g id="text_21">
     <!-- 0.2 -->
     <g transform="translate(634.967471 424.580309)scale(0.1 -0.1)">
      <use xlink:href="#DejaVuSans-30"/>
      <use x="63.623047" xlink:href="#DejaVuSans-2e"/>
      <use x="95.410156" xlink:href="#DejaVuSans-32"/>
     </g>
    </g>
   </g>
   <g id="xtick_19">
    <g id="line2d_22">
     <path d="M 626.224262 363.976412 
L 634.401502 366.272635 
" style="fill:none;stroke:#000000;stroke-linecap:square;stroke-width:0.8;"/>
    </g>
    <g id="text_22">
     <!-- 0.4 -->
     <g transform="translate(637.293544 370.106075)scale(0.1 -0.1)">
      <use xlink:href="#DejaVuSans-30"/>
      <use x="63.623047" xlink:href="#DejaVuSans-2e"/>
      <use x="95.410156" xlink:href="#DejaVuSans-34"/>
     </g>
    </g>
   </g>
   <g id="xtick_20">
    <g id="line2d_23">
     <path d="M 628.428622 308.542674 
L 636.678459 310.799488 
" style="fill:none;stroke:#000000;stroke-linecap:square;stroke-width:0.8;"/>
    </g>
    <g id="text_23">
     <!-- 0.6 -->
     <g transform="translate(639.659511 314.697565)scale(0.1 -0.1)">
      <use xlink:href="#DejaVuSans-30"/>
      <use x="63.623047" xlink:href="#DejaVuSans-2e"/>
      <use x="95.410156" xlink:href="#DejaVuSans-36"/>
     </g>
    </g>
   </g>
   <g id="xtick_21">
    <g id="line2d_24">
     <path d="M 630.671141 252.149319 
L 638.994875 254.365011 
" style="fill:none;stroke:#000000;stroke-linecap:square;stroke-width:0.8;"/>
    </g>
    <g id="text_24">
     <!-- 0.8 -->
     <g transform="translate(642.066407 258.330537)scale(0.1 -0.1)">
      <use xlink:href="#DejaVuSans-30"/>
      <use x="63.623047" xlink:href="#DejaVuSans-2e"/>
      <use x="95.410156" xlink:href="#DejaVuSans-38"/>
     </g>
    </g>
   </g>
   <g id="xtick_22">
    <g id="line2d_25">
     <path d="M 632.95282 194.771214 
L 641.351784 196.943994 
" style="fill:none;stroke:#000000;stroke-linecap:square;stroke-width:0.8;"/>
    </g>
    <g id="text_25">
     <!-- 1.0 -->
     <g transform="translate(644.515303 200.9799)scale(0.1 -0.1)">
      <use xlink:href="#DejaVuSans-31"/>
      <use x="63.623047" xlink:href="#DejaVuSans-2e"/>
      <use x="95.410156" xlink:href="#DejaVuSans-30"/>
     </g>
    </g>
   </g>
  </g>
  <g id="axes_1">
   <g id="line2d_26">
    <path clip-path="url(#p8ad3ef1e6e)" d="M 122.514671 535.215766 
L 128.669801 536.434858 
L 134.862697 538.344738 
L 141.047391 539.734597 
L 147.258315 541.534176 
L 153.451772 542.506009 
L 159.671196 543.876682 
L 165.886484 544.752205 
L 172.110311 545.487966 
L 178.321395 545.369354 
L 184.538707 544.95291 
L 190.762923 544.229251 
L 196.943726 541.329237 
L 203.159001 538.949434 
L 209.389636 536.397122 
L 215.535647 529.55649 
L 221.67975 521.402215 
L 227.78695 510.191464 
L 233.851796 495.231192 
L 239.842356 474.389956 
L 245.696775 443.542362 
L 251.59426 410.771982 
L 257.248916 359.234814 
L 263.160232 315.994015 
L 269.235465 276.625268 
L 275.67361 255.893035 
L 282.822034 284.382024 
L 290.37859 349.814491 
L 298.089505 439.754755 
L 305.441361 511.068678 
L 312.467505 561.091388 
L 319.19756 585.275584 
L 325.799977 596.162046 
L 332.362138 601.435766 
L 338.918045 604.434215 
L 345.482929 607.246816 
L 352.056508 609.547826 
L 358.641903 612.184021 
L 365.237271 613.91861 
L 371.844926 616.250686 
L 378.463791 618.642043 
L 385.094576 620.755305 
L 391.736659 623.021795 
L 398.390964 625.148233 
L 405.05548 627.569375 
L 411.734436 629.53449 
L 418.423138 631.82774 
L 425.124011 634.066711 
L 431.837612 636.218006 
L 438.56583 638.142581 
" style="fill:none;stroke:#fc8a6a;stroke-dasharray:12.8,3.2,2,3.2;stroke-dashoffset:0;stroke-width:2;"/>
   </g>
   <g id="line2d_27">
    <path clip-path="url(#p8ad3ef1e6e)" d="M 145.349371 515.253874 
L 151.482593 516.642832 
L 157.642756 518.492736 
L 163.813286 520.335068 
L 169.97349 521.513896 
L 176.158846 523.121871 
L 182.350913 524.578699 
L 188.547369 525.786672 
L 194.739136 526.390475 
L 200.952203 527.293735 
L 207.141163 526.766172 
L 213.36718 527.104101 
L 219.575735 526.120672 
L 225.785024 524.439657 
L 231.989848 521.724281 
L 238.196192 518.11056 
L 244.378866 512.186609 
L 250.55076 504.264699 
L 256.692664 492.921774 
L 262.818868 478.387412 
L 268.888448 457.447374 
L 274.964601 433.054779 
L 280.958568 397.978445 
L 287.036954 362.723013 
L 293.208306 327.944573 
L 299.563524 302.245829 
L 306.227702 301.402039 
L 313.231005 337.710896 
L 320.400485 403.50771 
L 327.42379 465.273166 
L 334.292538 519.329639 
L 340.970028 552.361469 
L 347.535374 568.382482 
L 354.065136 577.064426 
L 360.586673 581.585618 
L 367.114103 584.958646 
L 373.651038 587.210536 
L 380.198493 589.806904 
L 386.757001 592.182055 
L 393.327237 594.352194 
L 399.907572 596.790192 
L 406.501036 598.852407 
L 413.104922 601.100034 
L 419.720485 603.310195 
L 426.3467 605.612393 
L 432.984609 607.879908 
L 439.637552 609.831235 
L 446.296781 612.258242 
L 452.972807 614.269465 
L 459.656133 616.613219 
" style="fill:none;stroke:#fb7252;stroke-dasharray:12.8,3.2,2,3.2;stroke-dashoffset:0;stroke-width:2;"/>
   </g>
   <g id="line2d_28">
    <path clip-path="url(#p8ad3ef1e6e)" d="M 167.798347 495.282264 
L 173.910224 496.893224 
L 180.033755 498.531206 
L 186.160893 499.919805 
L 192.311486 501.740737 
L 198.461455 503.148265 
L 204.627018 504.717093 
L 210.785938 505.578224 
L 216.955939 506.379147 
L 223.142978 507.367784 
L 229.329149 507.759226 
L 235.49949 506.762363 
L 241.712171 507.051254 
L 247.894839 505.056236 
L 254.097377 503.139493 
L 260.279029 498.947279 
L 266.476841 494.338436 
L 272.664512 487.502583 
L 278.839641 477.798677 
L 285.013041 465.386594 
L 291.161727 447.718592 
L 297.312062 425.718551 
L 303.470857 398.758484 
L 309.682878 370.035481 
L 315.949399 339.025393 
L 322.350361 315.800731 
L 328.972628 318.136204 
L 335.741915 346.712974 
L 342.555617 396.171945 
L 349.292569 448.403448 
L 355.926083 494.984664 
L 362.46286 526.405984 
L 368.949547 544.191535 
L 375.423312 553.380661 
L 381.901309 558.690483 
L 388.388988 562.294148 
L 394.886968 565.347588 
L 401.396666 567.916055 
L 407.916735 570.469424 
L 414.45036 572.578127 
L 420.994186 574.821878 
L 427.54719 577.269345 
L 434.114077 579.40843 
L 440.691232 581.644417 
L 447.275578 584.202348 
L 453.881072 585.979601 
L 460.488673 588.452063 
L 467.111349 590.653886 
L 473.749739 592.601154 
L 480.394807 594.848923 
" style="fill:none;stroke:#f6583e;stroke-dasharray:12.8,3.2,2,3.2;stroke-dashoffset:0;stroke-width:2;"/>
   </g>
   <g id="line2d_29">
    <path clip-path="url(#p8ad3ef1e6e)" d="M 189.884245 475.641861 
L 195.962691 477.094342 
L 202.064268 479.008499 
L 208.156161 480.143427 
L 214.265304 481.507716 
L 220.380659 482.657884 
L 226.523011 484.487415 
L 232.656621 485.428263 
L 238.807083 486.596159 
L 244.960678 487.323634 
L 251.113844 487.34894 
L 257.280144 487.320521 
L 263.449027 486.594656 
L 269.624197 485.273645 
L 275.805504 483.224994 
L 281.989764 480.057582 
L 288.173136 475.207642 
L 294.359904 468.609862 
L 300.552936 460.042224 
L 306.735276 447.171258 
L 312.935793 431.802296 
L 319.147072 412.016881 
L 325.379764 387.414712 
L 331.653142 358.789219 
L 338.033311 337.281066 
L 344.495479 321.953066 
L 351.047847 322.286061 
L 357.659151 347.162929 
L 364.250642 391.203067 
L 370.768092 435.439009 
L 377.21671 474.977447 
L 383.624025 503.877948 
L 390.025323 521.254853 
L 396.439396 530.932095 
L 402.872141 536.237656 
L 409.31986 539.871876 
L 415.776197 543.396244 
L 422.247709 546.076223 
L 428.728198 548.847353 
L 435.221875 551.285007 
L 441.72592 553.726554 
L 448.242966 555.9649 
L 454.771834 558.136087 
L 461.314296 560.136356 
L 467.859341 562.702345 
L 474.420657 564.914705 
L 480.997849 566.860345 
L 487.582255 569.044502 
L 494.175662 571.341753 
L 500.780218 573.634621 
" style="fill:none;stroke:#ee3a2c;stroke-dasharray:12.8,3.2,2,3.2;stroke-dashoffset:0;stroke-width:2;"/>
   </g>
   <g id="line2d_30">
    <path clip-path="url(#p8ad3ef1e6e)" d="M 211.610472 456.11259 
L 217.666255 457.806586 
L 223.721242 459.01486 
L 229.800957 460.83662 
L 235.877549 462.025941 
L 241.966317 463.254757 
L 248.073384 464.848047 
L 254.183371 466.012449 
L 260.302749 467.051042 
L 266.419595 467.202675 
L 272.551409 467.44552 
L 278.689469 467.183166 
L 284.847622 467.343496 
L 290.997103 465.68804 
L 297.158538 463.562911 
L 303.334532 461.081382 
L 309.520165 457.601697 
L 315.710904 452.229355 
L 321.899105 443.176688 
L 328.107854 432.325061 
L 334.335117 418.307867 
L 340.581905 399.226304 
L 346.872973 377.821951 
L 353.226843 358.675659 
L 359.637229 341.961593 
L 366.099673 332.95981 
L 372.588251 337.57795 
L 379.055354 360.319751 
L 385.468304 392.440728 
L 391.826946 425.892502 
L 398.140444 457.719686 
L 404.446929 481.891565 
L 410.772242 497.991465 
L 417.125711 508.024234 
L 423.507393 514.136077 
L 429.914312 517.885021 
L 436.336027 520.937004 
L 442.761267 524.445437 
L 449.200949 527.440873 
L 455.651787 530.280631 
L 462.122851 532.384553 
L 468.601925 534.673716 
L 475.084448 537.387104 
L 481.587498 539.49663 
L 488.096177 541.892114 
L 494.620675 544.019774 
L 501.153833 546.262457 
L 507.696762 548.55507 
L 514.251666 550.797031 
L 520.825454 552.710642 
" style="fill:none;stroke:#d92523;stroke-dasharray:12.8,3.2,2,3.2;stroke-dashoffset:0;stroke-width:2;"/>
   </g>
   <g id="line2d_31">
    <path clip-path="url(#p8ad3ef1e6e)" d="M 233.009971 437.734938 
L 239.031508 439.225402 
L 245.065005 440.789812 
L 251.104315 442.1058 
L 257.159006 443.675489 
L 263.217921 444.869372 
L 269.289383 446.147598 
L 275.363073 446.823676 
L 281.453751 447.840809 
L 287.553098 448.623523 
L 293.658474 448.88939 
L 299.775542 449.01743 
L 305.896095 448.138412 
L 312.028931 446.902165 
L 318.174223 445.194766 
L 324.33111 442.692408 
L 330.496872 438.558151 
L 336.677513 433.022501 
L 342.881903 427.22159 
L 349.092277 415.26045 
L 355.338343 402.425195 
L 361.621477 387.61083 
L 367.946998 367.79161 
L 374.321777 353.465565 
L 380.732818 342.867092 
L 387.156977 340.443252 
L 393.570876 345.969297 
L 399.938852 361.980925 
L 406.245573 385.683661 
L 412.523292 408.851536 
L 418.749597 434.576142 
L 424.954197 458.563286 
L 431.190109 475.896502 
L 437.47487 486.806368 
L 443.802202 493.476728 
L 450.163056 497.62264 
L 456.532819 501.586839 
L 462.93405 503.884965 
L 469.332384 507.011559 
L 475.753837 509.274203 
L 482.17734 512.001716 
L 488.612351 514.619892 
L 495.065 516.839817 
L 501.521731 519.36849 
L 507.987141 521.955052 
L 514.477209 523.899656 
L 520.968928 526.242384 
L 527.483912 528.074864 
L 533.995772 530.46816 
L 540.522513 532.697369 
" style="fill:none;stroke:#c3161b;stroke-dasharray:12.8,3.2,2,3.2;stroke-dashoffset:0;stroke-width:2;"/>
   </g>
   <g id="line2d_32">
    <path clip-path="url(#p8ad3ef1e6e)" d="M 254.066174 419.598797 
L 260.060605 421.221774 
L 266.065556 422.871147 
L 272.075032 424.15516 
L 278.095676 425.465171 
L 284.130677 427.043494 
L 290.168034 427.978943 
L 296.221709 429.330236 
L 302.27382 429.501508 
L 308.346483 430.455278 
L 314.425968 430.847628 
L 320.515279 430.856931 
L 326.616486 430.622402 
L 332.719764 428.298091 
L 338.848127 427.440456 
L 344.983733 424.457629 
L 351.134722 420.033823 
L 357.306788 414.945829 
L 363.499267 406.261448 
L 369.722592 395.768192 
L 375.982636 382.986375 
L 382.282178 369.922829 
L 388.638087 351.239723 
L 395.028163 336.743576 
L 401.431904 328.125994 
L 407.814106 328.428883 
L 414.166977 334.979407 
L 420.476626 347.19939 
L 426.710015 366.913678 
L 432.921955 386.311547 
L 439.081451 408.323562 
L 445.216194 429.950685 
L 451.35424 449.094018 
L 457.536678 463.321065 
L 463.789458 471.875947 
L 470.089845 477.265635 
L 476.418022 481.230127 
L 482.774715 483.970985 
L 489.129558 487.292304 
L 495.518635 489.295403 
L 501.913775 491.519241 
L 508.313331 494.009762 
L 514.728241 496.256932 
L 521.141494 499.002108 
L 527.566713 501.64103 
L 534.011337 503.90203 
L 540.452683 506.666956 
L 546.924998 508.663602 
L 553.407342 510.693225 
L 559.884438 513.259591 
" style="fill:none;stroke:#ac1117;stroke-dasharray:12.8,3.2,2,3.2;stroke-dashoffset:0;stroke-width:2;"/>
   </g>
   <g id="line2d_33">
    <path clip-path="url(#p8ad3ef1e6e)" d="M 274.790413 401.878156 
L 280.754536 403.47337 
L 286.729036 405.100017 
L 292.709641 406.405015 
L 298.703012 407.908653 
L 304.702006 408.953849 
L 310.711791 409.961663 
L 316.731218 410.774582 
L 322.761192 411.436759 
L 328.801246 411.800586 
L 334.853079 412.01781 
L 340.914168 411.416161 
L 346.987398 410.142887 
L 353.075539 408.517437 
L 359.179992 406.755209 
L 365.299883 402.759832 
L 371.440801 399.200121 
L 377.605672 392.879346 
L 383.800009 384.915411 
L 390.03195 374.277067 
L 396.302681 362.558628 
L 402.605479 351.699664 
L 408.970752 336.333136 
L 415.344974 325.891294 
L 421.695508 322.659546 
L 428.025745 323.937991 
L 434.305248 331.453264 
L 440.551054 341.989266 
L 446.750242 355.881847 
L 452.923394 370.775111 
L 459.027603 389.531684 
L 465.117274 407.735866 
L 471.165101 427.201342 
L 477.293905 440.438869 
L 483.477278 449.957161 
L 489.714217 456.395988 
L 495.982288 461.345675 
L 502.270992 465.522908 
L 508.596569 468.293325 
L 514.927781 471.206345 
L 521.289256 473.215838 
L 527.670742 474.844015 
L 534.039886 477.383651 
L 540.425707 479.657064 
L 546.810949 482.311068 
L 553.220307 484.455322 
L 559.621805 487.207823 
L 566.04659 489.506496 
L 572.48683 491.640037 
L 578.938021 493.760952 
" style="fill:none;stroke:#8c0912;stroke-dasharray:12.8,3.2,2,3.2;stroke-dashoffset:0;stroke-width:2;"/>
   </g>
   <g id="line2d_34">
    <path clip-path="url(#p8ad3ef1e6e)" d="M 295.193527 384.930461 
L 301.125611 386.358539 
L 307.064708 387.466581 
L 313.015717 388.70936 
L 318.97457 389.61055 
L 324.947338 390.907019 
L 330.927241 391.642361 
L 336.919363 392.507054 
L 342.921878 393.135609 
L 348.935582 393.558786 
L 354.961729 394.061365 
L 361.000124 394.635708 
L 367.050462 394.880719 
L 373.113316 395.475437 
L 379.190121 394.862357 
L 385.283309 393.460728 
L 391.395857 391.071757 
L 397.528642 388.149889 
L 403.69173 383.105026 
L 409.879439 377.817962 
L 416.110676 369.786338 
L 422.360603 363.009363 
L 428.667178 352.962153 
L 434.964852 347.056624 
L 441.253994 344.187532 
L 447.529857 344.024388 
L 453.738285 350.121939 
L 459.926136 357.834886 
L 466.09056 367.038566 
L 472.258152 375.792863 
L 478.368964 387.71374 
L 484.450172 400.764089 
L 490.527222 413.419944 
L 496.607787 425.352162 
L 502.74505 434.114363 
L 508.941967 440.000504 
L 515.184687 443.990419 
L 521.449937 447.297322 
L 527.732662 450.2076 
L 534.043207 452.368016 
L 540.362131 454.587576 
L 546.693948 456.698997 
L 553.056591 458.093406 
L 559.409637 460.197899 
L 565.747411 463.12786 
L 572.126229 465.039826 
L 578.4938 467.617987 
L 584.874757 470.07737 
L 591.263912 472.577716 
L 597.658775 475.185703 
" style="fill:none;stroke:#67000d;stroke-dasharray:12.8,3.2,2,3.2;stroke-dashoffset:0;stroke-width:2;"/>
   </g>
  </g>
  <g id="text_26">
   <!-- 15Br - 160 K -->
   <defs>
    <path d="M 19.671875 34.8125 
L 19.671875 8.109375 
L 35.5 8.109375 
Q 43.453125 8.109375 47.28125 11.40625 
Q 51.125 14.703125 51.125 21.484375 
Q 51.125 28.328125 47.28125 31.5625 
Q 43.453125 34.8125 35.5 34.8125 
z
M 19.671875 64.796875 
L 19.671875 42.828125 
L 34.28125 42.828125 
Q 41.5 42.828125 45.03125 45.53125 
Q 48.578125 48.25 48.578125 53.8125 
Q 48.578125 59.328125 45.03125 62.0625 
Q 41.5 64.796875 34.28125 64.796875 
z
M 9.8125 72.90625 
L 35.015625 72.90625 
Q 46.296875 72.90625 52.390625 68.21875 
Q 58.5 63.53125 58.5 54.890625 
Q 58.5 48.1875 55.375 44.234375 
Q 52.25 40.28125 46.1875 39.3125 
Q 53.46875 37.75 57.5 32.78125 
Q 61.53125 27.828125 61.53125 20.40625 
Q 61.53125 10.640625 54.890625 5.3125 
Q 48.25 0 35.984375 0 
L 9.8125 0 
z
" id="DejaVuSans-42"/>
    <path d="M 4.890625 31.390625 
L 31.203125 31.390625 
L 31.203125 23.390625 
L 4.890625 23.390625 
z
" id="DejaVuSans-2d"/>
    <path d="M 9.8125 72.90625 
L 19.671875 72.90625 
L 19.671875 42.09375 
L 52.390625 72.90625 
L 65.09375 72.90625 
L 28.90625 38.921875 
L 67.671875 0 
L 54.6875 0 
L 19.671875 35.109375 
L 19.671875 0 
L 9.8125 0 
z
" id="DejaVuSans-4b"/>
   </defs>
   <g transform="translate(322.509375 23.518125)scale(0.12 -0.12)">
    <use xlink:href="#DejaVuSans-31"/>
    <use x="63.623047" xlink:href="#DejaVuSans-35"/>
    <use x="127.246094" xlink:href="#DejaVuSans-42"/>
    <use x="195.849609" xlink:href="#DejaVuSans-72"/>
    <use x="236.962891" xlink:href="#DejaVuSans-20"/>
    <use x="268.75" xlink:href="#DejaVuSans-2d"/>
    <use x="304.833984" xlink:href="#DejaVuSans-20"/>
    <use x="336.621094" xlink:href="#DejaVuSans-31"/>
    <use x="400.244141" xlink:href="#DejaVuSans-36"/>
    <use x="463.867188" xlink:href="#DejaVuSans-30"/>
    <use x="527.490234" xlink:href="#DejaVuSans-20"/>
    <use x="559.277344" xlink:href="#DejaVuSans-4b"/>
   </g>
  </g>
 </g>
 <defs>
  <clipPath id="p8ad3ef1e6e">
   <rect height="691.4" width="691.4" x="14.3" y="14.3"/>
  </clipPath>
 </defs>
</svg>
