# y A!D0!N(Q) Error
     0.300000      0.96781188    0.0023948003
     0.500000      0.95261989    0.0018998899
     0.700000      0.92649523    0.0020925034
     0.900000      0.89679366    0.0022428504
      1.10000      0.86584522    0.0023297184
      1.30000      0.83331890    0.0023613999
      1.50000      0.80032426    0.0024787938
      1.70000      0.80103949    0.0022714338
      1.90000      0.86584522    0.0023297184
