Item name: Prompt

Real time: 1584.102
Live time: 0
Time calibration: 0.2194787ns/ch

Comment: 


Chan	Data
1	454
2	565
3	611
4	590
5	631
6	618
7	591
8	552
9	522
10	534
11	522
12	548
13	537
14	488
15	516
16	532
17	564
18	539
19	526
20	529
21	551
22	570
23	539
24	535
25	517
26	578
27	573
28	540
29	541
30	525
31	568
32	514
33	525
34	566
35	589
36	588
37	539
38	553
39	517
40	554
41	554
42	561
43	525
44	529
45	581
46	551
47	532
48	574
49	548
50	538
51	554
52	570
53	550
54	519
55	547
56	550
57	568
58	576
59	537
60	543
61	553
62	557
63	559
64	533
65	524
66	610
67	580
68	543
69	567
70	566
71	533
72	522
73	529
74	531
75	563
76	545
77	533
78	551
79	527
80	538
81	560
82	598
83	521
84	518
85	557
86	526
87	559
88	581
89	570
90	583
91	572
92	557
93	551
94	567
95	518
96	542
97	536
98	536
99	520
100	537
101	557
102	549
103	535
104	589
105	541
106	566
107	566
108	560
109	543
110	530
111	557
112	538
113	566
114	554
115	599
116	581
117	555
118	562
119	533
120	511
121	556
122	547
123	519
124	521
125	561
126	553
127	520
128	532
129	557
130	556
131	558
132	559
133	535
134	553
135	528
136	541
137	550
138	546
139	531
140	548
141	517
142	494
143	565
144	530
145	528
146	550
147	511
148	526
149	537
150	516
151	562
152	540
153	521
154	561
155	540
156	552
157	518
158	526
159	566
160	523
161	521
162	523
163	543
164	571
165	551
166	538
167	532
168	540
169	529
170	563
171	522
172	584
173	569
174	548
175	544
176	544
177	559
178	583
179	538
180	547
181	548
182	611
183	923
184	1252
185	1233
186	1280
187	1253
188	1238
189	1210
190	1163
191	1167
192	1084
193	1191
194	1029
195	1147
196	1049
197	1034
198	1020
199	1029
200	993
201	899
202	959
203	969
204	947
205	972
206	900
207	870
208	979
209	907
210	880
211	926
212	906
213	904
214	875
215	896
216	832
217	823
218	814
219	871
220	841
221	799
222	815
223	841
224	843
225	784
226	876
227	843
228	823
229	861
230	845
231	810
232	850
233	825
234	772
235	807
236	769
237	793
238	801
239	767
240	763
241	815
242	751
243	767
244	787
245	828
246	834
247	796
248	829
249	778
250	746
251	775
252	778
253	792
254	763
255	744
256	730
257	780
258	775
259	767
260	759
261	738
262	778
263	773
264	742
265	686
266	729
267	741
268	742
269	745
270	731
271	716
272	744
273	716
274	739
275	811
276	729
277	686
278	757
279	689
280	760
281	705
282	785
283	711
284	718
285	761
286	766
287	691
288	727
289	696
290	693
291	737
292	704
293	706
294	737
295	729
296	695
297	701
298	734
299	668
300	688
301	738
302	719
303	698
304	684
305	775
306	680
307	737
308	717
309	687
310	709
311	708
312	663
313	712
314	704
315	727
316	695
317	718
318	725
319	740
320	709
321	687
322	732
323	707
324	695
325	676
326	683
327	740
328	697
329	698
330	705
331	736
332	701
333	711
334	689
335	707
336	719
337	679
338	657
339	738
340	669
341	686
342	685
343	714
344	658
345	665
346	699
347	705
348	684
349	683
350	677
351	704
352	675
353	690
354	661
355	728
356	693
357	694
358	645
359	664
360	694
361	699
362	656
363	711
364	683
365	710
366	674
367	721
368	727
369	720
370	683
371	682
372	640
373	687
374	692
375	689
376	719
377	657
378	725
379	680
380	675
381	645
382	679
383	667
384	695
385	675
386	642
387	669
388	688
389	661
390	684
391	647
392	666
393	676
394	709
395	643
396	680
397	644
398	686
399	675
400	691
401	658
402	681
403	681
404	664
405	692
406	671
407	674
408	679
409	652
410	681
411	636
412	664
413	658
414	674
415	673
416	634
417	703
418	689
419	673
420	691
421	689
422	698
423	646
424	669
425	687
426	637
427	637
428	677
429	657
430	690
431	635
432	647
433	687
434	640
435	659
436	661
437	618
438	677
439	640
440	669
441	669
442	688
443	673
444	673
445	653
446	686
447	687
448	657
449	653
450	642
451	628
452	666
453	666
454	643
455	615
456	668
457	683
458	618
459	627
460	673
461	667
462	660
463	682
464	645
465	679
466	628
467	694
468	646
469	704
470	617
471	713
472	644
473	684
474	678
475	654
476	630
477	675
478	687
479	680
480	681
481	649
482	635
483	648
484	636
485	621
486	659
487	687
488	647
489	647
490	645
491	632
492	666
493	679
494	658
495	673
496	653
497	675
498	649
499	661
500	636
501	666
502	661
503	614
504	687
505	667
506	703
507	644
508	635
509	639
510	662
511	659
512	646
513	681
514	676
515	656
516	666
517	681
518	638
519	639
520	670
521	699
522	691
523	693
524	603
525	594
526	648
527	611
528	647
529	712
530	644
531	629
532	665
533	635
534	632
535	683
536	653
537	683
538	652
539	638
540	672
541	630
542	661
543	648
544	688
545	624
546	617
547	664
548	635
549	629
550	638
551	606
552	670
553	649
554	676
555	681
556	634
557	629
558	664
559	647
560	623
561	678
562	633
563	703
564	680
565	654
566	664
567	644
568	594
569	642
570	637
571	684
572	630
573	600
574	681
575	630
576	651
577	622
578	691
579	618
580	651
581	601
582	659
583	653
584	638
585	650
586	690
587	636
588	663
589	644
590	683
591	662
592	613
593	641
594	629
595	633
596	659
597	633
598	691
599	646
600	663
601	675
602	584
603	649
604	689
605	617
606	602
607	627
608	638
609	634
610	664
611	641
612	695
613	640
614	635
615	607
616	646
617	631
618	613
619	652
620	621
621	658
622	644
623	628
624	656
625	692
626	622
627	660
628	630
629	595
630	656
631	647
632	633
633	654
634	640
635	644
636	660
637	657
638	617
639	577
640	648
641	673
642	640
643	659
644	661
645	640
646	649
647	634
648	602
649	630
650	649
651	605
652	605
653	667
654	631
655	644
656	621
657	622
658	626
659	620
660	634
661	676
662	636
663	639
664	614
665	629
666	576
667	640
668	615
669	625
670	660
671	666
672	641
673	624
674	661
675	624
676	663
677	599
678	607
679	615
680	557
681	641
682	642
683	634
684	678
685	685
686	639
687	582
688	578
689	653
690	612
691	614
692	671
693	618
694	636
695	614
696	629
697	623
698	628
699	640
700	639
701	618
702	618
703	665
704	637
705	591
706	695
707	662
708	662
709	665
710	670
711	621
712	646
713	647
714	623
715	607
716	626
717	628
718	604
719	660
720	605
721	633
722	620
723	615
724	577
725	617
726	601
727	621
728	608
729	654
730	652
731	611
732	607
733	690
734	608
735	591
736	642
737	620
738	644
739	617
740	640
741	625
742	641
743	622
744	580
745	606
746	649
747	614
748	603
749	621
750	661
751	666
752	663
753	618
754	620
755	632
756	605
757	688
758	633
759	634
760	585
761	629
762	619
763	583
764	623
765	609
766	596
767	666
768	607
769	665
770	598
771	613
772	648
773	638
774	622
775	655
776	626
777	605
778	659
779	613
780	591
781	614
782	618
783	597
784	652
785	612
786	608
787	614
788	633
789	626
790	542
791	676
792	652
793	619
794	596
795	664
796	627
797	623
798	605
799	634
800	627
801	613
802	645
803	613
804	583
805	573
806	641
807	633
808	648
809	593
810	612
811	640
812	591
813	641
814	633
815	613
816	661
817	687
818	621
819	601
820	602
821	591
822	637
823	655
824	637
825	644
826	590
827	633
828	656
829	597
830	611
831	641
832	590
833	587
834	616
835	605
836	637
837	609
838	592
839	593
840	605
841	675
842	617
843	641
844	607
845	611
846	600
847	621
848	640
849	652
850	699
851	596
852	620
853	623
854	642
855	597
856	641
857	589
858	647
859	598
860	620
861	613
862	652
863	614
864	571
865	641
866	650
867	618
868	622
869	614
870	623
871	633
872	631
873	605
874	638
875	626
876	624
877	628
878	621
879	628
880	648
881	618
882	627
883	617
884	590
885	613
886	554
887	595
888	645
889	629
890	622
891	606
892	640
893	649
894	584
895	637
896	639
897	619
898	630
899	638
900	652
901	600
902	604
903	614
904	632
905	582
906	663
907	637
908	637
909	667
910	636
911	709
912	636
913	658
914	642
915	589
916	633
917	649
918	586
919	640
920	601
921	620
922	583
923	623
924	660
925	591
926	637
927	613
928	654
929	602
930	644
931	644
932	633
933	645
934	628
935	631
936	612
937	640
938	628
939	649
940	624
941	626
942	638
943	587
944	622
945	635
946	614
947	614
948	637
949	654
950	583
951	582
952	627
953	654
954	599
955	628
956	599
957	615
958	658
959	604
960	604
961	616
962	574
963	646
964	634
965	612
966	600
967	587
968	671
969	627
970	607
971	564
972	618
973	619
974	646
975	670
976	591
977	634
978	620
979	605
980	632
981	634
982	593
983	571
984	644
985	614
986	586
987	577
988	591
989	650
990	645
991	612
992	623
993	614
994	609
995	638
996	600
997	613
998	631
999	622
1000	640
1001	639
1002	577
1003	592
1004	621
1005	615
1006	623
1007	643
1008	624
1009	593
1010	596
1011	651
1012	641
1013	611
1014	629
1015	624
1016	630
1017	645
1018	638
1019	595
1020	601
1021	618
1022	608
1023	579
1024	585
1025	642
1026	603
1027	614
1028	595
1029	627
1030	619
1031	625
1032	604
1033	619
1034	595
1035	624
1036	659
1037	554
1038	626
1039	618
1040	604
1041	669
1042	637
1043	561
1044	645
1045	595
1046	626
1047	603
1048	598
1049	589
1050	600
1051	602
1052	619
1053	599
1054	574
1055	619
1056	646
1057	558
1058	626
1059	614
1060	613
1061	555
1062	641
1063	607
1064	586
1065	604
1066	636
1067	567
1068	623
1069	589
1070	599
1071	565
1072	569
1073	612
1074	642
1075	632
1076	641
1077	586
1078	623
1079	655
1080	646
1081	631
1082	590
1083	625
1084	614
1085	569
1086	600
1087	609
1088	617
1089	648
1090	615
1091	651
1092	662
1093	648
1094	602
1095	598
1096	633
1097	604
1098	589
1099	598
1100	610
1101	619
1102	628
1103	594
1104	651
1105	597
1106	657
1107	646
1108	652
1109	603
1110	611
1111	618
1112	631
1113	565
1114	643
1115	660
1116	616
1117	611
1118	595
1119	603
1120	628
1121	585
1122	662
1123	637
1124	613
1125	596
1126	585
1127	618
1128	641
1129	574
1130	656
1131	640
1132	637
1133	589
1134	628
1135	629
1136	590
1137	623
1138	622
1139	586
1140	598
1141	606
1142	577
1143	623
1144	583
1145	610
1146	610
1147	618
1148	580
1149	574
1150	643
1151	581
1152	616
1153	629
1154	623
1155	589
1156	579
1157	627
1158	643
1159	612
1160	623
1161	642
1162	610
1163	619
1164	603
1165	593
1166	552
1167	636
1168	657
1169	581
1170	618
1171	570
1172	580
1173	595
1174	630
1175	540
1176	569
1177	636
1178	592
1179	611
1180	589
1181	615
1182	571
1183	597
1184	601
1185	614
1186	605
1187	616
1188	611
1189	645
1190	594
1191	644
1192	612
1193	596
1194	627
1195	570
1196	635
1197	609
1198	576
1199	586
1200	631
1201	622
1202	588
1203	642
1204	604
1205	577
1206	625
1207	586
1208	620
1209	576
1210	591
1211	576
1212	599
1213	598
1214	558
1215	596
1216	663
1217	619
1218	585
1219	627
1220	606
1221	585
1222	592
1223	604
1224	631
1225	617
1226	587
1227	647
1228	628
1229	539
1230	596
1231	652
1232	590
1233	666
1234	575
1235	604
1236	641
1237	578
1238	640
1239	586
1240	645
1241	625
1242	606
1243	605
1244	600
1245	594
1246	612
1247	603
1248	605
1249	651
1250	545
1251	532
1252	624
1253	584
1254	566
1255	589
1256	633
1257	579
1258	610
1259	558
1260	561
1261	595
1262	594
1263	621
1264	609
1265	571
1266	587
1267	587
1268	606
1269	614
1270	613
1271	622
1272	610
1273	592
1274	615
1275	616
1276	593
1277	551
1278	628
1279	647
1280	602
1281	644
1282	617
1283	584
1284	621
1285	595
1286	653
1287	552
1288	623
1289	575
1290	609
1291	594
1292	586
1293	597
1294	631
1295	620
1296	607
1297	631
1298	574
1299	591
1300	664
1301	630
1302	607
1303	592
1304	613
1305	618
1306	609
1307	621
1308	615
1309	656
1310	608
1311	605
1312	624
1313	551
1314	609
1315	599
1316	601
1317	600
1318	611
1319	599
1320	567
1321	610
1322	563
1323	621
1324	577
1325	577
1326	595
1327	596
1328	613
1329	582
1330	610
1331	596
1332	557
1333	647
1334	616
1335	613
1336	625
1337	609
1338	569
1339	577
1340	584
1341	582
1342	642
1343	573
1344	617
1345	641
1346	596
1347	659
1348	564
1349	617
1350	619
1351	592
1352	618
1353	621
1354	599
1355	601
1356	631
1357	633
1358	652
1359	585
1360	606
1361	546
1362	622
1363	613
1364	570
1365	589
1366	599
1367	640
1368	607
1369	643
1370	552
1371	534
1372	587
1373	613
1374	599
1375	586
1376	620
1377	572
1378	633
1379	614
1380	613
1381	639
1382	569
1383	598
1384	598
1385	585
1386	592
1387	547
1388	581
1389	633
1390	570
1391	589
1392	594
1393	602
1394	588
1395	601
1396	570
1397	584
1398	604
1399	606
1400	599
1401	600
1402	606
1403	587
1404	600
1405	595
1406	591
1407	608
1408	566
1409	602
1410	579
1411	600
1412	584
1413	598
1414	609
1415	632
1416	570
1417	574
1418	580
1419	589
1420	633
1421	611
1422	558
1423	583
1424	616
1425	601
1426	581
1427	571
1428	613
1429	610
1430	586
1431	600
1432	598
1433	574
1434	619
1435	644
1436	594
1437	591
1438	618
1439	574
1440	591
1441	569
1442	577
1443	611
1444	607
1445	532
1446	562
1447	589
1448	615
1449	626
1450	605
1451	595
1452	604
1453	576
1454	558
1455	594
1456	609
1457	600
1458	589
1459	590
1460	620
1461	621
1462	596
1463	578
1464	569
1465	613
1466	660
1467	644
1468	617
1469	604
1470	537
1471	582
1472	603
1473	619
1474	634
1475	621
1476	584
1477	569
1478	576
1479	625
1480	586
1481	609
1482	611
1483	579
1484	594
1485	594
1486	546
1487	607
1488	570
1489	598
1490	600
1491	585
1492	575
1493	544
1494	614
1495	595
1496	625
1497	610
1498	628
1499	594
1500	567
1501	609
1502	634
1503	617
1504	615
1505	612
1506	591
1507	543
1508	622
1509	599
1510	595
1511	604
1512	588
1513	592
1514	610
1515	612
1516	616
1517	569
1518	630
1519	585
1520	609
1521	627
1522	643
1523	625
1524	646
1525	600
1526	549
1527	623
1528	603
1529	579
1530	608
1531	633
1532	584
1533	613
1534	569
1535	561
1536	615
1537	602
1538	612
1539	541
1540	597
1541	612
1542	622
1543	647
1544	613
1545	603
1546	564
1547	560
1548	633
1549	576
1550	583
1551	628
1552	611
1553	604
1554	600
1555	606
1556	625
1557	592
1558	582
1559	564
1560	616
1561	593
1562	607
1563	560
1564	608
1565	595
1566	576
1567	578
1568	576
1569	589
1570	589
1571	599
1572	598
1573	566
1574	629
1575	580
1576	659
1577	614
1578	580
1579	596
1580	639
1581	556
1582	591
1583	574
1584	612
1585	624
1586	548
1587	584
1588	621
1589	546
1590	599
1591	597
1592	586
1593	595
1594	576
1595	542
1596	616
1597	581
1598	605
1599	582
1600	592
1601	630
1602	622
1603	609
1604	563
1605	587
1606	618
1607	572
1608	545
1609	605
1610	594
1611	636
1612	581
1613	616
1614	580
1615	594
1616	586
1617	591
1618	586
1619	619
1620	581
1621	671
1622	591
1623	565
1624	568
1625	570
1626	576
1627	572
1628	603
1629	630
1630	549
1631	622
1632	589
1633	581
1634	616
1635	608
1636	566
1637	657
1638	629
1639	558
1640	606
1641	582
1642	577
1643	556
1644	543
1645	658
1646	565
1647	612
1648	610
1649	611
1650	584
1651	573
1652	580
1653	608
1654	589
1655	560
1656	579
1657	580
1658	568
1659	570
1660	612
1661	588
1662	577
1663	599
1664	578
1665	559
1666	632
1667	566
1668	606
1669	577
1670	604
1671	567
1672	588
1673	510
1674	609
1675	602
1676	592
1677	537
1678	566
1679	580
1680	574
1681	584
1682	628
1683	574
1684	614
1685	590
1686	568
1687	605
1688	589
1689	603
1690	588
1691	569
1692	571
1693	549
1694	570
1695	593
1696	607
1697	552
1698	625
1699	590
1700	605
1701	609
1702	590
1703	592
1704	605
1705	562
1706	571
1707	577
1708	592
1709	592
1710	609
1711	579
1712	611
1713	558
1714	565
1715	597
1716	552
1717	602
1718	589
1719	579
1720	588
1721	570
1722	583
1723	555
1724	606
1725	589
1726	596
1727	627
1728	614
1729	565
1730	572
1731	556
1732	629
1733	597
1734	552
1735	604
1736	573
1737	589
1738	554
1739	585
1740	603
1741	629
1742	582
1743	586
1744	603
1745	600
1746	576
1747	607
1748	580
1749	610
1750	591
1751	622
1752	601
1753	571
1754	633
1755	634
1756	606
1757	591
1758	629
1759	596
1760	619
1761	574
1762	609
1763	520
1764	605
1765	600
1766	586
1767	576
1768	597
1769	607
1770	599
1771	595
1772	576
1773	602
1774	535
1775	599
1776	596
1777	565
1778	572
1779	592
1780	593
1781	644
1782	558
1783	605
1784	600
1785	559
1786	587
1787	540
1788	557
1789	603
1790	560
1791	630
1792	610
1793	629
1794	629
1795	626
1796	574
1797	613
1798	611
1799	573
1800	546
1801	607
1802	589
1803	604
1804	587
1805	607
1806	618
1807	596
1808	585
1809	569
1810	597
1811	604
1812	570
1813	608
1814	603
1815	620
1816	596
1817	555
1818	599
1819	596
1820	643
1821	538
1822	574
1823	565
1824	567
1825	592
1826	608
1827	563
1828	575
1829	634
1830	587
1831	568
1832	581
1833	589
1834	598
1835	612
1836	591
1837	623
1838	570
1839	646
1840	608
1841	543
1842	575
1843	552
1844	574
1845	594
1846	596
1847	605
1848	623
1849	625
1850	560
1851	567
1852	589
1853	604
1854	606
1855	613
1856	587
1857	596
1858	534
1859	597
1860	603
1861	583
1862	583
1863	577
1864	596
1865	632
1866	602
1867	632
1868	565
1869	598
1870	652
1871	566
1872	612
1873	619
1874	608
1875	549
1876	593
1877	570
1878	587
1879	587
1880	605
1881	596
1882	578
1883	639
1884	605
1885	618
1886	552
1887	583
1888	563
1889	609
1890	601
1891	605
1892	584
1893	584
1894	575
1895	587
1896	550
1897	564
1898	625
1899	563
1900	609
1901	560
1902	572
1903	608
1904	593
1905	604
1906	610
1907	594
1908	614
1909	603
1910	564
1911	623
1912	588
1913	581
1914	604
1915	571
1916	614
1917	545
1918	591
1919	567
1920	573
1921	575
1922	603
1923	574
1924	574
1925	623
1926	618
1927	594
1928	591
1929	603
1930	586
1931	614
1932	600
1933	554
1934	580
1935	617
1936	600
1937	578
1938	574
1939	588
1940	596
1941	610
1942	574
1943	573
1944	599
1945	583
1946	564
1947	583
1948	580
1949	536
1950	625
1951	573
1952	611
1953	565
1954	602
1955	561
1956	590
1957	595
1958	559
1959	607
1960	598
1961	552
1962	577
1963	611
1964	612
1965	586
1966	596
1967	582
1968	603
1969	569
1970	553
1971	614
1972	587
1973	577
1974	595
1975	603
1976	596
1977	591
1978	602
1979	556
1980	566
1981	577
1982	592
1983	558
1984	579
1985	567
1986	597
1987	568
1988	564
1989	606
1990	576
1991	564
1992	546
1993	623
1994	578
1995	578
1996	550
1997	566
1998	594
1999	549
2000	580
2001	594
2002	565
2003	494
2004	565
2005	598
2006	609
2007	602
2008	603
2009	574
2010	636
2011	594
2012	561
2013	567
2014	569
2015	563
2016	604
2017	587
2018	577
2019	553
2020	612
2021	569
2022	592
2023	623
2024	583
2025	601
2026	538
2027	576
2028	601
2029	615
2030	574
2031	535
2032	608
2033	521
2034	577
2035	589
2036	550
2037	566
2038	595
2039	582
2040	521
2041	574
2042	565
2043	555
2044	539
2045	531
2046	604
2047	551
2048	581
2049	569
2050	586
2051	562
2052	546
2053	606
2054	535
2055	610
2056	538
2057	583
2058	592
2059	587
2060	593
2061	566
2062	625
2063	608
2064	562
2065	549
2066	601
2067	557
2068	610
2069	586
2070	538
2071	562
2072	595
2073	631
2074	538
2075	569
2076	569
2077	538
2078	574
2079	616
2080	533
2081	544
2082	583
2083	639
2084	548
2085	606
2086	559
2087	555
2088	552
2089	607
2090	563
2091	559
2092	549
2093	543
2094	595
2095	565
2096	586
2097	592
2098	619
2099	546
2100	598
2101	603
2102	577
2103	574
2104	610
2105	626
2106	569
2107	574
2108	598
2109	590
2110	623
2111	580
2112	558
2113	557
2114	596
2115	594
2116	576
2117	610
2118	569
2119	621
2120	596
2121	545
2122	583
2123	593
2124	575
2125	584
2126	577
2127	546
2128	586
2129	577
2130	555
2131	585
2132	581
2133	584
2134	554
2135	585
2136	595
2137	574
2138	597
2139	571
2140	532
2141	569
2142	552
2143	571
2144	536
2145	588
2146	561
2147	570
2148	598
2149	582
2150	563
2151	523
2152	575
2153	544
2154	630
2155	558
2156	597
2157	561
2158	553
2159	550
2160	586
2161	607
2162	574
2163	552
2164	531
2165	572
2166	615
2167	566
2168	557
2169	549
2170	590
2171	632
2172	546
2173	607
2174	532
2175	587
2176	552
2177	604
2178	550
2179	554
2180	548
2181	570
2182	561
2183	612
2184	594
2185	583
2186	585
2187	581
2188	637
2189	542
2190	593
2191	614
2192	571
2193	593
2194	571
2195	560
2196	563
2197	596
2198	560
2199	570
2200	580
2201	562
2202	594
2203	557
2204	570
2205	591
2206	616
2207	580
2208	542
2209	532
2210	569
2211	590
2212	548
2213	574
2214	619
2215	578
2216	583
2217	582
2218	610
2219	582
2220	588
2221	612
2222	575
2223	546
2224	566
2225	562
2226	597
2227	572
2228	581
2229	608
2230	615
2231	593
2232	549
2233	576
2234	557
2235	600
2236	583
2237	593
2238	608
2239	596
2240	568
2241	596
2242	558
2243	566
2244	567
2245	584
2246	583
2247	562
2248	544
2249	606
2250	561
2251	600
2252	559
2253	590
2254	569
2255	539
2256	591
2257	562
2258	565
2259	586
2260	576
2261	602
2262	558
2263	556
2264	587
2265	580
2266	589
2267	537
2268	591
2269	616
2270	583
2271	592
2272	550
2273	571
2274	621
2275	585
2276	573
2277	601
2278	603
2279	543
2280	533
2281	562
2282	600
2283	590
2284	610
2285	566
2286	590
2287	634
2288	641
2289	616
2290	530
2291	569
2292	548
2293	624
2294	592
2295	594
2296	610
2297	563
2298	588
2299	570
2300	598
2301	607
2302	605
2303	563
2304	544
2305	570
2306	565
2307	588
2308	569
2309	612
2310	623
2311	588
2312	574
2313	587
2314	608
2315	573
2316	565
2317	599
2318	587
2319	597
2320	589
2321	592
2322	561
2323	558
2324	536
2325	587
2326	614
2327	602
2328	560
2329	566
2330	551
2331	568
2332	606
2333	557
2334	586
2335	573
2336	605
2337	548
2338	566
2339	568
2340	589
2341	557
2342	586
2343	607
2344	565
2345	585
2346	605
2347	566
2348	579
2349	516
2350	552
2351	560
2352	576
2353	527
2354	571
2355	527
2356	580
2357	550
2358	554
2359	583
2360	535
2361	617
2362	560
2363	586
2364	599
2365	567
2366	580
2367	618
2368	563
2369	566
2370	604
2371	584
2372	486
2373	582
2374	612
2375	555
2376	572
2377	541
2378	589
2379	578
2380	579
2381	539
2382	547
2383	604
2384	587
2385	569
2386	595
2387	589
2388	549
2389	544
2390	552
2391	554
2392	585
2393	592
2394	615
2395	576
2396	592
2397	556
2398	561
2399	581
2400	611
2401	558
2402	577
2403	566
2404	524
2405	588
2406	565
2407	608
2408	582
2409	578
2410	574
2411	605
2412	558
2413	581
2414	573
2415	575
2416	533
2417	593
2418	646
2419	518
2420	571
2421	561
2422	604
2423	580
2424	582
2425	580
2426	557
2427	599
2428	566
2429	565
2430	557
2431	586
2432	571
2433	579
2434	587
2435	614
2436	552
2437	574
2438	560
2439	604
2440	577
2441	564
2442	598
2443	596
2444	575
2445	514
2446	559
2447	566
2448	614
2449	577
2450	592
2451	583
2452	602
2453	538
2454	536
2455	577
2456	555
2457	610
2458	581
2459	561
2460	555
2461	541
2462	549
2463	592
2464	541
2465	540
2466	578
2467	562
2468	571
2469	569
2470	629
2471	578
2472	616
2473	568
2474	558
2475	510
2476	606
2477	554
2478	546
2479	576
2480	552
2481	597
2482	588
2483	610
2484	631
2485	606
2486	550
2487	565
2488	596
2489	547
2490	590
2491	535
2492	546
2493	557
2494	605
2495	581
2496	599
2497	534
2498	531
2499	532
2500	551
2501	540
2502	611
2503	542
2504	581
2505	555
2506	575
2507	575
2508	608
2509	590
2510	537
2511	569
2512	566
2513	558
2514	595
2515	568
2516	501
2517	608
2518	562
2519	600
2520	545
2521	586
2522	571
2523	546
2524	538
2525	585
2526	558
2527	544
2528	591
2529	578
2530	595
2531	613
2532	581
2533	544
2534	555
2535	562
2536	577
2537	585
2538	578
2539	538
2540	548
2541	565
2542	556
2543	552
2544	563
2545	529
2546	591
2547	555
2548	555
2549	557
2550	571
2551	570
2552	589
2553	585
2554	581
2555	567
2556	593
2557	616
2558	601
2559	532
2560	561
2561	566
2562	633
2563	590
2564	571
2565	546
2566	608
2567	574
2568	557
2569	549
2570	566
2571	540
2572	593
2573	549
2574	600
2575	606
2576	532
2577	577
2578	562
2579	567
2580	569
2581	568
2582	514
2583	567
2584	595
2585	523
2586	546
2587	592
2588	541
2589	576
2590	591
2591	578
2592	521
2593	545
2594	547
2595	598
2596	522
2597	531
2598	580
2599	552
2600	578
2601	568
2602	566
2603	564
2604	545
2605	532
2606	578
2607	559
2608	568
2609	582
2610	535
2611	539
2612	598
2613	573
2614	618
2615	577
2616	578
2617	557
2618	533
2619	571
2620	595
2621	546
2622	583
2623	563
2624	524
2625	531
2626	612
2627	560
2628	565
2629	567
2630	571
2631	562
2632	599
2633	564
2634	532
2635	552
2636	542
2637	546
2638	569
2639	596
2640	581
2641	604
2642	540
2643	607
2644	488
2645	567
2646	567
2647	555
2648	591
2649	551
2650	553
2651	566
2652	558
2653	536
2654	616
2655	540
2656	530
2657	600
2658	537
2659	609
2660	563
2661	578
2662	603
2663	564
2664	542
2665	561
2666	576
2667	597
2668	569
2669	549
2670	568
2671	583
2672	549
2673	570
2674	606
2675	588
2676	564
2677	587
2678	594
2679	564
2680	562
2681	564
2682	565
2683	576
2684	579
2685	559
2686	546
2687	550
2688	553
2689	601
2690	543
2691	550
2692	592
2693	591
2694	594
2695	578
2696	573
2697	533
2698	602
2699	593
2700	543
2701	638
2702	585
2703	556
2704	573
2705	570
2706	597
2707	527
2708	567
2709	542
2710	572
2711	574
2712	564
2713	593
2714	548
2715	515
2716	575
2717	569
2718	561
2719	586
2720	563
2721	552
2722	579
2723	590
2724	612
2725	558
2726	634
2727	505
2728	559
2729	555
2730	570
2731	569
2732	548
2733	560
2734	537
2735	550
2736	583
2737	588
2738	576
2739	556
2740	538
2741	565
2742	570
2743	563
2744	543
2745	566
2746	583
2747	535
2748	588
2749	605
2750	582
2751	570
2752	593
2753	555
2754	629
2755	558
2756	564
2757	591
2758	569
2759	590
2760	571
2761	582
2762	567
2763	579
2764	572
2765	532
2766	558
2767	582
2768	572
2769	550
2770	568
2771	608
2772	595
2773	512
2774	598
2775	540
2776	582
2777	548
2778	577
2779	549
2780	575
2781	574
2782	552
2783	561
2784	562
2785	516
2786	564
2787	577
2788	587
2789	551
2790	543
2791	589
2792	583
2793	586
2794	570
2795	545
2796	570
2797	560
2798	533
2799	546
2800	564
2801	576
2802	602
2803	568
2804	552
2805	553
2806	582
2807	566
2808	595
2809	580
2810	562
2811	570
2812	556
2813	554
2814	554
2815	585
2816	557
2817	555
2818	594
2819	580
2820	592
2821	596
2822	559
2823	577
2824	573
2825	567
2826	577
2827	607
2828	525
2829	589
2830	564
2831	538
2832	553
2833	579
2834	580
2835	537
2836	582
2837	572
2838	531
2839	556
2840	578
2841	535
2842	576
2843	575
2844	576
2845	593
2846	580
2847	571
2848	553
2849	584
2850	515
2851	560
2852	540
2853	593
2854	520
2855	552
2856	581
2857	554
2858	583
2859	555
2860	586
2861	568
2862	589
2863	605
2864	543
2865	575
2866	605
2867	557
2868	575
2869	545
2870	547
2871	592
2872	562
2873	602
2874	565
2875	528
2876	562
2877	585
2878	582
2879	596
2880	583
2881	548
2882	561
2883	572
2884	561
2885	569
2886	592
2887	529
2888	562
2889	599
2890	562
2891	480
2892	575
2893	549
2894	580
2895	559
2896	592
2897	565
2898	621
2899	602
2900	548
2901	593
2902	554
2903	574
2904	571
2905	582
2906	565
2907	528
2908	557
2909	559
2910	558
2911	623
2912	533
2913	585
2914	571
2915	593
2916	544
2917	603
2918	569
2919	588
2920	580
2921	590
2922	562
2923	571
2924	522
2925	582
2926	601
2927	604
2928	604
2929	594
2930	510
2931	602
2932	554
2933	599
2934	536
2935	576
2936	550
2937	606
2938	542
2939	544
2940	598
2941	547
2942	596
2943	594
2944	521
2945	536
2946	570
2947	553
2948	534
2949	547
2950	568
2951	578
2952	569
2953	585
2954	590
2955	531
2956	550
2957	518
2958	601
2959	617
2960	578
2961	563
2962	576
2963	545
2964	549
2965	550
2966	598
2967	590
2968	620
2969	583
2970	561
2971	559
2972	593
2973	581
2974	562
2975	553
2976	570
2977	591
2978	578
2979	545
2980	533
2981	575
2982	572
2983	574
2984	569
2985	567
2986	584
2987	576
2988	593
2989	536
2990	584
2991	597
2992	579
2993	528
2994	555
2995	607
2996	584
2997	559
2998	599
2999	534
3000	554
3001	586
3002	560
3003	553
3004	586
3005	577
3006	574
3007	556
3008	539
3009	508
3010	555
3011	604
3012	543
3013	547
3014	552
3015	505
3016	589
3017	543
3018	584
3019	559
3020	570
3021	523
3022	568
3023	568
3024	532
3025	638
3026	557
3027	535
3028	560
3029	554
3030	582
3031	541
3032	565
3033	504
3034	540
3035	539
3036	555
3037	593
3038	604
3039	565
3040	568
3041	562
3042	599
3043	573
3044	568
3045	578
3046	532
3047	569
3048	590
3049	516
3050	556
3051	573
3052	509
3053	579
3054	536
3055	561
3056	520
3057	540
3058	607
3059	574
3060	550
3061	506
3062	590
3063	590
3064	574
3065	572
3066	523
3067	566
3068	568
3069	593
3070	572
3071	563
3072	531
3073	538
3074	561
3075	560
3076	554
3077	569
3078	551
3079	540
3080	531
3081	560
3082	527
3083	541
3084	561
3085	587
3086	574
3087	603
3088	529
3089	575
3090	557
3091	566
3092	555
3093	563
3094	551
3095	575
3096	578
3097	547
3098	565
3099	569
3100	569
3101	553
3102	552
3103	542
3104	589
3105	571
3106	588
3107	571
3108	527
3109	543
3110	543
3111	531
3112	548
3113	512
3114	555
3115	547
3116	538
3117	574
3118	581
3119	578
3120	547
3121	578
3122	563
3123	545
3124	571
3125	559
3126	581
3127	594
3128	535
3129	573
3130	550
3131	561
3132	575
3133	593
3134	559
3135	565
3136	562
3137	544
3138	594
3139	557
3140	562
3141	569
3142	568
3143	530
3144	567
3145	563
3146	532
3147	562
3148	589
3149	563
3150	517
3151	544
3152	541
3153	587
3154	572
3155	579
3156	568
3157	517
3158	576
3159	566
3160	584
3161	550
3162	487
3163	593
3164	590
3165	590
3166	546
3167	556
3168	565
3169	559
3170	577
3171	546
3172	556
3173	533
3174	535
3175	530
3176	580
3177	515
3178	569
3179	582
3180	557
3181	561
3182	564
3183	554
3184	580
3185	559
3186	567
3187	575
3188	548
3189	600
3190	584
3191	595
3192	571
3193	543
3194	585
3195	609
3196	597
3197	531
3198	564
3199	562
3200	545
3201	579
3202	581
3203	552
3204	581
3205	609
3206	562
3207	555
3208	570
3209	585
3210	575
3211	622
3212	545
3213	544
3214	577
3215	558
3216	521
3217	561
3218	612
3219	604
3220	528
3221	548
3222	559
3223	586
3224	535
3225	576
3226	551
3227	576
3228	565
3229	568
3230	531
3231	562
3232	578
3233	548
3234	569
3235	540
3236	590
3237	560
3238	574
3239	560
3240	559
3241	558
3242	554
3243	532
3244	590
3245	505
3246	551
3247	577
3248	587
3249	563
3250	543
3251	503
3252	576
3253	600
3254	563
3255	562
3256	550
3257	552
3258	555
3259	564
3260	533
3261	567
3262	576
3263	593
3264	532
3265	586
3266	558
3267	573
3268	585
3269	573
3270	570
3271	565
3272	602
3273	607
3274	546
3275	493
3276	558
3277	602
3278	583
3279	581
3280	540
3281	555
3282	579
3283	583
3284	572
3285	555
3286	568
3287	593
3288	547
3289	521
3290	607
3291	529
3292	556
3293	549
3294	563
3295	566
3296	543
3297	555
3298	575
3299	570
3300	509
3301	543
3302	586
3303	567
3304	586
3305	514
3306	559
3307	513
3308	548
3309	619
3310	550
3311	544
3312	520
3313	522
3314	594
3315	551
3316	539
3317	583
3318	573
3319	551
3320	545
3321	528
3322	620
3323	544
3324	571
3325	528
3326	579
3327	577
3328	572
3329	530
3330	561
3331	598
3332	544
3333	508
3334	539
3335	533
3336	569
3337	540
3338	613
3339	584
3340	570
3341	550
3342	557
3343	541
3344	559
3345	511
3346	512
3347	569
3348	542
3349	582
3350	599
3351	530
3352	559
3353	569
3354	529
3355	577
3356	485
3357	539
3358	541
3359	599
3360	512
3361	534
3362	581
3363	558
3364	559
3365	537
3366	534
3367	553
3368	568
3369	566
3370	632
3371	568
3372	538
3373	540
3374	529
3375	575
3376	537
3377	592
3378	575
3379	552
3380	560
3381	540
3382	571
3383	557
3384	570
3385	578
3386	524
3387	569
3388	522
3389	564
3390	520
3391	551
3392	563
3393	576
3394	594
3395	554
3396	545
3397	549
3398	545
3399	556
3400	579
3401	559
3402	590
3403	565
3404	612
3405	565
3406	571
3407	581
3408	569
3409	553
3410	588
3411	540
3412	583
3413	549
3414	512
3415	576
3416	563
3417	557
3418	533
3419	517
3420	554
3421	537
3422	585
3423	569
3424	610
3425	561
3426	558
3427	533
3428	544
3429	604
3430	556
3431	541
3432	517
3433	564
3434	523
3435	585
3436	522
3437	537
3438	576
3439	579
3440	527
3441	532
3442	551
3443	574
3444	566
3445	553
3446	545
3447	528
3448	586
3449	571
3450	583
3451	554
3452	583
3453	568
3454	558
3455	581
3456	577
3457	535
3458	555
3459	555
3460	528
3461	556
3462	555
3463	570
3464	606
3465	615
3466	601
3467	568
3468	543
3469	558
3470	523
3471	575
3472	545
3473	539
3474	585
3475	566
3476	583
3477	535
3478	585
3479	547
3480	564
3481	553
3482	549
3483	542
3484	556
3485	619
3486	570
3487	559
3488	554
3489	531
3490	559
3491	562
3492	552
3493	520
3494	595
3495	563
3496	507
3497	521
3498	550
3499	528
3500	538
3501	580
3502	551
3503	525
3504	578
3505	539
3506	648
3507	602
3508	536
3509	556
3510	552
3511	552
3512	569
3513	554
3514	584
3515	570
3516	517
3517	535
3518	558
3519	532
3520	577
3521	524
3522	551
3523	572
3524	598
3525	617
3526	557
3527	540
3528	540
3529	595
3530	537
3531	567
3532	568
3533	542
3534	546
3535	528
3536	559
3537	555
3538	560
3539	534
3540	568
3541	561
3542	573
3543	537
3544	522
3545	569
3546	566
3547	565
3548	544
3549	546
3550	534
3551	548
3552	582
3553	572
3554	552
3555	520
3556	574
3557	582
3558	553
3559	537
3560	568
3561	561
3562	549
3563	531
3564	593
3565	564
3566	565
3567	514
3568	563
3569	576
3570	578
3571	554
3572	567
3573	588
3574	553
3575	551
3576	580
3577	561
3578	576
3579	575
3580	514
3581	564
3582	567
3583	543
3584	609
3585	522
3586	574
3587	571
3588	505
3589	523
3590	589
3591	558
3592	596
3593	539
3594	542
3595	512
3596	546
3597	572
3598	528
3599	556
3600	626
3601	566
3602	596
3603	560
3604	578
3605	501
3606	548
3607	551
3608	551
3609	552
3610	580
3611	558
3612	582
3613	562
3614	526
3615	575
3616	532
3617	543
3618	555
3619	573
3620	550
3621	543
3622	565
3623	596
3624	525
3625	569
3626	575
3627	546
3628	563
3629	559
3630	570
3631	578
3632	587
3633	625
3634	581
3635	562
3636	575
3637	587
3638	541
3639	558
3640	559
3641	527
3642	540
3643	521
3644	513
3645	528
3646	609
3647	546
3648	552
3649	580
3650	554
3651	537
3652	505
3653	576
3654	557
3655	546
3656	541
3657	533
3658	512
3659	542
3660	570
3661	554
3662	525
3663	556
3664	557
3665	551
3666	540
3667	571
3668	592
3669	597
3670	542
3671	537
3672	544
3673	580
3674	500
3675	540
3676	557
3677	544
3678	543
3679	569
3680	578
3681	540
3682	507
3683	550
3684	530
3685	531
3686	561
3687	608
3688	587
3689	575
3690	548
3691	576
3692	531
3693	555
3694	550
3695	564
3696	533
3697	553
3698	540
3699	568
3700	515
3701	586
3702	538
3703	584
3704	589
3705	519
3706	534
3707	512
3708	553
3709	527
3710	568
3711	573
3712	529
3713	586
3714	573
3715	539
3716	568
3717	568
3718	543
3719	547
3720	586
3721	564
3722	543
3723	593
3724	565
3725	570
3726	482
3727	558
3728	573
3729	588
3730	532
3731	569
3732	566
3733	551
3734	566
3735	565
3736	565
3737	533
3738	538
3739	550
3740	532
3741	553
3742	566
3743	575
3744	607
3745	547
3746	547
3747	575
3748	534
3749	596
3750	566
3751	542
3752	581
3753	524
3754	529
3755	577
3756	560
3757	539
3758	589
3759	528
3760	546
3761	581
3762	557
3763	591
3764	566
3765	573
3766	544
3767	551
3768	569
3769	578
3770	576
3771	560
3772	589
3773	535
3774	536
3775	569
3776	525
3777	570
3778	542
3779	543
3780	562
3781	540
3782	591
3783	575
3784	551
3785	544
3786	573
3787	595
3788	525
3789	582
3790	586
3791	515
3792	574
3793	579
3794	562
3795	525
3796	579
3797	571
3798	537
3799	524
3800	579
3801	558
3802	516
3803	592
3804	656
3805	537
3806	529
3807	548
3808	580
3809	578
3810	535
3811	587
3812	547
3813	579
3814	577
3815	528
3816	542
3817	552
3818	549
3819	509
3820	559
3821	517
3822	529
3823	537
3824	565
3825	496
3826	547
3827	566
3828	527
3829	517
3830	590
3831	585
3832	579
3833	552
3834	543
3835	515
3836	557
3837	578
3838	539
3839	549
3840	563
3841	552
3842	571
3843	548
3844	585
3845	521
3846	565
3847	532
3848	557
3849	543
3850	559
3851	582
3852	555
3853	580
3854	535
3855	546
3856	507
3857	565
3858	534
3859	555
3860	556
3861	515
3862	535
3863	581
3864	553
3865	565
3866	562
3867	552
3868	550
3869	569
3870	557
3871	530
3872	562
3873	574
3874	525
3875	556
3876	527
3877	563
3878	553
3879	570
3880	582
3881	541
3882	500
3883	553
3884	522
3885	549
3886	517
3887	521
3888	534
3889	549
3890	561
3891	570
3892	561
3893	549
3894	564
3895	527
3896	544
3897	542
3898	576
3899	592
3900	555
3901	517
3902	566
3903	542
3904	580
3905	552
3906	543
3907	542
3908	567
3909	549
3910	573
3911	543
3912	542
3913	563
3914	554
3915	577
3916	583
3917	541
3918	535
3919	561
3920	547
3921	562
3922	546
3923	537
3924	558
3925	556
3926	489
3927	557
3928	567
3929	537
3930	550
3931	595
3932	594
3933	563
3934	560
3935	556
3936	566
3937	537
3938	601
3939	531
3940	521
3941	588
3942	530
3943	547
3944	572
3945	559
3946	549
3947	611
3948	536
3949	545
3950	547
3951	526
3952	553
3953	537
3954	545
3955	522
3956	478
3957	544
3958	612
3959	581
3960	547
3961	580
3962	538
3963	509
3964	527
3965	552
3966	562
3967	531
3968	540
3969	514
3970	592
3971	582
3972	566
3973	580
3974	576
3975	566
3976	566
3977	550
3978	528
3979	603
3980	514
3981	541
3982	558
3983	537
3984	535
3985	554
3986	577
3987	536
3988	537
3989	559
3990	541
3991	557
3992	576
3993	545
3994	571
3995	549
3996	556
3997	559
3998	597
3999	564
4000	573
4001	552
4002	532
4003	578
4004	555
4005	561
4006	505
4007	540
4008	575
4009	590
4010	549
4011	534
4012	546
4013	529
4014	527
4015	606
4016	569
4017	534
4018	540
4019	547
4020	548
4021	567
4022	521
4023	549
4024	563
4025	547
4026	570
4027	571
4028	523
4029	542
4030	521
4031	500
4032	531
4033	592
4034	557
4035	573
4036	535
4037	549
4038	533
4039	598
4040	542
4041	530
4042	565
4043	559
4044	589
4045	548
4046	555
4047	511
4048	546
4049	534
4050	526
4051	556
4052	547
4053	574
4054	556
4055	570
4056	547
4057	548
4058	553
4059	579
4060	572
4061	585
4062	514
4063	589
4064	557
4065	546
4066	567
4067	574
4068	523
4069	558
4070	581
4071	557
4072	572
4073	545
4074	557
4075	556
4076	506
4077	545
4078	582
4079	543
4080	523
4081	531
4082	539
4083	525
4084	583
4085	588
4086	536
4087	556
4088	533
4089	548
4090	553
4091	543
4092	542
4093	563
4094	530
4095	528
4096	0
