Item name: Prompt

Real time: 1222.648
Live time: 0
Time calibration: 0.1097394ns/ch

Comment: 


Chan	Data
1	0
2	0
3	0
4	0
5	0
6	0
7	0
8	0
9	0
10	0
11	0
12	0
13	0
14	0
15	0
16	0
17	0
18	0
19	0
20	0
21	0
22	0
23	0
24	0
25	0
26	0
27	0
28	0
29	0
30	0
31	0
32	0
33	0
34	0
35	0
36	0
37	0
38	0
39	0
40	0
41	0
42	0
43	0
44	0
45	0
46	0
47	0
48	0
49	0
50	0
51	0
52	0
53	0
54	0
55	0
56	0
57	0
58	0
59	0
60	0
61	0
62	0
63	0
64	0
65	0
66	0
67	0
68	0
69	413
70	413
71	400
72	408
73	445
74	427
75	419
76	424
77	431
78	432
79	458
80	429
81	398
82	442
83	469
84	436
85	478
86	407
87	431
88	413
89	460
90	441
91	426
92	421
93	379
94	448
95	452
96	438
97	449
98	436
99	406
100	401
101	461
102	423
103	424
104	399
105	420
106	465
107	421
108	419
109	428
110	431
111	460
112	399
113	455
114	389
115	437
116	434
117	442
118	425
119	436
120	449
121	432
122	444
123	449
124	439
125	376
126	473
127	428
128	409
129	450
130	444
131	439
132	449
133	435
134	410
135	453
136	408
137	409
138	442
139	394
140	431
141	430
142	397
143	460
144	440
145	459
146	436
147	451
148	416
149	436
150	381
151	436
152	441
153	441
154	414
155	477
156	405
157	438
158	384
159	445
160	425
161	443
162	421
163	404
164	440
165	432
166	404
167	391
168	442
169	437
170	422
171	459
172	439
173	455
174	440
175	450
176	448
177	457
178	419
179	457
180	382
181	449
182	433
183	443
184	420
185	406
186	419
187	425
188	440
189	445
190	435
191	447
192	419
193	388
194	436
195	435
196	461
197	442
198	434
199	400
200	442
201	417
202	429
203	403
204	433
205	438
206	433
207	512
208	436
209	449
210	458
211	437
212	422
213	435
214	455
215	388
216	434
217	429
218	431
219	405
220	410
221	421
222	399
223	427
224	423
225	464
226	417
227	399
228	429
229	413
230	400
231	435
232	398
233	426
234	445
235	407
236	462
237	453
238	399
239	455
240	423
241	435
242	437
243	428
244	439
245	455
246	431
247	432
248	414
249	411
250	392
251	452
252	407
253	430
254	431
255	417
256	370
257	434
258	422
259	443
260	443
261	460
262	428
263	442
264	429
265	418
266	399
267	409
268	411
269	423
270	451
271	451
272	403
273	421
274	398
275	451
276	442
277	414
278	443
279	425
280	459
281	406
282	424
283	436
284	413
285	435
286	429
287	415
288	443
289	424
290	417
291	393
292	434
293	397
294	446
295	404
296	411
297	433
298	427
299	468
300	415
301	444
302	431
303	424
304	424
305	416
306	437
307	445
308	413
309	422
310	429
311	445
312	421
313	433
314	436
315	436
316	419
317	421
318	412
319	440
320	425
321	400
322	417
323	399
324	403
325	419
326	447
327	451
328	446
329	462
330	443
331	436
332	401
333	423
334	454
335	432
336	442
337	432
338	435
339	403
340	392
341	412
342	425
343	455
344	447
345	441
346	415
347	443
348	425
349	401
350	388
351	414
352	395
353	424
354	405
355	443
356	433
357	431
358	456
359	456
360	405
361	428
362	430
363	431
364	445
365	522
366	762
367	860
368	935
369	952
370	930
371	891
372	875
373	869
374	892
375	813
376	896
377	826
378	829
379	770
380	797
381	785
382	733
383	735
384	726
385	731
386	764
387	718
388	713
389	661
390	692
391	709
392	699
393	652
394	678
395	687
396	676
397	608
398	650
399	641
400	719
401	730
402	637
403	645
404	644
405	587
406	600
407	658
408	644
409	641
410	665
411	566
412	643
413	632
414	615
415	597
416	628
417	626
418	591
419	597
420	632
421	618
422	632
423	590
424	636
425	627
426	584
427	561
428	608
429	606
430	578
431	562
432	555
433	649
434	594
435	629
436	609
437	589
438	577
439	543
440	560
441	564
442	558
443	547
444	569
445	559
446	554
447	570
448	535
449	576
450	539
451	576
452	580
453	582
454	547
455	588
456	594
457	559
458	567
459	573
460	569
461	603
462	585
463	581
464	535
465	571
466	574
467	538
468	578
469	575
470	558
471	606
472	589
473	588
474	596
475	552
476	586
477	511
478	551
479	611
480	585
481	521
482	522
483	507
484	572
485	599
486	526
487	534
488	536
489	562
490	540
491	528
492	553
493	515
494	577
495	540
496	555
497	531
498	531
499	553
500	548
501	493
502	549
503	559
504	563
505	524
506	561
507	549
508	546
509	584
510	531
511	564
512	508
513	557
514	535
515	525
516	566
517	532
518	540
519	525
520	532
521	548
522	529
523	527
524	483
525	502
526	522
527	505
528	583
529	554
530	513
531	527
532	566
533	526
534	544
535	566
536	555
537	529
538	578
539	544
540	549
541	566
542	532
543	525
544	545
545	534
546	498
547	547
548	548
549	505
550	514
551	502
552	528
553	526
554	538
555	511
556	547
557	563
558	526
559	511
560	510
561	558
562	524
563	565
564	527
565	556
566	557
567	515
568	500
569	559
570	476
571	548
572	542
573	533
574	528
575	520
576	524
577	471
578	527
579	523
580	552
581	519
582	504
583	538
584	505
585	527
586	512
587	536
588	562
589	478
590	526
591	522
592	532
593	538
594	528
595	511
596	565
597	524
598	489
599	526
600	499
601	515
602	485
603	534
604	542
605	502
606	494
607	494
608	514
609	513
610	517
611	531
612	493
613	543
614	539
615	547
616	542
617	560
618	538
619	495
620	557
621	563
622	506
623	499
624	502
625	534
626	523
627	489
628	556
629	509
630	513
631	440
632	488
633	507
634	489
635	518
636	528
637	531
638	529
639	499
640	535
641	515
642	532
643	547
644	486
645	506
646	525
647	485
648	510
649	528
650	510
651	487
652	491
653	536
654	520
655	474
656	539
657	498
658	501
659	490
660	554
661	533
662	485
663	497
664	531
665	495
666	541
667	489
668	474
669	502
670	480
671	525
672	484
673	470
674	548
675	500
676	479
677	508
678	559
679	467
680	506
681	508
682	489
683	460
684	502
685	537
686	476
687	492
688	523
689	510
690	510
691	490
692	508
693	467
694	494
695	503
696	525
697	508
698	534
699	474
700	506
701	489
702	543
703	485
704	509
705	492
706	495
707	485
708	496
709	500
710	483
711	471
712	475
713	466
714	516
715	499
716	492
717	494
718	506
719	481
720	520
721	499
722	505
723	452
724	492
725	500
726	484
727	525
728	490
729	450
730	492
731	525
732	501
733	517
734	471
735	521
736	493
737	488
738	503
739	513
740	490
741	481
742	477
743	530
744	517
745	489
746	487
747	496
748	492
749	526
750	470
751	494
752	492
753	465
754	488
755	466
756	494
757	506
758	508
759	542
760	449
761	507
762	480
763	485
764	542
765	471
766	497
767	477
768	505
769	535
770	470
771	584
772	540
773	496
774	493
775	537
776	545
777	482
778	491
779	515
780	473
781	481
782	472
783	495
784	484
785	496
786	501
787	537
788	532
789	471
790	485
791	510
792	532
793	524
794	511
795	508
796	491
797	498
798	498
799	492
800	499
801	492
802	505
803	476
804	503
805	501
806	496
807	495
808	554
809	523
810	467
811	459
812	523
813	507
814	466
815	475
816	494
817	513
818	519
819	483
820	547
821	487
822	499
823	511
824	521
825	513
826	502
827	495
828	485
829	486
830	487
831	462
832	482
833	479
834	492
835	511
836	479
837	479
838	483
839	480
840	525
841	496
842	489
843	503
844	495
845	479
846	468
847	485
848	443
849	518
850	494
851	475
852	534
853	472
854	474
855	471
856	495
857	504
858	487
859	488
860	490
861	491
862	459
863	525
864	447
865	536
866	492
867	502
868	454
869	490
870	450
871	495
872	489
873	526
874	496
875	502
876	467
877	451
878	495
879	502
880	468
881	510
882	465
883	485
884	443
885	521
886	494
887	477
888	438
889	472
890	482
891	479
892	467
893	509
894	518
895	469
896	475
897	465
898	517
899	549
900	502
901	472
902	487
903	481
904	450
905	495
906	494
907	484
908	470
909	482
910	477
911	518
912	500
913	538
914	466
915	563
916	516
917	513
918	501
919	492
920	502
921	516
922	478
923	515
924	469
925	483
926	495
927	462
928	526
929	438
930	474
931	485
932	475
933	480
934	504
935	529
936	493
937	512
938	461
939	488
940	455
941	526
942	489
943	535
944	459
945	534
946	521
947	464
948	497
949	480
950	475
951	493
952	479
953	482
954	528
955	456
956	507
957	480
958	480
959	469
960	472
961	525
962	505
963	524
964	523
965	482
966	478
967	491
968	473
969	484
970	465
971	489
972	426
973	512
974	504
975	464
976	476
977	478
978	461
979	506
980	500
981	487
982	510
983	498
984	496
985	487
986	475
987	517
988	449
989	476
990	473
991	488
992	466
993	483
994	465
995	510
996	472
997	499
998	514
999	504
1000	526
1001	490
1002	492
1003	469
1004	481
1005	489
1006	523
1007	479
1008	453
1009	466
1010	493
1011	501
1012	469
1013	504
1014	510
1015	497
1016	487
1017	476
1018	493
1019	470
1020	489
1021	469
1022	503
1023	481
1024	484
1025	478
1026	500
1027	466
1028	446
1029	501
1030	465
1031	508
1032	460
1033	488
1034	510
1035	464
1036	471
1037	516
1038	510
1039	438
1040	483
1041	520
1042	460
1043	513
1044	500
1045	499
1046	508
1047	497
1048	474
1049	522
1050	499
1051	498
1052	479
1053	435
1054	483
1055	500
1056	476
1057	477
1058	466
1059	473
1060	486
1061	496
1062	533
1063	510
1064	490
1065	446
1066	462
1067	477
1068	479
1069	458
1070	443
1071	503
1072	472
1073	515
1074	464
1075	507
1076	496
1077	480
1078	493
1079	470
1080	460
1081	508
1082	472
1083	497
1084	458
1085	479
1086	466
1087	431
1088	490
1089	436
1090	490
1091	476
1092	465
1093	453
1094	480
1095	530
1096	469
1097	479
1098	453
1099	493
1100	467
1101	448
1102	483
1103	458
1104	466
1105	500
1106	487
1107	480
1108	476
1109	518
1110	502
1111	499
1112	498
1113	464
1114	467
1115	474
1116	515
1117	454
1118	483
1119	451
1120	473
1121	494
1122	455
1123	504
1124	500
1125	479
1126	493
1127	509
1128	480
1129	446
1130	505
1131	460
1132	430
1133	437
1134	492
1135	502
1136	505
1137	490
1138	493
1139	476
1140	482
1141	475
1142	465
1143	491
1144	488
1145	487
1146	465
1147	514
1148	483
1149	519
1150	464
1151	489
1152	484
1153	446
1154	513
1155	484
1156	487
1157	470
1158	443
1159	469
1160	467
1161	484
1162	456
1163	496
1164	471
1165	486
1166	519
1167	488
1168	494
1169	499
1170	488
1171	491
1172	439
1173	508
1174	511
1175	456
1176	499
1177	511
1178	473
1179	492
1180	471
1181	464
1182	457
1183	468
1184	455
1185	485
1186	456
1187	463
1188	523
1189	498
1190	484
1191	471
1192	485
1193	494
1194	496
1195	490
1196	508
1197	499
1198	488
1199	455
1200	436
1201	457
1202	454
1203	483
1204	475
1205	474
1206	473
1207	471
1208	485
1209	468
1210	443
1211	487
1212	447
1213	486
1214	485
1215	466
1216	456
1217	496
1218	461
1219	480
1220	500
1221	468
1222	501
1223	515
1224	432
1225	493
1226	455
1227	496
1228	501
1229	511
1230	496
1231	477
1232	487
1233	496
1234	437
1235	471
1236	461
1237	487
1238	480
1239	420
1240	453
1241	480
1242	479
1243	492
1244	481
1245	486
1246	429
1247	459
1248	438
1249	464
1250	485
1251	426
1252	481
1253	446
1254	434
1255	507
1256	432
1257	527
1258	473
1259	479
1260	504
1261	490
1262	516
1263	448
1264	458
1265	484
1266	483
1267	453
1268	475
1269	448
1270	449
1271	471
1272	488
1273	457
1274	515
1275	466
1276	493
1277	482
1278	470
1279	430
1280	477
1281	514
1282	458
1283	495
1284	495
1285	478
1286	481
1287	449
1288	443
1289	466
1290	481
1291	429
1292	460
1293	526
1294	500
1295	446
1296	428
1297	485
1298	495
1299	456
1300	472
1301	488
1302	477
1303	501
1304	480
1305	463
1306	470
1307	491
1308	455
1309	478
1310	470
1311	467
1312	493
1313	474
1314	483
1315	448
1316	506
1317	463
1318	436
1319	462
1320	472
1321	454
1322	485
1323	470
1324	455
1325	456
1326	509
1327	465
1328	478
1329	440
1330	483
1331	462
1332	456
1333	459
1334	479
1335	470
1336	472
1337	511
1338	509
1339	433
1340	463
1341	480
1342	482
1343	444
1344	495
1345	470
1346	446
1347	460
1348	490
1349	490
1350	462
1351	479
1352	477
1353	463
1354	523
1355	457
1356	476
1357	475
1358	481
1359	473
1360	467
1361	518
1362	480
1363	461
1364	481
1365	494
1366	472
1367	430
1368	455
1369	493
1370	454
1371	473
1372	468
1373	468
1374	489
1375	480
1376	460
1377	435
1378	493
1379	505
1380	442
1381	477
1382	504
1383	458
1384	451
1385	441
1386	468
1387	481
1388	471
1389	493
1390	485
1391	465
1392	475
1393	492
1394	451
1395	469
1396	465
1397	438
1398	457
1399	457
1400	462
1401	475
1402	483
1403	500
1404	486
1405	460
1406	442
1407	442
1408	460
1409	472
1410	467
1411	454
1412	475
1413	500
1414	504
1415	488
1416	448
1417	501
1418	464
1419	435
1420	443
1421	484
1422	455
1423	444
1424	475
1425	467
1426	408
1427	450
1428	488
1429	452
1430	449
1431	478
1432	452
1433	465
1434	440
1435	482
1436	462
1437	495
1438	430
1439	444
1440	483
1441	483
1442	473
1443	455
1444	465
1445	444
1446	488
1447	517
1448	452
1449	462
1450	463
1451	467
1452	523
1453	480
1454	495
1455	449
1456	485
1457	468
1458	455
1459	463
1460	494
1461	482
1462	472
1463	479
1464	443
1465	443
1466	429
1467	483
1468	489
1469	452
1470	464
1471	483
1472	465
1473	467
1474	463
1475	452
1476	432
1477	471
1478	486
1479	453
1480	445
1481	481
1482	452
1483	439
1484	465
1485	485
1486	469
1487	508
1488	471
1489	449
1490	475
1491	492
1492	461
1493	462
1494	484
1495	460
1496	458
1497	461
1498	447
1499	432
1500	480
1501	482
1502	432
1503	455
1504	477
1505	467
1506	469
1507	475
1508	465
1509	448
1510	448
1511	486
1512	479
1513	462
1514	482
1515	443
1516	470
1517	469
1518	475
1519	485
1520	460
1521	477
1522	467
1523	492
1524	436
1525	503
1526	462
1527	480
1528	504
1529	455
1530	468
1531	469
1532	462
1533	455
1534	493
1535	465
1536	464
1537	493
1538	464
1539	454
1540	493
1541	480
1542	482
1543	446
1544	449
1545	421
1546	464
1547	503
1548	461
1549	429
1550	407
1551	474
1552	464
1553	500
1554	477
1555	441
1556	433
1557	476
1558	457
1559	482
1560	431
1561	446
1562	461
1563	457
1564	432
1565	463
1566	486
1567	488
1568	480
1569	493
1570	433
1571	514
1572	473
1573	477
1574	468
1575	540
1576	441
1577	473
1578	471
1579	461
1580	455
1581	463
1582	460
1583	484
1584	470
1585	499
1586	448
1587	454
1588	498
1589	447
1590	519
1591	466
1592	505
1593	463
1594	456
1595	430
1596	427
1597	446
1598	480
1599	460
1600	472
1601	463
1602	458
1603	471
1604	470
1605	439
1606	458
1607	448
1608	476
1609	436
1610	457
1611	468
1612	447
1613	490
1614	481
1615	442
1616	469
1617	465
1618	445
1619	512
1620	411
1621	493
1622	494
1623	480
1624	469
1625	419
1626	480
1627	479
1628	442
1629	448
1630	489
1631	519
1632	440
1633	504
1634	439
1635	471
1636	419
1637	483
1638	489
1639	455
1640	466
1641	476
1642	469
1643	462
1644	462
1645	390
1646	494
1647	457
1648	448
1649	444
1650	461
1651	450
1652	482
1653	455
1654	488
1655	487
1656	468
1657	453
1658	458
1659	478
1660	496
1661	450
1662	465
1663	470
1664	442
1665	433
1666	488
1667	470
1668	452
1669	445
1670	463
1671	467
1672	473
1673	436
1674	470
1675	469
1676	475
1677	444
1678	499
1679	457
1680	445
1681	448
1682	480
1683	491
1684	475
1685	480
1686	482
1687	512
1688	497
1689	481
1690	441
1691	493
1692	468
1693	489
1694	433
1695	448
1696	458
1697	452
1698	430
1699	474
1700	492
1701	456
1702	472
1703	503
1704	475
1705	462
1706	457
1707	442
1708	461
1709	494
1710	437
1711	497
1712	434
1713	459
1714	482
1715	464
1716	431
1717	486
1718	449
1719	443
1720	471
1721	438
1722	473
1723	469
1724	460
1725	461
1726	497
1727	492
1728	500
1729	458
1730	460
1731	451
1732	454
1733	506
1734	453
1735	449
1736	460
1737	443
1738	462
1739	449
1740	446
1741	489
1742	445
1743	515
1744	469
1745	496
1746	480
1747	462
1748	459
1749	463
1750	462
1751	484
1752	451
1753	462
1754	461
1755	505
1756	457
1757	482
1758	456
1759	450
1760	500
1761	448
1762	441
1763	468
1764	457
1765	437
1766	442
1767	451
1768	457
1769	471
1770	463
1771	488
1772	478
1773	456
1774	420
1775	461
1776	460
1777	474
1778	453
1779	456
1780	475
1781	482
1782	430
1783	463
1784	467
1785	464
1786	475
1787	455
1788	461
1789	475
1790	444
1791	440
1792	443
1793	478
1794	460
1795	444
1796	484
1797	480
1798	484
1799	465
1800	437
1801	464
1802	474
1803	434
1804	458
1805	464
1806	473
1807	423
1808	458
1809	431
1810	477
1811	458
1812	433
1813	458
1814	466
1815	409
1816	452
1817	465
1818	481
1819	455
1820	428
1821	451
1822	417
1823	427
1824	476
1825	462
1826	437
1827	420
1828	486
1829	487
1830	423
1831	508
1832	450
1833	467
1834	454
1835	427
1836	429
1837	459
1838	465
1839	426
1840	474
1841	437
1842	450
1843	449
1844	495
1845	459
1846	451
1847	468
1848	451
1849	483
1850	454
1851	415
1852	458
1853	469
1854	422
1855	428
1856	467
1857	451
1858	459
1859	441
1860	445
1861	462
1862	487
1863	449
1864	461
1865	448
1866	420
1867	446
1868	444
1869	455
1870	448
1871	470
1872	464
1873	493
1874	490
1875	479
1876	411
1877	456
1878	441
1879	479
1880	470
1881	469
1882	455
1883	448
1884	468
1885	460
1886	485
1887	452
1888	451
1889	493
1890	440
1891	483
1892	487
1893	466
1894	453
1895	452
1896	463
1897	437
1898	484
1899	462
1900	466
1901	431
1902	453
1903	457
1904	455
1905	470
1906	453
1907	454
1908	457
1909	457
1910	465
1911	480
1912	435
1913	476
1914	485
1915	449
1916	502
1917	437
1918	476
1919	468
1920	448
1921	483
1922	489
1923	441
1924	428
1925	462
1926	460
1927	415
1928	447
1929	476
1930	471
1931	446
1932	465
1933	461
1934	450
1935	468
1936	482
1937	476
1938	466
1939	435
1940	426
1941	452
1942	439
1943	469
1944	438
1945	445
1946	500
1947	466
1948	446
1949	491
1950	489
1951	490
1952	465
1953	477
1954	490
1955	465
1956	433
1957	448
1958	438
1959	464
1960	451
1961	476
1962	437
1963	419
1964	518
1965	433
1966	488
1967	476
1968	480
1969	456
1970	476
1971	460
1972	463
1973	460
1974	422
1975	473
1976	483
1977	450
1978	436
1979	454
1980	432
1981	465
1982	415
1983	464
1984	463
1985	432
1986	477
1987	509
1988	473
1989	459
1990	437
1991	450
1992	461
1993	416
1994	457
1995	429
1996	453
1997	440
1998	480
1999	449
2000	436
2001	463
2002	485
2003	461
2004	490
2005	470
2006	470
2007	420
2008	445
2009	437
2010	442
2011	474
2012	519
2013	475
2014	451
2015	472
2016	444
2017	429
2018	435
2019	483
2020	466
2021	459
2022	436
2023	505
2024	484
2025	414
2026	419
2027	449
2028	461
2029	468
2030	446
2031	449
2032	483
2033	464
2034	455
2035	465
2036	466
2037	428
2038	506
2039	435
2040	407
2041	476
2042	446
2043	461
2044	424
2045	475
2046	466
2047	442
2048	471
2049	430
2050	454
2051	472
2052	472
2053	480
2054	483
2055	467
2056	434
2057	463
2058	447
2059	472
2060	474
2061	449
2062	475
2063	447
2064	457
2065	472
2066	425
2067	412
2068	476
2069	513
2070	421
2071	481
2072	468
2073	445
2074	445
2075	451
2076	451
2077	469
2078	413
2079	477
2080	462
2081	463
2082	461
2083	453
2084	506
2085	458
2086	453
2087	446
2088	476
2089	443
2090	474
2091	496
2092	423
2093	480
2094	466
2095	408
2096	458
2097	443
2098	482
2099	424
2100	453
2101	440
2102	475
2103	445
2104	476
2105	439
2106	452
2107	467
2108	485
2109	423
2110	451
2111	473
2112	457
2113	434
2114	439
2115	453
2116	459
2117	464
2118	444
2119	415
2120	511
2121	442
2122	472
2123	450
2124	475
2125	428
2126	459
2127	433
2128	436
2129	504
2130	480
2131	438
2132	457
2133	420
2134	402
2135	449
2136	458
2137	444
2138	452
2139	433
2140	493
2141	461
2142	470
2143	441
2144	488
2145	412
2146	422
2147	410
2148	482
2149	454
2150	457
2151	475
2152	484
2153	420
2154	457
2155	464
2156	469
2157	454
2158	406
2159	423
2160	481
2161	465
2162	458
2163	453
2164	441
2165	415
2166	461
2167	418
2168	473
2169	453
2170	440
2171	461
2172	425
2173	410
2174	466
2175	472
2176	480
2177	438
2178	442
2179	440
2180	447
2181	440
2182	461
2183	476
2184	442
2185	461
2186	482
2187	401
2188	475
2189	454
2190	443
2191	457
2192	467
2193	450
2194	440
2195	432
2196	435
2197	489
2198	472
2199	458
2200	483
2201	408
2202	476
2203	457
2204	427
2205	477
2206	418
2207	511
2208	477
2209	484
2210	462
2211	449
2212	474
2213	432
2214	445
2215	503
2216	466
2217	470
2218	471
2219	459
2220	464
2221	415
2222	470
2223	459
2224	452
2225	487
2226	457
2227	441
2228	444
2229	484
2230	456
2231	429
2232	445
2233	496
2234	430
2235	412
2236	473
2237	462
2238	439
2239	465
2240	464
2241	430
2242	436
2243	448
2244	420
2245	452
2246	459
2247	448
2248	440
2249	427
2250	475
2251	447
2252	466
2253	424
2254	476
2255	475
2256	428
2257	439
2258	473
2259	462
2260	479
2261	449
2262	445
2263	471
2264	458
2265	446
2266	457
2267	472
2268	434
2269	474
2270	445
2271	441
2272	454
2273	489
2274	449
2275	464
2276	456
2277	430
2278	497
2279	519
2280	484
2281	453
2282	452
2283	490
2284	452
2285	428
2286	464
2287	433
2288	473
2289	454
2290	428
2291	470
2292	438
2293	455
2294	497
2295	464
2296	460
2297	433
2298	436
2299	432
2300	491
2301	500
2302	472
2303	448
2304	470
2305	441
2306	465
2307	455
2308	465
2309	437
2310	456
2311	464
2312	426
2313	474
2314	461
2315	449
2316	466
2317	466
2318	459
2319	434
2320	435
2321	408
2322	457
2323	425
2324	459
2325	442
2326	448
2327	452
2328	465
2329	462
2330	412
2331	449
2332	424
2333	479
2334	442
2335	441
2336	472
2337	451
2338	512
2339	483
2340	449
2341	429
2342	447
2343	470
2344	438
2345	482
2346	411
2347	474
2348	434
2349	397
2350	480
2351	431
2352	433
2353	442
2354	489
2355	464
2356	444
2357	474
2358	428
2359	428
2360	462
2361	419
2362	431
2363	471
2364	422
2365	428
2366	463
2367	459
2368	463
2369	465
2370	443
2371	430
2372	435
2373	393
2374	453
2375	420
2376	479
2377	428
2378	491
2379	475
2380	463
2381	415
2382	460
2383	443
2384	440
2385	414
2386	453
2387	430
2388	466
2389	461
2390	446
2391	482
2392	459
2393	472
2394	450
2395	471
2396	454
2397	416
2398	456
2399	468
2400	433
2401	382
2402	435
2403	447
2404	432
2405	459
2406	415
2407	454
2408	443
2409	432
2410	428
2411	438
2412	461
2413	422
2414	461
2415	459
2416	426
2417	458
2418	459
2419	447
2420	418
2421	429
2422	450
2423	479
2424	451
2425	493
2426	432
2427	422
2428	487
2429	463
2430	436
2431	466
2432	496
2433	447
2434	460
2435	459
2436	434
2437	468
2438	477
2439	451
2440	490
2441	398
2442	424
2443	453
2444	440
2445	448
2446	434
2447	429
2448	441
2449	444
2450	439
2451	453
2452	459
2453	446
2454	473
2455	463
2456	418
2457	426
2458	453
2459	428
2460	472
2461	424
2462	482
2463	466
2464	436
2465	445
2466	433
2467	453
2468	449
2469	444
2470	473
2471	425
2472	482
2473	452
2474	482
2475	483
2476	424
2477	435
2478	417
2479	442
2480	471
2481	452
2482	422
2483	454
2484	429
2485	450
2486	500
2487	442
2488	470
2489	471
2490	454
2491	481
2492	442
2493	437
2494	429
2495	453
2496	433
2497	427
2498	457
2499	443
2500	454
2501	474
2502	461
2503	451
2504	427
2505	432
2506	455
2507	449
2508	403
2509	456
2510	433
2511	408
2512	444
2513	434
2514	423
2515	430
2516	484
2517	411
2518	404
2519	428
2520	420
2521	472
2522	434
2523	439
2524	459
2525	435
2526	395
2527	431
2528	432
2529	449
2530	426
2531	489
2532	473
2533	461
2534	468
2535	405
2536	437
2537	473
2538	465
2539	450
2540	426
2541	455
2542	429
2543	489
2544	466
2545	482
2546	484
2547	449
2548	481
2549	444
2550	472
2551	441
2552	442
2553	458
2554	447
2555	422
2556	457
2557	466
2558	408
2559	470
2560	493
2561	442
2562	434
2563	463
2564	419
2565	452
2566	470
2567	435
2568	414
2569	479
2570	453
2571	467
2572	431
2573	404
2574	448
2575	444
2576	463
2577	434
2578	447
2579	480
2580	426
2581	413
2582	398
2583	417
2584	462
2585	430
2586	452
2587	434
2588	452
2589	458
2590	434
2591	410
2592	446
2593	482
2594	503
2595	466
2596	438
2597	486
2598	438
2599	455
2600	457
2601	439
2602	437
2603	460
2604	442
2605	426
2606	471
2607	460
2608	447
2609	437
2610	444
2611	430
2612	434
2613	476
2614	436
2615	425
2616	430
2617	420
2618	460
2619	472
2620	448
2621	455
2622	465
2623	432
2624	458
2625	446
2626	465
2627	432
2628	438
2629	416
2630	451
2631	455
2632	439
2633	441
2634	484
2635	451
2636	443
2637	457
2638	458
2639	464
2640	460
2641	494
2642	420
2643	466
2644	473
2645	430
2646	446
2647	445
2648	497
2649	460
2650	457
2651	439
2652	465
2653	425
2654	488
2655	493
2656	415
2657	435
2658	471
2659	434
2660	467
2661	421
2662	441
2663	402
2664	463
2665	445
2666	454
2667	503
2668	452
2669	455
2670	457
2671	438
2672	455
2673	378
2674	468
2675	436
2676	462
2677	458
2678	457
2679	433
2680	418
2681	452
2682	448
2683	457
2684	434
2685	420
2686	426
2687	471
2688	449
2689	421
2690	434
2691	451
2692	417
2693	423
2694	448
2695	433
2696	447
2697	451
2698	456
2699	463
2700	445
2701	392
2702	464
2703	452
2704	460
2705	450
2706	437
2707	470
2708	435
2709	427
2710	500
2711	401
2712	434
2713	433
2714	427
2715	480
2716	441
2717	456
2718	459
2719	462
2720	412
2721	426
2722	467
2723	440
2724	457
2725	433
2726	419
2727	452
2728	464
2729	451
2730	465
2731	458
2732	453
2733	469
2734	442
2735	403
2736	427
2737	467
2738	452
2739	416
2740	426
2741	444
2742	456
2743	408
2744	461
2745	479
2746	471
2747	470
2748	432
2749	464
2750	500
2751	456
2752	451
2753	422
2754	430
2755	442
2756	442
2757	442
2758	446
2759	439
2760	457
2761	475
2762	432
2763	437
2764	419
2765	467
2766	447
2767	457
2768	454
2769	452
2770	424
2771	436
2772	416
2773	400
2774	462
2775	420
2776	478
2777	432
2778	407
2779	451
2780	442
2781	439
2782	436
2783	411
2784	422
2785	412
2786	457
2787	409
2788	386
2789	440
2790	447
2791	411
2792	423
2793	495
2794	459
2795	430
2796	488
2797	454
2798	413
2799	451
2800	459
2801	456
2802	488
2803	463
2804	451
2805	424
2806	448
2807	435
2808	422
2809	484
2810	418
2811	428
2812	467
2813	431
2814	454
2815	433
2816	493
2817	419
2818	437
2819	443
2820	455
2821	414
2822	457
2823	424
2824	444
2825	447
2826	414
2827	476
2828	483
2829	462
2830	397
2831	475
2832	427
2833	434
2834	458
2835	416
2836	467
2837	419
2838	422
2839	440
2840	432
2841	429
2842	415
2843	460
2844	445
2845	427
2846	439
2847	444
2848	433
2849	428
2850	439
2851	459
2852	440
2853	422
2854	425
2855	439
2856	437
2857	446
2858	421
2859	439
2860	421
2861	445
2862	449
2863	423
2864	417
2865	409
2866	424
2867	478
2868	415
2869	453
2870	454
2871	485
2872	413
2873	448
2874	410
2875	412
2876	454
2877	448
2878	476
2879	466
2880	433
2881	453
2882	415
2883	419
2884	460
2885	427
2886	413
2887	429
2888	443
2889	428
2890	444
2891	447
2892	448
2893	437
2894	425
2895	459
2896	432
2897	450
2898	439
2899	483
2900	478
2901	430
2902	461
2903	449
2904	459
2905	429
2906	450
2907	437
2908	419
2909	486
2910	400
2911	451
2912	455
2913	420
2914	441
2915	431
2916	452
2917	469
2918	436
2919	448
2920	442
2921	472
2922	468
2923	454
2924	437
2925	416
2926	430
2927	446
2928	445
2929	406
2930	412
2931	458
2932	440
2933	439
2934	453
2935	405
2936	456
2937	474
2938	435
2939	436
2940	441
2941	479
2942	483
2943	447
2944	402
2945	420
2946	454
2947	429
2948	436
2949	418
2950	439
2951	464
2952	442
2953	438
2954	430
2955	425
2956	410
2957	431
2958	492
2959	436
2960	424
2961	405
2962	460
2963	436
2964	413
2965	426
2966	440
2967	450
2968	410
2969	417
2970	434
2971	425
2972	459
2973	456
2974	454
2975	407
2976	451
2977	435
2978	438
2979	441
2980	429
2981	453
2982	457
2983	441
2984	453
2985	443
2986	430
2987	453
2988	459
2989	425
2990	464
2991	445
2992	442
2993	466
2994	412
2995	447
2996	481
2997	444
2998	436
2999	420
3000	412
3001	425
3002	440
3003	445
3004	449
3005	459
3006	422
3007	460
3008	449
3009	413
3010	426
3011	441
3012	467
3013	449
3014	449
3015	487
3016	407
3017	441
3018	444
3019	448
3020	448
3021	416
3022	426
3023	480
3024	450
3025	423
3026	468
3027	425
3028	423
3029	430
3030	433
3031	430
3032	439
3033	423
3034	436
3035	443
3036	451
3037	456
3038	469
3039	443
3040	434
3041	421
3042	416
3043	457
3044	446
3045	458
3046	419
3047	440
3048	468
3049	433
3050	434
3051	468
3052	422
3053	463
3054	463
3055	427
3056	443
3057	450
3058	417
3059	435
3060	447
3061	482
3062	471
3063	421
3064	410
3065	423
3066	457
3067	437
3068	459
3069	419
3070	454
3071	434
3072	438
3073	442
3074	440
3075	432
3076	442
3077	439
3078	456
3079	466
3080	467
3081	445
3082	442
3083	450
3084	431
3085	427
3086	471
3087	434
3088	443
3089	441
3090	425
3091	445
3092	442
3093	452
3094	454
3095	461
3096	441
3097	405
3098	476
3099	435
3100	454
3101	438
3102	402
3103	449
3104	447
3105	443
3106	467
3107	444
3108	468
3109	403
3110	432
3111	470
3112	418
3113	422
3114	433
3115	428
3116	451
3117	463
3118	416
3119	419
3120	459
3121	412
3122	448
3123	447
3124	433
3125	441
3126	418
3127	452
3128	431
3129	379
3130	425
3131	439
3132	453
3133	433
3134	433
3135	412
3136	412
3137	450
3138	432
3139	441
3140	425
3141	448
3142	411
3143	413
3144	424
3145	400
3146	445
3147	468
3148	439
3149	426
3150	404
3151	472
3152	433
3153	438
3154	441
3155	447
3156	413
3157	431
3158	430
3159	400
3160	451
3161	456
3162	481
3163	428
3164	420
3165	428
3166	404
3167	464
3168	423
3169	435
3170	454
3171	474
3172	449
3173	468
3174	445
3175	434
3176	420
3177	446
3178	430
3179	443
3180	450
3181	437
3182	477
3183	411
3184	438
3185	440
3186	418
3187	438
3188	409
3189	471
3190	445
3191	435
3192	479
3193	436
3194	462
3195	449
3196	467
3197	425
3198	477
3199	464
3200	441
3201	446
3202	435
3203	435
3204	430
3205	437
3206	460
3207	416
3208	446
3209	405
3210	432
3211	474
3212	439
3213	492
3214	449
3215	426
3216	441
3217	473
3218	467
3219	450
3220	429
3221	432
3222	403
3223	439
3224	439
3225	401
3226	459
3227	461
3228	421
3229	360
3230	445
3231	439
3232	466
3233	456
3234	424
3235	478
3236	468
3237	423
3238	436
3239	449
3240	420
3241	420
3242	452
3243	477
3244	411
3245	449
3246	437
3247	429
3248	435
3249	471
3250	457
3251	440
3252	414
3253	426
3254	484
3255	429
3256	424
3257	453
3258	487
3259	449
3260	480
3261	423
3262	462
3263	439
3264	431
3265	378
3266	496
3267	411
3268	427
3269	455
3270	451
3271	449
3272	441
3273	410
3274	421
3275	422
3276	490
3277	434
3278	416
3279	447
3280	476
3281	435
3282	478
3283	436
3284	425
3285	455
3286	434
3287	437
3288	428
3289	443
3290	437
3291	411
3292	436
3293	468
3294	451
3295	437
3296	465
3297	467
3298	426
3299	423
3300	442
3301	377
3302	419
3303	423
3304	442
3305	473
3306	426
3307	382
3308	465
3309	441
3310	438
3311	411
3312	447
3313	428
3314	458
3315	464
3316	451
3317	444
3318	431
3319	429
3320	476
3321	415
3322	441
3323	453
3324	433
3325	435
3326	431
3327	428
3328	409
3329	441
3330	435
3331	424
3332	442
3333	423
3334	435
3335	452
3336	428
3337	445
3338	406
3339	454
3340	421
3341	452
3342	473
3343	440
3344	443
3345	421
3346	470
3347	443
3348	447
3349	474
3350	388
3351	480
3352	455
3353	465
3354	460
3355	479
3356	426
3357	426
3358	437
3359	473
3360	421
3361	469
3362	443
3363	452
3364	439
3365	420
3366	414
3367	405
3368	399
3369	439
3370	391
3371	444
3372	420
3373	423
3374	422
3375	415
3376	456
3377	438
3378	430
3379	431
3380	398
3381	452
3382	414
3383	404
3384	420
3385	447
3386	427
3387	489
3388	429
3389	469
3390	480
3391	398
3392	460
3393	472
3394	439
3395	437
3396	433
3397	448
3398	476
3399	402
3400	450
3401	435
3402	409
3403	451
3404	411
3405	433
3406	459
3407	403
3408	409
3409	453
3410	479
3411	414
3412	448
3413	405
3414	435
3415	419
3416	454
3417	438
3418	442
3419	433
3420	431
3421	398
3422	442
3423	428
3424	435
3425	451
3426	450
3427	423
3428	416
3429	462
3430	447
3431	463
3432	427
3433	415
3434	417
3435	428
3436	377
3437	457
3438	458
3439	419
3440	446
3441	452
3442	430
3443	465
3444	417
3445	404
3446	389
3447	411
3448	421
3449	445
3450	468
3451	435
3452	418
3453	432
3454	448
3455	458
3456	450
3457	427
3458	426
3459	403
3460	463
3461	439
3462	446
3463	428
3464	475
3465	440
3466	419
3467	438
3468	420
3469	442
3470	445
3471	413
3472	447
3473	433
3474	422
3475	407
3476	419
3477	417
3478	427
3479	444
3480	406
3481	463
3482	437
3483	400
3484	419
3485	466
3486	452
3487	433
3488	400
3489	450
3490	446
3491	455
3492	459
3493	396
3494	431
3495	407
3496	434
3497	430
3498	472
3499	420
3500	424
3501	443
3502	418
3503	440
3504	385
3505	406
3506	438
3507	427
3508	442
3509	434
3510	397
3511	447
3512	447
3513	469
3514	418
3515	433
3516	455
3517	421
3518	432
3519	402
3520	449
3521	415
3522	393
3523	434
3524	426
3525	472
3526	444
3527	401
3528	411
3529	451
3530	452
3531	417
3532	433
3533	458
3534	418
3535	448
3536	387
3537	420
3538	423
3539	407
3540	417
3541	469
3542	449
3543	427
3544	396
3545	427
3546	434
3547	444
3548	491
3549	504
3550	421
3551	433
3552	462
3553	415
3554	452
3555	424
3556	423
3557	426
3558	432
3559	439
3560	419
3561	443
3562	467
3563	441
3564	447
3565	422
3566	483
3567	444
3568	413
3569	403
3570	434
3571	422
3572	429
3573	489
3574	406
3575	438
3576	422
3577	459
3578	432
3579	448
3580	468
3581	419
3582	448
3583	423
3584	434
3585	471
3586	433
3587	427
3588	490
3589	433
3590	415
3591	425
3592	416
3593	414
3594	374
3595	428
3596	423
3597	439
3598	444
3599	469
3600	425
3601	437
3602	443
3603	429
3604	471
3605	418
3606	411
3607	457
3608	425
3609	447
3610	405
3611	423
3612	462
3613	444
3614	429
3615	475
3616	451
3617	430
3618	455
3619	442
3620	428
3621	442
3622	401
3623	453
3624	429
3625	413
3626	448
3627	424
3628	470
3629	454
3630	435
3631	441
3632	441
3633	415
3634	420
3635	421
3636	435
3637	430
3638	442
3639	404
3640	430
3641	458
3642	417
3643	413
3644	433
3645	410
3646	428
3647	434
3648	447
3649	419
3650	452
3651	446
3652	408
3653	433
3654	454
3655	411
3656	436
3657	452
3658	422
3659	448
3660	434
3661	419
3662	414
3663	428
3664	444
3665	407
3666	463
3667	459
3668	433
3669	408
3670	450
3671	435
3672	448
3673	416
3674	452
3675	417
3676	448
3677	450
3678	431
3679	405
3680	440
3681	423
3682	457
3683	453
3684	418
3685	429
3686	409
3687	481
3688	477
3689	411
3690	414
3691	464
3692	436
3693	412
3694	407
3695	432
3696	412
3697	417
3698	404
3699	446
3700	488
3701	456
3702	466
3703	444
3704	460
3705	458
3706	436
3707	415
3708	442
3709	450
3710	456
3711	428
3712	504
3713	436
3714	422
3715	394
3716	414
3717	447
3718	398
3719	403
3720	432
3721	463
3722	440
3723	456
3724	440
3725	437
3726	449
3727	431
3728	436
3729	437
3730	446
3731	422
3732	426
3733	403
3734	431
3735	425
3736	452
3737	421
3738	414
3739	437
3740	402
3741	431
3742	458
3743	408
3744	446
3745	470
3746	466
3747	424
3748	421
3749	386
3750	448
3751	429
3752	471
3753	437
3754	454
3755	433
3756	433
3757	407
3758	426
3759	411
3760	439
3761	397
3762	479
3763	427
3764	444
3765	423
3766	470
3767	397
3768	445
3769	402
3770	438
3771	398
3772	429
3773	464
3774	452
3775	438
3776	444
3777	410
3778	425
3779	440
3780	446
3781	420
3782	407
3783	422
3784	485
3785	438
3786	454
3787	440
3788	463
3789	433
3790	453
3791	464
3792	441
3793	466
3794	483
3795	438
3796	395
3797	454
3798	416
3799	449
3800	464
3801	418
3802	437
3803	422
3804	454
3805	399
3806	420
3807	446
3808	423
3809	441
3810	420
3811	454
3812	430
3813	442
3814	421
3815	409
3816	416
3817	478
3818	465
3819	445
3820	441
3821	451
3822	432
3823	440
3824	466
3825	467
3826	427
3827	422
3828	449
3829	442
3830	435
3831	435
3832	418
3833	418
3834	445
3835	438
3836	445
3837	468
3838	431
3839	433
3840	423
3841	447
3842	475
3843	412
3844	420
3845	401
3846	445
3847	417
3848	454
3849	464
3850	448
3851	407
3852	422
3853	457
3854	423
3855	446
3856	458
3857	427
3858	400
3859	440
3860	401
3861	429
3862	448
3863	457
3864	426
3865	418
3866	459
3867	405
3868	463
3869	443
3870	432
3871	454
3872	457
3873	439
3874	408
3875	418
3876	390
3877	431
3878	445
3879	414
3880	424
3881	486
3882	409
3883	437
3884	424
3885	422
3886	433
3887	434
3888	430
3889	430
3890	418
3891	428
3892	433
3893	454
3894	437
3895	430
3896	425
3897	414
3898	427
3899	415
3900	455
3901	432
3902	418
3903	443
3904	456
3905	389
3906	432
3907	411
3908	458
3909	389
3910	378
3911	411
3912	404
3913	415
3914	433
3915	408
3916	427
3917	425
3918	435
3919	419
3920	447
3921	446
3922	446
3923	415
3924	461
3925	409
3926	422
3927	395
3928	408
3929	403
3930	442
3931	430
3932	450
3933	473
3934	450
3935	431
3936	430
3937	432
3938	452
3939	428
3940	436
3941	436
3942	410
3943	429
3944	394
3945	435
3946	472
3947	418
3948	416
3949	420
3950	460
3951	411
3952	407
3953	447
3954	475
3955	453
3956	429
3957	470
3958	427
3959	446
3960	399
3961	432
3962	432
3963	413
3964	462
3965	400
3966	446
3967	452
3968	443
3969	443
3970	431
3971	444
3972	407
3973	427
3974	404
3975	397
3976	449
3977	424
3978	450
3979	434
3980	407
3981	426
3982	433
3983	412
3984	422
3985	436
3986	397
3987	452
3988	444
3989	424
3990	448
3991	453
3992	461
3993	426
3994	426
3995	424
3996	427
3997	417
3998	442
3999	449
4000	462
4001	409
4002	430
4003	414
4004	414
4005	425
4006	428
4007	436
4008	427
4009	410
4010	433
4011	415
4012	417
4013	422
4014	431
4015	463
4016	455
4017	449
4018	418
4019	457
4020	453
4021	460
4022	416
4023	462
4024	442
4025	418
4026	419
4027	445
4028	443
4029	0
4030	0
4031	0
4032	0
4033	0
4034	0
4035	0
4036	0
4037	0
4038	0
4039	0
4040	0
4041	0
4042	0
4043	0
4044	0
4045	0
4046	0
4047	0
4048	0
4049	0
4050	0
4051	0
4052	0
4053	0
4054	0
4055	0
4056	0
4057	0
4058	0
4059	0
4060	0
4061	0
4062	0
4063	0
4064	0
4065	0
4066	0
4067	0
4068	0
4069	0
4070	0
4071	0
4072	0
4073	0
4074	0
4075	0
4076	0
4077	0
4078	0
4079	0
4080	0
4081	0
4082	0
4083	0
4084	0
4085	0
4086	0
4087	0
4088	0
4089	0
4090	0
4091	0
4092	0
4093	0
4094	0
4095	0
4096	0
