<?xml version="1.0" encoding="utf-8" standalone="no"?>
<!DOCTYPE svg PUBLIC "-//W3C//DTD SVG 1.1//EN"
  "http://www.w3.org/Graphics/SVG/1.1/DTD/svg11.dtd">
<!-- Created with matplotlib (http://matplotlib.org/) -->
<svg height="720pt" version="1.1" viewBox="0 0 720 720" width="720pt" xmlns="http://www.w3.org/2000/svg" xmlns:xlink="http://www.w3.org/1999/xlink">
 <defs>
  <style type="text/css">
*{stroke-linecap:butt;stroke-linejoin:round;}
  </style>
 </defs>
 <g id="figure_1">
  <g id="patch_1">
   <path d="M 0 720 
L 720 720 
L 720 0 
L 0 0 
z
" style="fill:#ffffff;"/>
  </g>
  <g id="patch_2">
   <path d="M 36 684 
L 684 684 
L 684 36 
L 36 36 
z
" style="fill:#ffffff;"/>
  </g>
  <g id="pane3d_1">
   <g id="patch_3">
    <path d="M 121.902413 540.814837 
L 307.363404 381.93992 
L 304.275675 78.356028 
L 108.474019 221.101874 
" style="fill:#f2f2f2;opacity:0.5;stroke:#f2f2f2;stroke-linejoin:miter;"/>
   </g>
  </g>
  <g id="pane3d_2">
   <g id="patch_4">
    <path d="M 307.363404 381.93992 
L 607.792772 470.761251 
L 620.362376 158.022911 
L 304.275675 78.356028 
" style="fill:#e6e6e6;opacity:0.5;stroke:#e6e6e6;stroke-linejoin:miter;"/>
   </g>
  </g>
  <g id="pane3d_3">
   <g id="patch_5">
    <path d="M 121.902413 540.814837 
L 437.994703 644.26175 
L 607.792772 470.761251 
L 307.363404 381.93992 
" style="fill:#ececec;opacity:0.5;stroke:#ececec;stroke-linejoin:miter;"/>
   </g>
  </g>
  <g id="axis3d_1">
   <g id="line2d_1">
    <path d="M 121.902413 540.814837 
L 437.994703 644.26175 
" style="fill:none;stroke:#000000;stroke-linecap:square;stroke-width:0.8;"/>
   </g>
   <g id="text_1">
    <!-- Energy (meV) -->
    <defs>
     <path d="M 9.1875 72.90625 
L 59.90625 72.90625 
L 59.90625 58.6875 
L 27.984375 58.6875 
L 27.984375 45.125 
L 58.015625 45.125 
L 58.015625 30.90625 
L 27.984375 30.90625 
L 27.984375 14.203125 
L 60.984375 14.203125 
L 60.984375 0 
L 9.1875 0 
z
" id="DejaVuSans-Bold-45"/>
     <path d="M 63.375 33.296875 
L 63.375 0 
L 45.796875 0 
L 45.796875 5.421875 
L 45.796875 25.484375 
Q 45.796875 32.5625 45.484375 35.25 
Q 45.171875 37.9375 44.390625 39.203125 
Q 43.359375 40.921875 41.59375 41.875 
Q 39.84375 42.828125 37.59375 42.828125 
Q 32.125 42.828125 29 38.59375 
Q 25.875 34.375 25.875 26.90625 
L 25.875 0 
L 8.40625 0 
L 8.40625 54.6875 
L 25.875 54.6875 
L 25.875 46.6875 
Q 29.828125 51.46875 34.265625 53.734375 
Q 38.71875 56 44.09375 56 
Q 53.5625 56 58.46875 50.1875 
Q 63.375 44.390625 63.375 33.296875 
z
" id="DejaVuSans-Bold-6e"/>
     <path d="M 62.984375 27.484375 
L 62.984375 22.515625 
L 22.125 22.515625 
Q 22.75 16.359375 26.5625 13.28125 
Q 30.375 10.203125 37.203125 10.203125 
Q 42.71875 10.203125 48.5 11.84375 
Q 54.296875 13.484375 60.40625 16.796875 
L 60.40625 3.328125 
Q 54.203125 0.984375 48 -0.21875 
Q 41.796875 -1.421875 35.59375 -1.421875 
Q 20.75 -1.421875 12.515625 6.125 
Q 4.296875 13.671875 4.296875 27.296875 
Q 4.296875 40.671875 12.375 48.328125 
Q 20.453125 56 34.625 56 
Q 47.515625 56 55.25 48.234375 
Q 62.984375 40.484375 62.984375 27.484375 
z
M 45.015625 33.296875 
Q 45.015625 38.28125 42.109375 41.328125 
Q 39.203125 44.390625 34.515625 44.390625 
Q 29.4375 44.390625 26.265625 41.53125 
Q 23.09375 38.671875 22.3125 33.296875 
z
" id="DejaVuSans-Bold-65"/>
     <path d="M 49.03125 39.796875 
Q 46.734375 40.875 44.453125 41.375 
Q 42.1875 41.890625 39.890625 41.890625 
Q 33.15625 41.890625 29.515625 37.5625 
Q 25.875 33.25 25.875 25.203125 
L 25.875 0 
L 8.40625 0 
L 8.40625 54.6875 
L 25.875 54.6875 
L 25.875 45.703125 
Q 29.25 51.078125 33.609375 53.53125 
Q 37.984375 56 44.09375 56 
Q 44.96875 56 45.984375 55.921875 
Q 47.015625 55.859375 48.96875 55.609375 
z
" id="DejaVuSans-Bold-72"/>
     <path d="M 45.609375 9.28125 
Q 42 4.5 37.640625 2.25 
Q 33.296875 0 27.59375 0 
Q 17.578125 0 11.03125 7.875 
Q 4.5 15.765625 4.5 27.984375 
Q 4.5 40.234375 11.03125 48.0625 
Q 17.578125 55.90625 27.59375 55.90625 
Q 33.296875 55.90625 37.640625 53.65625 
Q 42 51.421875 45.609375 46.578125 
L 45.609375 54.6875 
L 63.1875 54.6875 
L 63.1875 5.515625 
Q 63.1875 -7.671875 54.859375 -14.625 
Q 46.53125 -21.578125 30.71875 -21.578125 
Q 25.59375 -21.578125 20.796875 -20.796875 
Q 16.015625 -20.015625 11.1875 -18.40625 
L 11.1875 -4.78125 
Q 15.765625 -7.421875 20.15625 -8.71875 
Q 24.5625 -10.015625 29 -10.015625 
Q 37.59375 -10.015625 41.59375 -6.25 
Q 45.609375 -2.484375 45.609375 5.515625 
z
M 34.078125 43.3125 
Q 28.65625 43.3125 25.625 39.296875 
Q 22.609375 35.296875 22.609375 27.984375 
Q 22.609375 20.453125 25.53125 16.578125 
Q 28.46875 12.703125 34.078125 12.703125 
Q 39.546875 12.703125 42.578125 16.703125 
Q 45.609375 20.703125 45.609375 27.984375 
Q 45.609375 35.296875 42.578125 39.296875 
Q 39.546875 43.3125 34.078125 43.3125 
z
" id="DejaVuSans-Bold-67"/>
     <path d="M 1.21875 54.6875 
L 18.703125 54.6875 
L 33.40625 17.578125 
L 45.90625 54.6875 
L 63.375 54.6875 
L 40.375 -5.171875 
Q 36.921875 -14.3125 32.296875 -17.9375 
Q 27.6875 -21.578125 20.125 -21.578125 
L 10.015625 -21.578125 
L 10.015625 -10.109375 
L 15.484375 -10.109375 
Q 19.921875 -10.109375 21.9375 -8.6875 
Q 23.96875 -7.28125 25.09375 -3.609375 
L 25.59375 -2.09375 
z
" id="DejaVuSans-Bold-79"/>
     <path id="DejaVuSans-Bold-20"/>
     <path d="M 37.703125 -13.1875 
L 23.1875 -13.1875 
Q 15.71875 -1.125 12.15625 9.734375 
Q 8.59375 20.609375 8.59375 31.296875 
Q 8.59375 42 12.171875 52.953125 
Q 15.765625 63.921875 23.1875 75.875 
L 37.703125 75.875 
Q 31.453125 64.3125 28.328125 53.25 
Q 25.203125 42.1875 25.203125 31.390625 
Q 25.203125 20.609375 28.296875 9.515625 
Q 31.390625 -1.5625 37.703125 -13.1875 
z
" id="DejaVuSans-Bold-28"/>
     <path d="M 59.078125 45.609375 
Q 62.40625 50.6875 66.96875 53.34375 
Q 71.53125 56 77 56 
Q 86.421875 56 91.359375 50.1875 
Q 96.296875 44.390625 96.296875 33.296875 
L 96.296875 0 
L 78.71875 0 
L 78.71875 28.515625 
Q 78.765625 29.15625 78.78125 29.828125 
Q 78.8125 30.515625 78.8125 31.78125 
Q 78.8125 37.59375 77.09375 40.203125 
Q 75.390625 42.828125 71.578125 42.828125 
Q 66.609375 42.828125 63.890625 38.71875 
Q 61.1875 34.625 61.078125 26.859375 
L 61.078125 0 
L 43.5 0 
L 43.5 28.515625 
Q 43.5 37.59375 41.9375 40.203125 
Q 40.375 42.828125 36.375 42.828125 
Q 31.34375 42.828125 28.609375 38.703125 
Q 25.875 34.578125 25.875 26.90625 
L 25.875 0 
L 8.296875 0 
L 8.296875 54.6875 
L 25.875 54.6875 
L 25.875 46.6875 
Q 29.109375 51.3125 33.28125 53.65625 
Q 37.453125 56 42.484375 56 
Q 48.140625 56 52.484375 53.265625 
Q 56.84375 50.53125 59.078125 45.609375 
z
" id="DejaVuSans-Bold-6d"/>
     <path d="M 0.484375 72.90625 
L 19.390625 72.90625 
L 38.71875 19.09375 
L 58.015625 72.90625 
L 76.90625 72.90625 
L 49.90625 0 
L 27.484375 0 
z
" id="DejaVuSans-Bold-56"/>
     <path d="M 8.015625 -13.1875 
Q 14.265625 -1.5625 17.390625 9.515625 
Q 20.515625 20.609375 20.515625 31.390625 
Q 20.515625 42.1875 17.390625 53.25 
Q 14.265625 64.3125 8.015625 75.875 
L 22.515625 75.875 
Q 29.9375 63.921875 33.515625 52.953125 
Q 37.109375 42 37.109375 31.296875 
Q 37.109375 20.609375 33.546875 9.734375 
Q 29.984375 -1.125 22.515625 -13.1875 
z
" id="DejaVuSans-Bold-29"/>
    </defs>
    <g transform="translate(187.658654 608.708901)rotate(-341.878381)scale(0.2 -0.2)">
     <use xlink:href="#DejaVuSans-Bold-45"/>
     <use x="68.310547" xlink:href="#DejaVuSans-Bold-6e"/>
     <use x="139.501953" xlink:href="#DejaVuSans-Bold-65"/>
     <use x="207.324219" xlink:href="#DejaVuSans-Bold-72"/>
     <use x="256.640625" xlink:href="#DejaVuSans-Bold-67"/>
     <use x="328.222656" xlink:href="#DejaVuSans-Bold-79"/>
     <use x="393.408203" xlink:href="#DejaVuSans-Bold-20"/>
     <use x="428.222656" xlink:href="#DejaVuSans-Bold-28"/>
     <use x="473.925781" xlink:href="#DejaVuSans-Bold-6d"/>
     <use x="578.125" xlink:href="#DejaVuSans-Bold-65"/>
     <use x="645.947266" xlink:href="#DejaVuSans-Bold-56"/>
     <use x="723.339844" xlink:href="#DejaVuSans-Bold-29"/>
    </g>
   </g>
   <g id="Line3DCollection_1">
    <path d="M 127.947203 542.793104 
L 313.127594 383.644091 
L 310.327331 79.881295 
" style="fill:none;stroke:#b0b0b0;stroke-width:0.8;"/>
    <path d="M 164.444236 554.737417 
L 347.914703 393.928829 
L 346.860038 89.089044 
" style="fill:none;stroke:#b0b0b0;stroke-width:0.8;"/>
    <path d="M 201.33723 566.811316 
L 383.051818 404.317045 
L 383.779012 98.394148 
" style="fill:none;stroke:#b0b0b0;stroke-width:0.8;"/>
    <path d="M 238.632665 579.016921 
L 418.544248 414.81031 
L 421.090412 107.798159 
" style="fill:none;stroke:#b0b0b0;stroke-width:0.8;"/>
    <path d="M 276.33716 591.356398 
L 454.39741 425.410224 
L 458.800528 117.302663 
" style="fill:none;stroke:#b0b0b0;stroke-width:0.8;"/>
    <path d="M 314.457484 603.831963 
L 490.61683 436.118422 
L 496.915786 126.90928 
" style="fill:none;stroke:#b0b0b0;stroke-width:0.8;"/>
    <path d="M 353.000554 616.445879 
L 527.208152 446.936572 
L 535.442749 136.619663 
" style="fill:none;stroke:#b0b0b0;stroke-width:0.8;"/>
    <path d="M 391.97344 629.20046 
L 564.177131 457.866375 
L 574.388126 146.435504 
" style="fill:none;stroke:#b0b0b0;stroke-width:0.8;"/>
    <path d="M 431.383373 642.098072 
L 601.529645 468.90957 
L 613.758768 156.358529 
" style="fill:none;stroke:#b0b0b0;stroke-width:0.8;"/>
   </g>
   <g id="xtick_1">
    <g id="line2d_2">
     <path d="M 129.542405 541.422144 
L 124.750861 545.540126 
" style="fill:none;stroke:#000000;stroke-linecap:square;stroke-width:0.8;"/>
    </g>
    <g id="text_2">
     <!-- −10.0 -->
     <defs>
      <path d="M 10.59375 35.5 
L 73.1875 35.5 
L 73.1875 27.203125 
L 10.59375 27.203125 
z
" id="DejaVuSans-2212"/>
      <path d="M 12.40625 8.296875 
L 28.515625 8.296875 
L 28.515625 63.921875 
L 10.984375 60.40625 
L 10.984375 69.390625 
L 28.421875 72.90625 
L 38.28125 72.90625 
L 38.28125 8.296875 
L 54.390625 8.296875 
L 54.390625 0 
L 12.40625 0 
z
" id="DejaVuSans-31"/>
      <path d="M 31.78125 66.40625 
Q 24.171875 66.40625 20.328125 58.90625 
Q 16.5 51.421875 16.5 36.375 
Q 16.5 21.390625 20.328125 13.890625 
Q 24.171875 6.390625 31.78125 6.390625 
Q 39.453125 6.390625 43.28125 13.890625 
Q 47.125 21.390625 47.125 36.375 
Q 47.125 51.421875 43.28125 58.90625 
Q 39.453125 66.40625 31.78125 66.40625 
z
M 31.78125 74.21875 
Q 44.046875 74.21875 50.515625 64.515625 
Q 56.984375 54.828125 56.984375 36.375 
Q 56.984375 17.96875 50.515625 8.265625 
Q 44.046875 -1.421875 31.78125 -1.421875 
Q 19.53125 -1.421875 13.0625 8.265625 
Q 6.59375 17.96875 6.59375 36.375 
Q 6.59375 54.828125 13.0625 64.515625 
Q 19.53125 74.21875 31.78125 74.21875 
z
" id="DejaVuSans-30"/>
      <path d="M 10.6875 12.40625 
L 21 12.40625 
L 21 0 
L 10.6875 0 
z
" id="DejaVuSans-2e"/>
     </defs>
     <g transform="translate(90.921394 574.184766)scale(0.2 -0.2)">
      <use xlink:href="#DejaVuSans-2212"/>
      <use x="83.789062" xlink:href="#DejaVuSans-31"/>
      <use x="147.412109" xlink:href="#DejaVuSans-30"/>
      <use x="211.035156" xlink:href="#DejaVuSans-2e"/>
      <use x="242.822266" xlink:href="#DejaVuSans-30"/>
     </g>
    </g>
   </g>
   <g id="xtick_2">
    <g id="line2d_3">
     <path d="M 166.025316 553.351629 
L 161.276159 557.51418 
" style="fill:none;stroke:#000000;stroke-linecap:square;stroke-width:0.8;"/>
    </g>
    <g id="text_3">
     <!-- −7.5 -->
     <defs>
      <path d="M 8.203125 72.90625 
L 55.078125 72.90625 
L 55.078125 68.703125 
L 28.609375 0 
L 18.3125 0 
L 43.21875 64.59375 
L 8.203125 64.59375 
z
" id="DejaVuSans-37"/>
      <path d="M 10.796875 72.90625 
L 49.515625 72.90625 
L 49.515625 64.59375 
L 19.828125 64.59375 
L 19.828125 46.734375 
Q 21.96875 47.46875 24.109375 47.828125 
Q 26.265625 48.1875 28.421875 48.1875 
Q 40.625 48.1875 47.75 41.5 
Q 54.890625 34.8125 54.890625 23.390625 
Q 54.890625 11.625 47.5625 5.09375 
Q 40.234375 -1.421875 26.90625 -1.421875 
Q 22.3125 -1.421875 17.546875 -0.640625 
Q 12.796875 0.140625 7.71875 1.703125 
L 7.71875 11.625 
Q 12.109375 9.234375 16.796875 8.0625 
Q 21.484375 6.890625 26.703125 6.890625 
Q 35.15625 6.890625 40.078125 11.328125 
Q 45.015625 15.765625 45.015625 23.390625 
Q 45.015625 31 40.078125 35.4375 
Q 35.15625 39.890625 26.703125 39.890625 
Q 22.75 39.890625 18.8125 39.015625 
Q 14.890625 38.140625 10.796875 36.28125 
z
" id="DejaVuSans-35"/>
     </defs>
     <g transform="translate(133.778782 586.227106)scale(0.2 -0.2)">
      <use xlink:href="#DejaVuSans-2212"/>
      <use x="83.789062" xlink:href="#DejaVuSans-37"/>
      <use x="147.412109" xlink:href="#DejaVuSans-2e"/>
      <use x="179.199219" xlink:href="#DejaVuSans-35"/>
     </g>
    </g>
   </g>
   <g id="xtick_3">
    <g id="line2d_4">
     <path d="M 202.903787 565.410457 
L 198.198221 569.618305 
" style="fill:none;stroke:#000000;stroke-linecap:square;stroke-width:0.8;"/>
    </g>
    <g id="text_4">
     <!-- −5.0 -->
     <g transform="translate(170.66996 598.400212)scale(0.2 -0.2)">
      <use xlink:href="#DejaVuSans-2212"/>
      <use x="83.789062" xlink:href="#DejaVuSans-35"/>
      <use x="147.412109" xlink:href="#DejaVuSans-2e"/>
      <use x="179.199219" xlink:href="#DejaVuSans-30"/>
     </g>
    </g>
   </g>
   <g id="xtick_4">
    <g id="line2d_5">
     <path d="M 240.184287 577.600744 
L 235.52355 581.854633 
" style="fill:none;stroke:#000000;stroke-linecap:square;stroke-width:0.8;"/>
    </g>
    <g id="text_5">
     <!-- −2.5 -->
     <defs>
      <path d="M 19.1875 8.296875 
L 53.609375 8.296875 
L 53.609375 0 
L 7.328125 0 
L 7.328125 8.296875 
Q 12.9375 14.109375 22.625 23.890625 
Q 32.328125 33.6875 34.8125 36.53125 
Q 39.546875 41.84375 41.421875 45.53125 
Q 43.3125 49.21875 43.3125 52.78125 
Q 43.3125 58.59375 39.234375 62.25 
Q 35.15625 65.921875 28.609375 65.921875 
Q 23.96875 65.921875 18.8125 64.3125 
Q 13.671875 62.703125 7.8125 59.421875 
L 7.8125 69.390625 
Q 13.765625 71.78125 18.9375 73 
Q 24.125 74.21875 28.421875 74.21875 
Q 39.75 74.21875 46.484375 68.546875 
Q 53.21875 62.890625 53.21875 53.421875 
Q 53.21875 48.921875 51.53125 44.890625 
Q 49.859375 40.875 45.40625 35.40625 
Q 44.1875 33.984375 37.640625 27.21875 
Q 31.109375 20.453125 19.1875 8.296875 
z
" id="DejaVuSans-32"/>
     </defs>
     <g transform="translate(207.963919 610.706225)scale(0.2 -0.2)">
      <use xlink:href="#DejaVuSans-2212"/>
      <use x="83.789062" xlink:href="#DejaVuSans-32"/>
      <use x="147.412109" xlink:href="#DejaVuSans-2e"/>
      <use x="179.199219" xlink:href="#DejaVuSans-35"/>
     </g>
    </g>
   </g>
   <g id="xtick_5">
    <g id="line2d_6">
     <path d="M 277.873425 589.924651 
L 273.258786 594.22534 
" style="fill:none;stroke:#000000;stroke-linecap:square;stroke-width:0.8;"/>
    </g>
    <g id="text_6">
     <!-- 0.0 -->
     <g transform="translate(254.046979 623.147333)scale(0.2 -0.2)">
      <use xlink:href="#DejaVuSans-30"/>
      <use x="63.623047" xlink:href="#DejaVuSans-2e"/>
      <use x="95.410156" xlink:href="#DejaVuSans-30"/>
     </g>
    </g>
   </g>
   <g id="xtick_6">
    <g id="line2d_7">
     <path d="M 315.977958 602.384387 
L 311.41072 606.732652 
" style="fill:none;stroke:#000000;stroke-linecap:square;stroke-width:0.8;"/>
    </g>
    <g id="text_7">
     <!-- 2.5 -->
     <g transform="translate(292.166543 635.725774)scale(0.2 -0.2)">
      <use xlink:href="#DejaVuSans-32"/>
      <use x="63.623047" xlink:href="#DejaVuSans-2e"/>
      <use x="95.410156" xlink:href="#DejaVuSans-35"/>
     </g>
    </g>
   </g>
   <g id="xtick_7">
    <g id="line2d_8">
     <path d="M 354.504791 614.98221 
L 349.986293 619.378846 
" style="fill:none;stroke:#000000;stroke-linecap:square;stroke-width:0.8;"/>
    </g>
    <g id="text_8">
     <!-- 5.0 -->
     <g transform="translate(330.709229 648.443833)scale(0.2 -0.2)">
      <use xlink:href="#DejaVuSans-35"/>
      <use x="63.623047" xlink:href="#DejaVuSans-2e"/>
      <use x="95.410156" xlink:href="#DejaVuSans-30"/>
     </g>
    </g>
   </g>
   <g id="xtick_8">
    <g id="line2d_9">
     <path d="M 393.460983 627.720429 
L 388.9926 632.166247 
" style="fill:none;stroke:#000000;stroke-linecap:square;stroke-width:0.8;"/>
    </g>
    <g id="text_9">
     <!-- 7.5 -->
     <g transform="translate(369.682121 661.303849)scale(0.2 -0.2)">
      <use xlink:href="#DejaVuSans-37"/>
      <use x="63.623047" xlink:href="#DejaVuSans-2e"/>
      <use x="95.410156" xlink:href="#DejaVuSans-35"/>
     </g>
    </g>
   </g>
   <g id="xtick_9">
    <g id="line2d_10">
     <path d="M 432.853752 640.601403 
L 428.436896 645.097233 
" style="fill:none;stroke:#000000;stroke-linecap:square;stroke-width:0.8;"/>
    </g>
    <g id="text_10">
     <!-- 10.0 -->
     <g transform="translate(402.729962 674.308211)scale(0.2 -0.2)">
      <use xlink:href="#DejaVuSans-31"/>
      <use x="63.623047" xlink:href="#DejaVuSans-30"/>
      <use x="127.246094" xlink:href="#DejaVuSans-2e"/>
      <use x="159.033203" xlink:href="#DejaVuSans-30"/>
     </g>
    </g>
   </g>
  </g>
  <g id="axis3d_2">
   <g id="line2d_11">
    <path d="M 607.792772 470.761251 
L 437.994703 644.26175 
" style="fill:none;stroke:#000000;stroke-linecap:square;stroke-width:0.8;"/>
   </g>
   <g id="text_11">
    <!-- Q ($\bf{A^{-1}}$) -->
    <defs>
     <path d="M 44.484375 -1.3125 
L 43.015625 -1.3125 
Q 25 -1.3125 14.984375 8.640625 
Q 4.984375 18.609375 4.984375 36.375 
Q 4.984375 54.109375 14.96875 64.15625 
Q 24.953125 74.21875 42.484375 74.21875 
Q 60.203125 74.21875 70.09375 64.25 
Q 79.984375 54.296875 79.984375 36.375 
Q 79.984375 24.078125 74.734375 15.1875 
Q 69.484375 6.296875 59.625 1.8125 
L 74.3125 -14.59375 
L 56.390625 -14.59375 
z
M 42.484375 60.59375 
Q 33.890625 60.59375 29.15625 54.25 
Q 24.421875 47.90625 24.421875 36.375 
Q 24.421875 24.65625 29.046875 18.421875 
Q 33.6875 12.203125 42.484375 12.203125 
Q 51.125 12.203125 55.859375 18.546875 
Q 60.59375 24.90625 60.59375 36.375 
Q 60.59375 47.90625 55.859375 54.25 
Q 51.125 60.59375 42.484375 60.59375 
z
" id="DejaVuSans-Bold-51"/>
     <path d="M 53.421875 13.28125 
L 24.03125 13.28125 
L 19.390625 0 
L 0.484375 0 
L 27.484375 72.90625 
L 49.90625 72.90625 
L 76.90625 0 
L 58.015625 0 
z
M 28.71875 26.8125 
L 48.6875 26.8125 
L 38.71875 55.8125 
z
" id="DejaVuSans-Bold-41"/>
     <path d="M 10.59375 37.109375 
L 73.1875 37.109375 
L 73.1875 25.59375 
L 10.59375 25.59375 
z
" id="DejaVuSans-Bold-2212"/>
     <path d="M 11.71875 12.984375 
L 28.328125 12.984375 
L 28.328125 60.109375 
L 11.28125 56.59375 
L 11.28125 69.390625 
L 28.21875 72.90625 
L 46.09375 72.90625 
L 46.09375 12.984375 
L 62.703125 12.984375 
L 62.703125 0 
L 11.71875 0 
z
" id="DejaVuSans-Bold-31"/>
    </defs>
    <g transform="translate(525.984215 617.095191)rotate(-45.617904)scale(0.2 -0.2)">
     <use transform="translate(0 0.684375)" xlink:href="#DejaVuSans-Bold-51"/>
     <use transform="translate(85.009766 0.684375)" xlink:href="#DejaVuSans-Bold-20"/>
     <use transform="translate(119.824219 0.684375)" xlink:href="#DejaVuSans-Bold-28"/>
     <use transform="translate(165.527344 0.684375)" xlink:href="#DejaVuSans-Bold-41"/>
     <use transform="translate(243.876953 38.965625)scale(0.7)" xlink:href="#DejaVuSans-Bold-2212"/>
     <use transform="translate(302.529297 38.965625)scale(0.7)" xlink:href="#DejaVuSans-Bold-31"/>
     <use transform="translate(353.969727 0.684375)" xlink:href="#DejaVuSans-Bold-29"/>
    </g>
   </g>
   <g id="Line3DCollection_2">
    <path d="M 133.263336 203.029647 
L 145.302702 520.76901 
L 459.481607 622.306326 
" style="fill:none;stroke:#b0b0b0;stroke-width:0.8;"/>
    <path d="M 155.729159 186.651323 
L 166.529628 502.584992 
L 478.957117 602.406155 
" style="fill:none;stroke:#b0b0b0;stroke-width:0.8;"/>
    <path d="M 177.805707 170.556794 
L 187.40724 484.700212 
L 498.097542 582.848374 
" style="fill:none;stroke:#b0b0b0;stroke-width:0.8;"/>
    <path d="M 199.503011 154.738746 
L 207.944091 467.107345 
L 516.911459 563.624222 
" style="fill:none;stroke:#b0b0b0;stroke-width:0.8;"/>
    <path d="M 220.83076 139.190115 
L 228.148456 449.799302 
L 535.40715 544.725234 
" style="fill:none;stroke:#b0b0b0;stroke-width:0.8;"/>
    <path d="M 241.798316 123.904078 
L 248.028345 432.769221 
L 553.592621 526.14323 
" style="fill:none;stroke:#b0b0b0;stroke-width:0.8;"/>
    <path d="M 262.414727 108.874036 
L 267.591511 416.01046 
L 571.475613 507.870301 
" style="fill:none;stroke:#b0b0b0;stroke-width:0.8;"/>
    <path d="M 282.688741 94.093613 
L 286.845463 399.516587 
L 589.063611 489.898799 
" style="fill:none;stroke:#b0b0b0;stroke-width:0.8;"/>
   </g>
   <g id="xtick_10">
    <g id="line2d_12">
     <path d="M 456.852714 621.456712 
L 464.745244 624.007444 
" style="fill:none;stroke:#000000;stroke-linecap:square;stroke-width:0.8;"/>
    </g>
    <g id="text_12">
     <!-- 0.4 -->
     <defs>
      <path d="M 37.796875 64.3125 
L 12.890625 25.390625 
L 37.796875 25.390625 
z
M 35.203125 72.90625 
L 47.609375 72.90625 
L 47.609375 25.390625 
L 58.015625 25.390625 
L 58.015625 17.1875 
L 47.609375 17.1875 
L 47.609375 0 
L 37.796875 0 
L 37.796875 17.1875 
L 4.890625 17.1875 
L 4.890625 26.703125 
z
" id="DejaVuSans-34"/>
     </defs>
     <g transform="translate(454.611712 651.683817)scale(0.2 -0.2)">
      <use xlink:href="#DejaVuSans-30"/>
      <use x="63.623047" xlink:href="#DejaVuSans-2e"/>
      <use x="95.410156" xlink:href="#DejaVuSans-34"/>
     </g>
    </g>
   </g>
   <g id="xtick_11">
    <g id="line2d_13">
     <path d="M 476.343874 601.571219 
L 484.189366 604.077868 
" style="fill:none;stroke:#000000;stroke-linecap:square;stroke-width:0.8;"/>
    </g>
    <g id="text_13">
     <!-- 0.6 -->
     <defs>
      <path d="M 33.015625 40.375 
Q 26.375 40.375 22.484375 35.828125 
Q 18.609375 31.296875 18.609375 23.390625 
Q 18.609375 15.53125 22.484375 10.953125 
Q 26.375 6.390625 33.015625 6.390625 
Q 39.65625 6.390625 43.53125 10.953125 
Q 47.40625 15.53125 47.40625 23.390625 
Q 47.40625 31.296875 43.53125 35.828125 
Q 39.65625 40.375 33.015625 40.375 
z
M 52.59375 71.296875 
L 52.59375 62.3125 
Q 48.875 64.0625 45.09375 64.984375 
Q 41.3125 65.921875 37.59375 65.921875 
Q 27.828125 65.921875 22.671875 59.328125 
Q 17.53125 52.734375 16.796875 39.40625 
Q 19.671875 43.65625 24.015625 45.921875 
Q 28.375 48.1875 33.59375 48.1875 
Q 44.578125 48.1875 50.953125 41.515625 
Q 57.328125 34.859375 57.328125 23.390625 
Q 57.328125 12.15625 50.6875 5.359375 
Q 44.046875 -1.421875 33.015625 -1.421875 
Q 20.359375 -1.421875 13.671875 8.265625 
Q 6.984375 17.96875 6.984375 36.375 
Q 6.984375 53.65625 15.1875 63.9375 
Q 23.390625 74.21875 37.203125 74.21875 
Q 40.921875 74.21875 44.703125 73.484375 
Q 48.484375 72.75 52.59375 71.296875 
z
" id="DejaVuSans-36"/>
     </defs>
     <g transform="translate(473.986792 631.665442)scale(0.2 -0.2)">
      <use xlink:href="#DejaVuSans-30"/>
      <use x="63.623047" xlink:href="#DejaVuSans-2e"/>
      <use x="95.410156" xlink:href="#DejaVuSans-36"/>
     </g>
    </g>
   </g>
   <g id="xtick_12">
    <g id="line2d_14">
     <path d="M 495.499804 582.027739 
L 503.298701 584.491438 
" style="fill:none;stroke:#000000;stroke-linecap:square;stroke-width:0.8;"/>
    </g>
    <g id="text_14">
     <!-- 0.8 -->
     <defs>
      <path d="M 31.78125 34.625 
Q 24.75 34.625 20.71875 30.859375 
Q 16.703125 27.09375 16.703125 20.515625 
Q 16.703125 13.921875 20.71875 10.15625 
Q 24.75 6.390625 31.78125 6.390625 
Q 38.8125 6.390625 42.859375 10.171875 
Q 46.921875 13.96875 46.921875 20.515625 
Q 46.921875 27.09375 42.890625 30.859375 
Q 38.875 34.625 31.78125 34.625 
z
M 21.921875 38.8125 
Q 15.578125 40.375 12.03125 44.71875 
Q 8.5 49.078125 8.5 55.328125 
Q 8.5 64.0625 14.71875 69.140625 
Q 20.953125 74.21875 31.78125 74.21875 
Q 42.671875 74.21875 48.875 69.140625 
Q 55.078125 64.0625 55.078125 55.328125 
Q 55.078125 49.078125 51.53125 44.71875 
Q 48 40.375 41.703125 38.8125 
Q 48.828125 37.15625 52.796875 32.3125 
Q 56.78125 27.484375 56.78125 20.515625 
Q 56.78125 9.90625 50.3125 4.234375 
Q 43.84375 -1.421875 31.78125 -1.421875 
Q 19.734375 -1.421875 13.25 4.234375 
Q 6.78125 9.90625 6.78125 20.515625 
Q 6.78125 27.484375 10.78125 32.3125 
Q 14.796875 37.15625 21.921875 38.8125 
z
M 18.3125 54.390625 
Q 18.3125 48.734375 21.84375 45.5625 
Q 25.390625 42.390625 31.78125 42.390625 
Q 38.140625 42.390625 41.71875 45.5625 
Q 45.3125 48.734375 45.3125 54.390625 
Q 45.3125 60.0625 41.71875 63.234375 
Q 38.140625 66.40625 31.78125 66.40625 
Q 25.390625 66.40625 21.84375 63.234375 
Q 18.3125 60.0625 18.3125 54.390625 
z
" id="DejaVuSans-38"/>
     </defs>
     <g transform="translate(493.028597 611.991408)scale(0.2 -0.2)">
      <use xlink:href="#DejaVuSans-30"/>
      <use x="63.623047" xlink:href="#DejaVuSans-2e"/>
      <use x="95.410156" xlink:href="#DejaVuSans-38"/>
     </g>
    </g>
   </g>
   <g id="xtick_13">
    <g id="line2d_15">
     <path d="M 514.329077 562.817524 
L 522.081821 565.239367 
" style="fill:none;stroke:#000000;stroke-linecap:square;stroke-width:0.8;"/>
    </g>
    <g id="text_15">
     <!-- 1.0 -->
     <g transform="translate(511.745651 592.652906)scale(0.2 -0.2)">
      <use xlink:href="#DejaVuSans-31"/>
      <use x="63.623047" xlink:href="#DejaVuSans-2e"/>
      <use x="95.410156" xlink:href="#DejaVuSans-30"/>
     </g>
    </g>
   </g>
   <g id="xtick_14">
    <g id="line2d_16">
     <path d="M 532.839979 543.932121 
L 540.547009 546.313166 
" style="fill:none;stroke:#000000;stroke-linecap:square;stroke-width:0.8;"/>
    </g>
    <g id="text_16">
     <!-- 1.2 -->
     <g transform="translate(530.146193 573.641426)scale(0.2 -0.2)">
      <use xlink:href="#DejaVuSans-31"/>
      <use x="63.623047" xlink:href="#DejaVuSans-2e"/>
      <use x="95.410156" xlink:href="#DejaVuSans-32"/>
     </g>
    </g>
   </g>
   <g id="xtick_15">
    <g id="line2d_17">
     <path d="M 551.040518 525.363361 
L 558.702269 527.704631 
" style="fill:none;stroke:#000000;stroke-linecap:square;stroke-width:0.8;"/>
    </g>
    <g id="text_17">
     <!-- 1.4 -->
     <g transform="translate(548.238184 554.948742)scale(0.2 -0.2)">
      <use xlink:href="#DejaVuSans-31"/>
      <use x="63.623047" xlink:href="#DejaVuSans-2e"/>
      <use x="95.410156" xlink:href="#DejaVuSans-34"/>
     </g>
    </g>
   </g>
   <g id="xtick_16">
    <g id="line2d_18">
     <path d="M 568.938432 507.103347 
L 576.555339 509.40583 
" style="fill:none;stroke:#000000;stroke-linecap:square;stroke-width:0.8;"/>
    </g>
    <g id="text_18">
     <!-- 1.6 -->
     <g transform="translate(566.02932 536.566901)scale(0.2 -0.2)">
      <use xlink:href="#DejaVuSans-31"/>
      <use x="63.623047" xlink:href="#DejaVuSans-2e"/>
      <use x="95.410156" xlink:href="#DejaVuSans-36"/>
     </g>
    </g>
   </g>
   <g id="xtick_17">
    <g id="line2d_19">
     <path d="M 586.541209 489.144443 
L 594.113703 491.409094 
" style="fill:none;stroke:#000000;stroke-linecap:square;stroke-width:0.8;"/>
    </g>
    <g id="text_19">
     <!-- 1.8 -->
     <g transform="translate(583.527044 518.488214)scale(0.2 -0.2)">
      <use xlink:href="#DejaVuSans-31"/>
      <use x="63.623047" xlink:href="#DejaVuSans-2e"/>
      <use x="95.410156" xlink:href="#DejaVuSans-38"/>
     </g>
    </g>
   </g>
  </g>
  <g id="axis3d_3">
   <g id="line2d_20">
    <path d="M 607.792772 470.761251 
L 620.362376 158.022911 
" style="fill:none;stroke:#000000;stroke-linecap:square;stroke-width:0.8;"/>
   </g>
   <g id="text_20">
    <!-- Intensity (A.U.) -->
    <defs>
     <path d="M 9.1875 72.90625 
L 27.984375 72.90625 
L 27.984375 0 
L 9.1875 0 
z
" id="DejaVuSans-Bold-49"/>
     <path d="M 27.484375 70.21875 
L 27.484375 54.6875 
L 45.515625 54.6875 
L 45.515625 42.1875 
L 27.484375 42.1875 
L 27.484375 19 
Q 27.484375 15.1875 29 13.84375 
Q 30.515625 12.5 35.015625 12.5 
L 44 12.5 
L 44 0 
L 29 0 
Q 18.65625 0 14.328125 4.3125 
Q 10.015625 8.640625 10.015625 19 
L 10.015625 42.1875 
L 1.3125 42.1875 
L 1.3125 54.6875 
L 10.015625 54.6875 
L 10.015625 70.21875 
z
" id="DejaVuSans-Bold-74"/>
     <path d="M 51.125 52.984375 
L 51.125 39.703125 
Q 45.515625 42.046875 40.28125 43.21875 
Q 35.0625 44.390625 30.421875 44.390625 
Q 25.4375 44.390625 23.015625 43.140625 
Q 20.609375 41.890625 20.609375 39.3125 
Q 20.609375 37.203125 22.4375 36.078125 
Q 24.265625 34.96875 29 34.421875 
L 32.078125 33.984375 
Q 45.515625 32.28125 50.140625 28.375 
Q 54.78125 24.46875 54.78125 16.109375 
Q 54.78125 7.375 48.328125 2.96875 
Q 41.890625 -1.421875 29.109375 -1.421875 
Q 23.6875 -1.421875 17.890625 -0.5625 
Q 12.109375 0.296875 6 2 
L 6 15.28125 
Q 11.234375 12.75 16.71875 11.46875 
Q 22.21875 10.203125 27.875 10.203125 
Q 33.015625 10.203125 35.59375 11.609375 
Q 38.1875 13.03125 38.1875 15.828125 
Q 38.1875 18.171875 36.40625 19.3125 
Q 34.625 20.453125 29.296875 21.09375 
L 26.21875 21.484375 
Q 14.546875 22.953125 9.859375 26.90625 
Q 5.171875 30.859375 5.171875 38.921875 
Q 5.171875 47.609375 11.125 51.796875 
Q 17.09375 56 29.390625 56 
Q 34.234375 56 39.546875 55.265625 
Q 44.875 54.546875 51.125 52.984375 
z
" id="DejaVuSans-Bold-73"/>
     <path d="M 8.40625 54.6875 
L 25.875 54.6875 
L 25.875 0 
L 8.40625 0 
z
M 8.40625 75.984375 
L 25.875 75.984375 
L 25.875 61.71875 
L 8.40625 61.71875 
z
" id="DejaVuSans-Bold-69"/>
     <path d="M 10.203125 18.890625 
L 27.78125 18.890625 
L 27.78125 0 
L 10.203125 0 
z
" id="DejaVuSans-Bold-2e"/>
     <path d="M 9.1875 72.90625 
L 27.984375 72.90625 
L 27.984375 29.203125 
Q 27.984375 20.171875 30.9375 16.28125 
Q 33.890625 12.40625 40.578125 12.40625 
Q 47.3125 12.40625 50.265625 16.28125 
Q 53.21875 20.171875 53.21875 29.203125 
L 53.21875 72.90625 
L 72.015625 72.90625 
L 72.015625 29.203125 
Q 72.015625 13.71875 64.25 6.140625 
Q 56.5 -1.421875 40.578125 -1.421875 
Q 24.703125 -1.421875 16.9375 6.140625 
Q 9.1875 13.71875 9.1875 29.203125 
z
" id="DejaVuSans-Bold-55"/>
    </defs>
    <g transform="translate(651.532212 400.049641)rotate(-87.698402)scale(0.2 -0.2)">
     <use xlink:href="#DejaVuSans-Bold-49"/>
     <use x="37.207031" xlink:href="#DejaVuSans-Bold-6e"/>
     <use x="108.398438" xlink:href="#DejaVuSans-Bold-74"/>
     <use x="156.201172" xlink:href="#DejaVuSans-Bold-65"/>
     <use x="224.023438" xlink:href="#DejaVuSans-Bold-6e"/>
     <use x="295.214844" xlink:href="#DejaVuSans-Bold-73"/>
     <use x="354.736328" xlink:href="#DejaVuSans-Bold-69"/>
     <use x="389.013672" xlink:href="#DejaVuSans-Bold-74"/>
     <use x="436.816406" xlink:href="#DejaVuSans-Bold-79"/>
     <use x="502.001953" xlink:href="#DejaVuSans-Bold-20"/>
     <use x="536.816406" xlink:href="#DejaVuSans-Bold-28"/>
     <use x="582.519531" xlink:href="#DejaVuSans-Bold-41"/>
     <use x="659.927734" xlink:href="#DejaVuSans-Bold-2e"/>
     <use x="697.916016" xlink:href="#DejaVuSans-Bold-55"/>
     <use x="779.117188" xlink:href="#DejaVuSans-Bold-2e"/>
     <use x="817.105469" xlink:href="#DejaVuSans-Bold-29"/>
    </g>
   </g>
   <g id="Line3DCollection_3">
    <path d="M 609.307792 433.066741 
L 306.990525 345.278642 
L 120.286331 502.337973 
" style="fill:none;stroke:#b0b0b0;stroke-width:0.8;"/>
    <path d="M 610.644317 399.813308 
L 306.66174 312.952701 
L 118.860095 468.381113 
" style="fill:none;stroke:#b0b0b0;stroke-width:0.8;"/>
    <path d="M 611.995776 366.188292 
L 306.329436 280.280772 
L 117.417391 434.032172 
" style="fill:none;stroke:#b0b0b0;stroke-width:0.8;"/>
    <path d="M 613.362422 332.18543 
L 305.993557 247.257273 
L 115.957933 399.284322 
" style="fill:none;stroke:#b0b0b0;stroke-width:0.8;"/>
    <path d="M 614.744512 297.798317 
L 305.654043 213.876496 
L 114.481426 364.130573 
" style="fill:none;stroke:#b0b0b0;stroke-width:0.8;"/>
    <path d="M 616.142309 263.020402 
L 305.310837 180.132613 
L 112.98757 328.56377 
" style="fill:none;stroke:#b0b0b0;stroke-width:0.8;"/>
    <path d="M 617.556082 227.844986 
L 304.963877 146.019667 
L 111.476058 292.576592 
" style="fill:none;stroke:#b0b0b0;stroke-width:0.8;"/>
    <path d="M 618.986107 192.265214 
L 304.613101 111.531569 
L 109.946574 256.161539 
" style="fill:none;stroke:#b0b0b0;stroke-width:0.8;"/>
   </g>
   <g id="xtick_18">
    <g id="line2d_21">
     <path d="M 606.784833 432.334114 
L 614.358988 434.533527 
" style="fill:none;stroke:#000000;stroke-linecap:square;stroke-width:0.8;"/>
    </g>
    <g id="text_21">
     <!-- 0.1 -->
     <g transform="translate(609.519029 445.980972)scale(0.2 -0.2)">
      <use xlink:href="#DejaVuSans-30"/>
      <use x="63.623047" xlink:href="#DejaVuSans-2e"/>
      <use x="95.410156" xlink:href="#DejaVuSans-31"/>
     </g>
    </g>
   </g>
   <g id="xtick_19">
    <g id="line2d_22">
     <path d="M 608.106877 399.088255 
L 615.724534 401.26494 
" style="fill:none;stroke:#000000;stroke-linecap:square;stroke-width:0.8;"/>
    </g>
    <g id="text_22">
     <!-- 0.2 -->
     <g transform="translate(610.943531 412.751146)scale(0.2 -0.2)">
      <use xlink:href="#DejaVuSans-30"/>
      <use x="63.623047" xlink:href="#DejaVuSans-2e"/>
      <use x="95.410156" xlink:href="#DejaVuSans-32"/>
     </g>
    </g>
   </g>
   <g id="xtick_20">
    <g id="line2d_23">
     <path d="M 609.443688 365.471028 
L 617.10535 367.624338 
" style="fill:none;stroke:#000000;stroke-linecap:square;stroke-width:0.8;"/>
    </g>
    <g id="text_23">
     <!-- 0.3 -->
     <defs>
      <path d="M 40.578125 39.3125 
Q 47.65625 37.796875 51.625 33 
Q 55.609375 28.21875 55.609375 21.1875 
Q 55.609375 10.40625 48.1875 4.484375 
Q 40.765625 -1.421875 27.09375 -1.421875 
Q 22.515625 -1.421875 17.65625 -0.515625 
Q 12.796875 0.390625 7.625 2.203125 
L 7.625 11.71875 
Q 11.71875 9.328125 16.59375 8.109375 
Q 21.484375 6.890625 26.8125 6.890625 
Q 36.078125 6.890625 40.9375 10.546875 
Q 45.796875 14.203125 45.796875 21.1875 
Q 45.796875 27.640625 41.28125 31.265625 
Q 36.765625 34.90625 28.71875 34.90625 
L 20.21875 34.90625 
L 20.21875 43.015625 
L 29.109375 43.015625 
Q 36.375 43.015625 40.234375 45.921875 
Q 44.09375 48.828125 44.09375 54.296875 
Q 44.09375 59.90625 40.109375 62.90625 
Q 36.140625 65.921875 28.71875 65.921875 
Q 24.65625 65.921875 20.015625 65.03125 
Q 15.375 64.15625 9.8125 62.3125 
L 9.8125 71.09375 
Q 15.4375 72.65625 20.34375 73.4375 
Q 25.25 74.21875 29.59375 74.21875 
Q 40.828125 74.21875 47.359375 69.109375 
Q 53.90625 64.015625 53.90625 55.328125 
Q 53.90625 49.265625 50.4375 45.09375 
Q 46.96875 40.921875 40.578125 39.3125 
z
" id="DejaVuSans-33"/>
     </defs>
     <g transform="translate(612.383933 379.150408)scale(0.2 -0.2)">
      <use xlink:href="#DejaVuSans-30"/>
      <use x="63.623047" xlink:href="#DejaVuSans-2e"/>
      <use x="95.410156" xlink:href="#DejaVuSans-33"/>
     </g>
    </g>
   </g>
   <g id="xtick_21">
    <g id="line2d_24">
     <path d="M 610.795516 331.476176 
L 618.501693 333.605446 
" style="fill:none;stroke:#000000;stroke-linecap:square;stroke-width:0.8;"/>
    </g>
    <g id="text_24">
     <!-- 0.4 -->
     <g transform="translate(613.840504 345.172512)scale(0.2 -0.2)">
      <use xlink:href="#DejaVuSans-30"/>
      <use x="63.623047" xlink:href="#DejaVuSans-2e"/>
      <use x="95.410156" xlink:href="#DejaVuSans-34"/>
     </g>
    </g>
   </g>
   <g id="xtick_22">
    <g id="line2d_25">
     <path d="M 612.162615 297.097301 
L 619.913827 299.201849 
" style="fill:none;stroke:#000000;stroke-linecap:square;stroke-width:0.8;"/>
    </g>
    <g id="text_25">
     <!-- 0.5 -->
     <g transform="translate(615.313516 310.811074)scale(0.2 -0.2)">
      <use xlink:href="#DejaVuSans-30"/>
      <use x="63.623047" xlink:href="#DejaVuSans-2e"/>
      <use x="95.410156" xlink:href="#DejaVuSans-35"/>
     </g>
    </g>
   </g>
   <g id="xtick_23">
    <g id="line2d_26">
     <path d="M 613.545246 262.327857 
L 621.342021 264.406982 
" style="fill:none;stroke:#000000;stroke-linecap:square;stroke-width:0.8;"/>
    </g>
    <g id="text_26">
     <!-- 0.6 -->
     <g transform="translate(616.80325 276.059562)scale(0.2 -0.2)">
      <use xlink:href="#DejaVuSans-30"/>
      <use x="63.623047" xlink:href="#DejaVuSans-2e"/>
      <use x="95.410156" xlink:href="#DejaVuSans-36"/>
     </g>
    </g>
   </g>
   <g id="xtick_24">
    <g id="line2d_27">
     <path d="M 614.943673 227.161152 
L 622.78655 229.214133 
" style="fill:none;stroke:#000000;stroke-linecap:square;stroke-width:0.8;"/>
    </g>
    <g id="text_27">
     <!-- 0.7 -->
     <g transform="translate(618.309992 240.911295)scale(0.2 -0.2)">
      <use xlink:href="#DejaVuSans-30"/>
      <use x="63.623047" xlink:href="#DejaVuSans-2e"/>
      <use x="95.410156" xlink:href="#DejaVuSans-37"/>
     </g>
    </g>
   </g>
   <g id="xtick_25">
    <g id="line2d_28">
     <path d="M 616.35817 191.590337 
L 624.247698 193.616434 
" style="fill:none;stroke:#000000;stroke-linecap:square;stroke-width:0.8;"/>
    </g>
    <g id="text_28">
     <!-- 0.8 -->
     <g transform="translate(619.834035 205.359441)scale(0.2 -0.2)">
      <use xlink:href="#DejaVuSans-30"/>
      <use x="63.623047" xlink:href="#DejaVuSans-2e"/>
      <use x="95.410156" xlink:href="#DejaVuSans-38"/>
     </g>
    </g>
   </g>
  </g>
  <g id="axes_1">
   <g id="line2d_29">
    <path clip-path="url(#p074656b605)" d="M 137.395759 523.551058 
L 143.182612 525.149279 
L 148.976572 526.660319 
L 154.795142 528.55801 
L 160.588367 529.460253 
L 166.426235 531.317122 
L 172.230651 531.872616 
L 178.072877 533.206224 
L 183.904076 533.835296 
L 189.743772 534.331531 
L 195.547208 533.159284 
L 201.40504 533.329713 
L 207.235709 532.014932 
L 213.058612 529.778257 
L 218.888319 527.081214 
L 224.667026 521.498758 
L 230.457555 515.337373 
L 236.143005 503.300927 
L 241.814847 488.824752 
L 247.43028 469.439758 
L 253.034807 446.713564 
L 258.47135 411.524505 
L 263.975335 375.235377 
L 269.418157 329.737927 
L 274.995143 285.932047 
L 280.966878 262.427953 
L 287.387541 268.037711 
L 294.359091 318.502256 
L 301.598305 400.935084 
L 308.629815 478.246492 
L 315.32893 535.00777 
L 321.71991 566.299322 
L 327.933129 579.389255 
L 334.090671 585.215804 
L 340.239576 588.721089 
L 346.391582 591.049414 
L 352.553526 593.306849 
L 358.726319 595.870503 
L 364.908436 597.850079 
L 371.101481 599.979443 
L 377.30536 602.024002 
L 383.520325 604.007463 
L 389.746182 606.048975 
L 395.982338 608.244078 
L 402.229653 610.364513 
L 408.488526 612.393109 
L 414.758323 614.452628 
L 421.039815 616.450895 
L 427.331175 618.592878 
L 433.631129 620.954017 
" style="fill:none;stroke:#fc8a6a;stroke-dasharray:12.8,3.2,2,3.2;stroke-dashoffset:0;stroke-width:2;"/>
   </g>
   <g id="line2d_30">
    <path clip-path="url(#p074656b605)" d="M 158.788653 504.534116 
L 164.551032 506.218231 
L 170.328087 508.04137 
L 176.089789 509.093845 
L 181.878108 510.630347 
L 187.672429 512.0233 
L 193.466185 513.036088 
L 199.282209 514.423981 
L 205.07528 514.594253 
L 210.899897 515.449194 
L 216.708697 515.226713 
L 222.538136 515.268007 
L 228.356193 514.25747 
L 234.174887 512.583041 
L 239.980712 509.531529 
L 245.782915 505.346746 
L 251.569921 499.26879 
L 257.331248 490.433346 
L 263.095944 480.001001 
L 268.816404 464.842071 
L 274.470779 442.657535 
L 280.13612 417.211283 
L 285.749323 383.178961 
L 291.355936 342.063757 
L 297.102538 304.500227 
L 303.006727 273.116611 
L 309.242302 267.799715 
L 315.785278 295.014819 
L 322.52414 353.282284 
L 329.262324 427.3703 
L 335.792017 488.785872 
L 342.120344 530.512962 
L 348.304229 551.41115 
L 354.431569 560.942464 
L 360.547459 565.974196 
L 366.667006 569.336849 
L 372.794656 572.21023 
L 378.932977 574.022393 
L 385.08008 576.660191 
L 391.239213 578.611433 
L 397.406643 581.087732 
L 403.58563 583.269791 
L 409.775648 585.370785 
L 415.977711 587.302404 
L 422.187861 589.559864 
L 428.410544 591.610597 
L 434.644046 593.668306 
L 440.890154 595.590251 
L 447.143031 597.845514 
L 453.406083 600.128385 
" style="fill:none;stroke:#fb7252;stroke-dasharray:12.8,3.2,2,3.2;stroke-dashoffset:0;stroke-width:2;"/>
   </g>
   <g id="line2d_31">
    <path clip-path="url(#p074656b605)" d="M 179.813078 485.220592 
L 185.555921 487.154898 
L 191.290025 488.484715 
L 197.038099 489.932674 
L 202.794937 491.32373 
L 208.557693 492.545235 
L 214.318426 493.272177 
L 220.088733 493.907777 
L 225.871558 494.561307 
L 231.663662 495.093285 
L 237.464771 495.473422 
L 243.25653 494.812188 
L 249.054162 493.709023 
L 254.863804 492.412458 
L 260.666842 489.867274 
L 266.46876 486.173259 
L 272.235922 479.046446 
L 278.028387 471.747182 
L 283.804098 461.283565 
L 289.55261 446.145557 
L 295.296635 427.030637 
L 301.044006 403.557299 
L 306.786848 373.65661 
L 312.557825 338.735675 
L 318.436649 306.595342 
L 324.470204 284.857059 
L 330.698618 285.047723 
L 337.097722 315.374388 
L 343.516964 361.830318 
L 349.895415 420.828194 
L 356.151361 472.150012 
L 362.299178 507.644897 
L 368.387473 527.841716 
L 374.458208 538.110712 
L 380.53151 543.73778 
L 386.613422 547.476875 
L 392.706024 550.264352 
L 398.80721 553.096254 
L 404.920841 555.329349 
L 411.04424 557.599798 
L 417.178022 559.823375 
L 423.321176 562.128181 
L 429.474216 564.443471 
L 435.646175 565.97932 
L 441.816167 568.609148 
L 448.003626 570.644935 
L 454.200759 572.751845 
L 460.406158 575.007779 
L 466.625217 577.064414 
L 472.854275 579.165224 
" style="fill:none;stroke:#f6583e;stroke-dasharray:12.8,3.2,2,3.2;stroke-dashoffset:0;stroke-width:2;"/>
   </g>
   <g id="line2d_32">
    <path clip-path="url(#p074656b605)" d="M 200.509706 466.511325 
L 206.203899 467.708583 
L 211.921394 469.388025 
L 217.64365 470.872998 
L 223.373344 472.248707 
L 229.10138 473.113074 
L 234.840158 473.94949 
L 240.596486 475.068054 
L 246.352118 475.620751 
L 252.120386 476.201059 
L 257.885506 475.96516 
L 263.665501 475.794979 
L 269.436939 474.296959 
L 275.231384 473.226929 
L 281.023939 470.978539 
L 286.822309 467.855488 
L 292.602532 461.776496 
L 298.398077 454.830977 
L 304.187578 444.79632 
L 309.994668 433.134009 
L 315.781553 414.998173 
L 321.588738 393.075869 
L 327.435953 368.569915 
L 333.313821 338.506671 
L 339.282706 311.882346 
L 345.359253 295.698236 
L 351.542223 300.644603 
L 357.76811 326.916444 
L 363.966723 367.643212 
L 370.095903 413.946588 
L 376.153032 454.023937 
L 382.158336 487.225923 
L 388.161193 504.856624 
L 394.171801 515.615827 
L 400.200699 521.481912 
L 406.246531 525.038508 
L 412.297215 528.887423 
L 418.366698 531.269083 
L 424.439996 534.251342 
L 430.526819 536.734577 
L 436.620318 539.449757 
L 442.731247 541.487562 
L 448.855181 543.330657 
L 454.98286 545.654129 
L 461.119831 548.011556 
L 467.273698 549.94565 
L 473.431139 552.280113 
L 479.601474 554.456748 
L 485.784236 556.525859 
L 491.973999 558.76356 
" style="fill:none;stroke:#ee3a2c;stroke-dasharray:12.8,3.2,2,3.2;stroke-dashoffset:0;stroke-width:2;"/>
   </g>
   <g id="line2d_33">
    <path clip-path="url(#p074656b605)" d="M 220.879683 448.247627 
L 226.542461 449.222234 
L 232.236847 451.104827 
L 237.925735 452.319572 
L 243.622371 453.405541 
L 249.334372 454.723015 
L 255.045795 455.468824 
L 260.779047 456.787411 
L 266.509207 457.319855 
L 272.247864 457.639608 
L 278.000026 458.032492 
L 283.749025 457.341635 
L 289.512566 456.658951 
L 295.287946 455.762951 
L 301.054509 452.774524 
L 306.847267 450.473529 
L 312.640454 446.325514 
L 318.439411 440.31309 
L 324.244339 431.714707 
L 330.065625 420.943817 
L 335.898377 405.909843 
L 341.764831 388.72905 
L 347.666476 367.954897 
L 353.62649 348.524549 
L 359.637427 328.019111 
L 365.710541 322.153916 
L 371.802261 330.609877 
L 377.870752 352.629089 
L 383.888498 382.878608 
L 389.84938 415.994074 
L 395.76319 447.857024 
L 401.68104 469.886701 
L 407.611792 485.270522 
L 413.573361 494.304878 
L 419.558644 500.070686 
L 425.564517 503.934002 
L 431.573766 508.064851 
L 437.603241 510.948588 
L 443.640646 513.859621 
L 449.694166 516.197089 
L 455.748035 519.152658 
L 461.823395 521.267137 
L 467.899189 523.949853 
L 473.988535 526.369035 
L 480.095707 528.34381 
L 486.213001 530.331961 
L 492.327407 532.952795 
L 498.464121 534.974775 
L 504.608988 537.093967 
L 510.768779 539.018889 
" style="fill:none;stroke:#d92523;stroke-dasharray:12.8,3.2,2,3.2;stroke-dashoffset:0;stroke-width:2;"/>
   </g>
   <g id="line2d_34">
    <path clip-path="url(#p074656b605)" d="M 240.936861 430.774467 
L 246.578298 431.971781 
L 252.229762 433.158261 
L 257.892406 434.392504 
L 263.570943 435.948345 
L 269.245137 436.662252 
L 274.940734 438.020581 
L 280.62895 438.192355 
L 286.344177 439.423967 
L 292.053688 439.397967 
L 297.779211 439.637314 
L 303.509331 439.162078 
L 309.248935 438.252061 
L 315.004812 437.517375 
L 320.757235 434.556312 
L 326.527728 431.49642 
L 332.307126 426.773797 
L 338.102977 420.903359 
L 343.911851 412.226695 
L 349.742458 400.870864 
L 355.603838 387.325919 
L 361.502357 371.426229 
L 367.444839 351.964741 
L 373.437898 334.23065 
L 379.470019 321.963903 
L 385.507803 321.470496 
L 391.529606 329.199363 
L 397.483976 350.845939 
L 403.399597 374.141968 
L 409.271399 399.091249 
L 415.121943 422.119151 
L 420.936119 445.603239 
L 426.773232 463.303685 
L 432.663758 474.002734 
L 438.593039 480.745228 
L 444.557844 484.723377 
L 450.531441 488.486264 
L 456.528765 491.071054 
L 462.529848 493.96849 
L 468.542099 496.68376 
L 474.566881 499.173532 
L 480.601403 501.623774 
L 486.640053 504.323768 
L 492.697147 506.555228 
L 498.755073 509.186216 
L 504.833165 511.325008 
L 510.918809 513.560502 
L 517.01818 515.636267 
L 523.121351 517.952107 
L 529.242386 519.96476 
" style="fill:none;stroke:#c3161b;stroke-dasharray:12.8,3.2,2,3.2;stroke-dashoffset:0;stroke-width:2;"/>
   </g>
   <g id="line2d_35">
    <path clip-path="url(#p074656b605)" d="M 260.686687 414.242173 
L 266.302386 415.531335 
L 271.925983 416.696541 
L 277.56445 418.171567 
L 283.207992 419.328258 
L 288.856189 420.065371 
L 294.521179 421.264931 
L 300.194458 422.294487 
L 305.878891 423.377987 
L 311.561539 423.171555 
L 317.265251 423.903037 
L 322.972393 423.608701 
L 328.689713 422.853188 
L 334.420536 421.978056 
L 340.158409 419.547795 
L 345.91213 416.683262 
L 351.682978 413.371894 
L 357.46823 407.442527 
L 363.276853 400.325533 
L 369.112463 390.644676 
L 374.983013 378.025478 
L 380.892939 364.591619 
L 386.84689 349.626179 
L 392.84278 334.824978 
L 398.865187 323.241643 
L 404.855461 323.200665 
L 410.804325 331.125214 
L 416.68722 347.143652 
L 422.539616 364.558611 
L 428.335146 385.612892 
L 434.097145 407.154885 
L 439.845834 427.349545 
L 445.636802 442.181955 
L 451.450553 454.212582 
L 457.326892 461.327784 
L 463.248832 465.529199 
L 469.175148 469.780521 
L 475.116284 473.490526 
L 481.095384 475.522832 
L 487.081921 477.667503 
L 493.071426 480.123116 
L 499.059346 483.055357 
L 505.071304 485.286731 
L 511.079628 488.061076 
L 517.101558 490.624039 
L 523.133292 493.147647 
L 529.18315 495.330408 
L 535.239182 497.635921 
L 541.310026 499.755988 
L 547.388388 501.952426 
" style="fill:none;stroke:#ac1117;stroke-dasharray:12.8,3.2,2,3.2;stroke-dashoffset:0;stroke-width:2;"/>
   </g>
   <g id="line2d_36">
    <path clip-path="url(#p074656b605)" d="M 280.123237 398.170657 
L 285.710715 399.428927 
L 291.305358 400.483364 
L 296.916263 402.045526 
L 302.526934 402.743112 
L 308.154793 404.061563 
L 313.787254 404.810842 
L 319.429252 405.393521 
L 325.080773 405.737978 
L 330.743792 406.044293 
L 336.416763 405.997906 
L 342.099844 405.399635 
L 347.796585 404.806428 
L 353.502543 402.453849 
L 359.226236 400.518338 
L 364.965848 397.923671 
L 370.723947 392.762196 
L 376.504931 387.399623 
L 382.315481 379.152669 
L 388.158557 369.718395 
L 394.03438 359.890761 
L 399.951298 348.287118 
L 405.907717 336.031399 
L 411.877673 327.076206 
L 417.848408 321.82438 
L 423.760973 325.616328 
L 429.623481 334.997957 
L 435.446662 347.498843 
L 441.246383 361.023805 
L 446.985856 378.176712 
L 452.704576 395.350753 
L 458.405535 412.336528 
L 464.159717 424.705525 
L 469.930464 435.434771 
L 475.771236 441.810046 
L 481.634466 447.03552 
L 487.504983 452.046762 
L 493.40706 455.714013 
L 499.331284 458.652287 
L 505.2722 461.196588 
L 511.22238 463.708316 
L 517.199178 465.496635 
L 523.160863 468.255554 
L 529.149404 470.320346 
L 535.134897 472.836302 
L 541.141207 474.934199 
L 547.146106 477.397937 
L 553.175109 479.370737 
L 559.195918 481.907469 
L 565.236737 484.104725 
" style="fill:none;stroke:#8c0912;stroke-dasharray:12.8,3.2,2,3.2;stroke-dashoffset:0;stroke-width:2;"/>
   </g>
   <g id="line2d_37">
    <path clip-path="url(#p074656b605)" d="M 299.245271 381.955651 
L 304.805724 383.24105 
L 310.374411 384.387761 
L 315.953174 385.558939 
L 321.536706 386.081115 
L 327.134365 387.044136 
L 332.740723 387.73907 
L 338.355425 387.940118 
L 343.982726 388.33796 
L 349.621664 388.791388 
L 355.272056 389.271534 
L 360.933197 389.265167 
L 366.606951 390.040859 
L 372.291954 390.219697 
L 377.991092 389.045147 
L 383.703055 388.613648 
L 389.432678 386.911137 
L 395.186414 383.302894 
L 400.963931 378.882697 
L 406.77079 373.146659 
L 412.608689 366.391804 
L 418.469359 359.99258 
L 424.369262 352.050929 
L 430.283239 345.498348 
L 436.174605 343.286001 
L 442.042713 344.429731 
L 447.849276 351.121375 
L 453.599714 361.821109 
L 459.350209 371.997316 
L 465.060236 384.283507 
L 470.764383 396.27071 
L 476.462333 408.023678 
L 482.202464 417.018034 
L 487.969891 424.410479 
L 493.786673 429.371133 
L 499.632788 433.145672 
L 505.492046 436.597205 
L 511.360131 439.947929 
L 517.245159 442.884205 
L 523.169101 444.605043 
L 529.091063 446.770288 
L 535.031506 448.598548 
L 540.984785 450.321763 
L 546.941275 452.273873 
L 552.894136 454.655079 
L 558.859746 456.911926 
L 564.819531 459.621339 
L 570.801829 461.908093 
L 576.778286 464.62146 
L 582.78266 466.787232 
" style="fill:none;stroke:#67000d;stroke-dasharray:12.8,3.2,2,3.2;stroke-dashoffset:0;stroke-width:2;"/>
   </g>
  </g>
  <g id="text_29">
   <!-- 0Br - 160K -->
   <defs>
    <path d="M 46 36.53125 
Q 46 50.203125 43.4375 55.78125 
Q 40.875 61.375 34.8125 61.375 
Q 28.765625 61.375 26.171875 55.78125 
Q 23.578125 50.203125 23.578125 36.53125 
Q 23.578125 22.703125 26.171875 17.03125 
Q 28.765625 11.375 34.8125 11.375 
Q 40.828125 11.375 43.40625 17.03125 
Q 46 22.703125 46 36.53125 
z
M 64.796875 36.375 
Q 64.796875 18.265625 56.984375 8.421875 
Q 49.171875 -1.421875 34.8125 -1.421875 
Q 20.40625 -1.421875 12.59375 8.421875 
Q 4.78125 18.265625 4.78125 36.375 
Q 4.78125 54.546875 12.59375 64.375 
Q 20.40625 74.21875 34.8125 74.21875 
Q 49.171875 74.21875 56.984375 64.375 
Q 64.796875 54.546875 64.796875 36.375 
z
" id="DejaVuSans-Bold-30"/>
    <path d="M 38.375 44.671875 
Q 42.828125 44.671875 45.109375 46.625 
Q 47.40625 48.578125 47.40625 52.390625 
Q 47.40625 56.15625 45.109375 58.125 
Q 42.828125 60.109375 38.375 60.109375 
L 27.984375 60.109375 
L 27.984375 44.671875 
z
M 39.015625 12.796875 
Q 44.671875 12.796875 47.53125 15.1875 
Q 50.390625 17.578125 50.390625 22.40625 
Q 50.390625 27.15625 47.5625 29.515625 
Q 44.734375 31.890625 39.015625 31.890625 
L 27.984375 31.890625 
L 27.984375 12.796875 
z
M 56.5 39.015625 
Q 62.546875 37.25 65.859375 32.515625 
Q 69.1875 27.78125 69.1875 20.90625 
Q 69.1875 10.359375 62.0625 5.171875 
Q 54.9375 0 40.375 0 
L 9.1875 0 
L 9.1875 72.90625 
L 37.40625 72.90625 
Q 52.59375 72.90625 59.40625 68.3125 
Q 66.21875 63.71875 66.21875 53.609375 
Q 66.21875 48.296875 63.71875 44.5625 
Q 61.234375 40.828125 56.5 39.015625 
z
" id="DejaVuSans-Bold-42"/>
    <path d="M 5.421875 35.890625 
L 36.078125 35.890625 
L 36.078125 21.6875 
L 5.421875 21.6875 
z
" id="DejaVuSans-Bold-2d"/>
    <path d="M 36.1875 35.984375 
Q 31.25 35.984375 28.78125 32.78125 
Q 26.3125 29.59375 26.3125 23.1875 
Q 26.3125 16.796875 28.78125 13.59375 
Q 31.25 10.40625 36.1875 10.40625 
Q 41.15625 10.40625 43.625 13.59375 
Q 46.09375 16.796875 46.09375 23.1875 
Q 46.09375 29.59375 43.625 32.78125 
Q 41.15625 35.984375 36.1875 35.984375 
z
M 59.421875 71 
L 59.421875 57.515625 
Q 54.78125 59.71875 50.671875 60.765625 
Q 46.578125 61.8125 42.671875 61.8125 
Q 34.28125 61.8125 29.59375 57.140625 
Q 24.90625 52.484375 24.125 43.3125 
Q 27.34375 45.703125 31.09375 46.890625 
Q 34.859375 48.09375 39.3125 48.09375 
Q 50.484375 48.09375 57.34375 41.546875 
Q 64.203125 35.015625 64.203125 24.421875 
Q 64.203125 12.703125 56.53125 5.640625 
Q 48.875 -1.421875 35.984375 -1.421875 
Q 21.78125 -1.421875 13.984375 8.171875 
Q 6.203125 17.78125 6.203125 35.40625 
Q 6.203125 53.46875 15.3125 63.796875 
Q 24.421875 74.125 40.28125 74.125 
Q 45.3125 74.125 50.046875 73.34375 
Q 54.78125 72.5625 59.421875 71 
z
" id="DejaVuSans-Bold-36"/>
    <path d="M 9.1875 72.90625 
L 27.984375 72.90625 
L 27.984375 46.296875 
L 55.078125 72.90625 
L 76.90625 72.90625 
L 41.796875 38.375 
L 80.515625 0 
L 56.984375 0 
L 27.984375 28.71875 
L 27.984375 0 
L 9.1875 0 
z
" id="DejaVuSans-Bold-4b"/>
   </defs>
   <g transform="translate(300.754687 29.596875)scale(0.2 -0.2)">
    <use xlink:href="#DejaVuSans-Bold-30"/>
    <use x="69.580078" xlink:href="#DejaVuSans-Bold-42"/>
    <use x="145.800781" xlink:href="#DejaVuSans-Bold-72"/>
    <use x="195.117188" xlink:href="#DejaVuSans-Bold-20"/>
    <use x="229.931641" xlink:href="#DejaVuSans-Bold-2d"/>
    <use x="271.435547" xlink:href="#DejaVuSans-Bold-20"/>
    <use x="306.25" xlink:href="#DejaVuSans-Bold-31"/>
    <use x="375.830078" xlink:href="#DejaVuSans-Bold-36"/>
    <use x="445.410156" xlink:href="#DejaVuSans-Bold-30"/>
    <use x="514.990234" xlink:href="#DejaVuSans-Bold-4b"/>
   </g>
  </g>
 </g>
 <defs>
  <clipPath id="p074656b605">
   <rect height="648" width="648" x="36" y="36"/>
  </clipPath>
 </defs>
</svg>
