<?xml version="1.0" encoding="utf-8" standalone="no"?>
<!DOCTYPE svg PUBLIC "-//W3C//DTD SVG 1.1//EN"
  "http://www.w3.org/Graphics/SVG/1.1/DTD/svg11.dtd">
<!-- Created with matplotlib (http://matplotlib.org/) -->
<svg height="720pt" version="1.1" viewBox="0 0 720 720" width="720pt" xmlns="http://www.w3.org/2000/svg" xmlns:xlink="http://www.w3.org/1999/xlink">
 <defs>
  <style type="text/css">
*{stroke-linecap:butt;stroke-linejoin:round;}
  </style>
 </defs>
 <g id="figure_1">
  <g id="patch_1">
   <path d="M 0 720 
L 720 720 
L 720 0 
L 0 0 
z
" style="fill:#ffffff;"/>
  </g>
  <g id="patch_2">
   <path d="M 36 684 
L 684 684 
L 684 36 
L 36 36 
z
" style="fill:#ffffff;"/>
  </g>
  <g id="pane3d_1">
   <g id="patch_3">
    <path d="M 121.902413 540.814837 
L 307.363404 381.93992 
L 304.275675 78.356028 
L 108.474019 221.101874 
" style="fill:#f2f2f2;opacity:0.5;stroke:#f2f2f2;stroke-linejoin:miter;"/>
   </g>
  </g>
  <g id="pane3d_2">
   <g id="patch_4">
    <path d="M 307.363404 381.93992 
L 607.792772 470.761251 
L 620.362376 158.022911 
L 304.275675 78.356028 
" style="fill:#e6e6e6;opacity:0.5;stroke:#e6e6e6;stroke-linejoin:miter;"/>
   </g>
  </g>
  <g id="pane3d_3">
   <g id="patch_5">
    <path d="M 121.902413 540.814837 
L 437.994703 644.26175 
L 607.792772 470.761251 
L 307.363404 381.93992 
" style="fill:#ececec;opacity:0.5;stroke:#ececec;stroke-linejoin:miter;"/>
   </g>
  </g>
  <g id="axis3d_1">
   <g id="line2d_1">
    <path d="M 121.902413 540.814837 
L 437.994703 644.26175 
" style="fill:none;stroke:#000000;stroke-linecap:square;stroke-width:0.8;"/>
   </g>
   <g id="text_1">
    <!-- Energy (meV) -->
    <defs>
     <path d="M 9.1875 72.90625 
L 59.90625 72.90625 
L 59.90625 58.6875 
L 27.984375 58.6875 
L 27.984375 45.125 
L 58.015625 45.125 
L 58.015625 30.90625 
L 27.984375 30.90625 
L 27.984375 14.203125 
L 60.984375 14.203125 
L 60.984375 0 
L 9.1875 0 
z
" id="DejaVuSans-Bold-45"/>
     <path d="M 63.375 33.296875 
L 63.375 0 
L 45.796875 0 
L 45.796875 5.421875 
L 45.796875 25.484375 
Q 45.796875 32.5625 45.484375 35.25 
Q 45.171875 37.9375 44.390625 39.203125 
Q 43.359375 40.921875 41.59375 41.875 
Q 39.84375 42.828125 37.59375 42.828125 
Q 32.125 42.828125 29 38.59375 
Q 25.875 34.375 25.875 26.90625 
L 25.875 0 
L 8.40625 0 
L 8.40625 54.6875 
L 25.875 54.6875 
L 25.875 46.6875 
Q 29.828125 51.46875 34.265625 53.734375 
Q 38.71875 56 44.09375 56 
Q 53.5625 56 58.46875 50.1875 
Q 63.375 44.390625 63.375 33.296875 
z
" id="DejaVuSans-Bold-6e"/>
     <path d="M 62.984375 27.484375 
L 62.984375 22.515625 
L 22.125 22.515625 
Q 22.75 16.359375 26.5625 13.28125 
Q 30.375 10.203125 37.203125 10.203125 
Q 42.71875 10.203125 48.5 11.84375 
Q 54.296875 13.484375 60.40625 16.796875 
L 60.40625 3.328125 
Q 54.203125 0.984375 48 -0.21875 
Q 41.796875 -1.421875 35.59375 -1.421875 
Q 20.75 -1.421875 12.515625 6.125 
Q 4.296875 13.671875 4.296875 27.296875 
Q 4.296875 40.671875 12.375 48.328125 
Q 20.453125 56 34.625 56 
Q 47.515625 56 55.25 48.234375 
Q 62.984375 40.484375 62.984375 27.484375 
z
M 45.015625 33.296875 
Q 45.015625 38.28125 42.109375 41.328125 
Q 39.203125 44.390625 34.515625 44.390625 
Q 29.4375 44.390625 26.265625 41.53125 
Q 23.09375 38.671875 22.3125 33.296875 
z
" id="DejaVuSans-Bold-65"/>
     <path d="M 49.03125 39.796875 
Q 46.734375 40.875 44.453125 41.375 
Q 42.1875 41.890625 39.890625 41.890625 
Q 33.15625 41.890625 29.515625 37.5625 
Q 25.875 33.25 25.875 25.203125 
L 25.875 0 
L 8.40625 0 
L 8.40625 54.6875 
L 25.875 54.6875 
L 25.875 45.703125 
Q 29.25 51.078125 33.609375 53.53125 
Q 37.984375 56 44.09375 56 
Q 44.96875 56 45.984375 55.921875 
Q 47.015625 55.859375 48.96875 55.609375 
z
" id="DejaVuSans-Bold-72"/>
     <path d="M 45.609375 9.28125 
Q 42 4.5 37.640625 2.25 
Q 33.296875 0 27.59375 0 
Q 17.578125 0 11.03125 7.875 
Q 4.5 15.765625 4.5 27.984375 
Q 4.5 40.234375 11.03125 48.0625 
Q 17.578125 55.90625 27.59375 55.90625 
Q 33.296875 55.90625 37.640625 53.65625 
Q 42 51.421875 45.609375 46.578125 
L 45.609375 54.6875 
L 63.1875 54.6875 
L 63.1875 5.515625 
Q 63.1875 -7.671875 54.859375 -14.625 
Q 46.53125 -21.578125 30.71875 -21.578125 
Q 25.59375 -21.578125 20.796875 -20.796875 
Q 16.015625 -20.015625 11.1875 -18.40625 
L 11.1875 -4.78125 
Q 15.765625 -7.421875 20.15625 -8.71875 
Q 24.5625 -10.015625 29 -10.015625 
Q 37.59375 -10.015625 41.59375 -6.25 
Q 45.609375 -2.484375 45.609375 5.515625 
z
M 34.078125 43.3125 
Q 28.65625 43.3125 25.625 39.296875 
Q 22.609375 35.296875 22.609375 27.984375 
Q 22.609375 20.453125 25.53125 16.578125 
Q 28.46875 12.703125 34.078125 12.703125 
Q 39.546875 12.703125 42.578125 16.703125 
Q 45.609375 20.703125 45.609375 27.984375 
Q 45.609375 35.296875 42.578125 39.296875 
Q 39.546875 43.3125 34.078125 43.3125 
z
" id="DejaVuSans-Bold-67"/>
     <path d="M 1.21875 54.6875 
L 18.703125 54.6875 
L 33.40625 17.578125 
L 45.90625 54.6875 
L 63.375 54.6875 
L 40.375 -5.171875 
Q 36.921875 -14.3125 32.296875 -17.9375 
Q 27.6875 -21.578125 20.125 -21.578125 
L 10.015625 -21.578125 
L 10.015625 -10.109375 
L 15.484375 -10.109375 
Q 19.921875 -10.109375 21.9375 -8.6875 
Q 23.96875 -7.28125 25.09375 -3.609375 
L 25.59375 -2.09375 
z
" id="DejaVuSans-Bold-79"/>
     <path id="DejaVuSans-Bold-20"/>
     <path d="M 37.703125 -13.1875 
L 23.1875 -13.1875 
Q 15.71875 -1.125 12.15625 9.734375 
Q 8.59375 20.609375 8.59375 31.296875 
Q 8.59375 42 12.171875 52.953125 
Q 15.765625 63.921875 23.1875 75.875 
L 37.703125 75.875 
Q 31.453125 64.3125 28.328125 53.25 
Q 25.203125 42.1875 25.203125 31.390625 
Q 25.203125 20.609375 28.296875 9.515625 
Q 31.390625 -1.5625 37.703125 -13.1875 
z
" id="DejaVuSans-Bold-28"/>
     <path d="M 59.078125 45.609375 
Q 62.40625 50.6875 66.96875 53.34375 
Q 71.53125 56 77 56 
Q 86.421875 56 91.359375 50.1875 
Q 96.296875 44.390625 96.296875 33.296875 
L 96.296875 0 
L 78.71875 0 
L 78.71875 28.515625 
Q 78.765625 29.15625 78.78125 29.828125 
Q 78.8125 30.515625 78.8125 31.78125 
Q 78.8125 37.59375 77.09375 40.203125 
Q 75.390625 42.828125 71.578125 42.828125 
Q 66.609375 42.828125 63.890625 38.71875 
Q 61.1875 34.625 61.078125 26.859375 
L 61.078125 0 
L 43.5 0 
L 43.5 28.515625 
Q 43.5 37.59375 41.9375 40.203125 
Q 40.375 42.828125 36.375 42.828125 
Q 31.34375 42.828125 28.609375 38.703125 
Q 25.875 34.578125 25.875 26.90625 
L 25.875 0 
L 8.296875 0 
L 8.296875 54.6875 
L 25.875 54.6875 
L 25.875 46.6875 
Q 29.109375 51.3125 33.28125 53.65625 
Q 37.453125 56 42.484375 56 
Q 48.140625 56 52.484375 53.265625 
Q 56.84375 50.53125 59.078125 45.609375 
z
" id="DejaVuSans-Bold-6d"/>
     <path d="M 0.484375 72.90625 
L 19.390625 72.90625 
L 38.71875 19.09375 
L 58.015625 72.90625 
L 76.90625 72.90625 
L 49.90625 0 
L 27.484375 0 
z
" id="DejaVuSans-Bold-56"/>
     <path d="M 8.015625 -13.1875 
Q 14.265625 -1.5625 17.390625 9.515625 
Q 20.515625 20.609375 20.515625 31.390625 
Q 20.515625 42.1875 17.390625 53.25 
Q 14.265625 64.3125 8.015625 75.875 
L 22.515625 75.875 
Q 29.9375 63.921875 33.515625 52.953125 
Q 37.109375 42 37.109375 31.296875 
Q 37.109375 20.609375 33.546875 9.734375 
Q 29.984375 -1.125 22.515625 -13.1875 
z
" id="DejaVuSans-Bold-29"/>
    </defs>
    <g transform="translate(187.658654 608.708901)rotate(-341.878381)scale(0.2 -0.2)">
     <use xlink:href="#DejaVuSans-Bold-45"/>
     <use x="68.310547" xlink:href="#DejaVuSans-Bold-6e"/>
     <use x="139.501953" xlink:href="#DejaVuSans-Bold-65"/>
     <use x="207.324219" xlink:href="#DejaVuSans-Bold-72"/>
     <use x="256.640625" xlink:href="#DejaVuSans-Bold-67"/>
     <use x="328.222656" xlink:href="#DejaVuSans-Bold-79"/>
     <use x="393.408203" xlink:href="#DejaVuSans-Bold-20"/>
     <use x="428.222656" xlink:href="#DejaVuSans-Bold-28"/>
     <use x="473.925781" xlink:href="#DejaVuSans-Bold-6d"/>
     <use x="578.125" xlink:href="#DejaVuSans-Bold-65"/>
     <use x="645.947266" xlink:href="#DejaVuSans-Bold-56"/>
     <use x="723.339844" xlink:href="#DejaVuSans-Bold-29"/>
    </g>
   </g>
   <g id="Line3DCollection_1">
    <path d="M 127.947203 542.793104 
L 313.127594 383.644091 
L 310.327331 79.881295 
" style="fill:none;stroke:#b0b0b0;stroke-width:0.8;"/>
    <path d="M 164.444236 554.737417 
L 347.914703 393.928829 
L 346.860038 89.089044 
" style="fill:none;stroke:#b0b0b0;stroke-width:0.8;"/>
    <path d="M 201.33723 566.811316 
L 383.051818 404.317045 
L 383.779012 98.394148 
" style="fill:none;stroke:#b0b0b0;stroke-width:0.8;"/>
    <path d="M 238.632665 579.016921 
L 418.544248 414.81031 
L 421.090412 107.798159 
" style="fill:none;stroke:#b0b0b0;stroke-width:0.8;"/>
    <path d="M 276.33716 591.356398 
L 454.39741 425.410224 
L 458.800528 117.302663 
" style="fill:none;stroke:#b0b0b0;stroke-width:0.8;"/>
    <path d="M 314.457484 603.831963 
L 490.61683 436.118422 
L 496.915786 126.90928 
" style="fill:none;stroke:#b0b0b0;stroke-width:0.8;"/>
    <path d="M 353.000554 616.445879 
L 527.208152 446.936572 
L 535.442749 136.619663 
" style="fill:none;stroke:#b0b0b0;stroke-width:0.8;"/>
    <path d="M 391.97344 629.20046 
L 564.177131 457.866375 
L 574.388126 146.435504 
" style="fill:none;stroke:#b0b0b0;stroke-width:0.8;"/>
    <path d="M 431.383373 642.098072 
L 601.529645 468.90957 
L 613.758768 156.358529 
" style="fill:none;stroke:#b0b0b0;stroke-width:0.8;"/>
   </g>
   <g id="xtick_1">
    <g id="line2d_2">
     <path d="M 129.542405 541.422144 
L 124.750861 545.540126 
" style="fill:none;stroke:#000000;stroke-linecap:square;stroke-width:0.8;"/>
    </g>
    <g id="text_2">
     <!-- −10.0 -->
     <defs>
      <path d="M 10.59375 35.5 
L 73.1875 35.5 
L 73.1875 27.203125 
L 10.59375 27.203125 
z
" id="DejaVuSans-2212"/>
      <path d="M 12.40625 8.296875 
L 28.515625 8.296875 
L 28.515625 63.921875 
L 10.984375 60.40625 
L 10.984375 69.390625 
L 28.421875 72.90625 
L 38.28125 72.90625 
L 38.28125 8.296875 
L 54.390625 8.296875 
L 54.390625 0 
L 12.40625 0 
z
" id="DejaVuSans-31"/>
      <path d="M 31.78125 66.40625 
Q 24.171875 66.40625 20.328125 58.90625 
Q 16.5 51.421875 16.5 36.375 
Q 16.5 21.390625 20.328125 13.890625 
Q 24.171875 6.390625 31.78125 6.390625 
Q 39.453125 6.390625 43.28125 13.890625 
Q 47.125 21.390625 47.125 36.375 
Q 47.125 51.421875 43.28125 58.90625 
Q 39.453125 66.40625 31.78125 66.40625 
z
M 31.78125 74.21875 
Q 44.046875 74.21875 50.515625 64.515625 
Q 56.984375 54.828125 56.984375 36.375 
Q 56.984375 17.96875 50.515625 8.265625 
Q 44.046875 -1.421875 31.78125 -1.421875 
Q 19.53125 -1.421875 13.0625 8.265625 
Q 6.59375 17.96875 6.59375 36.375 
Q 6.59375 54.828125 13.0625 64.515625 
Q 19.53125 74.21875 31.78125 74.21875 
z
" id="DejaVuSans-30"/>
      <path d="M 10.6875 12.40625 
L 21 12.40625 
L 21 0 
L 10.6875 0 
z
" id="DejaVuSans-2e"/>
     </defs>
     <g transform="translate(90.921394 574.184766)scale(0.2 -0.2)">
      <use xlink:href="#DejaVuSans-2212"/>
      <use x="83.789062" xlink:href="#DejaVuSans-31"/>
      <use x="147.412109" xlink:href="#DejaVuSans-30"/>
      <use x="211.035156" xlink:href="#DejaVuSans-2e"/>
      <use x="242.822266" xlink:href="#DejaVuSans-30"/>
     </g>
    </g>
   </g>
   <g id="xtick_2">
    <g id="line2d_3">
     <path d="M 166.025316 553.351629 
L 161.276159 557.51418 
" style="fill:none;stroke:#000000;stroke-linecap:square;stroke-width:0.8;"/>
    </g>
    <g id="text_3">
     <!-- −7.5 -->
     <defs>
      <path d="M 8.203125 72.90625 
L 55.078125 72.90625 
L 55.078125 68.703125 
L 28.609375 0 
L 18.3125 0 
L 43.21875 64.59375 
L 8.203125 64.59375 
z
" id="DejaVuSans-37"/>
      <path d="M 10.796875 72.90625 
L 49.515625 72.90625 
L 49.515625 64.59375 
L 19.828125 64.59375 
L 19.828125 46.734375 
Q 21.96875 47.46875 24.109375 47.828125 
Q 26.265625 48.1875 28.421875 48.1875 
Q 40.625 48.1875 47.75 41.5 
Q 54.890625 34.8125 54.890625 23.390625 
Q 54.890625 11.625 47.5625 5.09375 
Q 40.234375 -1.421875 26.90625 -1.421875 
Q 22.3125 -1.421875 17.546875 -0.640625 
Q 12.796875 0.140625 7.71875 1.703125 
L 7.71875 11.625 
Q 12.109375 9.234375 16.796875 8.0625 
Q 21.484375 6.890625 26.703125 6.890625 
Q 35.15625 6.890625 40.078125 11.328125 
Q 45.015625 15.765625 45.015625 23.390625 
Q 45.015625 31 40.078125 35.4375 
Q 35.15625 39.890625 26.703125 39.890625 
Q 22.75 39.890625 18.8125 39.015625 
Q 14.890625 38.140625 10.796875 36.28125 
z
" id="DejaVuSans-35"/>
     </defs>
     <g transform="translate(133.778782 586.227106)scale(0.2 -0.2)">
      <use xlink:href="#DejaVuSans-2212"/>
      <use x="83.789062" xlink:href="#DejaVuSans-37"/>
      <use x="147.412109" xlink:href="#DejaVuSans-2e"/>
      <use x="179.199219" xlink:href="#DejaVuSans-35"/>
     </g>
    </g>
   </g>
   <g id="xtick_3">
    <g id="line2d_4">
     <path d="M 202.903787 565.410457 
L 198.198221 569.618305 
" style="fill:none;stroke:#000000;stroke-linecap:square;stroke-width:0.8;"/>
    </g>
    <g id="text_4">
     <!-- −5.0 -->
     <g transform="translate(170.66996 598.400212)scale(0.2 -0.2)">
      <use xlink:href="#DejaVuSans-2212"/>
      <use x="83.789062" xlink:href="#DejaVuSans-35"/>
      <use x="147.412109" xlink:href="#DejaVuSans-2e"/>
      <use x="179.199219" xlink:href="#DejaVuSans-30"/>
     </g>
    </g>
   </g>
   <g id="xtick_4">
    <g id="line2d_5">
     <path d="M 240.184287 577.600744 
L 235.52355 581.854633 
" style="fill:none;stroke:#000000;stroke-linecap:square;stroke-width:0.8;"/>
    </g>
    <g id="text_5">
     <!-- −2.5 -->
     <defs>
      <path d="M 19.1875 8.296875 
L 53.609375 8.296875 
L 53.609375 0 
L 7.328125 0 
L 7.328125 8.296875 
Q 12.9375 14.109375 22.625 23.890625 
Q 32.328125 33.6875 34.8125 36.53125 
Q 39.546875 41.84375 41.421875 45.53125 
Q 43.3125 49.21875 43.3125 52.78125 
Q 43.3125 58.59375 39.234375 62.25 
Q 35.15625 65.921875 28.609375 65.921875 
Q 23.96875 65.921875 18.8125 64.3125 
Q 13.671875 62.703125 7.8125 59.421875 
L 7.8125 69.390625 
Q 13.765625 71.78125 18.9375 73 
Q 24.125 74.21875 28.421875 74.21875 
Q 39.75 74.21875 46.484375 68.546875 
Q 53.21875 62.890625 53.21875 53.421875 
Q 53.21875 48.921875 51.53125 44.890625 
Q 49.859375 40.875 45.40625 35.40625 
Q 44.1875 33.984375 37.640625 27.21875 
Q 31.109375 20.453125 19.1875 8.296875 
z
" id="DejaVuSans-32"/>
     </defs>
     <g transform="translate(207.963919 610.706225)scale(0.2 -0.2)">
      <use xlink:href="#DejaVuSans-2212"/>
      <use x="83.789062" xlink:href="#DejaVuSans-32"/>
      <use x="147.412109" xlink:href="#DejaVuSans-2e"/>
      <use x="179.199219" xlink:href="#DejaVuSans-35"/>
     </g>
    </g>
   </g>
   <g id="xtick_5">
    <g id="line2d_6">
     <path d="M 277.873425 589.924651 
L 273.258786 594.22534 
" style="fill:none;stroke:#000000;stroke-linecap:square;stroke-width:0.8;"/>
    </g>
    <g id="text_6">
     <!-- 0.0 -->
     <g transform="translate(254.046979 623.147333)scale(0.2 -0.2)">
      <use xlink:href="#DejaVuSans-30"/>
      <use x="63.623047" xlink:href="#DejaVuSans-2e"/>
      <use x="95.410156" xlink:href="#DejaVuSans-30"/>
     </g>
    </g>
   </g>
   <g id="xtick_6">
    <g id="line2d_7">
     <path d="M 315.977958 602.384387 
L 311.41072 606.732652 
" style="fill:none;stroke:#000000;stroke-linecap:square;stroke-width:0.8;"/>
    </g>
    <g id="text_7">
     <!-- 2.5 -->
     <g transform="translate(292.166543 635.725774)scale(0.2 -0.2)">
      <use xlink:href="#DejaVuSans-32"/>
      <use x="63.623047" xlink:href="#DejaVuSans-2e"/>
      <use x="95.410156" xlink:href="#DejaVuSans-35"/>
     </g>
    </g>
   </g>
   <g id="xtick_7">
    <g id="line2d_8">
     <path d="M 354.504791 614.98221 
L 349.986293 619.378846 
" style="fill:none;stroke:#000000;stroke-linecap:square;stroke-width:0.8;"/>
    </g>
    <g id="text_8">
     <!-- 5.0 -->
     <g transform="translate(330.709229 648.443833)scale(0.2 -0.2)">
      <use xlink:href="#DejaVuSans-35"/>
      <use x="63.623047" xlink:href="#DejaVuSans-2e"/>
      <use x="95.410156" xlink:href="#DejaVuSans-30"/>
     </g>
    </g>
   </g>
   <g id="xtick_8">
    <g id="line2d_9">
     <path d="M 393.460983 627.720429 
L 388.9926 632.166247 
" style="fill:none;stroke:#000000;stroke-linecap:square;stroke-width:0.8;"/>
    </g>
    <g id="text_9">
     <!-- 7.5 -->
     <g transform="translate(369.682121 661.303849)scale(0.2 -0.2)">
      <use xlink:href="#DejaVuSans-37"/>
      <use x="63.623047" xlink:href="#DejaVuSans-2e"/>
      <use x="95.410156" xlink:href="#DejaVuSans-35"/>
     </g>
    </g>
   </g>
   <g id="xtick_9">
    <g id="line2d_10">
     <path d="M 432.853752 640.601403 
L 428.436896 645.097233 
" style="fill:none;stroke:#000000;stroke-linecap:square;stroke-width:0.8;"/>
    </g>
    <g id="text_10">
     <!-- 10.0 -->
     <g transform="translate(402.729962 674.308211)scale(0.2 -0.2)">
      <use xlink:href="#DejaVuSans-31"/>
      <use x="63.623047" xlink:href="#DejaVuSans-30"/>
      <use x="127.246094" xlink:href="#DejaVuSans-2e"/>
      <use x="159.033203" xlink:href="#DejaVuSans-30"/>
     </g>
    </g>
   </g>
  </g>
  <g id="axis3d_2">
   <g id="line2d_11">
    <path d="M 607.792772 470.761251 
L 437.994703 644.26175 
" style="fill:none;stroke:#000000;stroke-linecap:square;stroke-width:0.8;"/>
   </g>
   <g id="text_11">
    <!-- Q ($\bf{A^{-1}}$) -->
    <defs>
     <path d="M 44.484375 -1.3125 
L 43.015625 -1.3125 
Q 25 -1.3125 14.984375 8.640625 
Q 4.984375 18.609375 4.984375 36.375 
Q 4.984375 54.109375 14.96875 64.15625 
Q 24.953125 74.21875 42.484375 74.21875 
Q 60.203125 74.21875 70.09375 64.25 
Q 79.984375 54.296875 79.984375 36.375 
Q 79.984375 24.078125 74.734375 15.1875 
Q 69.484375 6.296875 59.625 1.8125 
L 74.3125 -14.59375 
L 56.390625 -14.59375 
z
M 42.484375 60.59375 
Q 33.890625 60.59375 29.15625 54.25 
Q 24.421875 47.90625 24.421875 36.375 
Q 24.421875 24.65625 29.046875 18.421875 
Q 33.6875 12.203125 42.484375 12.203125 
Q 51.125 12.203125 55.859375 18.546875 
Q 60.59375 24.90625 60.59375 36.375 
Q 60.59375 47.90625 55.859375 54.25 
Q 51.125 60.59375 42.484375 60.59375 
z
" id="DejaVuSans-Bold-51"/>
     <path d="M 53.421875 13.28125 
L 24.03125 13.28125 
L 19.390625 0 
L 0.484375 0 
L 27.484375 72.90625 
L 49.90625 72.90625 
L 76.90625 0 
L 58.015625 0 
z
M 28.71875 26.8125 
L 48.6875 26.8125 
L 38.71875 55.8125 
z
" id="DejaVuSans-Bold-41"/>
     <path d="M 10.59375 37.109375 
L 73.1875 37.109375 
L 73.1875 25.59375 
L 10.59375 25.59375 
z
" id="DejaVuSans-Bold-2212"/>
     <path d="M 11.71875 12.984375 
L 28.328125 12.984375 
L 28.328125 60.109375 
L 11.28125 56.59375 
L 11.28125 69.390625 
L 28.21875 72.90625 
L 46.09375 72.90625 
L 46.09375 12.984375 
L 62.703125 12.984375 
L 62.703125 0 
L 11.71875 0 
z
" id="DejaVuSans-Bold-31"/>
    </defs>
    <g transform="translate(525.984215 617.095191)rotate(-45.617904)scale(0.2 -0.2)">
     <use transform="translate(0 0.684375)" xlink:href="#DejaVuSans-Bold-51"/>
     <use transform="translate(85.009766 0.684375)" xlink:href="#DejaVuSans-Bold-20"/>
     <use transform="translate(119.824219 0.684375)" xlink:href="#DejaVuSans-Bold-28"/>
     <use transform="translate(165.527344 0.684375)" xlink:href="#DejaVuSans-Bold-41"/>
     <use transform="translate(243.876953 38.965625)scale(0.7)" xlink:href="#DejaVuSans-Bold-2212"/>
     <use transform="translate(302.529297 38.965625)scale(0.7)" xlink:href="#DejaVuSans-Bold-31"/>
     <use transform="translate(353.969727 0.684375)" xlink:href="#DejaVuSans-Bold-29"/>
    </g>
   </g>
   <g id="Line3DCollection_2">
    <path d="M 133.263336 203.029647 
L 145.302702 520.76901 
L 459.481607 622.306326 
" style="fill:none;stroke:#b0b0b0;stroke-width:0.8;"/>
    <path d="M 155.729159 186.651323 
L 166.529628 502.584992 
L 478.957117 602.406155 
" style="fill:none;stroke:#b0b0b0;stroke-width:0.8;"/>
    <path d="M 177.805707 170.556794 
L 187.40724 484.700212 
L 498.097542 582.848374 
" style="fill:none;stroke:#b0b0b0;stroke-width:0.8;"/>
    <path d="M 199.503011 154.738746 
L 207.944091 467.107345 
L 516.911459 563.624222 
" style="fill:none;stroke:#b0b0b0;stroke-width:0.8;"/>
    <path d="M 220.83076 139.190115 
L 228.148456 449.799302 
L 535.40715 544.725234 
" style="fill:none;stroke:#b0b0b0;stroke-width:0.8;"/>
    <path d="M 241.798316 123.904078 
L 248.028345 432.769221 
L 553.592621 526.14323 
" style="fill:none;stroke:#b0b0b0;stroke-width:0.8;"/>
    <path d="M 262.414727 108.874036 
L 267.591511 416.01046 
L 571.475613 507.870301 
" style="fill:none;stroke:#b0b0b0;stroke-width:0.8;"/>
    <path d="M 282.688741 94.093613 
L 286.845463 399.516587 
L 589.063611 489.898799 
" style="fill:none;stroke:#b0b0b0;stroke-width:0.8;"/>
   </g>
   <g id="xtick_10">
    <g id="line2d_12">
     <path d="M 456.852714 621.456712 
L 464.745244 624.007444 
" style="fill:none;stroke:#000000;stroke-linecap:square;stroke-width:0.8;"/>
    </g>
    <g id="text_12">
     <!-- 0.4 -->
     <defs>
      <path d="M 37.796875 64.3125 
L 12.890625 25.390625 
L 37.796875 25.390625 
z
M 35.203125 72.90625 
L 47.609375 72.90625 
L 47.609375 25.390625 
L 58.015625 25.390625 
L 58.015625 17.1875 
L 47.609375 17.1875 
L 47.609375 0 
L 37.796875 0 
L 37.796875 17.1875 
L 4.890625 17.1875 
L 4.890625 26.703125 
z
" id="DejaVuSans-34"/>
     </defs>
     <g transform="translate(454.611712 651.683817)scale(0.2 -0.2)">
      <use xlink:href="#DejaVuSans-30"/>
      <use x="63.623047" xlink:href="#DejaVuSans-2e"/>
      <use x="95.410156" xlink:href="#DejaVuSans-34"/>
     </g>
    </g>
   </g>
   <g id="xtick_11">
    <g id="line2d_13">
     <path d="M 476.343874 601.571219 
L 484.189366 604.077868 
" style="fill:none;stroke:#000000;stroke-linecap:square;stroke-width:0.8;"/>
    </g>
    <g id="text_13">
     <!-- 0.6 -->
     <defs>
      <path d="M 33.015625 40.375 
Q 26.375 40.375 22.484375 35.828125 
Q 18.609375 31.296875 18.609375 23.390625 
Q 18.609375 15.53125 22.484375 10.953125 
Q 26.375 6.390625 33.015625 6.390625 
Q 39.65625 6.390625 43.53125 10.953125 
Q 47.40625 15.53125 47.40625 23.390625 
Q 47.40625 31.296875 43.53125 35.828125 
Q 39.65625 40.375 33.015625 40.375 
z
M 52.59375 71.296875 
L 52.59375 62.3125 
Q 48.875 64.0625 45.09375 64.984375 
Q 41.3125 65.921875 37.59375 65.921875 
Q 27.828125 65.921875 22.671875 59.328125 
Q 17.53125 52.734375 16.796875 39.40625 
Q 19.671875 43.65625 24.015625 45.921875 
Q 28.375 48.1875 33.59375 48.1875 
Q 44.578125 48.1875 50.953125 41.515625 
Q 57.328125 34.859375 57.328125 23.390625 
Q 57.328125 12.15625 50.6875 5.359375 
Q 44.046875 -1.421875 33.015625 -1.421875 
Q 20.359375 -1.421875 13.671875 8.265625 
Q 6.984375 17.96875 6.984375 36.375 
Q 6.984375 53.65625 15.1875 63.9375 
Q 23.390625 74.21875 37.203125 74.21875 
Q 40.921875 74.21875 44.703125 73.484375 
Q 48.484375 72.75 52.59375 71.296875 
z
" id="DejaVuSans-36"/>
     </defs>
     <g transform="translate(473.986792 631.665442)scale(0.2 -0.2)">
      <use xlink:href="#DejaVuSans-30"/>
      <use x="63.623047" xlink:href="#DejaVuSans-2e"/>
      <use x="95.410156" xlink:href="#DejaVuSans-36"/>
     </g>
    </g>
   </g>
   <g id="xtick_12">
    <g id="line2d_14">
     <path d="M 495.499804 582.027739 
L 503.298701 584.491438 
" style="fill:none;stroke:#000000;stroke-linecap:square;stroke-width:0.8;"/>
    </g>
    <g id="text_14">
     <!-- 0.8 -->
     <defs>
      <path d="M 31.78125 34.625 
Q 24.75 34.625 20.71875 30.859375 
Q 16.703125 27.09375 16.703125 20.515625 
Q 16.703125 13.921875 20.71875 10.15625 
Q 24.75 6.390625 31.78125 6.390625 
Q 38.8125 6.390625 42.859375 10.171875 
Q 46.921875 13.96875 46.921875 20.515625 
Q 46.921875 27.09375 42.890625 30.859375 
Q 38.875 34.625 31.78125 34.625 
z
M 21.921875 38.8125 
Q 15.578125 40.375 12.03125 44.71875 
Q 8.5 49.078125 8.5 55.328125 
Q 8.5 64.0625 14.71875 69.140625 
Q 20.953125 74.21875 31.78125 74.21875 
Q 42.671875 74.21875 48.875 69.140625 
Q 55.078125 64.0625 55.078125 55.328125 
Q 55.078125 49.078125 51.53125 44.71875 
Q 48 40.375 41.703125 38.8125 
Q 48.828125 37.15625 52.796875 32.3125 
Q 56.78125 27.484375 56.78125 20.515625 
Q 56.78125 9.90625 50.3125 4.234375 
Q 43.84375 -1.421875 31.78125 -1.421875 
Q 19.734375 -1.421875 13.25 4.234375 
Q 6.78125 9.90625 6.78125 20.515625 
Q 6.78125 27.484375 10.78125 32.3125 
Q 14.796875 37.15625 21.921875 38.8125 
z
M 18.3125 54.390625 
Q 18.3125 48.734375 21.84375 45.5625 
Q 25.390625 42.390625 31.78125 42.390625 
Q 38.140625 42.390625 41.71875 45.5625 
Q 45.3125 48.734375 45.3125 54.390625 
Q 45.3125 60.0625 41.71875 63.234375 
Q 38.140625 66.40625 31.78125 66.40625 
Q 25.390625 66.40625 21.84375 63.234375 
Q 18.3125 60.0625 18.3125 54.390625 
z
" id="DejaVuSans-38"/>
     </defs>
     <g transform="translate(493.028597 611.991408)scale(0.2 -0.2)">
      <use xlink:href="#DejaVuSans-30"/>
      <use x="63.623047" xlink:href="#DejaVuSans-2e"/>
      <use x="95.410156" xlink:href="#DejaVuSans-38"/>
     </g>
    </g>
   </g>
   <g id="xtick_13">
    <g id="line2d_15">
     <path d="M 514.329077 562.817524 
L 522.081821 565.239367 
" style="fill:none;stroke:#000000;stroke-linecap:square;stroke-width:0.8;"/>
    </g>
    <g id="text_15">
     <!-- 1.0 -->
     <g transform="translate(511.745651 592.652906)scale(0.2 -0.2)">
      <use xlink:href="#DejaVuSans-31"/>
      <use x="63.623047" xlink:href="#DejaVuSans-2e"/>
      <use x="95.410156" xlink:href="#DejaVuSans-30"/>
     </g>
    </g>
   </g>
   <g id="xtick_14">
    <g id="line2d_16">
     <path d="M 532.839979 543.932121 
L 540.547009 546.313166 
" style="fill:none;stroke:#000000;stroke-linecap:square;stroke-width:0.8;"/>
    </g>
    <g id="text_16">
     <!-- 1.2 -->
     <g transform="translate(530.146193 573.641426)scale(0.2 -0.2)">
      <use xlink:href="#DejaVuSans-31"/>
      <use x="63.623047" xlink:href="#DejaVuSans-2e"/>
      <use x="95.410156" xlink:href="#DejaVuSans-32"/>
     </g>
    </g>
   </g>
   <g id="xtick_15">
    <g id="line2d_17">
     <path d="M 551.040518 525.363361 
L 558.702269 527.704631 
" style="fill:none;stroke:#000000;stroke-linecap:square;stroke-width:0.8;"/>
    </g>
    <g id="text_17">
     <!-- 1.4 -->
     <g transform="translate(548.238184 554.948742)scale(0.2 -0.2)">
      <use xlink:href="#DejaVuSans-31"/>
      <use x="63.623047" xlink:href="#DejaVuSans-2e"/>
      <use x="95.410156" xlink:href="#DejaVuSans-34"/>
     </g>
    </g>
   </g>
   <g id="xtick_16">
    <g id="line2d_18">
     <path d="M 568.938432 507.103347 
L 576.555339 509.40583 
" style="fill:none;stroke:#000000;stroke-linecap:square;stroke-width:0.8;"/>
    </g>
    <g id="text_18">
     <!-- 1.6 -->
     <g transform="translate(566.02932 536.566901)scale(0.2 -0.2)">
      <use xlink:href="#DejaVuSans-31"/>
      <use x="63.623047" xlink:href="#DejaVuSans-2e"/>
      <use x="95.410156" xlink:href="#DejaVuSans-36"/>
     </g>
    </g>
   </g>
   <g id="xtick_17">
    <g id="line2d_19">
     <path d="M 586.541209 489.144443 
L 594.113703 491.409094 
" style="fill:none;stroke:#000000;stroke-linecap:square;stroke-width:0.8;"/>
    </g>
    <g id="text_19">
     <!-- 1.8 -->
     <g transform="translate(583.527044 518.488214)scale(0.2 -0.2)">
      <use xlink:href="#DejaVuSans-31"/>
      <use x="63.623047" xlink:href="#DejaVuSans-2e"/>
      <use x="95.410156" xlink:href="#DejaVuSans-38"/>
     </g>
    </g>
   </g>
  </g>
  <g id="axis3d_3">
   <g id="line2d_20">
    <path d="M 607.792772 470.761251 
L 620.362376 158.022911 
" style="fill:none;stroke:#000000;stroke-linecap:square;stroke-width:0.8;"/>
   </g>
   <g id="text_20">
    <!-- Intensity (A.U.) -->
    <defs>
     <path d="M 9.1875 72.90625 
L 27.984375 72.90625 
L 27.984375 0 
L 9.1875 0 
z
" id="DejaVuSans-Bold-49"/>
     <path d="M 27.484375 70.21875 
L 27.484375 54.6875 
L 45.515625 54.6875 
L 45.515625 42.1875 
L 27.484375 42.1875 
L 27.484375 19 
Q 27.484375 15.1875 29 13.84375 
Q 30.515625 12.5 35.015625 12.5 
L 44 12.5 
L 44 0 
L 29 0 
Q 18.65625 0 14.328125 4.3125 
Q 10.015625 8.640625 10.015625 19 
L 10.015625 42.1875 
L 1.3125 42.1875 
L 1.3125 54.6875 
L 10.015625 54.6875 
L 10.015625 70.21875 
z
" id="DejaVuSans-Bold-74"/>
     <path d="M 51.125 52.984375 
L 51.125 39.703125 
Q 45.515625 42.046875 40.28125 43.21875 
Q 35.0625 44.390625 30.421875 44.390625 
Q 25.4375 44.390625 23.015625 43.140625 
Q 20.609375 41.890625 20.609375 39.3125 
Q 20.609375 37.203125 22.4375 36.078125 
Q 24.265625 34.96875 29 34.421875 
L 32.078125 33.984375 
Q 45.515625 32.28125 50.140625 28.375 
Q 54.78125 24.46875 54.78125 16.109375 
Q 54.78125 7.375 48.328125 2.96875 
Q 41.890625 -1.421875 29.109375 -1.421875 
Q 23.6875 -1.421875 17.890625 -0.5625 
Q 12.109375 0.296875 6 2 
L 6 15.28125 
Q 11.234375 12.75 16.71875 11.46875 
Q 22.21875 10.203125 27.875 10.203125 
Q 33.015625 10.203125 35.59375 11.609375 
Q 38.1875 13.03125 38.1875 15.828125 
Q 38.1875 18.171875 36.40625 19.3125 
Q 34.625 20.453125 29.296875 21.09375 
L 26.21875 21.484375 
Q 14.546875 22.953125 9.859375 26.90625 
Q 5.171875 30.859375 5.171875 38.921875 
Q 5.171875 47.609375 11.125 51.796875 
Q 17.09375 56 29.390625 56 
Q 34.234375 56 39.546875 55.265625 
Q 44.875 54.546875 51.125 52.984375 
z
" id="DejaVuSans-Bold-73"/>
     <path d="M 8.40625 54.6875 
L 25.875 54.6875 
L 25.875 0 
L 8.40625 0 
z
M 8.40625 75.984375 
L 25.875 75.984375 
L 25.875 61.71875 
L 8.40625 61.71875 
z
" id="DejaVuSans-Bold-69"/>
     <path d="M 10.203125 18.890625 
L 27.78125 18.890625 
L 27.78125 0 
L 10.203125 0 
z
" id="DejaVuSans-Bold-2e"/>
     <path d="M 9.1875 72.90625 
L 27.984375 72.90625 
L 27.984375 29.203125 
Q 27.984375 20.171875 30.9375 16.28125 
Q 33.890625 12.40625 40.578125 12.40625 
Q 47.3125 12.40625 50.265625 16.28125 
Q 53.21875 20.171875 53.21875 29.203125 
L 53.21875 72.90625 
L 72.015625 72.90625 
L 72.015625 29.203125 
Q 72.015625 13.71875 64.25 6.140625 
Q 56.5 -1.421875 40.578125 -1.421875 
Q 24.703125 -1.421875 16.9375 6.140625 
Q 9.1875 13.71875 9.1875 29.203125 
z
" id="DejaVuSans-Bold-55"/>
    </defs>
    <g transform="translate(651.532212 400.049641)rotate(-87.698402)scale(0.2 -0.2)">
     <use xlink:href="#DejaVuSans-Bold-49"/>
     <use x="37.207031" xlink:href="#DejaVuSans-Bold-6e"/>
     <use x="108.398438" xlink:href="#DejaVuSans-Bold-74"/>
     <use x="156.201172" xlink:href="#DejaVuSans-Bold-65"/>
     <use x="224.023438" xlink:href="#DejaVuSans-Bold-6e"/>
     <use x="295.214844" xlink:href="#DejaVuSans-Bold-73"/>
     <use x="354.736328" xlink:href="#DejaVuSans-Bold-69"/>
     <use x="389.013672" xlink:href="#DejaVuSans-Bold-74"/>
     <use x="436.816406" xlink:href="#DejaVuSans-Bold-79"/>
     <use x="502.001953" xlink:href="#DejaVuSans-Bold-20"/>
     <use x="536.816406" xlink:href="#DejaVuSans-Bold-28"/>
     <use x="582.519531" xlink:href="#DejaVuSans-Bold-41"/>
     <use x="659.927734" xlink:href="#DejaVuSans-Bold-2e"/>
     <use x="697.916016" xlink:href="#DejaVuSans-Bold-55"/>
     <use x="779.117188" xlink:href="#DejaVuSans-Bold-2e"/>
     <use x="817.105469" xlink:href="#DejaVuSans-Bold-29"/>
    </g>
   </g>
   <g id="Line3DCollection_3">
    <path d="M 609.85051 419.563637 
L 306.856998 332.150354 
L 119.707247 488.550729 
" style="fill:none;stroke:#b0b0b0;stroke-width:0.8;"/>
    <path d="M 611.716591 373.134574 
L 306.398071 287.02891 
L 117.71547 441.129045 
" style="fill:none;stroke:#b0b0b0;stroke-width:0.8;"/>
    <path d="M 613.611784 325.981178 
L 305.932288 241.233405 
L 115.691577 392.942734 
" style="fill:none;stroke:#b0b0b0;stroke-width:0.8;"/>
    <path d="M 615.536776 278.086363 
L 305.459495 194.74862 
L 113.634786 343.973154 
" style="fill:none;stroke:#b0b0b0;stroke-width:0.8;"/>
    <path d="M 617.492276 229.432506 
L 304.979532 147.558876 
L 111.544287 294.201048 
" style="fill:none;stroke:#b0b0b0;stroke-width:0.8;"/>
    <path d="M 619.479015 180.001418 
L 304.492234 99.648014 
L 109.419246 243.606527 
" style="fill:none;stroke:#b0b0b0;stroke-width:0.8;"/>
   </g>
   <g id="xtick_18">
    <g id="line2d_21">
     <path d="M 607.321671 418.83407 
L 614.913489 421.0243 
" style="fill:none;stroke:#000000;stroke-linecap:square;stroke-width:0.8;"/>
    </g>
    <g id="text_21">
     <!-- 0.2 -->
     <g transform="translate(610.097474 432.487406)scale(0.2 -0.2)">
      <use xlink:href="#DejaVuSans-30"/>
      <use x="63.623047" xlink:href="#DejaVuSans-2e"/>
      <use x="95.410156" xlink:href="#DejaVuSans-32"/>
     </g>
    </g>
   </g>
   <g id="xtick_19">
    <g id="line2d_22">
     <path d="M 609.167529 372.41569 
L 616.820099 374.573861 
" style="fill:none;stroke:#000000;stroke-linecap:square;stroke-width:0.8;"/>
    </g>
    <g id="text_22">
     <!-- 0.4 -->
     <g transform="translate(612.086375 386.091641)scale(0.2 -0.2)">
      <use xlink:href="#DejaVuSans-30"/>
      <use x="63.623047" xlink:href="#DejaVuSans-2e"/>
      <use x="95.410156" xlink:href="#DejaVuSans-34"/>
     </g>
    </g>
   </g>
   <g id="xtick_20">
    <g id="line2d_23">
     <path d="M 611.042174 325.2734 
L 618.756475 327.39824 
" style="fill:none;stroke:#000000;stroke-linecap:square;stroke-width:0.8;"/>
    </g>
    <g id="text_23">
     <!-- 0.6 -->
     <g transform="translate(614.106272 338.972861)scale(0.2 -0.2)">
      <use xlink:href="#DejaVuSans-30"/>
      <use x="63.623047" xlink:href="#DejaVuSans-2e"/>
      <use x="95.410156" xlink:href="#DejaVuSans-36"/>
     </g>
    </g>
   </g>
   <g id="xtick_21">
    <g id="line2d_24">
     <path d="M 612.946284 277.390131 
L 620.723319 279.480321 
" style="fill:none;stroke:#000000;stroke-linecap:square;stroke-width:0.8;"/>
    </g>
    <g id="text_24">
     <!-- 0.8 -->
     <g transform="translate(616.157892 291.114032)scale(0.2 -0.2)">
      <use xlink:href="#DejaVuSans-30"/>
      <use x="63.623047" xlink:href="#DejaVuSans-2e"/>
      <use x="95.410156" xlink:href="#DejaVuSans-38"/>
     </g>
    </g>
   </g>
   <g id="xtick_22">
    <g id="line2d_25">
     <path d="M 614.88056 228.748276 
L 622.721356 230.802446 
" style="fill:none;stroke:#000000;stroke-linecap:square;stroke-width:0.8;"/>
    </g>
    <g id="text_25">
     <!-- 1.0 -->
     <g transform="translate(618.241991 242.497581)scale(0.2 -0.2)">
      <use xlink:href="#DejaVuSans-31"/>
      <use x="63.623047" xlink:href="#DejaVuSans-2e"/>
      <use x="95.410156" xlink:href="#DejaVuSans-30"/>
     </g>
    </g>
   </g>
   <g id="xtick_23">
    <g id="line2d_26">
     <path d="M 616.845724 179.329663 
L 624.751335 181.346392 
" style="fill:none;stroke:#000000;stroke-linecap:square;stroke-width:0.8;"/>
    </g>
    <g id="text_26">
     <!-- 1.2 -->
     <g transform="translate(620.359344 193.105375)scale(0.2 -0.2)">
      <use xlink:href="#DejaVuSans-31"/>
      <use x="63.623047" xlink:href="#DejaVuSans-2e"/>
      <use x="95.410156" xlink:href="#DejaVuSans-32"/>
     </g>
    </g>
   </g>
  </g>
  <g id="axes_1">
   <g id="line2d_27">
    <path clip-path="url(#p6edcbf79ad)" d="M 137.411294 523.946871 
L 143.201059 525.631171 
L 149.004834 527.417919 
L 154.79798 528.636147 
L 160.610489 530.086049 
L 166.415924 531.01712 
L 172.236569 532.049862 
L 178.075033 533.27276 
L 183.915917 534.212224 
L 189.74373 534.330138 
L 195.580898 534.303914 
L 201.415946 533.713203 
L 207.2274 531.712144 
L 213.042124 529.154693 
L 218.824617 524.577209 
L 224.614014 519.329332 
L 230.371971 511.684548 
L 236.111343 501.888736 
L 241.769926 486.726528 
L 247.318087 463.938905 
L 252.858003 437.590285 
L 258.38985 407.085655 
L 263.79812 365.015191 
L 269.293797 322.115996 
L 274.851977 276.568763 
L 280.966878 262.427953 
L 287.673328 289.638133 
L 294.749754 350.531362 
L 301.935619 431.157279 
L 308.896185 504.560846 
L 315.467658 550.283585 
L 321.769651 572.487555 
L 327.952707 582.189455 
L 334.097692 586.397204 
L 340.244658 589.759967 
L 346.394806 591.889225 
L 352.55602 594.203467 
L 358.726678 596.078611 
L 364.90875 598.324908 
L 371.101268 600.506597 
L 377.304707 602.467854 
L 383.519431 604.359427 
L 389.743853 606.693819 
L 395.980007 608.741422 
L 402.228794 610.513607 
L 408.486339 612.712638 
L 414.75533 614.830237 
L 421.036029 616.87102 
L 427.328683 618.839606 
L 433.631341 620.935049 
" style="fill:none;stroke:#fc8a6a;stroke-dasharray:12.8,3.2,2,3.2;stroke-dashoffset:0;stroke-width:2;"/>
   </g>
   <g id="line2d_28">
    <path clip-path="url(#p6edcbf79ad)" d="M 158.829541 505.685678 
L 164.588184 507.293815 
L 170.360862 509.017548 
L 176.129791 510.320692 
L 181.920255 511.962657 
L 187.711037 513.2825 
L 193.510424 514.526396 
L 199.312707 515.486369 
L 205.121238 516.251838 
L 210.94565 517.160006 
L 216.755872 517.05814 
L 222.574148 516.72183 
L 228.38237 515.358229 
L 234.218526 514.497923 
L 240.043899 512.430713 
L 245.824447 507.343622 
L 251.646621 503.142723 
L 257.415225 494.900833 
L 263.161092 483.662283 
L 268.868661 467.954874 
L 274.545143 447.370451 
L 280.159334 418.783154 
L 285.822791 388.520351 
L 291.467447 350.817446 
L 297.213022 313.926857 
L 303.182661 289.559368 
L 309.482186 292.589714 
L 316.051682 325.808989 
L 322.805304 390.16561 
L 329.467605 458.508435 
L 335.913433 510.624696 
L 342.171518 541.824268 
L 348.326463 557.788856 
L 354.441212 564.885349 
L 360.551902 569.14095 
L 366.667921 571.899932 
L 372.793362 574.08435 
L 378.928953 576.333368 
L 385.075078 578.450098 
L 391.231662 580.572779 
L 397.399034 582.638045 
L 403.577669 584.603536 
L 409.767181 586.574843 
L 415.96603 588.744771 
L 422.176873 590.758433 
L 428.39917 592.721495 
L 434.633097 594.636233 
L 440.876838 596.665151 
L 447.130062 598.808431 
L 453.395629 600.846908 
" style="fill:none;stroke:#fb7252;stroke-dasharray:12.8,3.2,2,3.2;stroke-dashoffset:0;stroke-width:2;"/>
   </g>
   <g id="line2d_29">
    <path clip-path="url(#p6edcbf79ad)" d="M 179.883947 487.445897 
L 185.615867 489.095599 
L 191.35811 490.759618 
L 197.095543 491.915808 
L 202.860383 493.660949 
L 208.625385 495.04906 
L 214.385857 495.85907 
L 220.165795 496.978556 
L 225.955314 498.033542 
L 231.73914 498.354257 
L 237.530805 498.452206 
L 243.33759 498.638028 
L 249.136752 497.796582 
L 254.930707 495.893319 
L 260.732525 493.46971 
L 266.528411 489.632587 
L 272.302874 483.166053 
L 278.10568 476.81295 
L 283.876363 466.35073 
L 289.633305 452.229945 
L 295.348223 431.237926 
L 301.053525 404.402818 
L 306.809241 375.840773 
L 312.586935 341.884703 
L 318.442419 307.296154 
L 324.476656 285.750504 
L 330.726136 289.482164 
L 337.114471 318.603028 
L 343.561618 372.54504 
L 349.938302 434.464755 
L 356.177084 484.28342 
L 362.308601 516.269679 
L 368.387911 534.825137 
L 374.45231 544.193029 
L 380.520892 549.035101 
L 386.600484 551.730707 
L 392.689144 554.399977 
L 398.788398 556.767753 
L 404.900218 558.672706 
L 411.019933 560.968473 
L 417.151558 563.0251 
L 423.296127 564.81653 
L 429.448385 566.933804 
L 435.612976 568.883907 
L 441.788629 570.814016 
L 447.973417 572.873956 
L 454.167202 575.047532 
L 460.376494 576.898971 
L 466.592786 578.999969 
L 472.819951 581.09048 
" style="fill:none;stroke:#f6583e;stroke-dasharray:12.8,3.2,2,3.2;stroke-dashoffset:0;stroke-width:2;"/>
   </g>
   <g id="line2d_30">
    <path clip-path="url(#p6edcbf79ad)" d="M 200.59444 469.508714 
L 206.296294 471.090767 
L 212.008189 472.680126 
L 217.725333 474.087704 
L 223.456134 475.634614 
L 229.187155 476.764467 
L 234.920077 477.496865 
L 240.677996 478.847818 
L 246.431347 479.46711 
L 252.194521 479.977796 
L 257.95949 479.930319 
L 263.731259 479.513234 
L 269.509012 478.610188 
L 275.28977 476.938172 
L 281.069083 474.038716 
L 286.847459 469.681894 
L 292.64775 465.313232 
L 298.409707 455.816673 
L 304.184003 444.465525 
L 309.963444 429.953731 
L 315.722453 408.301069 
L 321.51105 383.15241 
L 327.334599 353.73127 
L 333.205983 320.008957 
L 339.170532 288.643088 
L 345.261034 269.997336 
L 351.472918 276.015837 
L 357.724321 302.643315 
L 363.955672 353.683689 
L 370.096488 411.32753 
L 376.14618 459.549285 
L 382.143261 493.897464 
L 388.134522 512.9841 
L 394.139421 523.135921 
L 400.163575 528.443784 
L 406.202481 531.962782 
L 412.253848 534.753091 
L 418.319342 536.888457 
L 424.393589 539.155004 
L 430.477506 541.429821 
L 436.572499 543.592116 
L 442.681851 545.411614 
L 448.797962 547.527366 
L 454.925673 549.548908 
L 461.062387 551.662344 
L 467.212074 553.616265 
L 473.372743 555.552583 
L 479.542241 557.590187 
L 485.721212 559.682579 
L 491.916635 561.491418 
" style="fill:none;stroke:#ee3a2c;stroke-dasharray:12.8,3.2,2,3.2;stroke-dashoffset:0;stroke-width:2;"/>
   </g>
   <g id="line2d_31">
    <path clip-path="url(#p6edcbf79ad)" d="M 220.962383 451.586259 
L 226.634244 453.074441 
L 232.312338 454.404372 
L 238.005496 455.956605 
L 243.7028 457.239313 
L 249.40927 458.463068 
L 255.124025 459.570948 
L 260.843846 460.364872 
L 266.574421 461.121692 
L 272.30756 461.32647 
L 278.052129 461.454153 
L 283.802694 461.104887 
L 289.547798 459.309387 
L 295.311208 457.650786 
L 301.077373 454.789067 
L 306.83959 449.733511 
L 312.622721 444.438403 
L 318.399476 435.568795 
L 324.182513 423.399913 
L 329.984129 408.311876 
L 335.791828 386.41434 
L 341.642641 361.434651 
L 347.537965 331.08897 
L 353.499426 297.552515 
L 359.554406 272.575676 
L 365.679141 259.316913 
L 371.831278 272.610234 
L 377.950996 299.226174 
L 383.989977 342.404039 
L 389.931433 392.645251 
L 395.810324 437.437167 
L 401.685804 469.026042 
L 407.580399 490.063881 
L 413.52088 501.241645 
L 419.490751 507.979647 
L 425.490113 511.680065 
L 431.500455 514.962147 
L 437.529196 517.301756 
L 443.562143 520.049169 
L 449.616441 521.864762 
L 455.672662 524.263758 
L 461.744823 526.245551 
L 467.823992 528.420405 
L 473.914683 530.503868 
L 480.019801 532.359169 
L 486.129566 534.514288 
L 492.257911 536.262575 
L 498.389393 538.364239 
L 504.533643 540.355665 
L 510.689368 542.306346 
" style="fill:none;stroke:#d92523;stroke-dasharray:12.8,3.2,2,3.2;stroke-dashoffset:0;stroke-width:2;"/>
   </g>
   <g id="line2d_32">
    <path clip-path="url(#p6edcbf79ad)" d="M 241.015522 434.459092 
L 246.652408 435.602829 
L 252.311033 437.33242 
L 257.968738 438.512372 
L 263.636971 439.703513 
L 269.319193 441.113643 
L 275.002839 441.979339 
L 280.695209 442.688371 
L 286.397314 443.278817 
L 292.10406 443.324228 
L 297.814712 442.627593 
L 303.549548 442.847351 
L 309.284472 441.823114 
L 315.015882 438.74906 
L 320.770528 436.213348 
L 326.524672 431.063172 
L 332.29017 423.986772 
L 338.071249 414.696117 
L 343.876767 403.745624 
L 349.704836 388.96484 
L 355.556124 365.448233 
L 361.465503 340.706994 
L 367.436687 314.272794 
L 373.474292 286.930754 
L 379.566473 267.079398 
L 385.667037 263.516501 
L 391.730272 275.546243 
L 397.73702 297.402454 
L 403.660048 328.702346 
L 409.478187 368.370049 
L 415.247811 405.84173 
L 420.97071 441.643966 
L 426.754018 465.275835 
L 432.597931 480.125395 
L 438.503702 488.340524 
L 444.455252 492.753855 
L 450.431686 495.719653 
L 456.422173 498.26895 
L 462.425912 500.534682 
L 468.43633 502.960268 
L 474.463121 504.977795 
L 480.492837 507.366807 
L 486.537756 509.455593 
L 492.593682 511.490189 
L 498.653467 513.804616 
L 504.734536 515.606296 
L 510.823434 517.521797 
L 516.919608 519.560531 
L 523.03146 521.387916 
L 529.15134 523.310855 
" style="fill:none;stroke:#c3161b;stroke-dasharray:12.8,3.2,2,3.2;stroke-dashoffset:0;stroke-width:2;"/>
   </g>
   <g id="line2d_33">
    <path clip-path="url(#p6edcbf79ad)" d="M 260.744866 417.474337 
L 266.357214 418.743564 
L 271.980141 420.05316 
L 277.611897 421.293269 
L 283.257542 422.802769 
L 288.902531 423.544232 
L 294.562517 424.604224 
L 300.22972 425.378129 
L 305.906161 425.97785 
L 311.590798 426.238311 
L 317.27807 425.395358 
L 322.983556 425.070317 
L 328.695015 423.646501 
L 334.415589 421.114132 
L 340.150319 417.850987 
L 345.895348 412.274495 
L 351.661868 405.94766 
L 357.447178 396.233329 
L 363.262819 384.91436 
L 369.113745 368.917628 
L 375.017339 344.726329 
L 380.982172 320.082207 
L 387.012638 294.024653 
L 393.103697 268.92659 
L 399.219901 251.436588 
L 405.296075 248.807376 
L 411.286816 261.277792 
L 417.204971 281.564473 
L 423.066173 305.291888 
L 428.806933 337.843027 
L 434.476365 372.268712 
L 440.088607 406.890823 
L 445.719391 435.762227 
L 451.450251 454.234387 
L 457.260812 465.771948 
L 463.138667 472.469079 
L 469.070582 475.974552 
L 475.017846 478.992383 
L 480.98694 481.259377 
L 486.962007 483.687705 
L 492.956141 485.629797 
L 498.952927 487.902556 
L 504.962008 490.043637 
L 510.973428 492.486031 
L 517.001087 494.638595 
L 523.045442 496.519314 
L 529.084505 498.972292 
L 535.143691 501.031791 
L 541.215432 503.000458 
L 547.29533 505.034419 
" style="fill:none;stroke:#ac1117;stroke-dasharray:12.8,3.2,2,3.2;stroke-dashoffset:0;stroke-width:2;"/>
   </g>
   <g id="line2d_34">
    <path clip-path="url(#p6edcbf79ad)" d="M 280.158262 400.549524 
L 285.740793 401.608797 
L 291.336344 402.890863 
L 296.944119 404.378309 
L 302.554899 405.283027 
L 308.176708 406.236396 
L 313.809037 407.193783 
L 319.44783 407.658069 
L 325.098297 408.150201 
L 330.757189 408.163145 
L 336.425471 407.61669 
L 342.102236 405.939331 
L 347.794183 404.117567 
L 353.500004 401.452727 
L 359.220269 396.750901 
L 364.961715 391.361286 
L 370.72685 383.869415 
L 376.521484 374.51594 
L 382.356828 360.73678 
L 388.24153 343.85233 
L 394.199785 320.248618 
L 400.207146 298.50439 
L 406.276676 275.628361 
L 412.353253 259.898358 
L 418.44219 248.087588 
L 424.432078 251.281975 
L 430.309519 266.434341 
L 436.150388 283.44052 
L 441.951028 302.145108 
L 447.62049 329.177796 
L 453.226985 357.871056 
L 458.790785 386.527808 
L 464.340959 413.31958 
L 469.976309 432.72381 
L 475.719159 444.71831 
L 481.538821 452.095016 
L 487.404302 457.105089 
L 493.308125 460.446403 
L 499.220775 463.695976 
L 505.169255 465.688641 
L 511.126319 467.723204 
L 517.086985 469.995641 
L 523.069657 471.770114 
L 529.057087 473.743683 
L 535.045885 476.017007 
L 541.043694 478.296059 
L 547.0604 480.252094 
L 553.070373 482.743496 
L 559.110824 484.559923 
L 565.154759 486.580587 
" style="fill:none;stroke:#8c0912;stroke-dasharray:12.8,3.2,2,3.2;stroke-dashoffset:0;stroke-width:2;"/>
   </g>
   <g id="line2d_35">
    <path clip-path="url(#p6edcbf79ad)" d="M 299.2666 383.807832 
L 304.82635 385.187472 
L 310.393674 386.378593 
L 315.970735 387.565146 
L 321.55434 388.33373 
L 327.148349 389.070411 
L 332.752032 389.632611 
L 338.367753 390.385344 
L 343.991854 390.559596 
L 349.627703 390.694024 
L 355.274749 390.475534 
L 360.934487 390.258791 
L 366.606715 389.378218 
L 372.292972 388.484245 
L 377.995903 385.904213 
L 383.718555 382.360848 
L 389.463943 377.791108 
L 395.240974 370.844966 
L 401.055683 361.678086 
L 406.915673 350.107453 
L 412.847906 333.378956 
L 418.82523 316.625222 
L 424.839881 300.71718 
L 430.906135 284.019078 
L 436.93741 274.551942 
L 442.872287 275.67766 
L 448.69943 285.908251 
L 454.46496 300.057876 
L 460.237128 312.805295 
L 465.922622 330.251389 
L 471.555769 349.552694 
L 477.121255 371.255162 
L 482.625376 394.646669 
L 488.190414 413.323207 
L 493.830408 427.276307 
L 499.590939 435.059422 
L 505.41708 439.876622 
L 511.281876 443.228509 
L 517.16868 445.961753 
L 523.077037 448.166553 
L 529.005292 449.964646 
L 534.94051 451.865425 
L 540.886927 453.712574 
L 546.847924 455.399372 
L 552.811481 457.331926 
L 558.769125 459.753579 
L 564.737921 462.101498 
L 570.71643 464.425606 
L 576.704675 466.728154 
L 582.716249 468.633887 
" style="fill:none;stroke:#67000d;stroke-dasharray:12.8,3.2,2,3.2;stroke-dashoffset:0;stroke-width:2;"/>
   </g>
  </g>
  <g id="text_27">
   <!-- 15Br - 100 K -->
   <defs>
    <path d="M 10.59375 72.90625 
L 57.328125 72.90625 
L 57.328125 59.078125 
L 25.59375 59.078125 
L 25.59375 47.796875 
Q 27.734375 48.390625 29.90625 48.703125 
Q 32.078125 49.03125 34.421875 49.03125 
Q 47.75 49.03125 55.171875 42.359375 
Q 62.59375 35.6875 62.59375 23.78125 
Q 62.59375 11.96875 54.515625 5.265625 
Q 46.4375 -1.421875 32.078125 -1.421875 
Q 25.875 -1.421875 19.796875 -0.21875 
Q 13.71875 0.984375 7.71875 3.421875 
L 7.71875 18.21875 
Q 13.671875 14.796875 19.015625 13.078125 
Q 24.359375 11.375 29.109375 11.375 
Q 35.9375 11.375 39.859375 14.71875 
Q 43.796875 18.0625 43.796875 23.78125 
Q 43.796875 29.546875 39.859375 32.859375 
Q 35.9375 36.1875 29.109375 36.1875 
Q 25.046875 36.1875 20.453125 35.125 
Q 15.875 34.078125 10.59375 31.890625 
z
" id="DejaVuSans-Bold-35"/>
    <path d="M 38.375 44.671875 
Q 42.828125 44.671875 45.109375 46.625 
Q 47.40625 48.578125 47.40625 52.390625 
Q 47.40625 56.15625 45.109375 58.125 
Q 42.828125 60.109375 38.375 60.109375 
L 27.984375 60.109375 
L 27.984375 44.671875 
z
M 39.015625 12.796875 
Q 44.671875 12.796875 47.53125 15.1875 
Q 50.390625 17.578125 50.390625 22.40625 
Q 50.390625 27.15625 47.5625 29.515625 
Q 44.734375 31.890625 39.015625 31.890625 
L 27.984375 31.890625 
L 27.984375 12.796875 
z
M 56.5 39.015625 
Q 62.546875 37.25 65.859375 32.515625 
Q 69.1875 27.78125 69.1875 20.90625 
Q 69.1875 10.359375 62.0625 5.171875 
Q 54.9375 0 40.375 0 
L 9.1875 0 
L 9.1875 72.90625 
L 37.40625 72.90625 
Q 52.59375 72.90625 59.40625 68.3125 
Q 66.21875 63.71875 66.21875 53.609375 
Q 66.21875 48.296875 63.71875 44.5625 
Q 61.234375 40.828125 56.5 39.015625 
z
" id="DejaVuSans-Bold-42"/>
    <path d="M 5.421875 35.890625 
L 36.078125 35.890625 
L 36.078125 21.6875 
L 5.421875 21.6875 
z
" id="DejaVuSans-Bold-2d"/>
    <path d="M 46 36.53125 
Q 46 50.203125 43.4375 55.78125 
Q 40.875 61.375 34.8125 61.375 
Q 28.765625 61.375 26.171875 55.78125 
Q 23.578125 50.203125 23.578125 36.53125 
Q 23.578125 22.703125 26.171875 17.03125 
Q 28.765625 11.375 34.8125 11.375 
Q 40.828125 11.375 43.40625 17.03125 
Q 46 22.703125 46 36.53125 
z
M 64.796875 36.375 
Q 64.796875 18.265625 56.984375 8.421875 
Q 49.171875 -1.421875 34.8125 -1.421875 
Q 20.40625 -1.421875 12.59375 8.421875 
Q 4.78125 18.265625 4.78125 36.375 
Q 4.78125 54.546875 12.59375 64.375 
Q 20.40625 74.21875 34.8125 74.21875 
Q 49.171875 74.21875 56.984375 64.375 
Q 64.796875 54.546875 64.796875 36.375 
z
" id="DejaVuSans-Bold-30"/>
    <path d="M 9.1875 72.90625 
L 27.984375 72.90625 
L 27.984375 46.296875 
L 55.078125 72.90625 
L 76.90625 72.90625 
L 41.796875 38.375 
L 80.515625 0 
L 56.984375 0 
L 27.984375 28.71875 
L 27.984375 0 
L 9.1875 0 
z
" id="DejaVuSans-Bold-4b"/>
   </defs>
   <g transform="translate(290.315625 29.596875)scale(0.2 -0.2)">
    <use xlink:href="#DejaVuSans-Bold-31"/>
    <use x="69.580078" xlink:href="#DejaVuSans-Bold-35"/>
    <use x="139.160156" xlink:href="#DejaVuSans-Bold-42"/>
    <use x="215.380859" xlink:href="#DejaVuSans-Bold-72"/>
    <use x="264.697266" xlink:href="#DejaVuSans-Bold-20"/>
    <use x="299.511719" xlink:href="#DejaVuSans-Bold-2d"/>
    <use x="341.015625" xlink:href="#DejaVuSans-Bold-20"/>
    <use x="375.830078" xlink:href="#DejaVuSans-Bold-31"/>
    <use x="445.410156" xlink:href="#DejaVuSans-Bold-30"/>
    <use x="514.990234" xlink:href="#DejaVuSans-Bold-30"/>
    <use x="584.570312" xlink:href="#DejaVuSans-Bold-20"/>
    <use x="619.384766" xlink:href="#DejaVuSans-Bold-4b"/>
   </g>
  </g>
 </g>
 <defs>
  <clipPath id="p6edcbf79ad">
   <rect height="648" width="648" x="36" y="36"/>
  </clipPath>
 </defs>
</svg>
