<?xml version="1.0" encoding="utf-8" standalone="no"?>
<!DOCTYPE svg PUBLIC "-//W3C//DTD SVG 1.1//EN"
  "http://www.w3.org/Graphics/SVG/1.1/DTD/svg11.dtd">
<!-- Created with matplotlib (http://matplotlib.org/) -->
<svg height="720pt" version="1.1" viewBox="0 0 720 720" width="720pt" xmlns="http://www.w3.org/2000/svg" xmlns:xlink="http://www.w3.org/1999/xlink">
 <defs>
  <style type="text/css">
*{stroke-linecap:butt;stroke-linejoin:round;}
  </style>
 </defs>
 <g id="figure_1">
  <g id="patch_1">
   <path d="M 0 720 
L 720 720 
L 720 0 
L 0 0 
z
" style="fill:#ffffff;"/>
  </g>
  <g id="patch_2">
   <path d="M 36 684 
L 684 684 
L 684 36 
L 36 36 
z
" style="fill:#ffffff;"/>
  </g>
  <g id="pane3d_1">
   <g id="patch_3">
    <path d="M 121.902413 540.814837 
L 307.363404 381.93992 
L 304.275675 78.356028 
L 108.474019 221.101874 
" style="fill:#f2f2f2;opacity:0.5;stroke:#f2f2f2;stroke-linejoin:miter;"/>
   </g>
  </g>
  <g id="pane3d_2">
   <g id="patch_4">
    <path d="M 307.363404 381.93992 
L 607.792772 470.761251 
L 620.362376 158.022911 
L 304.275675 78.356028 
" style="fill:#e6e6e6;opacity:0.5;stroke:#e6e6e6;stroke-linejoin:miter;"/>
   </g>
  </g>
  <g id="pane3d_3">
   <g id="patch_5">
    <path d="M 121.902413 540.814837 
L 437.994703 644.26175 
L 607.792772 470.761251 
L 307.363404 381.93992 
" style="fill:#ececec;opacity:0.5;stroke:#ececec;stroke-linejoin:miter;"/>
   </g>
  </g>
  <g id="axis3d_1">
   <g id="line2d_1">
    <path d="M 121.902413 540.814837 
L 437.994703 644.26175 
" style="fill:none;stroke:#000000;stroke-linecap:square;stroke-width:0.8;"/>
   </g>
   <g id="text_1">
    <!-- Energy (meV) -->
    <defs>
     <path d="M 9.1875 72.90625 
L 59.90625 72.90625 
L 59.90625 58.6875 
L 27.984375 58.6875 
L 27.984375 45.125 
L 58.015625 45.125 
L 58.015625 30.90625 
L 27.984375 30.90625 
L 27.984375 14.203125 
L 60.984375 14.203125 
L 60.984375 0 
L 9.1875 0 
z
" id="DejaVuSans-Bold-45"/>
     <path d="M 63.375 33.296875 
L 63.375 0 
L 45.796875 0 
L 45.796875 5.421875 
L 45.796875 25.484375 
Q 45.796875 32.5625 45.484375 35.25 
Q 45.171875 37.9375 44.390625 39.203125 
Q 43.359375 40.921875 41.59375 41.875 
Q 39.84375 42.828125 37.59375 42.828125 
Q 32.125 42.828125 29 38.59375 
Q 25.875 34.375 25.875 26.90625 
L 25.875 0 
L 8.40625 0 
L 8.40625 54.6875 
L 25.875 54.6875 
L 25.875 46.6875 
Q 29.828125 51.46875 34.265625 53.734375 
Q 38.71875 56 44.09375 56 
Q 53.5625 56 58.46875 50.1875 
Q 63.375 44.390625 63.375 33.296875 
z
" id="DejaVuSans-Bold-6e"/>
     <path d="M 62.984375 27.484375 
L 62.984375 22.515625 
L 22.125 22.515625 
Q 22.75 16.359375 26.5625 13.28125 
Q 30.375 10.203125 37.203125 10.203125 
Q 42.71875 10.203125 48.5 11.84375 
Q 54.296875 13.484375 60.40625 16.796875 
L 60.40625 3.328125 
Q 54.203125 0.984375 48 -0.21875 
Q 41.796875 -1.421875 35.59375 -1.421875 
Q 20.75 -1.421875 12.515625 6.125 
Q 4.296875 13.671875 4.296875 27.296875 
Q 4.296875 40.671875 12.375 48.328125 
Q 20.453125 56 34.625 56 
Q 47.515625 56 55.25 48.234375 
Q 62.984375 40.484375 62.984375 27.484375 
z
M 45.015625 33.296875 
Q 45.015625 38.28125 42.109375 41.328125 
Q 39.203125 44.390625 34.515625 44.390625 
Q 29.4375 44.390625 26.265625 41.53125 
Q 23.09375 38.671875 22.3125 33.296875 
z
" id="DejaVuSans-Bold-65"/>
     <path d="M 49.03125 39.796875 
Q 46.734375 40.875 44.453125 41.375 
Q 42.1875 41.890625 39.890625 41.890625 
Q 33.15625 41.890625 29.515625 37.5625 
Q 25.875 33.25 25.875 25.203125 
L 25.875 0 
L 8.40625 0 
L 8.40625 54.6875 
L 25.875 54.6875 
L 25.875 45.703125 
Q 29.25 51.078125 33.609375 53.53125 
Q 37.984375 56 44.09375 56 
Q 44.96875 56 45.984375 55.921875 
Q 47.015625 55.859375 48.96875 55.609375 
z
" id="DejaVuSans-Bold-72"/>
     <path d="M 45.609375 9.28125 
Q 42 4.5 37.640625 2.25 
Q 33.296875 0 27.59375 0 
Q 17.578125 0 11.03125 7.875 
Q 4.5 15.765625 4.5 27.984375 
Q 4.5 40.234375 11.03125 48.0625 
Q 17.578125 55.90625 27.59375 55.90625 
Q 33.296875 55.90625 37.640625 53.65625 
Q 42 51.421875 45.609375 46.578125 
L 45.609375 54.6875 
L 63.1875 54.6875 
L 63.1875 5.515625 
Q 63.1875 -7.671875 54.859375 -14.625 
Q 46.53125 -21.578125 30.71875 -21.578125 
Q 25.59375 -21.578125 20.796875 -20.796875 
Q 16.015625 -20.015625 11.1875 -18.40625 
L 11.1875 -4.78125 
Q 15.765625 -7.421875 20.15625 -8.71875 
Q 24.5625 -10.015625 29 -10.015625 
Q 37.59375 -10.015625 41.59375 -6.25 
Q 45.609375 -2.484375 45.609375 5.515625 
z
M 34.078125 43.3125 
Q 28.65625 43.3125 25.625 39.296875 
Q 22.609375 35.296875 22.609375 27.984375 
Q 22.609375 20.453125 25.53125 16.578125 
Q 28.46875 12.703125 34.078125 12.703125 
Q 39.546875 12.703125 42.578125 16.703125 
Q 45.609375 20.703125 45.609375 27.984375 
Q 45.609375 35.296875 42.578125 39.296875 
Q 39.546875 43.3125 34.078125 43.3125 
z
" id="DejaVuSans-Bold-67"/>
     <path d="M 1.21875 54.6875 
L 18.703125 54.6875 
L 33.40625 17.578125 
L 45.90625 54.6875 
L 63.375 54.6875 
L 40.375 -5.171875 
Q 36.921875 -14.3125 32.296875 -17.9375 
Q 27.6875 -21.578125 20.125 -21.578125 
L 10.015625 -21.578125 
L 10.015625 -10.109375 
L 15.484375 -10.109375 
Q 19.921875 -10.109375 21.9375 -8.6875 
Q 23.96875 -7.28125 25.09375 -3.609375 
L 25.59375 -2.09375 
z
" id="DejaVuSans-Bold-79"/>
     <path id="DejaVuSans-Bold-20"/>
     <path d="M 37.703125 -13.1875 
L 23.1875 -13.1875 
Q 15.71875 -1.125 12.15625 9.734375 
Q 8.59375 20.609375 8.59375 31.296875 
Q 8.59375 42 12.171875 52.953125 
Q 15.765625 63.921875 23.1875 75.875 
L 37.703125 75.875 
Q 31.453125 64.3125 28.328125 53.25 
Q 25.203125 42.1875 25.203125 31.390625 
Q 25.203125 20.609375 28.296875 9.515625 
Q 31.390625 -1.5625 37.703125 -13.1875 
z
" id="DejaVuSans-Bold-28"/>
     <path d="M 59.078125 45.609375 
Q 62.40625 50.6875 66.96875 53.34375 
Q 71.53125 56 77 56 
Q 86.421875 56 91.359375 50.1875 
Q 96.296875 44.390625 96.296875 33.296875 
L 96.296875 0 
L 78.71875 0 
L 78.71875 28.515625 
Q 78.765625 29.15625 78.78125 29.828125 
Q 78.8125 30.515625 78.8125 31.78125 
Q 78.8125 37.59375 77.09375 40.203125 
Q 75.390625 42.828125 71.578125 42.828125 
Q 66.609375 42.828125 63.890625 38.71875 
Q 61.1875 34.625 61.078125 26.859375 
L 61.078125 0 
L 43.5 0 
L 43.5 28.515625 
Q 43.5 37.59375 41.9375 40.203125 
Q 40.375 42.828125 36.375 42.828125 
Q 31.34375 42.828125 28.609375 38.703125 
Q 25.875 34.578125 25.875 26.90625 
L 25.875 0 
L 8.296875 0 
L 8.296875 54.6875 
L 25.875 54.6875 
L 25.875 46.6875 
Q 29.109375 51.3125 33.28125 53.65625 
Q 37.453125 56 42.484375 56 
Q 48.140625 56 52.484375 53.265625 
Q 56.84375 50.53125 59.078125 45.609375 
z
" id="DejaVuSans-Bold-6d"/>
     <path d="M 0.484375 72.90625 
L 19.390625 72.90625 
L 38.71875 19.09375 
L 58.015625 72.90625 
L 76.90625 72.90625 
L 49.90625 0 
L 27.484375 0 
z
" id="DejaVuSans-Bold-56"/>
     <path d="M 8.015625 -13.1875 
Q 14.265625 -1.5625 17.390625 9.515625 
Q 20.515625 20.609375 20.515625 31.390625 
Q 20.515625 42.1875 17.390625 53.25 
Q 14.265625 64.3125 8.015625 75.875 
L 22.515625 75.875 
Q 29.9375 63.921875 33.515625 52.953125 
Q 37.109375 42 37.109375 31.296875 
Q 37.109375 20.609375 33.546875 9.734375 
Q 29.984375 -1.125 22.515625 -13.1875 
z
" id="DejaVuSans-Bold-29"/>
    </defs>
    <g transform="translate(187.658654 608.708901)rotate(-341.878381)scale(0.2 -0.2)">
     <use xlink:href="#DejaVuSans-Bold-45"/>
     <use x="68.310547" xlink:href="#DejaVuSans-Bold-6e"/>
     <use x="139.501953" xlink:href="#DejaVuSans-Bold-65"/>
     <use x="207.324219" xlink:href="#DejaVuSans-Bold-72"/>
     <use x="256.640625" xlink:href="#DejaVuSans-Bold-67"/>
     <use x="328.222656" xlink:href="#DejaVuSans-Bold-79"/>
     <use x="393.408203" xlink:href="#DejaVuSans-Bold-20"/>
     <use x="428.222656" xlink:href="#DejaVuSans-Bold-28"/>
     <use x="473.925781" xlink:href="#DejaVuSans-Bold-6d"/>
     <use x="578.125" xlink:href="#DejaVuSans-Bold-65"/>
     <use x="645.947266" xlink:href="#DejaVuSans-Bold-56"/>
     <use x="723.339844" xlink:href="#DejaVuSans-Bold-29"/>
    </g>
   </g>
   <g id="Line3DCollection_1">
    <path d="M 127.947203 542.793104 
L 313.127594 383.644091 
L 310.327331 79.881295 
" style="fill:none;stroke:#b0b0b0;stroke-width:0.8;"/>
    <path d="M 164.444236 554.737417 
L 347.914703 393.928829 
L 346.860038 89.089044 
" style="fill:none;stroke:#b0b0b0;stroke-width:0.8;"/>
    <path d="M 201.33723 566.811316 
L 383.051818 404.317045 
L 383.779012 98.394148 
" style="fill:none;stroke:#b0b0b0;stroke-width:0.8;"/>
    <path d="M 238.632665 579.016921 
L 418.544248 414.81031 
L 421.090412 107.798159 
" style="fill:none;stroke:#b0b0b0;stroke-width:0.8;"/>
    <path d="M 276.33716 591.356398 
L 454.39741 425.410224 
L 458.800528 117.302663 
" style="fill:none;stroke:#b0b0b0;stroke-width:0.8;"/>
    <path d="M 314.457484 603.831963 
L 490.61683 436.118422 
L 496.915786 126.90928 
" style="fill:none;stroke:#b0b0b0;stroke-width:0.8;"/>
    <path d="M 353.000554 616.445879 
L 527.208152 446.936572 
L 535.442749 136.619663 
" style="fill:none;stroke:#b0b0b0;stroke-width:0.8;"/>
    <path d="M 391.97344 629.20046 
L 564.177131 457.866375 
L 574.388126 146.435504 
" style="fill:none;stroke:#b0b0b0;stroke-width:0.8;"/>
    <path d="M 431.383373 642.098072 
L 601.529645 468.90957 
L 613.758768 156.358529 
" style="fill:none;stroke:#b0b0b0;stroke-width:0.8;"/>
   </g>
   <g id="xtick_1">
    <g id="line2d_2">
     <path d="M 129.542405 541.422144 
L 124.750861 545.540126 
" style="fill:none;stroke:#000000;stroke-linecap:square;stroke-width:0.8;"/>
    </g>
    <g id="text_2">
     <!-- −10.0 -->
     <defs>
      <path d="M 10.59375 35.5 
L 73.1875 35.5 
L 73.1875 27.203125 
L 10.59375 27.203125 
z
" id="DejaVuSans-2212"/>
      <path d="M 12.40625 8.296875 
L 28.515625 8.296875 
L 28.515625 63.921875 
L 10.984375 60.40625 
L 10.984375 69.390625 
L 28.421875 72.90625 
L 38.28125 72.90625 
L 38.28125 8.296875 
L 54.390625 8.296875 
L 54.390625 0 
L 12.40625 0 
z
" id="DejaVuSans-31"/>
      <path d="M 31.78125 66.40625 
Q 24.171875 66.40625 20.328125 58.90625 
Q 16.5 51.421875 16.5 36.375 
Q 16.5 21.390625 20.328125 13.890625 
Q 24.171875 6.390625 31.78125 6.390625 
Q 39.453125 6.390625 43.28125 13.890625 
Q 47.125 21.390625 47.125 36.375 
Q 47.125 51.421875 43.28125 58.90625 
Q 39.453125 66.40625 31.78125 66.40625 
z
M 31.78125 74.21875 
Q 44.046875 74.21875 50.515625 64.515625 
Q 56.984375 54.828125 56.984375 36.375 
Q 56.984375 17.96875 50.515625 8.265625 
Q 44.046875 -1.421875 31.78125 -1.421875 
Q 19.53125 -1.421875 13.0625 8.265625 
Q 6.59375 17.96875 6.59375 36.375 
Q 6.59375 54.828125 13.0625 64.515625 
Q 19.53125 74.21875 31.78125 74.21875 
z
" id="DejaVuSans-30"/>
      <path d="M 10.6875 12.40625 
L 21 12.40625 
L 21 0 
L 10.6875 0 
z
" id="DejaVuSans-2e"/>
     </defs>
     <g transform="translate(90.921394 574.184766)scale(0.2 -0.2)">
      <use xlink:href="#DejaVuSans-2212"/>
      <use x="83.789062" xlink:href="#DejaVuSans-31"/>
      <use x="147.412109" xlink:href="#DejaVuSans-30"/>
      <use x="211.035156" xlink:href="#DejaVuSans-2e"/>
      <use x="242.822266" xlink:href="#DejaVuSans-30"/>
     </g>
    </g>
   </g>
   <g id="xtick_2">
    <g id="line2d_3">
     <path d="M 166.025316 553.351629 
L 161.276159 557.51418 
" style="fill:none;stroke:#000000;stroke-linecap:square;stroke-width:0.8;"/>
    </g>
    <g id="text_3">
     <!-- −7.5 -->
     <defs>
      <path d="M 8.203125 72.90625 
L 55.078125 72.90625 
L 55.078125 68.703125 
L 28.609375 0 
L 18.3125 0 
L 43.21875 64.59375 
L 8.203125 64.59375 
z
" id="DejaVuSans-37"/>
      <path d="M 10.796875 72.90625 
L 49.515625 72.90625 
L 49.515625 64.59375 
L 19.828125 64.59375 
L 19.828125 46.734375 
Q 21.96875 47.46875 24.109375 47.828125 
Q 26.265625 48.1875 28.421875 48.1875 
Q 40.625 48.1875 47.75 41.5 
Q 54.890625 34.8125 54.890625 23.390625 
Q 54.890625 11.625 47.5625 5.09375 
Q 40.234375 -1.421875 26.90625 -1.421875 
Q 22.3125 -1.421875 17.546875 -0.640625 
Q 12.796875 0.140625 7.71875 1.703125 
L 7.71875 11.625 
Q 12.109375 9.234375 16.796875 8.0625 
Q 21.484375 6.890625 26.703125 6.890625 
Q 35.15625 6.890625 40.078125 11.328125 
Q 45.015625 15.765625 45.015625 23.390625 
Q 45.015625 31 40.078125 35.4375 
Q 35.15625 39.890625 26.703125 39.890625 
Q 22.75 39.890625 18.8125 39.015625 
Q 14.890625 38.140625 10.796875 36.28125 
z
" id="DejaVuSans-35"/>
     </defs>
     <g transform="translate(133.778782 586.227106)scale(0.2 -0.2)">
      <use xlink:href="#DejaVuSans-2212"/>
      <use x="83.789062" xlink:href="#DejaVuSans-37"/>
      <use x="147.412109" xlink:href="#DejaVuSans-2e"/>
      <use x="179.199219" xlink:href="#DejaVuSans-35"/>
     </g>
    </g>
   </g>
   <g id="xtick_3">
    <g id="line2d_4">
     <path d="M 202.903787 565.410457 
L 198.198221 569.618305 
" style="fill:none;stroke:#000000;stroke-linecap:square;stroke-width:0.8;"/>
    </g>
    <g id="text_4">
     <!-- −5.0 -->
     <g transform="translate(170.66996 598.400212)scale(0.2 -0.2)">
      <use xlink:href="#DejaVuSans-2212"/>
      <use x="83.789062" xlink:href="#DejaVuSans-35"/>
      <use x="147.412109" xlink:href="#DejaVuSans-2e"/>
      <use x="179.199219" xlink:href="#DejaVuSans-30"/>
     </g>
    </g>
   </g>
   <g id="xtick_4">
    <g id="line2d_5">
     <path d="M 240.184287 577.600744 
L 235.52355 581.854633 
" style="fill:none;stroke:#000000;stroke-linecap:square;stroke-width:0.8;"/>
    </g>
    <g id="text_5">
     <!-- −2.5 -->
     <defs>
      <path d="M 19.1875 8.296875 
L 53.609375 8.296875 
L 53.609375 0 
L 7.328125 0 
L 7.328125 8.296875 
Q 12.9375 14.109375 22.625 23.890625 
Q 32.328125 33.6875 34.8125 36.53125 
Q 39.546875 41.84375 41.421875 45.53125 
Q 43.3125 49.21875 43.3125 52.78125 
Q 43.3125 58.59375 39.234375 62.25 
Q 35.15625 65.921875 28.609375 65.921875 
Q 23.96875 65.921875 18.8125 64.3125 
Q 13.671875 62.703125 7.8125 59.421875 
L 7.8125 69.390625 
Q 13.765625 71.78125 18.9375 73 
Q 24.125 74.21875 28.421875 74.21875 
Q 39.75 74.21875 46.484375 68.546875 
Q 53.21875 62.890625 53.21875 53.421875 
Q 53.21875 48.921875 51.53125 44.890625 
Q 49.859375 40.875 45.40625 35.40625 
Q 44.1875 33.984375 37.640625 27.21875 
Q 31.109375 20.453125 19.1875 8.296875 
z
" id="DejaVuSans-32"/>
     </defs>
     <g transform="translate(207.963919 610.706225)scale(0.2 -0.2)">
      <use xlink:href="#DejaVuSans-2212"/>
      <use x="83.789062" xlink:href="#DejaVuSans-32"/>
      <use x="147.412109" xlink:href="#DejaVuSans-2e"/>
      <use x="179.199219" xlink:href="#DejaVuSans-35"/>
     </g>
    </g>
   </g>
   <g id="xtick_5">
    <g id="line2d_6">
     <path d="M 277.873425 589.924651 
L 273.258786 594.22534 
" style="fill:none;stroke:#000000;stroke-linecap:square;stroke-width:0.8;"/>
    </g>
    <g id="text_6">
     <!-- 0.0 -->
     <g transform="translate(254.046979 623.147333)scale(0.2 -0.2)">
      <use xlink:href="#DejaVuSans-30"/>
      <use x="63.623047" xlink:href="#DejaVuSans-2e"/>
      <use x="95.410156" xlink:href="#DejaVuSans-30"/>
     </g>
    </g>
   </g>
   <g id="xtick_6">
    <g id="line2d_7">
     <path d="M 315.977958 602.384387 
L 311.41072 606.732652 
" style="fill:none;stroke:#000000;stroke-linecap:square;stroke-width:0.8;"/>
    </g>
    <g id="text_7">
     <!-- 2.5 -->
     <g transform="translate(292.166543 635.725774)scale(0.2 -0.2)">
      <use xlink:href="#DejaVuSans-32"/>
      <use x="63.623047" xlink:href="#DejaVuSans-2e"/>
      <use x="95.410156" xlink:href="#DejaVuSans-35"/>
     </g>
    </g>
   </g>
   <g id="xtick_7">
    <g id="line2d_8">
     <path d="M 354.504791 614.98221 
L 349.986293 619.378846 
" style="fill:none;stroke:#000000;stroke-linecap:square;stroke-width:0.8;"/>
    </g>
    <g id="text_8">
     <!-- 5.0 -->
     <g transform="translate(330.709229 648.443833)scale(0.2 -0.2)">
      <use xlink:href="#DejaVuSans-35"/>
      <use x="63.623047" xlink:href="#DejaVuSans-2e"/>
      <use x="95.410156" xlink:href="#DejaVuSans-30"/>
     </g>
    </g>
   </g>
   <g id="xtick_8">
    <g id="line2d_9">
     <path d="M 393.460983 627.720429 
L 388.9926 632.166247 
" style="fill:none;stroke:#000000;stroke-linecap:square;stroke-width:0.8;"/>
    </g>
    <g id="text_9">
     <!-- 7.5 -->
     <g transform="translate(369.682121 661.303849)scale(0.2 -0.2)">
      <use xlink:href="#DejaVuSans-37"/>
      <use x="63.623047" xlink:href="#DejaVuSans-2e"/>
      <use x="95.410156" xlink:href="#DejaVuSans-35"/>
     </g>
    </g>
   </g>
   <g id="xtick_9">
    <g id="line2d_10">
     <path d="M 432.853752 640.601403 
L 428.436896 645.097233 
" style="fill:none;stroke:#000000;stroke-linecap:square;stroke-width:0.8;"/>
    </g>
    <g id="text_10">
     <!-- 10.0 -->
     <g transform="translate(402.729962 674.308211)scale(0.2 -0.2)">
      <use xlink:href="#DejaVuSans-31"/>
      <use x="63.623047" xlink:href="#DejaVuSans-30"/>
      <use x="127.246094" xlink:href="#DejaVuSans-2e"/>
      <use x="159.033203" xlink:href="#DejaVuSans-30"/>
     </g>
    </g>
   </g>
  </g>
  <g id="axis3d_2">
   <g id="line2d_11">
    <path d="M 607.792772 470.761251 
L 437.994703 644.26175 
" style="fill:none;stroke:#000000;stroke-linecap:square;stroke-width:0.8;"/>
   </g>
   <g id="text_11">
    <!-- Q ($\bf{A^{-1}}$) -->
    <defs>
     <path d="M 44.484375 -1.3125 
L 43.015625 -1.3125 
Q 25 -1.3125 14.984375 8.640625 
Q 4.984375 18.609375 4.984375 36.375 
Q 4.984375 54.109375 14.96875 64.15625 
Q 24.953125 74.21875 42.484375 74.21875 
Q 60.203125 74.21875 70.09375 64.25 
Q 79.984375 54.296875 79.984375 36.375 
Q 79.984375 24.078125 74.734375 15.1875 
Q 69.484375 6.296875 59.625 1.8125 
L 74.3125 -14.59375 
L 56.390625 -14.59375 
z
M 42.484375 60.59375 
Q 33.890625 60.59375 29.15625 54.25 
Q 24.421875 47.90625 24.421875 36.375 
Q 24.421875 24.65625 29.046875 18.421875 
Q 33.6875 12.203125 42.484375 12.203125 
Q 51.125 12.203125 55.859375 18.546875 
Q 60.59375 24.90625 60.59375 36.375 
Q 60.59375 47.90625 55.859375 54.25 
Q 51.125 60.59375 42.484375 60.59375 
z
" id="DejaVuSans-Bold-51"/>
     <path d="M 53.421875 13.28125 
L 24.03125 13.28125 
L 19.390625 0 
L 0.484375 0 
L 27.484375 72.90625 
L 49.90625 72.90625 
L 76.90625 0 
L 58.015625 0 
z
M 28.71875 26.8125 
L 48.6875 26.8125 
L 38.71875 55.8125 
z
" id="DejaVuSans-Bold-41"/>
     <path d="M 10.59375 37.109375 
L 73.1875 37.109375 
L 73.1875 25.59375 
L 10.59375 25.59375 
z
" id="DejaVuSans-Bold-2212"/>
     <path d="M 11.71875 12.984375 
L 28.328125 12.984375 
L 28.328125 60.109375 
L 11.28125 56.59375 
L 11.28125 69.390625 
L 28.21875 72.90625 
L 46.09375 72.90625 
L 46.09375 12.984375 
L 62.703125 12.984375 
L 62.703125 0 
L 11.71875 0 
z
" id="DejaVuSans-Bold-31"/>
    </defs>
    <g transform="translate(525.984215 617.095191)rotate(-45.617904)scale(0.2 -0.2)">
     <use transform="translate(0 0.684375)" xlink:href="#DejaVuSans-Bold-51"/>
     <use transform="translate(85.009766 0.684375)" xlink:href="#DejaVuSans-Bold-20"/>
     <use transform="translate(119.824219 0.684375)" xlink:href="#DejaVuSans-Bold-28"/>
     <use transform="translate(165.527344 0.684375)" xlink:href="#DejaVuSans-Bold-41"/>
     <use transform="translate(243.876953 38.965625)scale(0.7)" xlink:href="#DejaVuSans-Bold-2212"/>
     <use transform="translate(302.529297 38.965625)scale(0.7)" xlink:href="#DejaVuSans-Bold-31"/>
     <use transform="translate(353.969727 0.684375)" xlink:href="#DejaVuSans-Bold-29"/>
    </g>
   </g>
   <g id="Line3DCollection_2">
    <path d="M 133.263336 203.029647 
L 145.302702 520.76901 
L 459.481607 622.306326 
" style="fill:none;stroke:#b0b0b0;stroke-width:0.8;"/>
    <path d="M 155.729159 186.651323 
L 166.529628 502.584992 
L 478.957117 602.406155 
" style="fill:none;stroke:#b0b0b0;stroke-width:0.8;"/>
    <path d="M 177.805707 170.556794 
L 187.40724 484.700212 
L 498.097542 582.848374 
" style="fill:none;stroke:#b0b0b0;stroke-width:0.8;"/>
    <path d="M 199.503011 154.738746 
L 207.944091 467.107345 
L 516.911459 563.624222 
" style="fill:none;stroke:#b0b0b0;stroke-width:0.8;"/>
    <path d="M 220.83076 139.190115 
L 228.148456 449.799302 
L 535.40715 544.725234 
" style="fill:none;stroke:#b0b0b0;stroke-width:0.8;"/>
    <path d="M 241.798316 123.904078 
L 248.028345 432.769221 
L 553.592621 526.14323 
" style="fill:none;stroke:#b0b0b0;stroke-width:0.8;"/>
    <path d="M 262.414727 108.874036 
L 267.591511 416.01046 
L 571.475613 507.870301 
" style="fill:none;stroke:#b0b0b0;stroke-width:0.8;"/>
    <path d="M 282.688741 94.093613 
L 286.845463 399.516587 
L 589.063611 489.898799 
" style="fill:none;stroke:#b0b0b0;stroke-width:0.8;"/>
   </g>
   <g id="xtick_10">
    <g id="line2d_12">
     <path d="M 456.852714 621.456712 
L 464.745244 624.007444 
" style="fill:none;stroke:#000000;stroke-linecap:square;stroke-width:0.8;"/>
    </g>
    <g id="text_12">
     <!-- 0.4 -->
     <defs>
      <path d="M 37.796875 64.3125 
L 12.890625 25.390625 
L 37.796875 25.390625 
z
M 35.203125 72.90625 
L 47.609375 72.90625 
L 47.609375 25.390625 
L 58.015625 25.390625 
L 58.015625 17.1875 
L 47.609375 17.1875 
L 47.609375 0 
L 37.796875 0 
L 37.796875 17.1875 
L 4.890625 17.1875 
L 4.890625 26.703125 
z
" id="DejaVuSans-34"/>
     </defs>
     <g transform="translate(454.611712 651.683817)scale(0.2 -0.2)">
      <use xlink:href="#DejaVuSans-30"/>
      <use x="63.623047" xlink:href="#DejaVuSans-2e"/>
      <use x="95.410156" xlink:href="#DejaVuSans-34"/>
     </g>
    </g>
   </g>
   <g id="xtick_11">
    <g id="line2d_13">
     <path d="M 476.343874 601.571219 
L 484.189366 604.077868 
" style="fill:none;stroke:#000000;stroke-linecap:square;stroke-width:0.8;"/>
    </g>
    <g id="text_13">
     <!-- 0.6 -->
     <defs>
      <path d="M 33.015625 40.375 
Q 26.375 40.375 22.484375 35.828125 
Q 18.609375 31.296875 18.609375 23.390625 
Q 18.609375 15.53125 22.484375 10.953125 
Q 26.375 6.390625 33.015625 6.390625 
Q 39.65625 6.390625 43.53125 10.953125 
Q 47.40625 15.53125 47.40625 23.390625 
Q 47.40625 31.296875 43.53125 35.828125 
Q 39.65625 40.375 33.015625 40.375 
z
M 52.59375 71.296875 
L 52.59375 62.3125 
Q 48.875 64.0625 45.09375 64.984375 
Q 41.3125 65.921875 37.59375 65.921875 
Q 27.828125 65.921875 22.671875 59.328125 
Q 17.53125 52.734375 16.796875 39.40625 
Q 19.671875 43.65625 24.015625 45.921875 
Q 28.375 48.1875 33.59375 48.1875 
Q 44.578125 48.1875 50.953125 41.515625 
Q 57.328125 34.859375 57.328125 23.390625 
Q 57.328125 12.15625 50.6875 5.359375 
Q 44.046875 -1.421875 33.015625 -1.421875 
Q 20.359375 -1.421875 13.671875 8.265625 
Q 6.984375 17.96875 6.984375 36.375 
Q 6.984375 53.65625 15.1875 63.9375 
Q 23.390625 74.21875 37.203125 74.21875 
Q 40.921875 74.21875 44.703125 73.484375 
Q 48.484375 72.75 52.59375 71.296875 
z
" id="DejaVuSans-36"/>
     </defs>
     <g transform="translate(473.986792 631.665442)scale(0.2 -0.2)">
      <use xlink:href="#DejaVuSans-30"/>
      <use x="63.623047" xlink:href="#DejaVuSans-2e"/>
      <use x="95.410156" xlink:href="#DejaVuSans-36"/>
     </g>
    </g>
   </g>
   <g id="xtick_12">
    <g id="line2d_14">
     <path d="M 495.499804 582.027739 
L 503.298701 584.491438 
" style="fill:none;stroke:#000000;stroke-linecap:square;stroke-width:0.8;"/>
    </g>
    <g id="text_14">
     <!-- 0.8 -->
     <defs>
      <path d="M 31.78125 34.625 
Q 24.75 34.625 20.71875 30.859375 
Q 16.703125 27.09375 16.703125 20.515625 
Q 16.703125 13.921875 20.71875 10.15625 
Q 24.75 6.390625 31.78125 6.390625 
Q 38.8125 6.390625 42.859375 10.171875 
Q 46.921875 13.96875 46.921875 20.515625 
Q 46.921875 27.09375 42.890625 30.859375 
Q 38.875 34.625 31.78125 34.625 
z
M 21.921875 38.8125 
Q 15.578125 40.375 12.03125 44.71875 
Q 8.5 49.078125 8.5 55.328125 
Q 8.5 64.0625 14.71875 69.140625 
Q 20.953125 74.21875 31.78125 74.21875 
Q 42.671875 74.21875 48.875 69.140625 
Q 55.078125 64.0625 55.078125 55.328125 
Q 55.078125 49.078125 51.53125 44.71875 
Q 48 40.375 41.703125 38.8125 
Q 48.828125 37.15625 52.796875 32.3125 
Q 56.78125 27.484375 56.78125 20.515625 
Q 56.78125 9.90625 50.3125 4.234375 
Q 43.84375 -1.421875 31.78125 -1.421875 
Q 19.734375 -1.421875 13.25 4.234375 
Q 6.78125 9.90625 6.78125 20.515625 
Q 6.78125 27.484375 10.78125 32.3125 
Q 14.796875 37.15625 21.921875 38.8125 
z
M 18.3125 54.390625 
Q 18.3125 48.734375 21.84375 45.5625 
Q 25.390625 42.390625 31.78125 42.390625 
Q 38.140625 42.390625 41.71875 45.5625 
Q 45.3125 48.734375 45.3125 54.390625 
Q 45.3125 60.0625 41.71875 63.234375 
Q 38.140625 66.40625 31.78125 66.40625 
Q 25.390625 66.40625 21.84375 63.234375 
Q 18.3125 60.0625 18.3125 54.390625 
z
" id="DejaVuSans-38"/>
     </defs>
     <g transform="translate(493.028597 611.991408)scale(0.2 -0.2)">
      <use xlink:href="#DejaVuSans-30"/>
      <use x="63.623047" xlink:href="#DejaVuSans-2e"/>
      <use x="95.410156" xlink:href="#DejaVuSans-38"/>
     </g>
    </g>
   </g>
   <g id="xtick_13">
    <g id="line2d_15">
     <path d="M 514.329077 562.817524 
L 522.081821 565.239367 
" style="fill:none;stroke:#000000;stroke-linecap:square;stroke-width:0.8;"/>
    </g>
    <g id="text_15">
     <!-- 1.0 -->
     <g transform="translate(511.745651 592.652906)scale(0.2 -0.2)">
      <use xlink:href="#DejaVuSans-31"/>
      <use x="63.623047" xlink:href="#DejaVuSans-2e"/>
      <use x="95.410156" xlink:href="#DejaVuSans-30"/>
     </g>
    </g>
   </g>
   <g id="xtick_14">
    <g id="line2d_16">
     <path d="M 532.839979 543.932121 
L 540.547009 546.313166 
" style="fill:none;stroke:#000000;stroke-linecap:square;stroke-width:0.8;"/>
    </g>
    <g id="text_16">
     <!-- 1.2 -->
     <g transform="translate(530.146193 573.641426)scale(0.2 -0.2)">
      <use xlink:href="#DejaVuSans-31"/>
      <use x="63.623047" xlink:href="#DejaVuSans-2e"/>
      <use x="95.410156" xlink:href="#DejaVuSans-32"/>
     </g>
    </g>
   </g>
   <g id="xtick_15">
    <g id="line2d_17">
     <path d="M 551.040518 525.363361 
L 558.702269 527.704631 
" style="fill:none;stroke:#000000;stroke-linecap:square;stroke-width:0.8;"/>
    </g>
    <g id="text_17">
     <!-- 1.4 -->
     <g transform="translate(548.238184 554.948742)scale(0.2 -0.2)">
      <use xlink:href="#DejaVuSans-31"/>
      <use x="63.623047" xlink:href="#DejaVuSans-2e"/>
      <use x="95.410156" xlink:href="#DejaVuSans-34"/>
     </g>
    </g>
   </g>
   <g id="xtick_16">
    <g id="line2d_18">
     <path d="M 568.938432 507.103347 
L 576.555339 509.40583 
" style="fill:none;stroke:#000000;stroke-linecap:square;stroke-width:0.8;"/>
    </g>
    <g id="text_18">
     <!-- 1.6 -->
     <g transform="translate(566.02932 536.566901)scale(0.2 -0.2)">
      <use xlink:href="#DejaVuSans-31"/>
      <use x="63.623047" xlink:href="#DejaVuSans-2e"/>
      <use x="95.410156" xlink:href="#DejaVuSans-36"/>
     </g>
    </g>
   </g>
   <g id="xtick_17">
    <g id="line2d_19">
     <path d="M 586.541209 489.144443 
L 594.113703 491.409094 
" style="fill:none;stroke:#000000;stroke-linecap:square;stroke-width:0.8;"/>
    </g>
    <g id="text_19">
     <!-- 1.8 -->
     <g transform="translate(583.527044 518.488214)scale(0.2 -0.2)">
      <use xlink:href="#DejaVuSans-31"/>
      <use x="63.623047" xlink:href="#DejaVuSans-2e"/>
      <use x="95.410156" xlink:href="#DejaVuSans-38"/>
     </g>
    </g>
   </g>
  </g>
  <g id="axis3d_3">
   <g id="line2d_20">
    <path d="M 607.792772 470.761251 
L 620.362376 158.022911 
" style="fill:none;stroke:#000000;stroke-linecap:square;stroke-width:0.8;"/>
   </g>
   <g id="text_20">
    <!-- Intensity (A.U.) -->
    <defs>
     <path d="M 9.1875 72.90625 
L 27.984375 72.90625 
L 27.984375 0 
L 9.1875 0 
z
" id="DejaVuSans-Bold-49"/>
     <path d="M 27.484375 70.21875 
L 27.484375 54.6875 
L 45.515625 54.6875 
L 45.515625 42.1875 
L 27.484375 42.1875 
L 27.484375 19 
Q 27.484375 15.1875 29 13.84375 
Q 30.515625 12.5 35.015625 12.5 
L 44 12.5 
L 44 0 
L 29 0 
Q 18.65625 0 14.328125 4.3125 
Q 10.015625 8.640625 10.015625 19 
L 10.015625 42.1875 
L 1.3125 42.1875 
L 1.3125 54.6875 
L 10.015625 54.6875 
L 10.015625 70.21875 
z
" id="DejaVuSans-Bold-74"/>
     <path d="M 51.125 52.984375 
L 51.125 39.703125 
Q 45.515625 42.046875 40.28125 43.21875 
Q 35.0625 44.390625 30.421875 44.390625 
Q 25.4375 44.390625 23.015625 43.140625 
Q 20.609375 41.890625 20.609375 39.3125 
Q 20.609375 37.203125 22.4375 36.078125 
Q 24.265625 34.96875 29 34.421875 
L 32.078125 33.984375 
Q 45.515625 32.28125 50.140625 28.375 
Q 54.78125 24.46875 54.78125 16.109375 
Q 54.78125 7.375 48.328125 2.96875 
Q 41.890625 -1.421875 29.109375 -1.421875 
Q 23.6875 -1.421875 17.890625 -0.5625 
Q 12.109375 0.296875 6 2 
L 6 15.28125 
Q 11.234375 12.75 16.71875 11.46875 
Q 22.21875 10.203125 27.875 10.203125 
Q 33.015625 10.203125 35.59375 11.609375 
Q 38.1875 13.03125 38.1875 15.828125 
Q 38.1875 18.171875 36.40625 19.3125 
Q 34.625 20.453125 29.296875 21.09375 
L 26.21875 21.484375 
Q 14.546875 22.953125 9.859375 26.90625 
Q 5.171875 30.859375 5.171875 38.921875 
Q 5.171875 47.609375 11.125 51.796875 
Q 17.09375 56 29.390625 56 
Q 34.234375 56 39.546875 55.265625 
Q 44.875 54.546875 51.125 52.984375 
z
" id="DejaVuSans-Bold-73"/>
     <path d="M 8.40625 54.6875 
L 25.875 54.6875 
L 25.875 0 
L 8.40625 0 
z
M 8.40625 75.984375 
L 25.875 75.984375 
L 25.875 61.71875 
L 8.40625 61.71875 
z
" id="DejaVuSans-Bold-69"/>
     <path d="M 10.203125 18.890625 
L 27.78125 18.890625 
L 27.78125 0 
L 10.203125 0 
z
" id="DejaVuSans-Bold-2e"/>
     <path d="M 9.1875 72.90625 
L 27.984375 72.90625 
L 27.984375 29.203125 
Q 27.984375 20.171875 30.9375 16.28125 
Q 33.890625 12.40625 40.578125 12.40625 
Q 47.3125 12.40625 50.265625 16.28125 
Q 53.21875 20.171875 53.21875 29.203125 
L 53.21875 72.90625 
L 72.015625 72.90625 
L 72.015625 29.203125 
Q 72.015625 13.71875 64.25 6.140625 
Q 56.5 -1.421875 40.578125 -1.421875 
Q 24.703125 -1.421875 16.9375 6.140625 
Q 9.1875 13.71875 9.1875 29.203125 
z
" id="DejaVuSans-Bold-55"/>
    </defs>
    <g transform="translate(651.532212 400.049641)rotate(-87.698402)scale(0.2 -0.2)">
     <use xlink:href="#DejaVuSans-Bold-49"/>
     <use x="37.207031" xlink:href="#DejaVuSans-Bold-6e"/>
     <use x="108.398438" xlink:href="#DejaVuSans-Bold-74"/>
     <use x="156.201172" xlink:href="#DejaVuSans-Bold-65"/>
     <use x="224.023438" xlink:href="#DejaVuSans-Bold-6e"/>
     <use x="295.214844" xlink:href="#DejaVuSans-Bold-73"/>
     <use x="354.736328" xlink:href="#DejaVuSans-Bold-69"/>
     <use x="389.013672" xlink:href="#DejaVuSans-Bold-74"/>
     <use x="436.816406" xlink:href="#DejaVuSans-Bold-79"/>
     <use x="502.001953" xlink:href="#DejaVuSans-Bold-20"/>
     <use x="536.816406" xlink:href="#DejaVuSans-Bold-28"/>
     <use x="582.519531" xlink:href="#DejaVuSans-Bold-41"/>
     <use x="659.927734" xlink:href="#DejaVuSans-Bold-2e"/>
     <use x="697.916016" xlink:href="#DejaVuSans-Bold-55"/>
     <use x="779.117188" xlink:href="#DejaVuSans-Bold-2e"/>
     <use x="817.105469" xlink:href="#DejaVuSans-Bold-29"/>
    </g>
   </g>
   <g id="Line3DCollection_3">
    <path d="M 610.012513 415.532937 
L 306.817145 328.232016 
L 119.534373 484.434816 
" style="fill:none;stroke:#b0b0b0;stroke-width:0.8;"/>
    <path d="M 612.065897 364.443664 
L 306.312199 278.586013 
L 117.342522 432.249637 
" style="fill:none;stroke:#b0b0b0;stroke-width:0.8;"/>
    <path d="M 614.154535 312.477261 
L 305.798953 228.123905 
L 115.111776 379.138401 
" style="fill:none;stroke:#b0b0b0;stroke-width:0.8;"/>
    <path d="M 616.279342 259.610942 
L 305.277199 176.825404 
L 112.841089 325.076238 
" style="fill:none;stroke:#b0b0b0;stroke-width:0.8;"/>
    <path d="M 618.441267 205.821128 
L 304.746726 124.66954 
L 110.529379 270.037378 
" style="fill:none;stroke:#b0b0b0;stroke-width:0.8;"/>
   </g>
   <g id="xtick_18">
    <g id="line2d_21">
     <path d="M 607.481918 414.804287 
L 615.079009 416.991765 
" style="fill:none;stroke:#000000;stroke-linecap:square;stroke-width:0.8;"/>
    </g>
    <g id="text_21">
     <!-- 0.2 -->
     <g transform="translate(610.27014 428.459566)scale(0.2 -0.2)">
      <use xlink:href="#DejaVuSans-30"/>
      <use x="63.623047" xlink:href="#DejaVuSans-2e"/>
      <use x="95.410156" xlink:href="#DejaVuSans-32"/>
     </g>
    </g>
   </g>
   <g id="xtick_19">
    <g id="line2d_22">
     <path d="M 609.513048 363.726808 
L 617.176993 365.878894 
" style="fill:none;stroke:#000000;stroke-linecap:square;stroke-width:0.8;"/>
    </g>
    <g id="text_22">
     <!-- 0.4 -->
     <g transform="translate(612.458668 377.407051)scale(0.2 -0.2)">
      <use xlink:href="#DejaVuSans-30"/>
      <use x="63.623047" xlink:href="#DejaVuSans-2e"/>
      <use x="95.410156" xlink:href="#DejaVuSans-34"/>
     </g>
    </g>
   </g>
   <g id="xtick_20">
    <g id="line2d_23">
     <path d="M 611.579038 311.772711 
L 619.311023 313.887863 
" style="fill:none;stroke:#000000;stroke-linecap:square;stroke-width:0.8;"/>
    </g>
    <g id="text_23">
     <!-- 0.6 -->
     <g transform="translate(614.684728 325.479006)scale(0.2 -0.2)">
      <use xlink:href="#DejaVuSans-30"/>
      <use x="63.623047" xlink:href="#DejaVuSans-2e"/>
      <use x="95.410156" xlink:href="#DejaVuSans-36"/>
     </g>
    </g>
   </g>
   <g id="xtick_21">
    <g id="line2d_24">
     <path d="M 613.680792 258.919235 
L 621.482035 260.995845 
" style="fill:none;stroke:#000000;stroke-linecap:square;stroke-width:0.8;"/>
    </g>
    <g id="text_24">
     <!-- 0.8 -->
     <g transform="translate(616.949295 272.652714)scale(0.2 -0.2)">
      <use xlink:href="#DejaVuSans-30"/>
      <use x="63.623047" xlink:href="#DejaVuSans-2e"/>
      <use x="95.410156" xlink:href="#DejaVuSans-38"/>
     </g>
    </g>
   </g>
   <g id="xtick_22">
    <g id="line2d_25">
     <path d="M 615.819247 205.142821 
L 623.690998 207.179213 
" style="fill:none;stroke:#000000;stroke-linecap:square;stroke-width:0.8;"/>
    </g>
    <g id="text_25">
     <!-- 1.0 -->
     <g transform="translate(619.253376 218.904664)scale(0.2 -0.2)">
      <use xlink:href="#DejaVuSans-31"/>
      <use x="63.623047" xlink:href="#DejaVuSans-2e"/>
      <use x="95.410156" xlink:href="#DejaVuSans-30"/>
     </g>
    </g>
   </g>
  </g>
  <g id="axes_1">
   <g id="line2d_26">
    <path clip-path="url(#p9463f7e252)" d="M 137.421907 524.217264 
L 143.190672 525.359832 
L 148.994833 527.149827 
L 154.791307 528.452442 
L 160.612363 530.13906 
L 166.41705 531.04989 
L 172.246073 532.334524 
L 178.07122 533.15509 
L 183.90437 533.844666 
L 189.725577 533.733499 
L 195.552621 533.343196 
L 201.386136 532.664962 
L 207.178962 529.946985 
L 213.004097 527.716566 
L 218.843628 525.324465 
L 224.603846 518.913227 
L 230.362277 511.270806 
L 236.086121 500.763768 
L 241.770269 486.742569 
L 247.384794 467.209563 
L 252.871724 438.298309 
L 258.399017 407.584965 
L 263.698723 359.282845 
L 269.23898 318.756323 
L 274.932862 281.858799 
L 280.966878 262.427953 
L 287.666587 289.128654 
L 294.748809 350.453848 
L 301.975701 434.748454 
L 308.866071 501.585917 
L 315.451176 548.468642 
L 321.758777 571.134768 
L 327.946753 581.337874 
L 334.096999 586.280556 
L 340.241384 589.090789 
L 346.394182 591.726839 
L 352.55513 593.883412 
L 358.727152 596.35413 
L 364.908522 597.979837 
L 371.101406 600.165526 
L 377.304797 602.406774 
L 383.51936 604.387385 
L 389.744511 606.511604 
L 395.981117 608.504563 
L 402.227294 610.773727 
L 408.487004 612.61549 
L 414.755848 614.76479 
L 421.036099 616.863218 
L 427.32828 618.879473 
L 433.634159 620.68324 
" style="fill:none;stroke:#fc8a6a;stroke-dasharray:12.8,3.2,2,3.2;stroke-dashoffset:0;stroke-width:2;"/>
   </g>
   <g id="line2d_27">
    <path clip-path="url(#p9463f7e252)" d="M 158.823246 505.508404 
L 164.571478 506.810175 
L 170.344961 508.543958 
L 176.128159 510.270645 
L 181.90168 511.375477 
L 187.698773 512.882517 
L 193.502157 514.247898 
L 199.309655 515.380045 
L 205.112757 515.945947 
L 210.935822 516.792508 
L 216.736294 516.298062 
L 222.571497 516.614778 
L 228.390333 515.69308 
L 234.209858 514.117584 
L 240.025197 511.572656 
L 245.841962 508.185773 
L 251.636542 502.633675 
L 257.421019 495.209033 
L 263.177388 484.578116 
L 268.919044 470.956093 
L 274.607628 451.330486 
L 280.302374 428.469044 
L 285.920092 395.594493 
L 291.616931 362.552086 
L 297.4009 329.95673 
L 303.357193 305.871127 
L 309.603053 305.080303 
L 316.16675 339.110009 
L 322.886193 400.77668 
L 329.468638 458.665044 
L 335.906226 509.328328 
L 342.164562 540.286711 
L 348.317793 555.302066 
L 354.437675 563.439034 
L 360.549847 567.676426 
L 366.667542 570.837724 
L 372.794146 572.948261 
L 378.93061 575.381651 
L 385.077432 577.607712 
L 391.235247 579.641629 
L 397.402526 581.92659 
L 403.582111 583.859357 
L 409.771463 585.965898 
L 415.971759 588.037325 
L 422.182038 590.195011 
L 428.403278 592.320191 
L 434.638608 594.149031 
L 440.879829 596.423693 
L 447.136793 598.308668 
L 453.400599 600.505302 
" style="fill:none;stroke:#fb7252;stroke-dasharray:12.8,3.2,2,3.2;stroke-dashoffset:0;stroke-width:2;"/>
   </g>
   <g id="line2d_28">
    <path clip-path="url(#p9463f7e252)" d="M 179.863073 486.790435 
L 185.591301 488.300274 
L 191.33045 489.835437 
L 197.07298 491.136873 
L 202.837493 492.843502 
L 208.601421 494.162678 
L 214.379965 495.633029 
L 220.152282 496.440105 
L 225.934985 497.190754 
L 231.733656 498.117333 
L 237.531514 498.484204 
L 243.314535 497.549915 
L 249.137238 497.820672 
L 254.931813 495.950883 
L 260.74501 494.154457 
L 266.538633 490.225393 
L 272.347401 485.905853 
L 278.146664 479.499095 
L 283.934173 470.404314 
L 289.720062 458.771352 
L 295.482787 442.212392 
L 301.247059 421.59332 
L 307.019259 396.325568 
L 312.841343 369.405542 
L 318.714507 340.341994 
L 324.713674 318.575172 
L 330.920253 320.764044 
L 337.264623 347.547016 
L 343.650622 393.901389 
L 349.964687 442.854259 
L 356.181808 486.511516 
L 362.308263 515.960483 
L 368.387773 532.629614 
L 374.455172 541.241927 
L 380.526538 546.218446 
L 386.606977 549.595904 
L 392.697072 552.457675 
L 398.798148 554.864917 
L 404.908944 557.258008 
L 411.032446 559.234345 
L 417.165509 561.337253 
L 423.307172 563.631089 
L 429.461848 565.635902 
L 435.626147 567.731533 
L 441.797186 570.1289 
L 447.988045 571.794593 
L 454.180879 574.111856 
L 460.387842 576.175468 
L 466.609532 578.000503 
L 472.837482 580.107177 
" style="fill:none;stroke:#f6583e;stroke-dasharray:12.8,3.2,2,3.2;stroke-dashoffset:0;stroke-width:2;"/>
   </g>
   <g id="line2d_29">
    <path clip-path="url(#p9463f7e252)" d="M 200.562613 468.382884 
L 206.259508 469.744191 
L 211.978082 471.538194 
L 217.68758 472.601882 
L 223.413245 473.880532 
L 229.144731 474.958503 
L 234.90152 476.673192 
L 240.650116 477.554982 
L 246.414507 478.649567 
L 252.181833 479.331378 
L 257.948757 479.355096 
L 263.727992 479.328461 
L 269.509646 478.648159 
L 275.297194 477.41007 
L 281.090492 475.490015 
L 286.886559 472.521425 
L 292.681794 467.975921 
L 298.480211 461.792292 
L 304.284499 453.762455 
L 310.078766 441.699415 
L 315.890069 427.29518 
L 321.711459 408.751719 
L 327.552917 385.693858 
L 333.432508 358.865221 
L 339.412186 338.707161 
L 345.468716 324.341317 
L 351.609784 324.65341 
L 357.806089 347.968727 
L 363.983824 389.244413 
L 370.092166 430.703613 
L 376.135997 467.760176 
L 382.141117 494.846558 
L 388.140598 511.132694 
L 394.152052 520.202485 
L 400.181006 525.175009 
L 406.223994 528.581104 
L 412.275058 531.884244 
L 418.340347 534.395997 
L 424.414048 536.99318 
L 430.500108 539.27782 
L 436.595887 541.566108 
L 442.70385 543.663951 
L 448.822893 545.698849 
L 454.954677 547.573559 
L 461.088882 549.978478 
L 467.238336 552.051965 
L 473.40267 553.875475 
L 479.573766 555.92253 
L 485.753296 558.07558 
L 491.943276 560.224522 
" style="fill:none;stroke:#ee3a2c;stroke-dasharray:12.8,3.2,2,3.2;stroke-dashoffset:0;stroke-width:2;"/>
   </g>
   <g id="line2d_30">
    <path clip-path="url(#p9463f7e252)" d="M 220.92506 450.079488 
L 226.600714 451.66715 
L 232.275622 452.799579 
L 237.973706 454.506985 
L 243.668863 455.621652 
L 249.375432 456.773334 
L 255.099151 458.26661 
L 260.825607 459.357921 
L 266.560864 460.331321 
L 272.293748 460.473435 
L 278.040661 460.701037 
L 283.793428 460.455151 
L 289.565026 460.605417 
L 295.328497 459.053876 
L 301.103171 457.062144 
L 306.891491 454.736384 
L 312.688844 451.475122 
L 318.490984 446.440008 
L 324.290743 437.955588 
L 330.109762 427.785131 
L 335.946133 414.647813 
L 341.800802 396.764023 
L 347.696972 376.703246 
L 353.652002 358.758789 
L 359.66 343.093885 
L 365.716789 334.657154 
L 371.798071 338.985409 
L 377.859227 360.29968 
L 383.869629 390.404385 
L 389.829131 421.756351 
L 395.746323 451.585705 
L 401.656942 474.240287 
L 407.585208 489.329576 
L 413.539863 498.732577 
L 419.520958 504.460772 
L 425.525708 507.974391 
L 431.544324 510.834797 
L 437.566244 514.123002 
L 443.601699 516.93041 
L 449.64761 519.591913 
L 455.712479 521.56377 
L 461.784853 523.709239 
L 467.860461 526.252305 
L 473.955306 528.229413 
L 480.055428 530.47453 
L 486.170376 532.468634 
L 492.293439 534.570541 
L 498.42566 536.719244 
L 504.569106 538.820475 
L 510.730249 540.613966 
" style="fill:none;stroke:#d92523;stroke-dasharray:12.8,3.2,2,3.2;stroke-dashoffset:0;stroke-width:2;"/>
   </g>
   <g id="line2d_31">
    <path clip-path="url(#p9463f7e252)" d="M 240.981286 432.855423 
L 246.624844 434.25233 
L 252.279611 435.71854 
L 257.939826 436.951922 
L 263.614457 438.423079 
L 269.293047 439.542021 
L 274.983396 440.740011 
L 280.675834 441.37365 
L 286.384193 442.326937 
L 292.100676 443.06052 
L 297.82281 443.309697 
L 303.555903 443.4297 
L 309.292262 442.605859 
L 315.040132 441.447212 
L 320.799677 439.846989 
L 326.570088 437.501708 
L 332.348819 433.626963 
L 338.141493 428.438792 
L 343.956426 423.002011 
L 349.776968 411.791686 
L 355.630961 399.762115 
L 361.519695 385.877665 
L 367.448156 367.302521 
L 373.422782 353.875739 
L 379.431395 343.942545 
L 385.452301 341.670852 
L 391.463592 346.850021 
L 397.431843 361.85658 
L 403.342683 384.071467 
L 409.226342 405.785067 
L 415.061815 429.894909 
L 420.876945 452.376352 
L 426.721421 468.62154 
L 432.61168 478.846581 
L 438.541838 485.098235 
L 444.503414 488.983903 
L 450.47334 492.699265 
L 456.472757 494.853135 
L 462.469461 497.783469 
L 468.487831 499.904083 
L 474.508123 502.460388 
L 480.539201 504.914217 
L 486.586809 506.994796 
L 492.638243 509.364741 
L 498.697812 511.788941 
L 504.780491 513.61148 
L 510.864717 515.807152 
L 516.970747 517.524605 
L 523.073851 519.767671 
L 529.1909 521.856949 
" style="fill:none;stroke:#c3161b;stroke-dasharray:12.8,3.2,2,3.2;stroke-dashoffset:0;stroke-width:2;"/>
   </g>
   <g id="line2d_32">
    <path clip-path="url(#p9463f7e252)" d="M 260.715767 415.85771 
L 266.33392 417.378811 
L 271.961933 418.924651 
L 277.594187 420.128064 
L 283.236907 421.355844 
L 288.893085 422.835094 
L 294.55147 423.711824 
L 300.225148 424.978294 
L 305.897361 425.138815 
L 311.588836 426.032717 
L 317.286704 426.400438 
L 322.993782 426.409157 
L 328.712009 426.18935 
L 334.432177 424.010938 
L 340.175855 423.207139 
L 345.926322 420.411547 
L 351.691206 416.265429 
L 357.475845 411.496814 
L 363.279614 403.357562 
L 369.112293 393.52298 
L 374.979387 381.543493 
L 380.883499 369.299961 
L 386.84044 351.789616 
L 392.829404 338.203409 
L 398.831174 330.126763 
L 404.812758 330.410639 
L 410.766852 336.54998 
L 416.680437 348.0029 
L 422.522548 366.479698 
L 428.344558 384.65994 
L 434.117414 405.290234 
L 439.867072 425.559798 
L 445.619826 443.501481 
L 451.414185 456.835479 
L 457.27447 464.853361 
L 463.179374 469.904731 
L 469.110325 473.620368 
L 475.068001 476.189179 
L 481.023942 479.302015 
L 487.011969 481.179377 
L 493.005678 483.263622 
L 499.003527 485.59781 
L 505.015766 487.703922 
L 511.02645 490.276781 
L 517.048351 492.750054 
L 523.088439 494.869128 
L 529.125454 497.460497 
L 535.191494 499.331811 
L 541.266933 501.234032 
L 547.337454 503.639304 
" style="fill:none;stroke:#ac1117;stroke-dasharray:12.8,3.2,2,3.2;stroke-dashoffset:0;stroke-width:2;"/>
   </g>
   <g id="line2d_33">
    <path clip-path="url(#p9463f7e252)" d="M 280.13912 399.249414 
L 285.728868 400.744495 
L 291.328341 402.269035 
L 296.933537 403.492117 
L 302.550697 404.90137 
L 308.173127 405.880958 
L 313.805671 406.82551 
L 319.447251 407.587401 
L 325.098717 408.208013 
L 330.759629 408.549001 
L 336.431581 408.752591 
L 342.112209 408.188707 
L 347.804214 406.995358 
L 353.510196 405.47194 
L 359.231465 403.820329 
L 364.967203 400.075746 
L 370.722648 396.739483 
L 376.500543 390.81547 
L 382.306054 383.351441 
L 388.146809 373.380878 
L 394.023918 362.39802 
L 399.931082 352.220686 
L 405.8968 337.818733 
L 411.870904 328.032338 
L 417.822808 325.003451 
L 423.755688 326.201647 
L 429.641019 333.245177 
L 435.494768 343.119822 
L 441.304827 356.140349 
L 447.090482 370.098744 
L 452.811523 387.677945 
L 458.518938 404.739429 
L 464.187136 422.983034 
L 469.931227 435.389626 
L 475.726463 444.310443 
L 481.571901 450.345097 
L 487.446518 454.984086 
L 493.340472 458.89911 
L 499.268985 461.495625 
L 505.20278 464.22579 
L 511.164937 466.109145 
L 517.14585 467.63512 
L 523.115195 470.015339 
L 529.10017 472.146048 
L 535.084604 474.633457 
L 541.091639 476.643113 
L 547.091307 479.222837 
L 553.112801 481.377219 
L 559.148779 483.376835 
L 565.195021 485.364618 
" style="fill:none;stroke:#8c0912;stroke-dasharray:12.8,3.2,2,3.2;stroke-dashoffset:0;stroke-width:2;"/>
   </g>
   <g id="line2d_34">
    <path clip-path="url(#p9463f7e252)" d="M 299.261507 383.365547 
L 304.821227 384.703982 
L 310.387519 385.742471 
L 315.964976 386.90724 
L 321.549785 387.75186 
L 327.147635 388.966949 
L 332.752173 389.656132 
L 338.368162 390.466547 
L 343.993892 391.055648 
L 349.630109 391.452261 
L 355.277987 391.923293 
L 360.937345 392.461584 
L 366.607896 392.691215 
L 372.290177 393.248601 
L 377.985534 392.674005 
L 383.696246 391.360358 
L 389.425101 389.121345 
L 395.172925 386.382887 
L 400.949148 381.654696 
L 406.748448 376.699507 
L 412.588542 369.172038 
L 418.446154 362.820461 
L 424.356858 353.403927 
L 430.259219 347.869095 
L 436.153584 345.180099 
L 442.035504 345.027196 
L 447.854221 350.741996 
L 453.653653 357.970792 
L 459.43113 366.596747 
L 465.211574 374.801526 
L 470.938804 385.974115 
L 476.638287 398.205279 
L 482.333873 410.06671 
L 488.032754 421.249929 
L 493.784774 429.462117 
L 499.592703 434.978777 
L 505.44356 438.71824 
L 511.315533 441.817565 
L 517.203883 444.545162 
L 523.118308 446.569966 
L 529.040586 448.650202 
L 534.974947 450.629086 
L 540.938199 451.935967 
L 546.892457 453.908358 
L 552.832401 456.654401 
L 558.810813 458.446351 
L 564.778685 460.862678 
L 570.759101 463.167683 
L 576.747201 465.511079 
L 582.740651 467.95536 
" style="fill:none;stroke:#67000d;stroke-dasharray:12.8,3.2,2,3.2;stroke-dashoffset:0;stroke-width:2;"/>
   </g>
  </g>
  <g id="text_26">
   <!-- 15Br - 160 K -->
   <defs>
    <path d="M 10.59375 72.90625 
L 57.328125 72.90625 
L 57.328125 59.078125 
L 25.59375 59.078125 
L 25.59375 47.796875 
Q 27.734375 48.390625 29.90625 48.703125 
Q 32.078125 49.03125 34.421875 49.03125 
Q 47.75 49.03125 55.171875 42.359375 
Q 62.59375 35.6875 62.59375 23.78125 
Q 62.59375 11.96875 54.515625 5.265625 
Q 46.4375 -1.421875 32.078125 -1.421875 
Q 25.875 -1.421875 19.796875 -0.21875 
Q 13.71875 0.984375 7.71875 3.421875 
L 7.71875 18.21875 
Q 13.671875 14.796875 19.015625 13.078125 
Q 24.359375 11.375 29.109375 11.375 
Q 35.9375 11.375 39.859375 14.71875 
Q 43.796875 18.0625 43.796875 23.78125 
Q 43.796875 29.546875 39.859375 32.859375 
Q 35.9375 36.1875 29.109375 36.1875 
Q 25.046875 36.1875 20.453125 35.125 
Q 15.875 34.078125 10.59375 31.890625 
z
" id="DejaVuSans-Bold-35"/>
    <path d="M 38.375 44.671875 
Q 42.828125 44.671875 45.109375 46.625 
Q 47.40625 48.578125 47.40625 52.390625 
Q 47.40625 56.15625 45.109375 58.125 
Q 42.828125 60.109375 38.375 60.109375 
L 27.984375 60.109375 
L 27.984375 44.671875 
z
M 39.015625 12.796875 
Q 44.671875 12.796875 47.53125 15.1875 
Q 50.390625 17.578125 50.390625 22.40625 
Q 50.390625 27.15625 47.5625 29.515625 
Q 44.734375 31.890625 39.015625 31.890625 
L 27.984375 31.890625 
L 27.984375 12.796875 
z
M 56.5 39.015625 
Q 62.546875 37.25 65.859375 32.515625 
Q 69.1875 27.78125 69.1875 20.90625 
Q 69.1875 10.359375 62.0625 5.171875 
Q 54.9375 0 40.375 0 
L 9.1875 0 
L 9.1875 72.90625 
L 37.40625 72.90625 
Q 52.59375 72.90625 59.40625 68.3125 
Q 66.21875 63.71875 66.21875 53.609375 
Q 66.21875 48.296875 63.71875 44.5625 
Q 61.234375 40.828125 56.5 39.015625 
z
" id="DejaVuSans-Bold-42"/>
    <path d="M 5.421875 35.890625 
L 36.078125 35.890625 
L 36.078125 21.6875 
L 5.421875 21.6875 
z
" id="DejaVuSans-Bold-2d"/>
    <path d="M 36.1875 35.984375 
Q 31.25 35.984375 28.78125 32.78125 
Q 26.3125 29.59375 26.3125 23.1875 
Q 26.3125 16.796875 28.78125 13.59375 
Q 31.25 10.40625 36.1875 10.40625 
Q 41.15625 10.40625 43.625 13.59375 
Q 46.09375 16.796875 46.09375 23.1875 
Q 46.09375 29.59375 43.625 32.78125 
Q 41.15625 35.984375 36.1875 35.984375 
z
M 59.421875 71 
L 59.421875 57.515625 
Q 54.78125 59.71875 50.671875 60.765625 
Q 46.578125 61.8125 42.671875 61.8125 
Q 34.28125 61.8125 29.59375 57.140625 
Q 24.90625 52.484375 24.125 43.3125 
Q 27.34375 45.703125 31.09375 46.890625 
Q 34.859375 48.09375 39.3125 48.09375 
Q 50.484375 48.09375 57.34375 41.546875 
Q 64.203125 35.015625 64.203125 24.421875 
Q 64.203125 12.703125 56.53125 5.640625 
Q 48.875 -1.421875 35.984375 -1.421875 
Q 21.78125 -1.421875 13.984375 8.171875 
Q 6.203125 17.78125 6.203125 35.40625 
Q 6.203125 53.46875 15.3125 63.796875 
Q 24.421875 74.125 40.28125 74.125 
Q 45.3125 74.125 50.046875 73.34375 
Q 54.78125 72.5625 59.421875 71 
z
" id="DejaVuSans-Bold-36"/>
    <path d="M 46 36.53125 
Q 46 50.203125 43.4375 55.78125 
Q 40.875 61.375 34.8125 61.375 
Q 28.765625 61.375 26.171875 55.78125 
Q 23.578125 50.203125 23.578125 36.53125 
Q 23.578125 22.703125 26.171875 17.03125 
Q 28.765625 11.375 34.8125 11.375 
Q 40.828125 11.375 43.40625 17.03125 
Q 46 22.703125 46 36.53125 
z
M 64.796875 36.375 
Q 64.796875 18.265625 56.984375 8.421875 
Q 49.171875 -1.421875 34.8125 -1.421875 
Q 20.40625 -1.421875 12.59375 8.421875 
Q 4.78125 18.265625 4.78125 36.375 
Q 4.78125 54.546875 12.59375 64.375 
Q 20.40625 74.21875 34.8125 74.21875 
Q 49.171875 74.21875 56.984375 64.375 
Q 64.796875 54.546875 64.796875 36.375 
z
" id="DejaVuSans-Bold-30"/>
    <path d="M 9.1875 72.90625 
L 27.984375 72.90625 
L 27.984375 46.296875 
L 55.078125 72.90625 
L 76.90625 72.90625 
L 41.796875 38.375 
L 80.515625 0 
L 56.984375 0 
L 27.984375 28.71875 
L 27.984375 0 
L 9.1875 0 
z
" id="DejaVuSans-Bold-4b"/>
   </defs>
   <g transform="translate(290.315625 29.596875)scale(0.2 -0.2)">
    <use xlink:href="#DejaVuSans-Bold-31"/>
    <use x="69.580078" xlink:href="#DejaVuSans-Bold-35"/>
    <use x="139.160156" xlink:href="#DejaVuSans-Bold-42"/>
    <use x="215.380859" xlink:href="#DejaVuSans-Bold-72"/>
    <use x="264.697266" xlink:href="#DejaVuSans-Bold-20"/>
    <use x="299.511719" xlink:href="#DejaVuSans-Bold-2d"/>
    <use x="341.015625" xlink:href="#DejaVuSans-Bold-20"/>
    <use x="375.830078" xlink:href="#DejaVuSans-Bold-31"/>
    <use x="445.410156" xlink:href="#DejaVuSans-Bold-36"/>
    <use x="514.990234" xlink:href="#DejaVuSans-Bold-30"/>
    <use x="584.570312" xlink:href="#DejaVuSans-Bold-20"/>
    <use x="619.384766" xlink:href="#DejaVuSans-Bold-4b"/>
   </g>
  </g>
 </g>
 <defs>
  <clipPath id="p9463f7e252">
   <rect height="648" width="648" x="36" y="36"/>
  </clipPath>
 </defs>
</svg>
