<?xml version="1.0" encoding="utf-8" standalone="no"?>
<!DOCTYPE svg PUBLIC "-//W3C//DTD SVG 1.1//EN"
  "http://www.w3.org/Graphics/SVG/1.1/DTD/svg11.dtd">
<!-- Created with matplotlib (http://matplotlib.org/) -->
<svg height="720pt" version="1.1" viewBox="0 0 720 720" width="720pt" xmlns="http://www.w3.org/2000/svg" xmlns:xlink="http://www.w3.org/1999/xlink">
 <defs>
  <style type="text/css">
*{stroke-linecap:butt;stroke-linejoin:round;}
  </style>
 </defs>
 <g id="figure_1">
  <g id="patch_1">
   <path d="M 0 720 
L 720 720 
L 720 0 
L 0 0 
z
" style="fill:#ffffff;"/>
  </g>
  <g id="patch_2">
   <path d="M 36 684 
L 684 684 
L 684 36 
L 36 36 
z
" style="fill:#ffffff;"/>
  </g>
  <g id="pane3d_1">
   <g id="patch_3">
    <path d="M 121.902413 540.814837 
L 307.363404 381.93992 
L 304.275675 78.356028 
L 108.474019 221.101874 
" style="fill:#f2f2f2;opacity:0.5;stroke:#f2f2f2;stroke-linejoin:miter;"/>
   </g>
  </g>
  <g id="pane3d_2">
   <g id="patch_4">
    <path d="M 307.363404 381.93992 
L 607.792772 470.761251 
L 620.362376 158.022911 
L 304.275675 78.356028 
" style="fill:#e6e6e6;opacity:0.5;stroke:#e6e6e6;stroke-linejoin:miter;"/>
   </g>
  </g>
  <g id="pane3d_3">
   <g id="patch_5">
    <path d="M 121.902413 540.814837 
L 437.994703 644.26175 
L 607.792772 470.761251 
L 307.363404 381.93992 
" style="fill:#ececec;opacity:0.5;stroke:#ececec;stroke-linejoin:miter;"/>
   </g>
  </g>
  <g id="axis3d_1">
   <g id="line2d_1">
    <path d="M 121.902413 540.814837 
L 437.994703 644.26175 
" style="fill:none;stroke:#000000;stroke-linecap:square;stroke-width:0.8;"/>
   </g>
   <g id="text_1">
    <!-- Energy (meV) -->
    <defs>
     <path d="M 9.1875 72.90625 
L 59.90625 72.90625 
L 59.90625 58.6875 
L 27.984375 58.6875 
L 27.984375 45.125 
L 58.015625 45.125 
L 58.015625 30.90625 
L 27.984375 30.90625 
L 27.984375 14.203125 
L 60.984375 14.203125 
L 60.984375 0 
L 9.1875 0 
z
" id="DejaVuSans-Bold-45"/>
     <path d="M 63.375 33.296875 
L 63.375 0 
L 45.796875 0 
L 45.796875 5.421875 
L 45.796875 25.484375 
Q 45.796875 32.5625 45.484375 35.25 
Q 45.171875 37.9375 44.390625 39.203125 
Q 43.359375 40.921875 41.59375 41.875 
Q 39.84375 42.828125 37.59375 42.828125 
Q 32.125 42.828125 29 38.59375 
Q 25.875 34.375 25.875 26.90625 
L 25.875 0 
L 8.40625 0 
L 8.40625 54.6875 
L 25.875 54.6875 
L 25.875 46.6875 
Q 29.828125 51.46875 34.265625 53.734375 
Q 38.71875 56 44.09375 56 
Q 53.5625 56 58.46875 50.1875 
Q 63.375 44.390625 63.375 33.296875 
z
" id="DejaVuSans-Bold-6e"/>
     <path d="M 62.984375 27.484375 
L 62.984375 22.515625 
L 22.125 22.515625 
Q 22.75 16.359375 26.5625 13.28125 
Q 30.375 10.203125 37.203125 10.203125 
Q 42.71875 10.203125 48.5 11.84375 
Q 54.296875 13.484375 60.40625 16.796875 
L 60.40625 3.328125 
Q 54.203125 0.984375 48 -0.21875 
Q 41.796875 -1.421875 35.59375 -1.421875 
Q 20.75 -1.421875 12.515625 6.125 
Q 4.296875 13.671875 4.296875 27.296875 
Q 4.296875 40.671875 12.375 48.328125 
Q 20.453125 56 34.625 56 
Q 47.515625 56 55.25 48.234375 
Q 62.984375 40.484375 62.984375 27.484375 
z
M 45.015625 33.296875 
Q 45.015625 38.28125 42.109375 41.328125 
Q 39.203125 44.390625 34.515625 44.390625 
Q 29.4375 44.390625 26.265625 41.53125 
Q 23.09375 38.671875 22.3125 33.296875 
z
" id="DejaVuSans-Bold-65"/>
     <path d="M 49.03125 39.796875 
Q 46.734375 40.875 44.453125 41.375 
Q 42.1875 41.890625 39.890625 41.890625 
Q 33.15625 41.890625 29.515625 37.5625 
Q 25.875 33.25 25.875 25.203125 
L 25.875 0 
L 8.40625 0 
L 8.40625 54.6875 
L 25.875 54.6875 
L 25.875 45.703125 
Q 29.25 51.078125 33.609375 53.53125 
Q 37.984375 56 44.09375 56 
Q 44.96875 56 45.984375 55.921875 
Q 47.015625 55.859375 48.96875 55.609375 
z
" id="DejaVuSans-Bold-72"/>
     <path d="M 45.609375 9.28125 
Q 42 4.5 37.640625 2.25 
Q 33.296875 0 27.59375 0 
Q 17.578125 0 11.03125 7.875 
Q 4.5 15.765625 4.5 27.984375 
Q 4.5 40.234375 11.03125 48.0625 
Q 17.578125 55.90625 27.59375 55.90625 
Q 33.296875 55.90625 37.640625 53.65625 
Q 42 51.421875 45.609375 46.578125 
L 45.609375 54.6875 
L 63.1875 54.6875 
L 63.1875 5.515625 
Q 63.1875 -7.671875 54.859375 -14.625 
Q 46.53125 -21.578125 30.71875 -21.578125 
Q 25.59375 -21.578125 20.796875 -20.796875 
Q 16.015625 -20.015625 11.1875 -18.40625 
L 11.1875 -4.78125 
Q 15.765625 -7.421875 20.15625 -8.71875 
Q 24.5625 -10.015625 29 -10.015625 
Q 37.59375 -10.015625 41.59375 -6.25 
Q 45.609375 -2.484375 45.609375 5.515625 
z
M 34.078125 43.3125 
Q 28.65625 43.3125 25.625 39.296875 
Q 22.609375 35.296875 22.609375 27.984375 
Q 22.609375 20.453125 25.53125 16.578125 
Q 28.46875 12.703125 34.078125 12.703125 
Q 39.546875 12.703125 42.578125 16.703125 
Q 45.609375 20.703125 45.609375 27.984375 
Q 45.609375 35.296875 42.578125 39.296875 
Q 39.546875 43.3125 34.078125 43.3125 
z
" id="DejaVuSans-Bold-67"/>
     <path d="M 1.21875 54.6875 
L 18.703125 54.6875 
L 33.40625 17.578125 
L 45.90625 54.6875 
L 63.375 54.6875 
L 40.375 -5.171875 
Q 36.921875 -14.3125 32.296875 -17.9375 
Q 27.6875 -21.578125 20.125 -21.578125 
L 10.015625 -21.578125 
L 10.015625 -10.109375 
L 15.484375 -10.109375 
Q 19.921875 -10.109375 21.9375 -8.6875 
Q 23.96875 -7.28125 25.09375 -3.609375 
L 25.59375 -2.09375 
z
" id="DejaVuSans-Bold-79"/>
     <path id="DejaVuSans-Bold-20"/>
     <path d="M 37.703125 -13.1875 
L 23.1875 -13.1875 
Q 15.71875 -1.125 12.15625 9.734375 
Q 8.59375 20.609375 8.59375 31.296875 
Q 8.59375 42 12.171875 52.953125 
Q 15.765625 63.921875 23.1875 75.875 
L 37.703125 75.875 
Q 31.453125 64.3125 28.328125 53.25 
Q 25.203125 42.1875 25.203125 31.390625 
Q 25.203125 20.609375 28.296875 9.515625 
Q 31.390625 -1.5625 37.703125 -13.1875 
z
" id="DejaVuSans-Bold-28"/>
     <path d="M 59.078125 45.609375 
Q 62.40625 50.6875 66.96875 53.34375 
Q 71.53125 56 77 56 
Q 86.421875 56 91.359375 50.1875 
Q 96.296875 44.390625 96.296875 33.296875 
L 96.296875 0 
L 78.71875 0 
L 78.71875 28.515625 
Q 78.765625 29.15625 78.78125 29.828125 
Q 78.8125 30.515625 78.8125 31.78125 
Q 78.8125 37.59375 77.09375 40.203125 
Q 75.390625 42.828125 71.578125 42.828125 
Q 66.609375 42.828125 63.890625 38.71875 
Q 61.1875 34.625 61.078125 26.859375 
L 61.078125 0 
L 43.5 0 
L 43.5 28.515625 
Q 43.5 37.59375 41.9375 40.203125 
Q 40.375 42.828125 36.375 42.828125 
Q 31.34375 42.828125 28.609375 38.703125 
Q 25.875 34.578125 25.875 26.90625 
L 25.875 0 
L 8.296875 0 
L 8.296875 54.6875 
L 25.875 54.6875 
L 25.875 46.6875 
Q 29.109375 51.3125 33.28125 53.65625 
Q 37.453125 56 42.484375 56 
Q 48.140625 56 52.484375 53.265625 
Q 56.84375 50.53125 59.078125 45.609375 
z
" id="DejaVuSans-Bold-6d"/>
     <path d="M 0.484375 72.90625 
L 19.390625 72.90625 
L 38.71875 19.09375 
L 58.015625 72.90625 
L 76.90625 72.90625 
L 49.90625 0 
L 27.484375 0 
z
" id="DejaVuSans-Bold-56"/>
     <path d="M 8.015625 -13.1875 
Q 14.265625 -1.5625 17.390625 9.515625 
Q 20.515625 20.609375 20.515625 31.390625 
Q 20.515625 42.1875 17.390625 53.25 
Q 14.265625 64.3125 8.015625 75.875 
L 22.515625 75.875 
Q 29.9375 63.921875 33.515625 52.953125 
Q 37.109375 42 37.109375 31.296875 
Q 37.109375 20.609375 33.546875 9.734375 
Q 29.984375 -1.125 22.515625 -13.1875 
z
" id="DejaVuSans-Bold-29"/>
    </defs>
    <g transform="translate(187.658654 608.708901)rotate(-341.878381)scale(0.2 -0.2)">
     <use xlink:href="#DejaVuSans-Bold-45"/>
     <use x="68.310547" xlink:href="#DejaVuSans-Bold-6e"/>
     <use x="139.501953" xlink:href="#DejaVuSans-Bold-65"/>
     <use x="207.324219" xlink:href="#DejaVuSans-Bold-72"/>
     <use x="256.640625" xlink:href="#DejaVuSans-Bold-67"/>
     <use x="328.222656" xlink:href="#DejaVuSans-Bold-79"/>
     <use x="393.408203" xlink:href="#DejaVuSans-Bold-20"/>
     <use x="428.222656" xlink:href="#DejaVuSans-Bold-28"/>
     <use x="473.925781" xlink:href="#DejaVuSans-Bold-6d"/>
     <use x="578.125" xlink:href="#DejaVuSans-Bold-65"/>
     <use x="645.947266" xlink:href="#DejaVuSans-Bold-56"/>
     <use x="723.339844" xlink:href="#DejaVuSans-Bold-29"/>
    </g>
   </g>
   <g id="Line3DCollection_1">
    <path d="M 127.947203 542.793104 
L 313.127594 383.644091 
L 310.327331 79.881295 
" style="fill:none;stroke:#b0b0b0;stroke-width:0.8;"/>
    <path d="M 164.444236 554.737417 
L 347.914703 393.928829 
L 346.860038 89.089044 
" style="fill:none;stroke:#b0b0b0;stroke-width:0.8;"/>
    <path d="M 201.33723 566.811316 
L 383.051818 404.317045 
L 383.779012 98.394148 
" style="fill:none;stroke:#b0b0b0;stroke-width:0.8;"/>
    <path d="M 238.632665 579.016921 
L 418.544248 414.81031 
L 421.090412 107.798159 
" style="fill:none;stroke:#b0b0b0;stroke-width:0.8;"/>
    <path d="M 276.33716 591.356398 
L 454.39741 425.410224 
L 458.800528 117.302663 
" style="fill:none;stroke:#b0b0b0;stroke-width:0.8;"/>
    <path d="M 314.457484 603.831963 
L 490.61683 436.118422 
L 496.915786 126.90928 
" style="fill:none;stroke:#b0b0b0;stroke-width:0.8;"/>
    <path d="M 353.000554 616.445879 
L 527.208152 446.936572 
L 535.442749 136.619663 
" style="fill:none;stroke:#b0b0b0;stroke-width:0.8;"/>
    <path d="M 391.97344 629.20046 
L 564.177131 457.866375 
L 574.388126 146.435504 
" style="fill:none;stroke:#b0b0b0;stroke-width:0.8;"/>
    <path d="M 431.383373 642.098072 
L 601.529645 468.90957 
L 613.758768 156.358529 
" style="fill:none;stroke:#b0b0b0;stroke-width:0.8;"/>
   </g>
   <g id="xtick_1">
    <g id="line2d_2">
     <path d="M 129.542405 541.422144 
L 124.750861 545.540126 
" style="fill:none;stroke:#000000;stroke-linecap:square;stroke-width:0.8;"/>
    </g>
    <g id="text_2">
     <!-- −10.0 -->
     <defs>
      <path d="M 10.59375 35.5 
L 73.1875 35.5 
L 73.1875 27.203125 
L 10.59375 27.203125 
z
" id="DejaVuSans-2212"/>
      <path d="M 12.40625 8.296875 
L 28.515625 8.296875 
L 28.515625 63.921875 
L 10.984375 60.40625 
L 10.984375 69.390625 
L 28.421875 72.90625 
L 38.28125 72.90625 
L 38.28125 8.296875 
L 54.390625 8.296875 
L 54.390625 0 
L 12.40625 0 
z
" id="DejaVuSans-31"/>
      <path d="M 31.78125 66.40625 
Q 24.171875 66.40625 20.328125 58.90625 
Q 16.5 51.421875 16.5 36.375 
Q 16.5 21.390625 20.328125 13.890625 
Q 24.171875 6.390625 31.78125 6.390625 
Q 39.453125 6.390625 43.28125 13.890625 
Q 47.125 21.390625 47.125 36.375 
Q 47.125 51.421875 43.28125 58.90625 
Q 39.453125 66.40625 31.78125 66.40625 
z
M 31.78125 74.21875 
Q 44.046875 74.21875 50.515625 64.515625 
Q 56.984375 54.828125 56.984375 36.375 
Q 56.984375 17.96875 50.515625 8.265625 
Q 44.046875 -1.421875 31.78125 -1.421875 
Q 19.53125 -1.421875 13.0625 8.265625 
Q 6.59375 17.96875 6.59375 36.375 
Q 6.59375 54.828125 13.0625 64.515625 
Q 19.53125 74.21875 31.78125 74.21875 
z
" id="DejaVuSans-30"/>
      <path d="M 10.6875 12.40625 
L 21 12.40625 
L 21 0 
L 10.6875 0 
z
" id="DejaVuSans-2e"/>
     </defs>
     <g transform="translate(90.921394 574.184766)scale(0.2 -0.2)">
      <use xlink:href="#DejaVuSans-2212"/>
      <use x="83.789062" xlink:href="#DejaVuSans-31"/>
      <use x="147.412109" xlink:href="#DejaVuSans-30"/>
      <use x="211.035156" xlink:href="#DejaVuSans-2e"/>
      <use x="242.822266" xlink:href="#DejaVuSans-30"/>
     </g>
    </g>
   </g>
   <g id="xtick_2">
    <g id="line2d_3">
     <path d="M 166.025316 553.351629 
L 161.276159 557.51418 
" style="fill:none;stroke:#000000;stroke-linecap:square;stroke-width:0.8;"/>
    </g>
    <g id="text_3">
     <!-- −7.5 -->
     <defs>
      <path d="M 8.203125 72.90625 
L 55.078125 72.90625 
L 55.078125 68.703125 
L 28.609375 0 
L 18.3125 0 
L 43.21875 64.59375 
L 8.203125 64.59375 
z
" id="DejaVuSans-37"/>
      <path d="M 10.796875 72.90625 
L 49.515625 72.90625 
L 49.515625 64.59375 
L 19.828125 64.59375 
L 19.828125 46.734375 
Q 21.96875 47.46875 24.109375 47.828125 
Q 26.265625 48.1875 28.421875 48.1875 
Q 40.625 48.1875 47.75 41.5 
Q 54.890625 34.8125 54.890625 23.390625 
Q 54.890625 11.625 47.5625 5.09375 
Q 40.234375 -1.421875 26.90625 -1.421875 
Q 22.3125 -1.421875 17.546875 -0.640625 
Q 12.796875 0.140625 7.71875 1.703125 
L 7.71875 11.625 
Q 12.109375 9.234375 16.796875 8.0625 
Q 21.484375 6.890625 26.703125 6.890625 
Q 35.15625 6.890625 40.078125 11.328125 
Q 45.015625 15.765625 45.015625 23.390625 
Q 45.015625 31 40.078125 35.4375 
Q 35.15625 39.890625 26.703125 39.890625 
Q 22.75 39.890625 18.8125 39.015625 
Q 14.890625 38.140625 10.796875 36.28125 
z
" id="DejaVuSans-35"/>
     </defs>
     <g transform="translate(133.778782 586.227106)scale(0.2 -0.2)">
      <use xlink:href="#DejaVuSans-2212"/>
      <use x="83.789062" xlink:href="#DejaVuSans-37"/>
      <use x="147.412109" xlink:href="#DejaVuSans-2e"/>
      <use x="179.199219" xlink:href="#DejaVuSans-35"/>
     </g>
    </g>
   </g>
   <g id="xtick_3">
    <g id="line2d_4">
     <path d="M 202.903787 565.410457 
L 198.198221 569.618305 
" style="fill:none;stroke:#000000;stroke-linecap:square;stroke-width:0.8;"/>
    </g>
    <g id="text_4">
     <!-- −5.0 -->
     <g transform="translate(170.66996 598.400212)scale(0.2 -0.2)">
      <use xlink:href="#DejaVuSans-2212"/>
      <use x="83.789062" xlink:href="#DejaVuSans-35"/>
      <use x="147.412109" xlink:href="#DejaVuSans-2e"/>
      <use x="179.199219" xlink:href="#DejaVuSans-30"/>
     </g>
    </g>
   </g>
   <g id="xtick_4">
    <g id="line2d_5">
     <path d="M 240.184287 577.600744 
L 235.52355 581.854633 
" style="fill:none;stroke:#000000;stroke-linecap:square;stroke-width:0.8;"/>
    </g>
    <g id="text_5">
     <!-- −2.5 -->
     <defs>
      <path d="M 19.1875 8.296875 
L 53.609375 8.296875 
L 53.609375 0 
L 7.328125 0 
L 7.328125 8.296875 
Q 12.9375 14.109375 22.625 23.890625 
Q 32.328125 33.6875 34.8125 36.53125 
Q 39.546875 41.84375 41.421875 45.53125 
Q 43.3125 49.21875 43.3125 52.78125 
Q 43.3125 58.59375 39.234375 62.25 
Q 35.15625 65.921875 28.609375 65.921875 
Q 23.96875 65.921875 18.8125 64.3125 
Q 13.671875 62.703125 7.8125 59.421875 
L 7.8125 69.390625 
Q 13.765625 71.78125 18.9375 73 
Q 24.125 74.21875 28.421875 74.21875 
Q 39.75 74.21875 46.484375 68.546875 
Q 53.21875 62.890625 53.21875 53.421875 
Q 53.21875 48.921875 51.53125 44.890625 
Q 49.859375 40.875 45.40625 35.40625 
Q 44.1875 33.984375 37.640625 27.21875 
Q 31.109375 20.453125 19.1875 8.296875 
z
" id="DejaVuSans-32"/>
     </defs>
     <g transform="translate(207.963919 610.706225)scale(0.2 -0.2)">
      <use xlink:href="#DejaVuSans-2212"/>
      <use x="83.789062" xlink:href="#DejaVuSans-32"/>
      <use x="147.412109" xlink:href="#DejaVuSans-2e"/>
      <use x="179.199219" xlink:href="#DejaVuSans-35"/>
     </g>
    </g>
   </g>
   <g id="xtick_5">
    <g id="line2d_6">
     <path d="M 277.873425 589.924651 
L 273.258786 594.22534 
" style="fill:none;stroke:#000000;stroke-linecap:square;stroke-width:0.8;"/>
    </g>
    <g id="text_6">
     <!-- 0.0 -->
     <g transform="translate(254.046979 623.147333)scale(0.2 -0.2)">
      <use xlink:href="#DejaVuSans-30"/>
      <use x="63.623047" xlink:href="#DejaVuSans-2e"/>
      <use x="95.410156" xlink:href="#DejaVuSans-30"/>
     </g>
    </g>
   </g>
   <g id="xtick_6">
    <g id="line2d_7">
     <path d="M 315.977958 602.384387 
L 311.41072 606.732652 
" style="fill:none;stroke:#000000;stroke-linecap:square;stroke-width:0.8;"/>
    </g>
    <g id="text_7">
     <!-- 2.5 -->
     <g transform="translate(292.166543 635.725774)scale(0.2 -0.2)">
      <use xlink:href="#DejaVuSans-32"/>
      <use x="63.623047" xlink:href="#DejaVuSans-2e"/>
      <use x="95.410156" xlink:href="#DejaVuSans-35"/>
     </g>
    </g>
   </g>
   <g id="xtick_7">
    <g id="line2d_8">
     <path d="M 354.504791 614.98221 
L 349.986293 619.378846 
" style="fill:none;stroke:#000000;stroke-linecap:square;stroke-width:0.8;"/>
    </g>
    <g id="text_8">
     <!-- 5.0 -->
     <g transform="translate(330.709229 648.443833)scale(0.2 -0.2)">
      <use xlink:href="#DejaVuSans-35"/>
      <use x="63.623047" xlink:href="#DejaVuSans-2e"/>
      <use x="95.410156" xlink:href="#DejaVuSans-30"/>
     </g>
    </g>
   </g>
   <g id="xtick_8">
    <g id="line2d_9">
     <path d="M 393.460983 627.720429 
L 388.9926 632.166247 
" style="fill:none;stroke:#000000;stroke-linecap:square;stroke-width:0.8;"/>
    </g>
    <g id="text_9">
     <!-- 7.5 -->
     <g transform="translate(369.682121 661.303849)scale(0.2 -0.2)">
      <use xlink:href="#DejaVuSans-37"/>
      <use x="63.623047" xlink:href="#DejaVuSans-2e"/>
      <use x="95.410156" xlink:href="#DejaVuSans-35"/>
     </g>
    </g>
   </g>
   <g id="xtick_9">
    <g id="line2d_10">
     <path d="M 432.853752 640.601403 
L 428.436896 645.097233 
" style="fill:none;stroke:#000000;stroke-linecap:square;stroke-width:0.8;"/>
    </g>
    <g id="text_10">
     <!-- 10.0 -->
     <g transform="translate(402.729962 674.308211)scale(0.2 -0.2)">
      <use xlink:href="#DejaVuSans-31"/>
      <use x="63.623047" xlink:href="#DejaVuSans-30"/>
      <use x="127.246094" xlink:href="#DejaVuSans-2e"/>
      <use x="159.033203" xlink:href="#DejaVuSans-30"/>
     </g>
    </g>
   </g>
  </g>
  <g id="axis3d_2">
   <g id="line2d_11">
    <path d="M 607.792772 470.761251 
L 437.994703 644.26175 
" style="fill:none;stroke:#000000;stroke-linecap:square;stroke-width:0.8;"/>
   </g>
   <g id="text_11">
    <!-- Q ($\bf{A^{-1}}$) -->
    <defs>
     <path d="M 44.484375 -1.3125 
L 43.015625 -1.3125 
Q 25 -1.3125 14.984375 8.640625 
Q 4.984375 18.609375 4.984375 36.375 
Q 4.984375 54.109375 14.96875 64.15625 
Q 24.953125 74.21875 42.484375 74.21875 
Q 60.203125 74.21875 70.09375 64.25 
Q 79.984375 54.296875 79.984375 36.375 
Q 79.984375 24.078125 74.734375 15.1875 
Q 69.484375 6.296875 59.625 1.8125 
L 74.3125 -14.59375 
L 56.390625 -14.59375 
z
M 42.484375 60.59375 
Q 33.890625 60.59375 29.15625 54.25 
Q 24.421875 47.90625 24.421875 36.375 
Q 24.421875 24.65625 29.046875 18.421875 
Q 33.6875 12.203125 42.484375 12.203125 
Q 51.125 12.203125 55.859375 18.546875 
Q 60.59375 24.90625 60.59375 36.375 
Q 60.59375 47.90625 55.859375 54.25 
Q 51.125 60.59375 42.484375 60.59375 
z
" id="DejaVuSans-Bold-51"/>
     <path d="M 53.421875 13.28125 
L 24.03125 13.28125 
L 19.390625 0 
L 0.484375 0 
L 27.484375 72.90625 
L 49.90625 72.90625 
L 76.90625 0 
L 58.015625 0 
z
M 28.71875 26.8125 
L 48.6875 26.8125 
L 38.71875 55.8125 
z
" id="DejaVuSans-Bold-41"/>
     <path d="M 10.59375 37.109375 
L 73.1875 37.109375 
L 73.1875 25.59375 
L 10.59375 25.59375 
z
" id="DejaVuSans-Bold-2212"/>
     <path d="M 11.71875 12.984375 
L 28.328125 12.984375 
L 28.328125 60.109375 
L 11.28125 56.59375 
L 11.28125 69.390625 
L 28.21875 72.90625 
L 46.09375 72.90625 
L 46.09375 12.984375 
L 62.703125 12.984375 
L 62.703125 0 
L 11.71875 0 
z
" id="DejaVuSans-Bold-31"/>
    </defs>
    <g transform="translate(525.984215 617.095191)rotate(-45.617904)scale(0.2 -0.2)">
     <use transform="translate(0 0.684375)" xlink:href="#DejaVuSans-Bold-51"/>
     <use transform="translate(85.009766 0.684375)" xlink:href="#DejaVuSans-Bold-20"/>
     <use transform="translate(119.824219 0.684375)" xlink:href="#DejaVuSans-Bold-28"/>
     <use transform="translate(165.527344 0.684375)" xlink:href="#DejaVuSans-Bold-41"/>
     <use transform="translate(243.876953 38.965625)scale(0.7)" xlink:href="#DejaVuSans-Bold-2212"/>
     <use transform="translate(302.529297 38.965625)scale(0.7)" xlink:href="#DejaVuSans-Bold-31"/>
     <use transform="translate(353.969727 0.684375)" xlink:href="#DejaVuSans-Bold-29"/>
    </g>
   </g>
   <g id="Line3DCollection_2">
    <path d="M 133.263336 203.029647 
L 145.302702 520.76901 
L 459.481607 622.306326 
" style="fill:none;stroke:#b0b0b0;stroke-width:0.8;"/>
    <path d="M 155.729159 186.651323 
L 166.529628 502.584992 
L 478.957117 602.406155 
" style="fill:none;stroke:#b0b0b0;stroke-width:0.8;"/>
    <path d="M 177.805707 170.556794 
L 187.40724 484.700212 
L 498.097542 582.848374 
" style="fill:none;stroke:#b0b0b0;stroke-width:0.8;"/>
    <path d="M 199.503011 154.738746 
L 207.944091 467.107345 
L 516.911459 563.624222 
" style="fill:none;stroke:#b0b0b0;stroke-width:0.8;"/>
    <path d="M 220.83076 139.190115 
L 228.148456 449.799302 
L 535.40715 544.725234 
" style="fill:none;stroke:#b0b0b0;stroke-width:0.8;"/>
    <path d="M 241.798316 123.904078 
L 248.028345 432.769221 
L 553.592621 526.14323 
" style="fill:none;stroke:#b0b0b0;stroke-width:0.8;"/>
    <path d="M 262.414727 108.874036 
L 267.591511 416.01046 
L 571.475613 507.870301 
" style="fill:none;stroke:#b0b0b0;stroke-width:0.8;"/>
    <path d="M 282.688741 94.093613 
L 286.845463 399.516587 
L 589.063611 489.898799 
" style="fill:none;stroke:#b0b0b0;stroke-width:0.8;"/>
   </g>
   <g id="xtick_10">
    <g id="line2d_12">
     <path d="M 456.852714 621.456712 
L 464.745244 624.007444 
" style="fill:none;stroke:#000000;stroke-linecap:square;stroke-width:0.8;"/>
    </g>
    <g id="text_12">
     <!-- 0.4 -->
     <defs>
      <path d="M 37.796875 64.3125 
L 12.890625 25.390625 
L 37.796875 25.390625 
z
M 35.203125 72.90625 
L 47.609375 72.90625 
L 47.609375 25.390625 
L 58.015625 25.390625 
L 58.015625 17.1875 
L 47.609375 17.1875 
L 47.609375 0 
L 37.796875 0 
L 37.796875 17.1875 
L 4.890625 17.1875 
L 4.890625 26.703125 
z
" id="DejaVuSans-34"/>
     </defs>
     <g transform="translate(454.611712 651.683817)scale(0.2 -0.2)">
      <use xlink:href="#DejaVuSans-30"/>
      <use x="63.623047" xlink:href="#DejaVuSans-2e"/>
      <use x="95.410156" xlink:href="#DejaVuSans-34"/>
     </g>
    </g>
   </g>
   <g id="xtick_11">
    <g id="line2d_13">
     <path d="M 476.343874 601.571219 
L 484.189366 604.077868 
" style="fill:none;stroke:#000000;stroke-linecap:square;stroke-width:0.8;"/>
    </g>
    <g id="text_13">
     <!-- 0.6 -->
     <defs>
      <path d="M 33.015625 40.375 
Q 26.375 40.375 22.484375 35.828125 
Q 18.609375 31.296875 18.609375 23.390625 
Q 18.609375 15.53125 22.484375 10.953125 
Q 26.375 6.390625 33.015625 6.390625 
Q 39.65625 6.390625 43.53125 10.953125 
Q 47.40625 15.53125 47.40625 23.390625 
Q 47.40625 31.296875 43.53125 35.828125 
Q 39.65625 40.375 33.015625 40.375 
z
M 52.59375 71.296875 
L 52.59375 62.3125 
Q 48.875 64.0625 45.09375 64.984375 
Q 41.3125 65.921875 37.59375 65.921875 
Q 27.828125 65.921875 22.671875 59.328125 
Q 17.53125 52.734375 16.796875 39.40625 
Q 19.671875 43.65625 24.015625 45.921875 
Q 28.375 48.1875 33.59375 48.1875 
Q 44.578125 48.1875 50.953125 41.515625 
Q 57.328125 34.859375 57.328125 23.390625 
Q 57.328125 12.15625 50.6875 5.359375 
Q 44.046875 -1.421875 33.015625 -1.421875 
Q 20.359375 -1.421875 13.671875 8.265625 
Q 6.984375 17.96875 6.984375 36.375 
Q 6.984375 53.65625 15.1875 63.9375 
Q 23.390625 74.21875 37.203125 74.21875 
Q 40.921875 74.21875 44.703125 73.484375 
Q 48.484375 72.75 52.59375 71.296875 
z
" id="DejaVuSans-36"/>
     </defs>
     <g transform="translate(473.986792 631.665442)scale(0.2 -0.2)">
      <use xlink:href="#DejaVuSans-30"/>
      <use x="63.623047" xlink:href="#DejaVuSans-2e"/>
      <use x="95.410156" xlink:href="#DejaVuSans-36"/>
     </g>
    </g>
   </g>
   <g id="xtick_12">
    <g id="line2d_14">
     <path d="M 495.499804 582.027739 
L 503.298701 584.491438 
" style="fill:none;stroke:#000000;stroke-linecap:square;stroke-width:0.8;"/>
    </g>
    <g id="text_14">
     <!-- 0.8 -->
     <defs>
      <path d="M 31.78125 34.625 
Q 24.75 34.625 20.71875 30.859375 
Q 16.703125 27.09375 16.703125 20.515625 
Q 16.703125 13.921875 20.71875 10.15625 
Q 24.75 6.390625 31.78125 6.390625 
Q 38.8125 6.390625 42.859375 10.171875 
Q 46.921875 13.96875 46.921875 20.515625 
Q 46.921875 27.09375 42.890625 30.859375 
Q 38.875 34.625 31.78125 34.625 
z
M 21.921875 38.8125 
Q 15.578125 40.375 12.03125 44.71875 
Q 8.5 49.078125 8.5 55.328125 
Q 8.5 64.0625 14.71875 69.140625 
Q 20.953125 74.21875 31.78125 74.21875 
Q 42.671875 74.21875 48.875 69.140625 
Q 55.078125 64.0625 55.078125 55.328125 
Q 55.078125 49.078125 51.53125 44.71875 
Q 48 40.375 41.703125 38.8125 
Q 48.828125 37.15625 52.796875 32.3125 
Q 56.78125 27.484375 56.78125 20.515625 
Q 56.78125 9.90625 50.3125 4.234375 
Q 43.84375 -1.421875 31.78125 -1.421875 
Q 19.734375 -1.421875 13.25 4.234375 
Q 6.78125 9.90625 6.78125 20.515625 
Q 6.78125 27.484375 10.78125 32.3125 
Q 14.796875 37.15625 21.921875 38.8125 
z
M 18.3125 54.390625 
Q 18.3125 48.734375 21.84375 45.5625 
Q 25.390625 42.390625 31.78125 42.390625 
Q 38.140625 42.390625 41.71875 45.5625 
Q 45.3125 48.734375 45.3125 54.390625 
Q 45.3125 60.0625 41.71875 63.234375 
Q 38.140625 66.40625 31.78125 66.40625 
Q 25.390625 66.40625 21.84375 63.234375 
Q 18.3125 60.0625 18.3125 54.390625 
z
" id="DejaVuSans-38"/>
     </defs>
     <g transform="translate(493.028597 611.991408)scale(0.2 -0.2)">
      <use xlink:href="#DejaVuSans-30"/>
      <use x="63.623047" xlink:href="#DejaVuSans-2e"/>
      <use x="95.410156" xlink:href="#DejaVuSans-38"/>
     </g>
    </g>
   </g>
   <g id="xtick_13">
    <g id="line2d_15">
     <path d="M 514.329077 562.817524 
L 522.081821 565.239367 
" style="fill:none;stroke:#000000;stroke-linecap:square;stroke-width:0.8;"/>
    </g>
    <g id="text_15">
     <!-- 1.0 -->
     <g transform="translate(511.745651 592.652906)scale(0.2 -0.2)">
      <use xlink:href="#DejaVuSans-31"/>
      <use x="63.623047" xlink:href="#DejaVuSans-2e"/>
      <use x="95.410156" xlink:href="#DejaVuSans-30"/>
     </g>
    </g>
   </g>
   <g id="xtick_14">
    <g id="line2d_16">
     <path d="M 532.839979 543.932121 
L 540.547009 546.313166 
" style="fill:none;stroke:#000000;stroke-linecap:square;stroke-width:0.8;"/>
    </g>
    <g id="text_16">
     <!-- 1.2 -->
     <g transform="translate(530.146193 573.641426)scale(0.2 -0.2)">
      <use xlink:href="#DejaVuSans-31"/>
      <use x="63.623047" xlink:href="#DejaVuSans-2e"/>
      <use x="95.410156" xlink:href="#DejaVuSans-32"/>
     </g>
    </g>
   </g>
   <g id="xtick_15">
    <g id="line2d_17">
     <path d="M 551.040518 525.363361 
L 558.702269 527.704631 
" style="fill:none;stroke:#000000;stroke-linecap:square;stroke-width:0.8;"/>
    </g>
    <g id="text_17">
     <!-- 1.4 -->
     <g transform="translate(548.238184 554.948742)scale(0.2 -0.2)">
      <use xlink:href="#DejaVuSans-31"/>
      <use x="63.623047" xlink:href="#DejaVuSans-2e"/>
      <use x="95.410156" xlink:href="#DejaVuSans-34"/>
     </g>
    </g>
   </g>
   <g id="xtick_16">
    <g id="line2d_18">
     <path d="M 568.938432 507.103347 
L 576.555339 509.40583 
" style="fill:none;stroke:#000000;stroke-linecap:square;stroke-width:0.8;"/>
    </g>
    <g id="text_18">
     <!-- 1.6 -->
     <g transform="translate(566.02932 536.566901)scale(0.2 -0.2)">
      <use xlink:href="#DejaVuSans-31"/>
      <use x="63.623047" xlink:href="#DejaVuSans-2e"/>
      <use x="95.410156" xlink:href="#DejaVuSans-36"/>
     </g>
    </g>
   </g>
   <g id="xtick_17">
    <g id="line2d_19">
     <path d="M 586.541209 489.144443 
L 594.113703 491.409094 
" style="fill:none;stroke:#000000;stroke-linecap:square;stroke-width:0.8;"/>
    </g>
    <g id="text_19">
     <!-- 1.8 -->
     <g transform="translate(583.527044 518.488214)scale(0.2 -0.2)">
      <use xlink:href="#DejaVuSans-31"/>
      <use x="63.623047" xlink:href="#DejaVuSans-2e"/>
      <use x="95.410156" xlink:href="#DejaVuSans-38"/>
     </g>
    </g>
   </g>
  </g>
  <g id="axis3d_3">
   <g id="line2d_20">
    <path d="M 607.792772 470.761251 
L 620.362376 158.022911 
" style="fill:none;stroke:#000000;stroke-linecap:square;stroke-width:0.8;"/>
   </g>
   <g id="text_20">
    <!-- Intensity (A.U.) -->
    <defs>
     <path d="M 9.1875 72.90625 
L 27.984375 72.90625 
L 27.984375 0 
L 9.1875 0 
z
" id="DejaVuSans-Bold-49"/>
     <path d="M 27.484375 70.21875 
L 27.484375 54.6875 
L 45.515625 54.6875 
L 45.515625 42.1875 
L 27.484375 42.1875 
L 27.484375 19 
Q 27.484375 15.1875 29 13.84375 
Q 30.515625 12.5 35.015625 12.5 
L 44 12.5 
L 44 0 
L 29 0 
Q 18.65625 0 14.328125 4.3125 
Q 10.015625 8.640625 10.015625 19 
L 10.015625 42.1875 
L 1.3125 42.1875 
L 1.3125 54.6875 
L 10.015625 54.6875 
L 10.015625 70.21875 
z
" id="DejaVuSans-Bold-74"/>
     <path d="M 51.125 52.984375 
L 51.125 39.703125 
Q 45.515625 42.046875 40.28125 43.21875 
Q 35.0625 44.390625 30.421875 44.390625 
Q 25.4375 44.390625 23.015625 43.140625 
Q 20.609375 41.890625 20.609375 39.3125 
Q 20.609375 37.203125 22.4375 36.078125 
Q 24.265625 34.96875 29 34.421875 
L 32.078125 33.984375 
Q 45.515625 32.28125 50.140625 28.375 
Q 54.78125 24.46875 54.78125 16.109375 
Q 54.78125 7.375 48.328125 2.96875 
Q 41.890625 -1.421875 29.109375 -1.421875 
Q 23.6875 -1.421875 17.890625 -0.5625 
Q 12.109375 0.296875 6 2 
L 6 15.28125 
Q 11.234375 12.75 16.71875 11.46875 
Q 22.21875 10.203125 27.875 10.203125 
Q 33.015625 10.203125 35.59375 11.609375 
Q 38.1875 13.03125 38.1875 15.828125 
Q 38.1875 18.171875 36.40625 19.3125 
Q 34.625 20.453125 29.296875 21.09375 
L 26.21875 21.484375 
Q 14.546875 22.953125 9.859375 26.90625 
Q 5.171875 30.859375 5.171875 38.921875 
Q 5.171875 47.609375 11.125 51.796875 
Q 17.09375 56 29.390625 56 
Q 34.234375 56 39.546875 55.265625 
Q 44.875 54.546875 51.125 52.984375 
z
" id="DejaVuSans-Bold-73"/>
     <path d="M 8.40625 54.6875 
L 25.875 54.6875 
L 25.875 0 
L 8.40625 0 
z
M 8.40625 75.984375 
L 25.875 75.984375 
L 25.875 61.71875 
L 8.40625 61.71875 
z
" id="DejaVuSans-Bold-69"/>
     <path d="M 10.203125 18.890625 
L 27.78125 18.890625 
L 27.78125 0 
L 10.203125 0 
z
" id="DejaVuSans-Bold-2e"/>
     <path d="M 9.1875 72.90625 
L 27.984375 72.90625 
L 27.984375 29.203125 
Q 27.984375 20.171875 30.9375 16.28125 
Q 33.890625 12.40625 40.578125 12.40625 
Q 47.3125 12.40625 50.265625 16.28125 
Q 53.21875 20.171875 53.21875 29.203125 
L 53.21875 72.90625 
L 72.015625 72.90625 
L 72.015625 29.203125 
Q 72.015625 13.71875 64.25 6.140625 
Q 56.5 -1.421875 40.578125 -1.421875 
Q 24.703125 -1.421875 16.9375 6.140625 
Q 9.1875 13.71875 9.1875 29.203125 
z
" id="DejaVuSans-Bold-55"/>
    </defs>
    <g transform="translate(651.532212 400.049641)rotate(-87.698402)scale(0.2 -0.2)">
     <use xlink:href="#DejaVuSans-Bold-49"/>
     <use x="37.207031" xlink:href="#DejaVuSans-Bold-6e"/>
     <use x="108.398438" xlink:href="#DejaVuSans-Bold-74"/>
     <use x="156.201172" xlink:href="#DejaVuSans-Bold-65"/>
     <use x="224.023438" xlink:href="#DejaVuSans-Bold-6e"/>
     <use x="295.214844" xlink:href="#DejaVuSans-Bold-73"/>
     <use x="354.736328" xlink:href="#DejaVuSans-Bold-69"/>
     <use x="389.013672" xlink:href="#DejaVuSans-Bold-74"/>
     <use x="436.816406" xlink:href="#DejaVuSans-Bold-79"/>
     <use x="502.001953" xlink:href="#DejaVuSans-Bold-20"/>
     <use x="536.816406" xlink:href="#DejaVuSans-Bold-28"/>
     <use x="582.519531" xlink:href="#DejaVuSans-Bold-41"/>
     <use x="659.927734" xlink:href="#DejaVuSans-Bold-2e"/>
     <use x="697.916016" xlink:href="#DejaVuSans-Bold-55"/>
     <use x="779.117188" xlink:href="#DejaVuSans-Bold-2e"/>
     <use x="817.105469" xlink:href="#DejaVuSans-Bold-29"/>
    </g>
   </g>
   <g id="Line3DCollection_3">
    <path d="M 610.445597 404.757562 
L 306.710615 317.758103 
L 119.072187 473.430742 
" style="fill:none;stroke:#b0b0b0;stroke-width:0.8;"/>
    <path d="M 612.940427 342.684891 
L 306.097253 257.452654 
L 116.408645 410.015209 
" style="fill:none;stroke:#b0b0b0;stroke-width:0.8;"/>
    <path d="M 615.4873 279.317364 
L 305.471643 195.942992 
L 113.687663 345.232102 
" style="fill:none;stroke:#b0b0b0;stroke-width:0.8;"/>
    <path d="M 618.087861 214.614039 
L 304.833414 133.192683 
L 110.907363 279.036699 
" style="fill:none;stroke:#b0b0b0;stroke-width:0.8;"/>
   </g>
   <g id="xtick_18">
    <g id="line2d_21">
     <path d="M 607.91031 404.031375 
L 615.521498 406.211464 
" style="fill:none;stroke:#000000;stroke-linecap:square;stroke-width:0.8;"/>
    </g>
    <g id="text_21">
     <!-- 0.2 -->
     <g transform="translate(610.731732 417.691865)scale(0.2 -0.2)">
      <use xlink:href="#DejaVuSans-30"/>
      <use x="63.623047" xlink:href="#DejaVuSans-2e"/>
      <use x="95.410156" xlink:href="#DejaVuSans-32"/>
     </g>
    </g>
   </g>
   <g id="xtick_19">
    <g id="line2d_22">
     <path d="M 610.378097 341.973149 
L 618.070527 344.109885 
" style="fill:none;stroke:#000000;stroke-linecap:square;stroke-width:0.8;"/>
    </g>
    <g id="text_22">
     <!-- 0.4 -->
     <g transform="translate(613.390743 355.664219)scale(0.2 -0.2)">
      <use xlink:href="#DejaVuSans-30"/>
      <use x="63.623047" xlink:href="#DejaVuSans-2e"/>
      <use x="95.410156" xlink:href="#DejaVuSans-34"/>
     </g>
    </g>
   </g>
   <g id="xtick_20">
    <g id="line2d_23">
     <path d="M 612.897344 278.620832 
L 620.672766 280.711923 
" style="fill:none;stroke:#000000;stroke-linecap:square;stroke-width:0.8;"/>
    </g>
    <g id="text_23">
     <!-- 0.6 -->
     <g transform="translate(616.105161 292.344097)scale(0.2 -0.2)">
      <use xlink:href="#DejaVuSans-30"/>
      <use x="63.623047" xlink:href="#DejaVuSans-2e"/>
      <use x="95.410156" xlink:href="#DejaVuSans-36"/>
     </g>
    </g>
   </g>
   <g id="xtick_21">
    <g id="line2d_24">
     <path d="M 615.469679 213.933519 
L 623.329902 215.976555 
" style="fill:none;stroke:#000000;stroke-linecap:square;stroke-width:0.8;"/>
    </g>
    <g id="text_24">
     <!-- 0.8 -->
     <g transform="translate(618.876736 227.690677)scale(0.2 -0.2)">
      <use xlink:href="#DejaVuSans-30"/>
      <use x="63.623047" xlink:href="#DejaVuSans-2e"/>
      <use x="95.410156" xlink:href="#DejaVuSans-38"/>
     </g>
    </g>
   </g>
  </g>
  <g id="axes_1">
   <g id="line2d_25">
    <path clip-path="url(#p01b26da120)" d="M 137.404321 523.769223 
L 143.204857 525.730399 
L 148.99055 527.035035 
L 154.792991 528.498814 
L 160.608612 530.032933 
L 166.418219 531.083899 
L 172.252941 532.540236 
L 178.069327 533.096644 
L 183.92164 534.394395 
L 189.733405 533.990806 
L 195.562139 533.666584 
L 201.425886 534.062741 
L 207.234758 531.980262 
L 213.046404 529.316561 
L 218.874822 526.550669 
L 224.630643 520.009827 
L 230.391545 512.519991 
L 236.087221 500.812828 
L 241.780308 487.211495 
L 247.388113 467.372277 
L 252.959401 442.822524 
L 258.420512 408.755659 
L 263.86542 368.89644 
L 269.346647 325.355143 
L 274.909375 280.322652 
L 280.966878 262.427953 
L 287.480087 275.032544 
L 294.583631 336.911531 
L 301.734247 413.115017 
L 308.670703 482.285741 
L 315.340665 536.299985 
L 321.724254 566.839784 
L 327.941607 580.601831 
L 334.094511 585.861837 
L 340.239471 588.69962 
L 346.393891 591.650908 
L 352.555385 593.975247 
L 358.727141 596.347197 
L 364.908409 597.809638 
L 371.101294 600.442505 
L 377.304844 602.374998 
L 383.518949 604.549075 
L 389.744854 606.416568 
L 395.980474 608.641883 
L 402.227566 610.72666 
L 408.487142 612.595332 
L 414.756288 614.709323 
L 421.036086 616.864734 
L 427.328441 618.86353 
L 433.631129 620.954017 
" style="fill:none;stroke:#fc8a6a;stroke-dasharray:12.8,3.2,2,3.2;stroke-dashoffset:0;stroke-width:2;"/>
   </g>
   <g id="line2d_26">
    <path clip-path="url(#p01b26da120)" d="M 158.821308 505.453815 
L 164.593594 507.450445 
L 170.352537 508.7696 
L 176.133167 510.424245 
L 181.918416 511.904518 
L 187.717352 513.488446 
L 193.504362 514.322161 
L 199.316111 515.604949 
L 205.133581 516.697009 
L 210.949071 517.287903 
L 216.759077 517.182574 
L 222.58165 517.024688 
L 228.420801 516.974241 
L 234.237248 515.319484 
L 240.059504 513.146711 
L 245.863205 509.207202 
L 251.657574 503.695918 
L 257.450832 496.795055 
L 263.202164 485.97049 
L 268.942408 472.347892 
L 274.654699 454.313606 
L 280.342114 431.160042 
L 286.007785 401.970076 
L 291.673099 366.961368 
L 297.403568 330.184404 
L 303.340808 304.339785 
L 309.554682 300.081491 
L 316.077011 328.736825 
L 322.738795 381.440931 
L 329.369139 443.572473 
L 335.835823 496.665157 
L 342.130298 532.713312 
L 348.313636 554.109746 
L 354.436442 562.934923 
L 360.550144 567.887926 
L 366.667732 571.368561 
L 372.793659 573.653502 
L 378.930105 575.671548 
L 385.076159 578.06347 
L 391.23289 580.253746 
L 397.400458 582.348018 
L 403.579447 584.305626 
L 409.767528 586.525525 
L 415.968193 588.477718 
L 422.178222 590.611308 
L 428.400204 592.620504 
L 434.632989 594.645734 
L 440.876024 596.730799 
L 447.134379 598.487892 
L 453.395823 600.833569 
" style="fill:none;stroke:#fb7252;stroke-dasharray:12.8,3.2,2,3.2;stroke-dashoffset:0;stroke-width:2;"/>
   </g>
   <g id="line2d_27">
    <path clip-path="url(#p01b26da120)" d="M 179.879655 487.311116 
L 185.602702 488.669371 
L 191.347004 490.388556 
L 197.094146 491.86756 
L 202.847056 493.184996 
L 208.620876 494.882273 
L 214.392728 496.122659 
L 220.167548 497.048409 
L 225.950468 497.832628 
L 231.744407 498.581813 
L 237.537649 498.760959 
L 243.343545 498.919088 
L 249.141088 498.011215 
L 254.936925 496.216854 
L 260.752941 494.589451 
L 266.553432 491.083639 
L 272.345589 485.794366 
L 278.14062 479.102965 
L 283.928248 469.988884 
L 289.704288 457.582008 
L 295.470711 441.227458 
L 301.205465 417.89877 
L 306.978535 392.353432 
L 312.753327 359.884272 
L 318.612633 327.96912 
L 324.616854 305.166563 
L 330.790258 299.815474 
L 337.142668 324.038359 
L 343.541329 367.676703 
L 349.893312 420.159435 
L 356.147199 470.186749 
L 362.299009 507.490063 
L 368.387573 529.430767 
L 374.455869 540.523066 
L 380.525683 546.644782 
L 386.605003 550.244959 
L 392.693311 553.379055 
L 398.794011 555.67238 
L 404.906103 557.718565 
L 411.026805 560.0161 
L 417.158894 562.137574 
L 423.300132 564.386658 
L 429.453981 566.39433 
L 435.615961 568.622755 
L 441.791493 570.584677 
L 447.977765 572.553132 
L 454.173977 574.584095 
L 460.380258 576.659004 
L 466.595828 578.818384 
L 472.827169 580.685617 
" style="fill:none;stroke:#f6583e;stroke-dasharray:12.8,3.2,2,3.2;stroke-dashoffset:0;stroke-width:2;"/>
   </g>
   <g id="line2d_28">
    <path clip-path="url(#p01b26da120)" d="M 200.583747 469.130473 
L 206.286188 470.720827 
L 211.999251 472.341139 
L 217.709442 473.462309 
L 223.452088 475.469162 
L 229.178202 476.383325 
L 234.928119 477.853815 
L 240.670542 478.50216 
L 246.440545 479.913659 
L 252.198185 480.164417 
L 257.966958 480.330574 
L 263.737243 479.851583 
L 269.533653 480.084849 
L 275.312839 478.404555 
L 281.102491 476.303381 
L 286.9032 473.729931 
L 292.693516 468.89273 
L 298.487843 462.439154 
L 304.295703 454.798934 
L 310.079842 441.809051 
L 315.886336 426.872156 
L 321.693071 406.402934 
L 327.542939 384.233076 
L 333.40574 354.273783 
L 339.35425 326.704303 
L 345.397032 305.583915 
L 351.552608 304.334953 
L 357.756023 320.216478 
L 363.962094 361.796429 
L 370.097667 406.040293 
L 376.155583 451.966615 
L 382.160653 486.200951 
L 388.151493 507.812625 
L 394.156308 519.213945 
L 400.177209 525.887073 
L 406.215161 529.969517 
L 412.268267 532.802812 
L 418.329395 535.695525 
L 424.403959 538.059211 
L 430.490406 540.201566 
L 436.584909 542.517071 
L 442.69123 544.666562 
L 448.811106 546.563374 
L 454.933765 548.997794 
L 461.071247 551.099243 
L 467.219978 553.145472 
L 473.382764 554.991035 
L 479.549171 557.22358 
L 485.736106 558.936555 
L 491.92828 560.937656 
" style="fill:none;stroke:#ee3a2c;stroke-dasharray:12.8,3.2,2,3.2;stroke-dashoffset:0;stroke-width:2;"/>
   </g>
   <g id="line2d_29">
    <path clip-path="url(#p01b26da120)" d="M 220.95113 451.131979 
L 226.620097 452.48069 
L 232.314028 454.478239 
L 237.998151 455.621645 
L 243.691379 456.694929 
L 249.408247 458.41197 
L 255.117073 459.206418 
L 260.842146 460.271009 
L 266.573152 461.047721 
L 272.310362 461.499526 
L 278.056858 461.764672 
L 283.808505 461.512341 
L 289.570776 461.037957 
L 295.340385 460.018621 
L 301.102706 457.021204 
L 306.883047 453.92238 
L 312.671846 449.666237 
L 318.463198 443.139052 
L 324.268463 434.959122 
L 330.080681 423.277498 
L 335.913976 408.764071 
L 341.770929 390.09117 
L 347.670914 369.227925 
L 353.621744 346.620623 
L 359.63847 328.715429 
L 365.70762 316.308674 
L 371.809151 316.83742 
L 377.901233 332.343963 
L 383.951387 357.795346 
L 389.937522 390.912519 
L 395.850714 428.508347 
L 401.736141 459.932007 
L 407.629769 482.525601 
L 413.558173 496.312385 
L 419.518508 504.746178 
L 425.521563 508.405866 
L 431.524782 512.673441 
L 437.551681 515.372478 
L 443.5892 517.915898 
L 449.633181 520.644075 
L 455.693218 522.86982 
L 461.761221 525.206564 
L 467.842559 527.316606 
L 473.929745 529.660557 
L 480.03248 531.688482 
L 486.148791 533.550635 
L 492.275364 535.431397 
L 498.400434 537.863436 
L 504.550457 539.627791 
L 510.710631 541.426092 
" style="fill:none;stroke:#d92523;stroke-dasharray:12.8,3.2,2,3.2;stroke-dashoffset:0;stroke-width:2;"/>
   </g>
   <g id="line2d_30">
    <path clip-path="url(#p01b26da120)" d="M 241.001648 433.809207 
L 246.647184 435.346875 
L 252.300443 436.788468 
L 257.965606 438.343309 
L 263.629645 439.286852 
L 269.317543 441.01447 
L 275.002618 441.965256 
L 280.692487 442.503615 
L 286.403134 443.701068 
L 292.120158 444.579028 
L 297.841142 444.853802 
L 303.567511 444.493389 
L 309.296579 443.039679 
L 315.05441 443.035801 
L 320.812652 441.464471 
L 326.580296 438.948773 
L 332.357411 435.039297 
L 338.14324 428.78052 
L 343.953694 422.341428 
L 349.779899 412.719264 
L 355.627522 398.184994 
L 361.514686 381.702012 
L 367.447488 364.216533 
L 373.431547 342.484231 
L 379.46733 323.494411 
L 385.538792 310.192106 
L 391.618118 305.53339 
L 397.650639 315.646279 
L 403.625987 334.644851 
L 409.504526 364.457077 
L 415.289583 400.439809 
L 421.018252 436.202185 
L 426.812959 459.226153 
L 432.648768 475.396947 
L 438.557641 483.754752 
L 444.497779 489.425018 
L 450.471301 492.84707 
L 456.457467 495.885632 
L 462.459119 498.436798 
L 468.472642 500.805453 
L 474.494809 503.205192 
L 480.528847 505.461909 
L 486.562136 508.232535 
L 492.615604 510.444541 
L 498.682147 512.501002 
L 504.755519 514.695469 
L 510.844755 516.636277 
L 516.937458 518.849885 
L 523.048835 520.723821 
L 529.162982 522.883022 
" style="fill:none;stroke:#c3161b;stroke-dasharray:12.8,3.2,2,3.2;stroke-dashoffset:0;stroke-width:2;"/>
   </g>
   <g id="line2d_31">
    <path clip-path="url(#p01b26da120)" d="M 260.731099 416.709495 
L 266.353106 418.502912 
L 271.973117 419.617847 
L 277.611329 421.255899 
L 283.252211 422.428929 
L 288.902494 423.541474 
L 294.565818 424.870889 
L 300.234915 425.832421 
L 305.911073 426.446123 
L 311.598476 427.043112 
L 317.30045 428.000573 
L 323.002048 427.49142 
L 328.720349 427.437223 
L 334.446032 426.430383 
L 340.180253 424.129545 
L 345.929945 421.363238 
L 351.693132 416.94309 
L 357.477764 412.518645 
L 363.28054 404.375001 
L 369.112271 393.897961 
L 374.97848 382.423433 
L 380.887868 367.120902 
L 386.848736 349.006692 
L 392.865044 329.201911 
L 398.910166 314.136467 
L 404.981511 301.918345 
L 411.046651 296.04507 
L 417.038758 302.617204 
L 422.966864 316.469646 
L 428.79688 338.860939 
L 434.49763 370.312502 
L 440.12835 403.54162 
L 445.783344 430.791179 
L 451.494017 451.077946 
L 457.304806 462.813143 
L 463.188475 469.331449 
L 469.117561 473.191739 
L 475.063142 476.460755 
L 481.032949 478.825582 
L 487.008108 481.373213 
L 493.00336 483.374347 
L 498.987575 486.324402 
L 505.001044 488.34465 
L 511.016589 490.687682 
L 517.033011 493.362982 
L 523.066048 495.728456 
L 529.10523 498.207147 
L 535.16831 500.156296 
L 541.247654 501.895261 
L 547.320939 504.186291 
" style="fill:none;stroke:#ac1117;stroke-dasharray:12.8,3.2,2,3.2;stroke-dashoffset:0;stroke-width:2;"/>
   </g>
   <g id="line2d_32">
    <path clip-path="url(#p01b26da120)" d="M 280.152588 400.164156 
L 285.738125 401.415436 
L 291.336955 402.938308 
L 296.94001 404.034215 
L 302.557578 405.526363 
L 308.179115 406.475257 
L 313.814144 407.752465 
L 319.449474 407.858398 
L 325.09939 408.300679 
L 330.762706 409.035614 
L 336.431759 408.785632 
L 342.112435 408.239659 
L 347.805925 407.486202 
L 353.512182 406.255086 
L 359.230099 402.957906 
L 364.967472 400.503389 
L 370.723095 395.369592 
L 376.502137 389.574896 
L 382.308931 382.069963 
L 388.150666 372.178314 
L 394.030256 360.879153 
L 399.964034 345.808992 
L 405.938553 330.983172 
L 411.95634 315.964225 
L 417.995093 303.608774 
L 424.02585 296.277438 
L 430.044943 292.876473 
L 435.965499 300.270469 
L 441.797397 314.982217 
L 447.553638 334.339368 
L 453.207017 359.303633 
L 458.748157 389.383534 
L 464.353776 412.514393 
L 470.024178 429.893177 
L 475.782327 441.190651 
L 481.60644 448.518033 
L 487.470714 453.768447 
L 493.359765 457.976279 
L 499.269045 461.492895 
L 505.195602 464.538981 
L 511.165838 466.071497 
L 517.132829 468.157253 
L 523.109045 470.252341 
L 529.099876 472.156966 
L 535.082721 474.700739 
L 541.081471 476.99367 
L 547.082099 479.529476 
L 553.10177 481.732425 
L 559.124038 484.148038 
L 565.172882 486.033258 
" style="fill:none;stroke:#8c0912;stroke-dasharray:12.8,3.2,2,3.2;stroke-dashoffset:0;stroke-width:2;"/>
   </g>
   <g id="line2d_33">
    <path clip-path="url(#p01b26da120)" d="M 299.261199 383.33884 
L 304.818451 384.442042 
L 310.387882 385.779924 
L 315.963511 386.739851 
L 321.547659 387.480281 
L 327.142658 388.24575 
L 332.748047 388.965396 
L 338.362336 389.310779 
L 343.98868 389.787148 
L 349.623978 389.520538 
L 355.273874 390.084178 
L 360.934326 390.135155 
L 366.606923 389.963237 
L 372.292102 389.966568 
L 377.991808 388.577933 
L 383.709541 385.996965 
L 389.444318 383.515884 
L 395.207771 378.426382 
L 400.995265 373.007106 
L 406.829741 363.772396 
L 412.692607 354.810755 
L 418.601083 343.940427 
L 424.567847 330.389824 
L 430.563595 317.827462 
L 436.568746 307.771162 
L 442.582974 299.654825 
L 448.51801 299.824522 
L 454.371164 306.75329 
L 460.196617 315.508956 
L 465.881633 332.81955 
L 471.501314 352.76738 
L 477.027892 376.464911 
L 482.552077 398.524052 
L 488.13308 416.205828 
L 493.848299 426.419376 
L 499.64024 432.804904 
L 505.477533 437.232083 
L 511.333493 441.064654 
L 517.227455 443.596619 
L 523.137321 445.834432 
L 529.049068 448.334274 
L 534.995876 449.877705 
L 540.948721 451.571367 
L 546.899528 453.671598 
L 552.861321 455.717818 
L 558.82622 457.963236 
L 564.790666 460.498558 
L 570.755741 463.266718 
L 576.742687 465.640281 
L 582.739725 467.981106 
" style="fill:none;stroke:#67000d;stroke-dasharray:12.8,3.2,2,3.2;stroke-dashoffset:0;stroke-width:2;"/>
   </g>
  </g>
  <g id="text_25">
   <!-- 20Br - 120K -->
   <defs>
    <path d="M 28.8125 13.8125 
L 60.890625 13.8125 
L 60.890625 0 
L 7.90625 0 
L 7.90625 13.8125 
L 34.515625 37.3125 
Q 38.09375 40.53125 39.796875 43.609375 
Q 41.5 46.6875 41.5 50 
Q 41.5 55.125 38.0625 58.25 
Q 34.625 61.375 28.90625 61.375 
Q 24.515625 61.375 19.28125 59.5 
Q 14.0625 57.625 8.109375 53.90625 
L 8.109375 69.921875 
Q 14.453125 72.015625 20.65625 73.109375 
Q 26.859375 74.21875 32.8125 74.21875 
Q 45.90625 74.21875 53.15625 68.453125 
Q 60.40625 62.703125 60.40625 52.390625 
Q 60.40625 46.4375 57.328125 41.28125 
Q 54.25 36.140625 44.390625 27.484375 
z
" id="DejaVuSans-Bold-32"/>
    <path d="M 46 36.53125 
Q 46 50.203125 43.4375 55.78125 
Q 40.875 61.375 34.8125 61.375 
Q 28.765625 61.375 26.171875 55.78125 
Q 23.578125 50.203125 23.578125 36.53125 
Q 23.578125 22.703125 26.171875 17.03125 
Q 28.765625 11.375 34.8125 11.375 
Q 40.828125 11.375 43.40625 17.03125 
Q 46 22.703125 46 36.53125 
z
M 64.796875 36.375 
Q 64.796875 18.265625 56.984375 8.421875 
Q 49.171875 -1.421875 34.8125 -1.421875 
Q 20.40625 -1.421875 12.59375 8.421875 
Q 4.78125 18.265625 4.78125 36.375 
Q 4.78125 54.546875 12.59375 64.375 
Q 20.40625 74.21875 34.8125 74.21875 
Q 49.171875 74.21875 56.984375 64.375 
Q 64.796875 54.546875 64.796875 36.375 
z
" id="DejaVuSans-Bold-30"/>
    <path d="M 38.375 44.671875 
Q 42.828125 44.671875 45.109375 46.625 
Q 47.40625 48.578125 47.40625 52.390625 
Q 47.40625 56.15625 45.109375 58.125 
Q 42.828125 60.109375 38.375 60.109375 
L 27.984375 60.109375 
L 27.984375 44.671875 
z
M 39.015625 12.796875 
Q 44.671875 12.796875 47.53125 15.1875 
Q 50.390625 17.578125 50.390625 22.40625 
Q 50.390625 27.15625 47.5625 29.515625 
Q 44.734375 31.890625 39.015625 31.890625 
L 27.984375 31.890625 
L 27.984375 12.796875 
z
M 56.5 39.015625 
Q 62.546875 37.25 65.859375 32.515625 
Q 69.1875 27.78125 69.1875 20.90625 
Q 69.1875 10.359375 62.0625 5.171875 
Q 54.9375 0 40.375 0 
L 9.1875 0 
L 9.1875 72.90625 
L 37.40625 72.90625 
Q 52.59375 72.90625 59.40625 68.3125 
Q 66.21875 63.71875 66.21875 53.609375 
Q 66.21875 48.296875 63.71875 44.5625 
Q 61.234375 40.828125 56.5 39.015625 
z
" id="DejaVuSans-Bold-42"/>
    <path d="M 5.421875 35.890625 
L 36.078125 35.890625 
L 36.078125 21.6875 
L 5.421875 21.6875 
z
" id="DejaVuSans-Bold-2d"/>
    <path d="M 9.1875 72.90625 
L 27.984375 72.90625 
L 27.984375 46.296875 
L 55.078125 72.90625 
L 76.90625 72.90625 
L 41.796875 38.375 
L 80.515625 0 
L 56.984375 0 
L 27.984375 28.71875 
L 27.984375 0 
L 9.1875 0 
z
" id="DejaVuSans-Bold-4b"/>
   </defs>
   <g transform="translate(293.796875 29.596875)scale(0.2 -0.2)">
    <use xlink:href="#DejaVuSans-Bold-32"/>
    <use x="69.580078" xlink:href="#DejaVuSans-Bold-30"/>
    <use x="139.160156" xlink:href="#DejaVuSans-Bold-42"/>
    <use x="215.380859" xlink:href="#DejaVuSans-Bold-72"/>
    <use x="264.697266" xlink:href="#DejaVuSans-Bold-20"/>
    <use x="299.511719" xlink:href="#DejaVuSans-Bold-2d"/>
    <use x="341.015625" xlink:href="#DejaVuSans-Bold-20"/>
    <use x="375.830078" xlink:href="#DejaVuSans-Bold-31"/>
    <use x="445.410156" xlink:href="#DejaVuSans-Bold-32"/>
    <use x="514.990234" xlink:href="#DejaVuSans-Bold-30"/>
    <use x="584.570312" xlink:href="#DejaVuSans-Bold-4b"/>
   </g>
  </g>
 </g>
 <defs>
  <clipPath id="p01b26da120">
   <rect height="648" width="648" x="36" y="36"/>
  </clipPath>
 </defs>
</svg>
