<?xml version="1.0" encoding="utf-8" standalone="no"?>
<!DOCTYPE svg PUBLIC "-//W3C//DTD SVG 1.1//EN"
  "http://www.w3.org/Graphics/SVG/1.1/DTD/svg11.dtd">
<!-- Created with matplotlib (http://matplotlib.org/) -->
<svg height="720pt" version="1.1" viewBox="0 0 720 720" width="720pt" xmlns="http://www.w3.org/2000/svg" xmlns:xlink="http://www.w3.org/1999/xlink">
 <defs>
  <style type="text/css">
*{stroke-linecap:butt;stroke-linejoin:round;}
  </style>
 </defs>
 <g id="figure_1">
  <g id="patch_1">
   <path d="M 0 720 
L 720 720 
L 720 0 
L 0 0 
z
" style="fill:#ffffff;"/>
  </g>
  <g id="patch_2">
   <path d="M 36 684 
L 684 684 
L 684 36 
L 36 36 
z
" style="fill:#ffffff;"/>
  </g>
  <g id="pane3d_1">
   <g id="patch_3">
    <path d="M 121.902413 540.814837 
L 307.363404 381.93992 
L 304.275675 78.356028 
L 108.474019 221.101874 
" style="fill:#f2f2f2;opacity:0.5;stroke:#f2f2f2;stroke-linejoin:miter;"/>
   </g>
  </g>
  <g id="pane3d_2">
   <g id="patch_4">
    <path d="M 307.363404 381.93992 
L 607.792772 470.761251 
L 620.362376 158.022911 
L 304.275675 78.356028 
" style="fill:#e6e6e6;opacity:0.5;stroke:#e6e6e6;stroke-linejoin:miter;"/>
   </g>
  </g>
  <g id="pane3d_3">
   <g id="patch_5">
    <path d="M 121.902413 540.814837 
L 437.994703 644.26175 
L 607.792772 470.761251 
L 307.363404 381.93992 
" style="fill:#ececec;opacity:0.5;stroke:#ececec;stroke-linejoin:miter;"/>
   </g>
  </g>
  <g id="axis3d_1">
   <g id="line2d_1">
    <path d="M 121.902413 540.814837 
L 437.994703 644.26175 
" style="fill:none;stroke:#000000;stroke-linecap:square;stroke-width:0.8;"/>
   </g>
   <g id="text_1">
    <!-- Energy (meV) -->
    <defs>
     <path d="M 9.1875 72.90625 
L 59.90625 72.90625 
L 59.90625 58.6875 
L 27.984375 58.6875 
L 27.984375 45.125 
L 58.015625 45.125 
L 58.015625 30.90625 
L 27.984375 30.90625 
L 27.984375 14.203125 
L 60.984375 14.203125 
L 60.984375 0 
L 9.1875 0 
z
" id="DejaVuSans-Bold-45"/>
     <path d="M 63.375 33.296875 
L 63.375 0 
L 45.796875 0 
L 45.796875 5.421875 
L 45.796875 25.484375 
Q 45.796875 32.5625 45.484375 35.25 
Q 45.171875 37.9375 44.390625 39.203125 
Q 43.359375 40.921875 41.59375 41.875 
Q 39.84375 42.828125 37.59375 42.828125 
Q 32.125 42.828125 29 38.59375 
Q 25.875 34.375 25.875 26.90625 
L 25.875 0 
L 8.40625 0 
L 8.40625 54.6875 
L 25.875 54.6875 
L 25.875 46.6875 
Q 29.828125 51.46875 34.265625 53.734375 
Q 38.71875 56 44.09375 56 
Q 53.5625 56 58.46875 50.1875 
Q 63.375 44.390625 63.375 33.296875 
z
" id="DejaVuSans-Bold-6e"/>
     <path d="M 62.984375 27.484375 
L 62.984375 22.515625 
L 22.125 22.515625 
Q 22.75 16.359375 26.5625 13.28125 
Q 30.375 10.203125 37.203125 10.203125 
Q 42.71875 10.203125 48.5 11.84375 
Q 54.296875 13.484375 60.40625 16.796875 
L 60.40625 3.328125 
Q 54.203125 0.984375 48 -0.21875 
Q 41.796875 -1.421875 35.59375 -1.421875 
Q 20.75 -1.421875 12.515625 6.125 
Q 4.296875 13.671875 4.296875 27.296875 
Q 4.296875 40.671875 12.375 48.328125 
Q 20.453125 56 34.625 56 
Q 47.515625 56 55.25 48.234375 
Q 62.984375 40.484375 62.984375 27.484375 
z
M 45.015625 33.296875 
Q 45.015625 38.28125 42.109375 41.328125 
Q 39.203125 44.390625 34.515625 44.390625 
Q 29.4375 44.390625 26.265625 41.53125 
Q 23.09375 38.671875 22.3125 33.296875 
z
" id="DejaVuSans-Bold-65"/>
     <path d="M 49.03125 39.796875 
Q 46.734375 40.875 44.453125 41.375 
Q 42.1875 41.890625 39.890625 41.890625 
Q 33.15625 41.890625 29.515625 37.5625 
Q 25.875 33.25 25.875 25.203125 
L 25.875 0 
L 8.40625 0 
L 8.40625 54.6875 
L 25.875 54.6875 
L 25.875 45.703125 
Q 29.25 51.078125 33.609375 53.53125 
Q 37.984375 56 44.09375 56 
Q 44.96875 56 45.984375 55.921875 
Q 47.015625 55.859375 48.96875 55.609375 
z
" id="DejaVuSans-Bold-72"/>
     <path d="M 45.609375 9.28125 
Q 42 4.5 37.640625 2.25 
Q 33.296875 0 27.59375 0 
Q 17.578125 0 11.03125 7.875 
Q 4.5 15.765625 4.5 27.984375 
Q 4.5 40.234375 11.03125 48.0625 
Q 17.578125 55.90625 27.59375 55.90625 
Q 33.296875 55.90625 37.640625 53.65625 
Q 42 51.421875 45.609375 46.578125 
L 45.609375 54.6875 
L 63.1875 54.6875 
L 63.1875 5.515625 
Q 63.1875 -7.671875 54.859375 -14.625 
Q 46.53125 -21.578125 30.71875 -21.578125 
Q 25.59375 -21.578125 20.796875 -20.796875 
Q 16.015625 -20.015625 11.1875 -18.40625 
L 11.1875 -4.78125 
Q 15.765625 -7.421875 20.15625 -8.71875 
Q 24.5625 -10.015625 29 -10.015625 
Q 37.59375 -10.015625 41.59375 -6.25 
Q 45.609375 -2.484375 45.609375 5.515625 
z
M 34.078125 43.3125 
Q 28.65625 43.3125 25.625 39.296875 
Q 22.609375 35.296875 22.609375 27.984375 
Q 22.609375 20.453125 25.53125 16.578125 
Q 28.46875 12.703125 34.078125 12.703125 
Q 39.546875 12.703125 42.578125 16.703125 
Q 45.609375 20.703125 45.609375 27.984375 
Q 45.609375 35.296875 42.578125 39.296875 
Q 39.546875 43.3125 34.078125 43.3125 
z
" id="DejaVuSans-Bold-67"/>
     <path d="M 1.21875 54.6875 
L 18.703125 54.6875 
L 33.40625 17.578125 
L 45.90625 54.6875 
L 63.375 54.6875 
L 40.375 -5.171875 
Q 36.921875 -14.3125 32.296875 -17.9375 
Q 27.6875 -21.578125 20.125 -21.578125 
L 10.015625 -21.578125 
L 10.015625 -10.109375 
L 15.484375 -10.109375 
Q 19.921875 -10.109375 21.9375 -8.6875 
Q 23.96875 -7.28125 25.09375 -3.609375 
L 25.59375 -2.09375 
z
" id="DejaVuSans-Bold-79"/>
     <path id="DejaVuSans-Bold-20"/>
     <path d="M 37.703125 -13.1875 
L 23.1875 -13.1875 
Q 15.71875 -1.125 12.15625 9.734375 
Q 8.59375 20.609375 8.59375 31.296875 
Q 8.59375 42 12.171875 52.953125 
Q 15.765625 63.921875 23.1875 75.875 
L 37.703125 75.875 
Q 31.453125 64.3125 28.328125 53.25 
Q 25.203125 42.1875 25.203125 31.390625 
Q 25.203125 20.609375 28.296875 9.515625 
Q 31.390625 -1.5625 37.703125 -13.1875 
z
" id="DejaVuSans-Bold-28"/>
     <path d="M 59.078125 45.609375 
Q 62.40625 50.6875 66.96875 53.34375 
Q 71.53125 56 77 56 
Q 86.421875 56 91.359375 50.1875 
Q 96.296875 44.390625 96.296875 33.296875 
L 96.296875 0 
L 78.71875 0 
L 78.71875 28.515625 
Q 78.765625 29.15625 78.78125 29.828125 
Q 78.8125 30.515625 78.8125 31.78125 
Q 78.8125 37.59375 77.09375 40.203125 
Q 75.390625 42.828125 71.578125 42.828125 
Q 66.609375 42.828125 63.890625 38.71875 
Q 61.1875 34.625 61.078125 26.859375 
L 61.078125 0 
L 43.5 0 
L 43.5 28.515625 
Q 43.5 37.59375 41.9375 40.203125 
Q 40.375 42.828125 36.375 42.828125 
Q 31.34375 42.828125 28.609375 38.703125 
Q 25.875 34.578125 25.875 26.90625 
L 25.875 0 
L 8.296875 0 
L 8.296875 54.6875 
L 25.875 54.6875 
L 25.875 46.6875 
Q 29.109375 51.3125 33.28125 53.65625 
Q 37.453125 56 42.484375 56 
Q 48.140625 56 52.484375 53.265625 
Q 56.84375 50.53125 59.078125 45.609375 
z
" id="DejaVuSans-Bold-6d"/>
     <path d="M 0.484375 72.90625 
L 19.390625 72.90625 
L 38.71875 19.09375 
L 58.015625 72.90625 
L 76.90625 72.90625 
L 49.90625 0 
L 27.484375 0 
z
" id="DejaVuSans-Bold-56"/>
     <path d="M 8.015625 -13.1875 
Q 14.265625 -1.5625 17.390625 9.515625 
Q 20.515625 20.609375 20.515625 31.390625 
Q 20.515625 42.1875 17.390625 53.25 
Q 14.265625 64.3125 8.015625 75.875 
L 22.515625 75.875 
Q 29.9375 63.921875 33.515625 52.953125 
Q 37.109375 42 37.109375 31.296875 
Q 37.109375 20.609375 33.546875 9.734375 
Q 29.984375 -1.125 22.515625 -13.1875 
z
" id="DejaVuSans-Bold-29"/>
    </defs>
    <g transform="translate(187.658654 608.708901)rotate(-341.878381)scale(0.2 -0.2)">
     <use xlink:href="#DejaVuSans-Bold-45"/>
     <use x="68.310547" xlink:href="#DejaVuSans-Bold-6e"/>
     <use x="139.501953" xlink:href="#DejaVuSans-Bold-65"/>
     <use x="207.324219" xlink:href="#DejaVuSans-Bold-72"/>
     <use x="256.640625" xlink:href="#DejaVuSans-Bold-67"/>
     <use x="328.222656" xlink:href="#DejaVuSans-Bold-79"/>
     <use x="393.408203" xlink:href="#DejaVuSans-Bold-20"/>
     <use x="428.222656" xlink:href="#DejaVuSans-Bold-28"/>
     <use x="473.925781" xlink:href="#DejaVuSans-Bold-6d"/>
     <use x="578.125" xlink:href="#DejaVuSans-Bold-65"/>
     <use x="645.947266" xlink:href="#DejaVuSans-Bold-56"/>
     <use x="723.339844" xlink:href="#DejaVuSans-Bold-29"/>
    </g>
   </g>
   <g id="Line3DCollection_1">
    <path d="M 127.947203 542.793104 
L 313.127594 383.644091 
L 310.327331 79.881295 
" style="fill:none;stroke:#b0b0b0;stroke-width:0.8;"/>
    <path d="M 164.444236 554.737417 
L 347.914703 393.928829 
L 346.860038 89.089044 
" style="fill:none;stroke:#b0b0b0;stroke-width:0.8;"/>
    <path d="M 201.33723 566.811316 
L 383.051818 404.317045 
L 383.779012 98.394148 
" style="fill:none;stroke:#b0b0b0;stroke-width:0.8;"/>
    <path d="M 238.632665 579.016921 
L 418.544248 414.81031 
L 421.090412 107.798159 
" style="fill:none;stroke:#b0b0b0;stroke-width:0.8;"/>
    <path d="M 276.33716 591.356398 
L 454.39741 425.410224 
L 458.800528 117.302663 
" style="fill:none;stroke:#b0b0b0;stroke-width:0.8;"/>
    <path d="M 314.457484 603.831963 
L 490.61683 436.118422 
L 496.915786 126.90928 
" style="fill:none;stroke:#b0b0b0;stroke-width:0.8;"/>
    <path d="M 353.000554 616.445879 
L 527.208152 446.936572 
L 535.442749 136.619663 
" style="fill:none;stroke:#b0b0b0;stroke-width:0.8;"/>
    <path d="M 391.97344 629.20046 
L 564.177131 457.866375 
L 574.388126 146.435504 
" style="fill:none;stroke:#b0b0b0;stroke-width:0.8;"/>
    <path d="M 431.383373 642.098072 
L 601.529645 468.90957 
L 613.758768 156.358529 
" style="fill:none;stroke:#b0b0b0;stroke-width:0.8;"/>
   </g>
   <g id="xtick_1">
    <g id="line2d_2">
     <path d="M 129.542405 541.422144 
L 124.750861 545.540126 
" style="fill:none;stroke:#000000;stroke-linecap:square;stroke-width:0.8;"/>
    </g>
    <g id="text_2">
     <!-- −10.0 -->
     <defs>
      <path d="M 10.59375 35.5 
L 73.1875 35.5 
L 73.1875 27.203125 
L 10.59375 27.203125 
z
" id="DejaVuSans-2212"/>
      <path d="M 12.40625 8.296875 
L 28.515625 8.296875 
L 28.515625 63.921875 
L 10.984375 60.40625 
L 10.984375 69.390625 
L 28.421875 72.90625 
L 38.28125 72.90625 
L 38.28125 8.296875 
L 54.390625 8.296875 
L 54.390625 0 
L 12.40625 0 
z
" id="DejaVuSans-31"/>
      <path d="M 31.78125 66.40625 
Q 24.171875 66.40625 20.328125 58.90625 
Q 16.5 51.421875 16.5 36.375 
Q 16.5 21.390625 20.328125 13.890625 
Q 24.171875 6.390625 31.78125 6.390625 
Q 39.453125 6.390625 43.28125 13.890625 
Q 47.125 21.390625 47.125 36.375 
Q 47.125 51.421875 43.28125 58.90625 
Q 39.453125 66.40625 31.78125 66.40625 
z
M 31.78125 74.21875 
Q 44.046875 74.21875 50.515625 64.515625 
Q 56.984375 54.828125 56.984375 36.375 
Q 56.984375 17.96875 50.515625 8.265625 
Q 44.046875 -1.421875 31.78125 -1.421875 
Q 19.53125 -1.421875 13.0625 8.265625 
Q 6.59375 17.96875 6.59375 36.375 
Q 6.59375 54.828125 13.0625 64.515625 
Q 19.53125 74.21875 31.78125 74.21875 
z
" id="DejaVuSans-30"/>
      <path d="M 10.6875 12.40625 
L 21 12.40625 
L 21 0 
L 10.6875 0 
z
" id="DejaVuSans-2e"/>
     </defs>
     <g transform="translate(90.921394 574.184766)scale(0.2 -0.2)">
      <use xlink:href="#DejaVuSans-2212"/>
      <use x="83.789062" xlink:href="#DejaVuSans-31"/>
      <use x="147.412109" xlink:href="#DejaVuSans-30"/>
      <use x="211.035156" xlink:href="#DejaVuSans-2e"/>
      <use x="242.822266" xlink:href="#DejaVuSans-30"/>
     </g>
    </g>
   </g>
   <g id="xtick_2">
    <g id="line2d_3">
     <path d="M 166.025316 553.351629 
L 161.276159 557.51418 
" style="fill:none;stroke:#000000;stroke-linecap:square;stroke-width:0.8;"/>
    </g>
    <g id="text_3">
     <!-- −7.5 -->
     <defs>
      <path d="M 8.203125 72.90625 
L 55.078125 72.90625 
L 55.078125 68.703125 
L 28.609375 0 
L 18.3125 0 
L 43.21875 64.59375 
L 8.203125 64.59375 
z
" id="DejaVuSans-37"/>
      <path d="M 10.796875 72.90625 
L 49.515625 72.90625 
L 49.515625 64.59375 
L 19.828125 64.59375 
L 19.828125 46.734375 
Q 21.96875 47.46875 24.109375 47.828125 
Q 26.265625 48.1875 28.421875 48.1875 
Q 40.625 48.1875 47.75 41.5 
Q 54.890625 34.8125 54.890625 23.390625 
Q 54.890625 11.625 47.5625 5.09375 
Q 40.234375 -1.421875 26.90625 -1.421875 
Q 22.3125 -1.421875 17.546875 -0.640625 
Q 12.796875 0.140625 7.71875 1.703125 
L 7.71875 11.625 
Q 12.109375 9.234375 16.796875 8.0625 
Q 21.484375 6.890625 26.703125 6.890625 
Q 35.15625 6.890625 40.078125 11.328125 
Q 45.015625 15.765625 45.015625 23.390625 
Q 45.015625 31 40.078125 35.4375 
Q 35.15625 39.890625 26.703125 39.890625 
Q 22.75 39.890625 18.8125 39.015625 
Q 14.890625 38.140625 10.796875 36.28125 
z
" id="DejaVuSans-35"/>
     </defs>
     <g transform="translate(133.778782 586.227106)scale(0.2 -0.2)">
      <use xlink:href="#DejaVuSans-2212"/>
      <use x="83.789062" xlink:href="#DejaVuSans-37"/>
      <use x="147.412109" xlink:href="#DejaVuSans-2e"/>
      <use x="179.199219" xlink:href="#DejaVuSans-35"/>
     </g>
    </g>
   </g>
   <g id="xtick_3">
    <g id="line2d_4">
     <path d="M 202.903787 565.410457 
L 198.198221 569.618305 
" style="fill:none;stroke:#000000;stroke-linecap:square;stroke-width:0.8;"/>
    </g>
    <g id="text_4">
     <!-- −5.0 -->
     <g transform="translate(170.66996 598.400212)scale(0.2 -0.2)">
      <use xlink:href="#DejaVuSans-2212"/>
      <use x="83.789062" xlink:href="#DejaVuSans-35"/>
      <use x="147.412109" xlink:href="#DejaVuSans-2e"/>
      <use x="179.199219" xlink:href="#DejaVuSans-30"/>
     </g>
    </g>
   </g>
   <g id="xtick_4">
    <g id="line2d_5">
     <path d="M 240.184287 577.600744 
L 235.52355 581.854633 
" style="fill:none;stroke:#000000;stroke-linecap:square;stroke-width:0.8;"/>
    </g>
    <g id="text_5">
     <!-- −2.5 -->
     <defs>
      <path d="M 19.1875 8.296875 
L 53.609375 8.296875 
L 53.609375 0 
L 7.328125 0 
L 7.328125 8.296875 
Q 12.9375 14.109375 22.625 23.890625 
Q 32.328125 33.6875 34.8125 36.53125 
Q 39.546875 41.84375 41.421875 45.53125 
Q 43.3125 49.21875 43.3125 52.78125 
Q 43.3125 58.59375 39.234375 62.25 
Q 35.15625 65.921875 28.609375 65.921875 
Q 23.96875 65.921875 18.8125 64.3125 
Q 13.671875 62.703125 7.8125 59.421875 
L 7.8125 69.390625 
Q 13.765625 71.78125 18.9375 73 
Q 24.125 74.21875 28.421875 74.21875 
Q 39.75 74.21875 46.484375 68.546875 
Q 53.21875 62.890625 53.21875 53.421875 
Q 53.21875 48.921875 51.53125 44.890625 
Q 49.859375 40.875 45.40625 35.40625 
Q 44.1875 33.984375 37.640625 27.21875 
Q 31.109375 20.453125 19.1875 8.296875 
z
" id="DejaVuSans-32"/>
     </defs>
     <g transform="translate(207.963919 610.706225)scale(0.2 -0.2)">
      <use xlink:href="#DejaVuSans-2212"/>
      <use x="83.789062" xlink:href="#DejaVuSans-32"/>
      <use x="147.412109" xlink:href="#DejaVuSans-2e"/>
      <use x="179.199219" xlink:href="#DejaVuSans-35"/>
     </g>
    </g>
   </g>
   <g id="xtick_5">
    <g id="line2d_6">
     <path d="M 277.873425 589.924651 
L 273.258786 594.22534 
" style="fill:none;stroke:#000000;stroke-linecap:square;stroke-width:0.8;"/>
    </g>
    <g id="text_6">
     <!-- 0.0 -->
     <g transform="translate(254.046979 623.147333)scale(0.2 -0.2)">
      <use xlink:href="#DejaVuSans-30"/>
      <use x="63.623047" xlink:href="#DejaVuSans-2e"/>
      <use x="95.410156" xlink:href="#DejaVuSans-30"/>
     </g>
    </g>
   </g>
   <g id="xtick_6">
    <g id="line2d_7">
     <path d="M 315.977958 602.384387 
L 311.41072 606.732652 
" style="fill:none;stroke:#000000;stroke-linecap:square;stroke-width:0.8;"/>
    </g>
    <g id="text_7">
     <!-- 2.5 -->
     <g transform="translate(292.166543 635.725774)scale(0.2 -0.2)">
      <use xlink:href="#DejaVuSans-32"/>
      <use x="63.623047" xlink:href="#DejaVuSans-2e"/>
      <use x="95.410156" xlink:href="#DejaVuSans-35"/>
     </g>
    </g>
   </g>
   <g id="xtick_7">
    <g id="line2d_8">
     <path d="M 354.504791 614.98221 
L 349.986293 619.378846 
" style="fill:none;stroke:#000000;stroke-linecap:square;stroke-width:0.8;"/>
    </g>
    <g id="text_8">
     <!-- 5.0 -->
     <g transform="translate(330.709229 648.443833)scale(0.2 -0.2)">
      <use xlink:href="#DejaVuSans-35"/>
      <use x="63.623047" xlink:href="#DejaVuSans-2e"/>
      <use x="95.410156" xlink:href="#DejaVuSans-30"/>
     </g>
    </g>
   </g>
   <g id="xtick_8">
    <g id="line2d_9">
     <path d="M 393.460983 627.720429 
L 388.9926 632.166247 
" style="fill:none;stroke:#000000;stroke-linecap:square;stroke-width:0.8;"/>
    </g>
    <g id="text_9">
     <!-- 7.5 -->
     <g transform="translate(369.682121 661.303849)scale(0.2 -0.2)">
      <use xlink:href="#DejaVuSans-37"/>
      <use x="63.623047" xlink:href="#DejaVuSans-2e"/>
      <use x="95.410156" xlink:href="#DejaVuSans-35"/>
     </g>
    </g>
   </g>
   <g id="xtick_9">
    <g id="line2d_10">
     <path d="M 432.853752 640.601403 
L 428.436896 645.097233 
" style="fill:none;stroke:#000000;stroke-linecap:square;stroke-width:0.8;"/>
    </g>
    <g id="text_10">
     <!-- 10.0 -->
     <g transform="translate(402.729962 674.308211)scale(0.2 -0.2)">
      <use xlink:href="#DejaVuSans-31"/>
      <use x="63.623047" xlink:href="#DejaVuSans-30"/>
      <use x="127.246094" xlink:href="#DejaVuSans-2e"/>
      <use x="159.033203" xlink:href="#DejaVuSans-30"/>
     </g>
    </g>
   </g>
  </g>
  <g id="axis3d_2">
   <g id="line2d_11">
    <path d="M 607.792772 470.761251 
L 437.994703 644.26175 
" style="fill:none;stroke:#000000;stroke-linecap:square;stroke-width:0.8;"/>
   </g>
   <g id="text_11">
    <!-- Q ($\bf{A^{-1}}$) -->
    <defs>
     <path d="M 44.484375 -1.3125 
L 43.015625 -1.3125 
Q 25 -1.3125 14.984375 8.640625 
Q 4.984375 18.609375 4.984375 36.375 
Q 4.984375 54.109375 14.96875 64.15625 
Q 24.953125 74.21875 42.484375 74.21875 
Q 60.203125 74.21875 70.09375 64.25 
Q 79.984375 54.296875 79.984375 36.375 
Q 79.984375 24.078125 74.734375 15.1875 
Q 69.484375 6.296875 59.625 1.8125 
L 74.3125 -14.59375 
L 56.390625 -14.59375 
z
M 42.484375 60.59375 
Q 33.890625 60.59375 29.15625 54.25 
Q 24.421875 47.90625 24.421875 36.375 
Q 24.421875 24.65625 29.046875 18.421875 
Q 33.6875 12.203125 42.484375 12.203125 
Q 51.125 12.203125 55.859375 18.546875 
Q 60.59375 24.90625 60.59375 36.375 
Q 60.59375 47.90625 55.859375 54.25 
Q 51.125 60.59375 42.484375 60.59375 
z
" id="DejaVuSans-Bold-51"/>
     <path d="M 53.421875 13.28125 
L 24.03125 13.28125 
L 19.390625 0 
L 0.484375 0 
L 27.484375 72.90625 
L 49.90625 72.90625 
L 76.90625 0 
L 58.015625 0 
z
M 28.71875 26.8125 
L 48.6875 26.8125 
L 38.71875 55.8125 
z
" id="DejaVuSans-Bold-41"/>
     <path d="M 10.59375 37.109375 
L 73.1875 37.109375 
L 73.1875 25.59375 
L 10.59375 25.59375 
z
" id="DejaVuSans-Bold-2212"/>
     <path d="M 11.71875 12.984375 
L 28.328125 12.984375 
L 28.328125 60.109375 
L 11.28125 56.59375 
L 11.28125 69.390625 
L 28.21875 72.90625 
L 46.09375 72.90625 
L 46.09375 12.984375 
L 62.703125 12.984375 
L 62.703125 0 
L 11.71875 0 
z
" id="DejaVuSans-Bold-31"/>
    </defs>
    <g transform="translate(525.984215 617.095191)rotate(-45.617904)scale(0.2 -0.2)">
     <use transform="translate(0 0.684375)" xlink:href="#DejaVuSans-Bold-51"/>
     <use transform="translate(85.009766 0.684375)" xlink:href="#DejaVuSans-Bold-20"/>
     <use transform="translate(119.824219 0.684375)" xlink:href="#DejaVuSans-Bold-28"/>
     <use transform="translate(165.527344 0.684375)" xlink:href="#DejaVuSans-Bold-41"/>
     <use transform="translate(243.876953 38.965625)scale(0.7)" xlink:href="#DejaVuSans-Bold-2212"/>
     <use transform="translate(302.529297 38.965625)scale(0.7)" xlink:href="#DejaVuSans-Bold-31"/>
     <use transform="translate(353.969727 0.684375)" xlink:href="#DejaVuSans-Bold-29"/>
    </g>
   </g>
   <g id="Line3DCollection_2">
    <path d="M 133.263336 203.029647 
L 145.302702 520.76901 
L 459.481607 622.306326 
" style="fill:none;stroke:#b0b0b0;stroke-width:0.8;"/>
    <path d="M 155.729159 186.651323 
L 166.529628 502.584992 
L 478.957117 602.406155 
" style="fill:none;stroke:#b0b0b0;stroke-width:0.8;"/>
    <path d="M 177.805707 170.556794 
L 187.40724 484.700212 
L 498.097542 582.848374 
" style="fill:none;stroke:#b0b0b0;stroke-width:0.8;"/>
    <path d="M 199.503011 154.738746 
L 207.944091 467.107345 
L 516.911459 563.624222 
" style="fill:none;stroke:#b0b0b0;stroke-width:0.8;"/>
    <path d="M 220.83076 139.190115 
L 228.148456 449.799302 
L 535.40715 544.725234 
" style="fill:none;stroke:#b0b0b0;stroke-width:0.8;"/>
    <path d="M 241.798316 123.904078 
L 248.028345 432.769221 
L 553.592621 526.14323 
" style="fill:none;stroke:#b0b0b0;stroke-width:0.8;"/>
    <path d="M 262.414727 108.874036 
L 267.591511 416.01046 
L 571.475613 507.870301 
" style="fill:none;stroke:#b0b0b0;stroke-width:0.8;"/>
    <path d="M 282.688741 94.093613 
L 286.845463 399.516587 
L 589.063611 489.898799 
" style="fill:none;stroke:#b0b0b0;stroke-width:0.8;"/>
   </g>
   <g id="xtick_10">
    <g id="line2d_12">
     <path d="M 456.852714 621.456712 
L 464.745244 624.007444 
" style="fill:none;stroke:#000000;stroke-linecap:square;stroke-width:0.8;"/>
    </g>
    <g id="text_12">
     <!-- 0.4 -->
     <defs>
      <path d="M 37.796875 64.3125 
L 12.890625 25.390625 
L 37.796875 25.390625 
z
M 35.203125 72.90625 
L 47.609375 72.90625 
L 47.609375 25.390625 
L 58.015625 25.390625 
L 58.015625 17.1875 
L 47.609375 17.1875 
L 47.609375 0 
L 37.796875 0 
L 37.796875 17.1875 
L 4.890625 17.1875 
L 4.890625 26.703125 
z
" id="DejaVuSans-34"/>
     </defs>
     <g transform="translate(454.611712 651.683817)scale(0.2 -0.2)">
      <use xlink:href="#DejaVuSans-30"/>
      <use x="63.623047" xlink:href="#DejaVuSans-2e"/>
      <use x="95.410156" xlink:href="#DejaVuSans-34"/>
     </g>
    </g>
   </g>
   <g id="xtick_11">
    <g id="line2d_13">
     <path d="M 476.343874 601.571219 
L 484.189366 604.077868 
" style="fill:none;stroke:#000000;stroke-linecap:square;stroke-width:0.8;"/>
    </g>
    <g id="text_13">
     <!-- 0.6 -->
     <defs>
      <path d="M 33.015625 40.375 
Q 26.375 40.375 22.484375 35.828125 
Q 18.609375 31.296875 18.609375 23.390625 
Q 18.609375 15.53125 22.484375 10.953125 
Q 26.375 6.390625 33.015625 6.390625 
Q 39.65625 6.390625 43.53125 10.953125 
Q 47.40625 15.53125 47.40625 23.390625 
Q 47.40625 31.296875 43.53125 35.828125 
Q 39.65625 40.375 33.015625 40.375 
z
M 52.59375 71.296875 
L 52.59375 62.3125 
Q 48.875 64.0625 45.09375 64.984375 
Q 41.3125 65.921875 37.59375 65.921875 
Q 27.828125 65.921875 22.671875 59.328125 
Q 17.53125 52.734375 16.796875 39.40625 
Q 19.671875 43.65625 24.015625 45.921875 
Q 28.375 48.1875 33.59375 48.1875 
Q 44.578125 48.1875 50.953125 41.515625 
Q 57.328125 34.859375 57.328125 23.390625 
Q 57.328125 12.15625 50.6875 5.359375 
Q 44.046875 -1.421875 33.015625 -1.421875 
Q 20.359375 -1.421875 13.671875 8.265625 
Q 6.984375 17.96875 6.984375 36.375 
Q 6.984375 53.65625 15.1875 63.9375 
Q 23.390625 74.21875 37.203125 74.21875 
Q 40.921875 74.21875 44.703125 73.484375 
Q 48.484375 72.75 52.59375 71.296875 
z
" id="DejaVuSans-36"/>
     </defs>
     <g transform="translate(473.986792 631.665442)scale(0.2 -0.2)">
      <use xlink:href="#DejaVuSans-30"/>
      <use x="63.623047" xlink:href="#DejaVuSans-2e"/>
      <use x="95.410156" xlink:href="#DejaVuSans-36"/>
     </g>
    </g>
   </g>
   <g id="xtick_12">
    <g id="line2d_14">
     <path d="M 495.499804 582.027739 
L 503.298701 584.491438 
" style="fill:none;stroke:#000000;stroke-linecap:square;stroke-width:0.8;"/>
    </g>
    <g id="text_14">
     <!-- 0.8 -->
     <defs>
      <path d="M 31.78125 34.625 
Q 24.75 34.625 20.71875 30.859375 
Q 16.703125 27.09375 16.703125 20.515625 
Q 16.703125 13.921875 20.71875 10.15625 
Q 24.75 6.390625 31.78125 6.390625 
Q 38.8125 6.390625 42.859375 10.171875 
Q 46.921875 13.96875 46.921875 20.515625 
Q 46.921875 27.09375 42.890625 30.859375 
Q 38.875 34.625 31.78125 34.625 
z
M 21.921875 38.8125 
Q 15.578125 40.375 12.03125 44.71875 
Q 8.5 49.078125 8.5 55.328125 
Q 8.5 64.0625 14.71875 69.140625 
Q 20.953125 74.21875 31.78125 74.21875 
Q 42.671875 74.21875 48.875 69.140625 
Q 55.078125 64.0625 55.078125 55.328125 
Q 55.078125 49.078125 51.53125 44.71875 
Q 48 40.375 41.703125 38.8125 
Q 48.828125 37.15625 52.796875 32.3125 
Q 56.78125 27.484375 56.78125 20.515625 
Q 56.78125 9.90625 50.3125 4.234375 
Q 43.84375 -1.421875 31.78125 -1.421875 
Q 19.734375 -1.421875 13.25 4.234375 
Q 6.78125 9.90625 6.78125 20.515625 
Q 6.78125 27.484375 10.78125 32.3125 
Q 14.796875 37.15625 21.921875 38.8125 
z
M 18.3125 54.390625 
Q 18.3125 48.734375 21.84375 45.5625 
Q 25.390625 42.390625 31.78125 42.390625 
Q 38.140625 42.390625 41.71875 45.5625 
Q 45.3125 48.734375 45.3125 54.390625 
Q 45.3125 60.0625 41.71875 63.234375 
Q 38.140625 66.40625 31.78125 66.40625 
Q 25.390625 66.40625 21.84375 63.234375 
Q 18.3125 60.0625 18.3125 54.390625 
z
" id="DejaVuSans-38"/>
     </defs>
     <g transform="translate(493.028597 611.991408)scale(0.2 -0.2)">
      <use xlink:href="#DejaVuSans-30"/>
      <use x="63.623047" xlink:href="#DejaVuSans-2e"/>
      <use x="95.410156" xlink:href="#DejaVuSans-38"/>
     </g>
    </g>
   </g>
   <g id="xtick_13">
    <g id="line2d_15">
     <path d="M 514.329077 562.817524 
L 522.081821 565.239367 
" style="fill:none;stroke:#000000;stroke-linecap:square;stroke-width:0.8;"/>
    </g>
    <g id="text_15">
     <!-- 1.0 -->
     <g transform="translate(511.745651 592.652906)scale(0.2 -0.2)">
      <use xlink:href="#DejaVuSans-31"/>
      <use x="63.623047" xlink:href="#DejaVuSans-2e"/>
      <use x="95.410156" xlink:href="#DejaVuSans-30"/>
     </g>
    </g>
   </g>
   <g id="xtick_14">
    <g id="line2d_16">
     <path d="M 532.839979 543.932121 
L 540.547009 546.313166 
" style="fill:none;stroke:#000000;stroke-linecap:square;stroke-width:0.8;"/>
    </g>
    <g id="text_16">
     <!-- 1.2 -->
     <g transform="translate(530.146193 573.641426)scale(0.2 -0.2)">
      <use xlink:href="#DejaVuSans-31"/>
      <use x="63.623047" xlink:href="#DejaVuSans-2e"/>
      <use x="95.410156" xlink:href="#DejaVuSans-32"/>
     </g>
    </g>
   </g>
   <g id="xtick_15">
    <g id="line2d_17">
     <path d="M 551.040518 525.363361 
L 558.702269 527.704631 
" style="fill:none;stroke:#000000;stroke-linecap:square;stroke-width:0.8;"/>
    </g>
    <g id="text_17">
     <!-- 1.4 -->
     <g transform="translate(548.238184 554.948742)scale(0.2 -0.2)">
      <use xlink:href="#DejaVuSans-31"/>
      <use x="63.623047" xlink:href="#DejaVuSans-2e"/>
      <use x="95.410156" xlink:href="#DejaVuSans-34"/>
     </g>
    </g>
   </g>
   <g id="xtick_16">
    <g id="line2d_18">
     <path d="M 568.938432 507.103347 
L 576.555339 509.40583 
" style="fill:none;stroke:#000000;stroke-linecap:square;stroke-width:0.8;"/>
    </g>
    <g id="text_18">
     <!-- 1.6 -->
     <g transform="translate(566.02932 536.566901)scale(0.2 -0.2)">
      <use xlink:href="#DejaVuSans-31"/>
      <use x="63.623047" xlink:href="#DejaVuSans-2e"/>
      <use x="95.410156" xlink:href="#DejaVuSans-36"/>
     </g>
    </g>
   </g>
   <g id="xtick_17">
    <g id="line2d_19">
     <path d="M 586.541209 489.144443 
L 594.113703 491.409094 
" style="fill:none;stroke:#000000;stroke-linecap:square;stroke-width:0.8;"/>
    </g>
    <g id="text_19">
     <!-- 1.8 -->
     <g transform="translate(583.527044 518.488214)scale(0.2 -0.2)">
      <use xlink:href="#DejaVuSans-31"/>
      <use x="63.623047" xlink:href="#DejaVuSans-2e"/>
      <use x="95.410156" xlink:href="#DejaVuSans-38"/>
     </g>
    </g>
   </g>
  </g>
  <g id="axis3d_3">
   <g id="line2d_20">
    <path d="M 607.792772 470.761251 
L 620.362376 158.022911 
" style="fill:none;stroke:#000000;stroke-linecap:square;stroke-width:0.8;"/>
   </g>
   <g id="text_20">
    <!-- Intensity (A.U.) -->
    <defs>
     <path d="M 9.1875 72.90625 
L 27.984375 72.90625 
L 27.984375 0 
L 9.1875 0 
z
" id="DejaVuSans-Bold-49"/>
     <path d="M 27.484375 70.21875 
L 27.484375 54.6875 
L 45.515625 54.6875 
L 45.515625 42.1875 
L 27.484375 42.1875 
L 27.484375 19 
Q 27.484375 15.1875 29 13.84375 
Q 30.515625 12.5 35.015625 12.5 
L 44 12.5 
L 44 0 
L 29 0 
Q 18.65625 0 14.328125 4.3125 
Q 10.015625 8.640625 10.015625 19 
L 10.015625 42.1875 
L 1.3125 42.1875 
L 1.3125 54.6875 
L 10.015625 54.6875 
L 10.015625 70.21875 
z
" id="DejaVuSans-Bold-74"/>
     <path d="M 51.125 52.984375 
L 51.125 39.703125 
Q 45.515625 42.046875 40.28125 43.21875 
Q 35.0625 44.390625 30.421875 44.390625 
Q 25.4375 44.390625 23.015625 43.140625 
Q 20.609375 41.890625 20.609375 39.3125 
Q 20.609375 37.203125 22.4375 36.078125 
Q 24.265625 34.96875 29 34.421875 
L 32.078125 33.984375 
Q 45.515625 32.28125 50.140625 28.375 
Q 54.78125 24.46875 54.78125 16.109375 
Q 54.78125 7.375 48.328125 2.96875 
Q 41.890625 -1.421875 29.109375 -1.421875 
Q 23.6875 -1.421875 17.890625 -0.5625 
Q 12.109375 0.296875 6 2 
L 6 15.28125 
Q 11.234375 12.75 16.71875 11.46875 
Q 22.21875 10.203125 27.875 10.203125 
Q 33.015625 10.203125 35.59375 11.609375 
Q 38.1875 13.03125 38.1875 15.828125 
Q 38.1875 18.171875 36.40625 19.3125 
Q 34.625 20.453125 29.296875 21.09375 
L 26.21875 21.484375 
Q 14.546875 22.953125 9.859375 26.90625 
Q 5.171875 30.859375 5.171875 38.921875 
Q 5.171875 47.609375 11.125 51.796875 
Q 17.09375 56 29.390625 56 
Q 34.234375 56 39.546875 55.265625 
Q 44.875 54.546875 51.125 52.984375 
z
" id="DejaVuSans-Bold-73"/>
     <path d="M 8.40625 54.6875 
L 25.875 54.6875 
L 25.875 0 
L 8.40625 0 
z
M 8.40625 75.984375 
L 25.875 75.984375 
L 25.875 61.71875 
L 8.40625 61.71875 
z
" id="DejaVuSans-Bold-69"/>
     <path d="M 10.203125 18.890625 
L 27.78125 18.890625 
L 27.78125 0 
L 10.203125 0 
z
" id="DejaVuSans-Bold-2e"/>
     <path d="M 9.1875 72.90625 
L 27.984375 72.90625 
L 27.984375 29.203125 
Q 27.984375 20.171875 30.9375 16.28125 
Q 33.890625 12.40625 40.578125 12.40625 
Q 47.3125 12.40625 50.265625 16.28125 
Q 53.21875 20.171875 53.21875 29.203125 
L 53.21875 72.90625 
L 72.015625 72.90625 
L 72.015625 29.203125 
Q 72.015625 13.71875 64.25 6.140625 
Q 56.5 -1.421875 40.578125 -1.421875 
Q 24.703125 -1.421875 16.9375 6.140625 
Q 9.1875 13.71875 9.1875 29.203125 
z
" id="DejaVuSans-Bold-55"/>
    </defs>
    <g transform="translate(651.532212 400.049641)rotate(-87.698402)scale(0.2 -0.2)">
     <use xlink:href="#DejaVuSans-Bold-49"/>
     <use x="37.207031" xlink:href="#DejaVuSans-Bold-6e"/>
     <use x="108.398438" xlink:href="#DejaVuSans-Bold-74"/>
     <use x="156.201172" xlink:href="#DejaVuSans-Bold-65"/>
     <use x="224.023438" xlink:href="#DejaVuSans-Bold-6e"/>
     <use x="295.214844" xlink:href="#DejaVuSans-Bold-73"/>
     <use x="354.736328" xlink:href="#DejaVuSans-Bold-69"/>
     <use x="389.013672" xlink:href="#DejaVuSans-Bold-74"/>
     <use x="436.816406" xlink:href="#DejaVuSans-Bold-79"/>
     <use x="502.001953" xlink:href="#DejaVuSans-Bold-20"/>
     <use x="536.816406" xlink:href="#DejaVuSans-Bold-28"/>
     <use x="582.519531" xlink:href="#DejaVuSans-Bold-41"/>
     <use x="659.927734" xlink:href="#DejaVuSans-Bold-2e"/>
     <use x="697.916016" xlink:href="#DejaVuSans-Bold-55"/>
     <use x="779.117188" xlink:href="#DejaVuSans-Bold-2e"/>
     <use x="817.105469" xlink:href="#DejaVuSans-Bold-29"/>
    </g>
   </g>
   <g id="Line3DCollection_3">
    <path d="M 610.357784 406.942397 
L 306.732214 319.881686 
L 119.165905 475.662054 
" style="fill:none;stroke:#b0b0b0;stroke-width:0.8;"/>
    <path d="M 612.742634 347.606089 
L 306.145862 262.231841 
L 116.61988 415.044452 
" style="fill:none;stroke:#b0b0b0;stroke-width:0.8;"/>
    <path d="M 615.175035 287.086682 
L 305.548318 203.481602 
L 114.021377 353.177411 
" style="fill:none;stroke:#b0b0b0;stroke-width:0.8;"/>
    <path d="M 617.656424 225.348435 
L 304.939258 143.599159 
L 111.368757 290.021896 
" style="fill:none;stroke:#b0b0b0;stroke-width:0.8;"/>
   </g>
   <g id="xtick_18">
    <g id="line2d_21">
     <path d="M 607.823449 406.21571 
L 615.431778 408.3973 
" style="fill:none;stroke:#000000;stroke-linecap:square;stroke-width:0.8;"/>
    </g>
    <g id="text_21">
     <!-- 0.2 -->
     <g transform="translate(610.638139 419.875141)scale(0.2 -0.2)">
      <use xlink:href="#DejaVuSans-30"/>
      <use x="63.623047" xlink:href="#DejaVuSans-2e"/>
      <use x="95.410156" xlink:href="#DejaVuSans-32"/>
     </g>
    </g>
   </g>
   <g id="xtick_19">
    <g id="line2d_22">
     <path d="M 610.182449 346.893185 
L 617.868435 349.033408 
" style="fill:none;stroke:#000000;stroke-linecap:square;stroke-width:0.8;"/>
    </g>
    <g id="text_22">
     <!-- 0.4 -->
     <g transform="translate(613.179936 360.581797)scale(0.2 -0.2)">
      <use xlink:href="#DejaVuSans-30"/>
      <use x="63.623047" xlink:href="#DejaVuSans-2e"/>
      <use x="95.410156" xlink:href="#DejaVuSans-34"/>
     </g>
    </g>
   </g>
   <g id="xtick_20">
    <g id="line2d_23">
     <path d="M 612.588468 286.388259 
L 620.353711 288.485022 
" style="fill:none;stroke:#000000;stroke-linecap:square;stroke-width:0.8;"/>
    </g>
    <g id="text_23">
     <!-- 0.6 -->
     <g transform="translate(615.772358 300.107524)scale(0.2 -0.2)">
      <use xlink:href="#DejaVuSans-30"/>
      <use x="63.623047" xlink:href="#DejaVuSans-2e"/>
      <use x="95.410156" xlink:href="#DejaVuSans-36"/>
     </g>
    </g>
   </g>
   <g id="xtick_21">
    <g id="line2d_24">
     <path d="M 615.042925 224.665224 
L 622.889075 226.716334 
" style="fill:none;stroke:#000000;stroke-linecap:square;stroke-width:0.8;"/>
    </g>
    <g id="text_24">
     <!-- 0.8 -->
     <g transform="translate(618.416931 238.416688)scale(0.2 -0.2)">
      <use xlink:href="#DejaVuSans-30"/>
      <use x="63.623047" xlink:href="#DejaVuSans-2e"/>
      <use x="95.410156" xlink:href="#DejaVuSans-38"/>
     </g>
    </g>
   </g>
  </g>
  <g id="axes_1">
   <g id="line2d_25">
    <path clip-path="url(#p764443bbb5)" d="M 137.407563 523.851803 
L 143.198108 525.554082 
L 148.998262 527.241756 
L 154.788028 528.362195 
L 160.602964 529.873168 
L 166.418618 531.095502 
L 172.247858 532.387975 
L 178.08049 533.441172 
L 183.904543 533.850165 
L 189.727753 533.805018 
L 195.576463 534.153239 
L 201.396602 533.033008 
L 207.230134 531.81175 
L 213.06585 530.051983 
L 218.842352 525.274341 
L 224.665007 521.416141 
L 230.397534 512.775603 
L 236.113764 501.996724 
L 241.757994 486.169214 
L 247.372518 466.607677 
L 252.915859 440.575739 
L 258.414682 408.438117 
L 263.843052 367.606473 
L 269.173516 314.744102 
L 274.888581 278.962736 
L 280.966878 262.427953 
L 287.583493 282.848242 
L 294.597678 338.06321 
L 301.759953 415.418232 
L 308.716494 486.809388 
L 315.355625 537.947307 
L 321.729532 567.496343 
L 327.940641 580.463705 
L 334.101395 587.020141 
L 340.244317 589.69027 
L 346.39585 592.161238 
L 352.556425 594.349098 
L 358.727129 596.340221 
L 364.908671 598.20614 
L 371.101337 600.336046 
L 377.304714 602.463639 
L 383.51945 604.35205 
L 389.74407 606.633895 
L 395.981071 608.514397 
L 402.227433 610.749703 
L 408.486752 612.652311 
L 414.757413 614.567407 
L 421.036029 616.87102 
L 427.330214 618.687991 
L 433.631702 620.902829 
" style="fill:none;stroke:#fc8a6a;stroke-dasharray:12.8,3.2,2,3.2;stroke-dashoffset:0;stroke-width:2;"/>
   </g>
   <g id="line2d_26">
    <path clip-path="url(#p764443bbb5)" d="M 158.831271 505.734403 
L 164.587537 507.275097 
L 170.365266 509.148724 
L 176.133613 510.437918 
L 181.921766 512.010418 
L 187.716296 513.454012 
L 193.512043 514.580937 
L 199.322916 515.842009 
L 205.136446 516.800324 
L 210.959277 517.669525 
L 216.781636 518.05837 
L 222.609327 518.14197 
L 228.417758 516.846306 
L 234.236579 515.290095 
L 240.048987 512.664201 
L 245.868408 509.457357 
L 251.648867 503.256166 
L 257.441108 496.277728 
L 263.183477 484.920333 
L 268.879006 468.571111 
L 274.599535 450.817537 
L 280.268381 426.167198 
L 285.920553 395.628002 
L 291.54233 356.695869 
L 297.279853 319.628894 
L 303.252541 296.090348 
L 309.509504 295.412806 
L 316.028902 323.175889 
L 322.713968 378.184117 
L 329.353177 441.151355 
L 335.839361 497.301507 
L 342.1436 535.653434 
L 348.313794 554.154875 
L 354.439832 564.321164 
L 360.551786 569.058481 
L 366.667978 572.057433 
L 372.793158 574.379356 
L 378.928513 576.586005 
L 385.074618 578.614688 
L 391.231503 580.614113 
L 397.399342 582.575293 
L 403.577639 584.608531 
L 409.766559 586.663213 
L 415.966437 588.694588 
L 422.178234 590.610012 
L 428.399092 592.72913 
L 434.632281 594.708351 
L 440.876405 596.700056 
L 447.131102 598.731214 
L 453.397024 600.750969 
" style="fill:none;stroke:#fb7252;stroke-dasharray:12.8,3.2,2,3.2;stroke-dashoffset:0;stroke-width:2;"/>
   </g>
   <g id="line2d_27">
    <path clip-path="url(#p764443bbb5)" d="M 179.893807 487.755504 
L 185.621801 489.287704 
L 191.363475 490.938888 
L 197.109008 492.380654 
L 202.864897 493.822129 
L 208.627556 495.129352 
L 214.402493 496.497302 
L 220.181523 497.605301 
L 225.962468 498.330134 
L 231.753161 498.960044 
L 237.543087 499.00627 
L 243.344574 498.967669 
L 249.142626 498.087308 
L 254.958394 497.333875 
L 260.748755 494.359845 
L 266.54387 490.5291 
L 272.343369 485.657777 
L 278.112687 477.272203 
L 283.895485 467.69153 
L 289.638098 452.591305 
L 295.396831 435.202148 
L 301.122676 410.545083 
L 306.857289 380.527336 
L 312.630503 346.597662 
L 318.480398 311.908786 
L 324.467788 284.522475 
L 330.69438 284.364753 
L 337.052299 306.618483 
L 343.477622 352.390273 
L 349.875006 414.338928 
L 356.146031 469.635733 
L 362.300184 508.565392 
L 368.387693 531.340235 
L 374.453488 542.978674 
L 380.521453 548.755125 
L 386.599361 552.099799 
L 392.687739 554.744304 
L 398.786258 557.185497 
L 404.897672 559.085455 
L 411.018846 561.119159 
L 417.152679 562.889428 
L 423.293079 565.143589 
L 429.445721 567.190681 
L 435.611912 568.976928 
L 441.783916 571.191376 
L 447.97031 573.103263 
L 454.166713 575.080998 
L 460.374167 577.047304 
L 466.591502 579.076618 
L 472.820038 581.085612 
" style="fill:none;stroke:#f6583e;stroke-dasharray:12.8,3.2,2,3.2;stroke-dashoffset:0;stroke-width:2;"/>
   </g>
   <g id="line2d_28">
    <path clip-path="url(#p764443bbb5)" d="M 200.605382 469.895789 
L 206.305364 471.422796 
L 212.017428 473.030552 
L 217.734983 474.467513 
L 223.463574 475.938897 
L 229.198169 477.233297 
L 234.940611 478.408324 
L 240.691653 479.481121 
L 246.454134 480.573408 
L 252.209838 480.75809 
L 257.980235 481.042123 
L 263.760087 481.143259 
L 269.54309 480.649619 
L 275.321806 478.974511 
L 281.107527 476.644726 
L 286.895198 473.148836 
L 292.686868 468.372751 
L 298.479269 461.712458 
L 304.25193 450.749513 
L 310.03676 437.421089 
L 315.812162 418.466803 
L 321.620663 397.153907 
L 327.426458 367.179724 
L 333.289071 334.261312 
L 339.221623 299.227749 
L 345.294044 278.635086 
L 351.48074 278.795319 
L 357.716757 298.450607 
L 363.944967 340.162438 
L 370.100088 395.185577 
L 376.161184 447.450184 
L 382.159796 486.580135 
L 388.146285 509.399507 
L 394.141566 522.637622 
L 400.161071 528.913251 
L 406.198778 532.544777 
L 412.250088 535.261754 
L 418.312578 537.691019 
L 424.388323 539.711431 
L 430.470613 542.086133 
L 436.568863 543.907029 
L 442.673296 546.091225 
L 448.790895 548.045716 
L 454.923205 549.716957 
L 461.059536 551.84357 
L 467.210492 553.710482 
L 473.369284 555.746398 
L 479.539999 557.708791 
L 485.719716 559.757522 
L 491.913867 561.623007 
" style="fill:none;stroke:#ee3a2c;stroke-dasharray:12.8,3.2,2,3.2;stroke-dashoffset:0;stroke-width:2;"/>
   </g>
   <g id="line2d_29">
    <path clip-path="url(#p764443bbb5)" d="M 220.978075 452.219731 
L 226.651586 453.802319 
L 232.333057 455.309964 
L 238.021469 456.684964 
L 243.725325 458.312988 
L 249.426573 459.327075 
L 255.147606 460.807463 
L 260.86142 461.335106 
L 266.590126 462.037213 
L 272.322124 462.225942 
L 278.068966 462.559859 
L 283.819824 462.306078 
L 289.579197 461.671455 
L 295.344888 460.384071 
L 301.112636 457.896143 
L 306.887386 454.34071 
L 312.665189 448.957756 
L 318.448403 441.381354 
L 324.234367 430.37363 
L 330.025452 414.716976 
L 335.837243 394.724061 
L 341.697373 373.660334 
L 347.593257 346.950613 
L 353.543862 315.377973 
L 359.583467 291.983486 
L 365.690177 281.401379 
L 371.825426 284.30737 
L 377.947035 301.86211 
L 384.025335 328.301575 
L 390.004932 371.730464 
L 395.903265 416.890963 
L 401.750918 457.262295 
L 407.614791 484.812624 
L 413.531583 499.826933 
L 419.495392 507.439066 
L 425.483942 512.322517 
L 431.498556 515.140797 
L 437.518176 518.24732 
L 443.559045 520.293484 
L 449.605698 522.648149 
L 455.664869 524.792208 
L 461.73396 526.933871 
L 467.814594 528.979132 
L 473.908632 530.842613 
L 480.011181 532.815182 
L 486.124984 534.744007 
L 492.247559 536.755613 
L 498.381537 538.720531 
L 504.532551 540.402924 
L 510.68509 542.483487 
" style="fill:none;stroke:#d92523;stroke-dasharray:12.8,3.2,2,3.2;stroke-dashoffset:0;stroke-width:2;"/>
   </g>
   <g id="line2d_30">
    <path clip-path="url(#p764443bbb5)" d="M 241.018815 434.613353 
L 246.671012 436.514331 
L 252.321981 437.89472 
L 257.983817 439.32622 
L 263.655602 440.763087 
L 269.330535 441.795337 
L 275.021579 443.173858 
L 280.7217 444.485917 
L 286.417336 444.731355 
L 292.131099 445.43187 
L 297.853228 445.871773 
L 303.576573 445.323815 
L 309.312895 444.679251 
L 315.053472 442.931434 
L 320.808965 441.004827 
L 326.567551 437.141969 
L 332.338169 431.876393 
L 338.12187 424.599716 
L 343.922291 414.75031 
L 349.743728 401.272758 
L 355.597205 384.284349 
L 361.49148 362.35955 
L 367.441559 336.800531 
L 373.459029 306.767705 
L 379.543103 280.377359 
L 385.662782 265.065059 
L 391.791569 259.157058 
L 397.864746 270.426289 
L 403.861043 293.63591 
L 409.720535 332.36594 
L 415.430351 382.235608 
L 421.084187 428.655264 
L 426.807031 459.834622 
L 432.615537 478.487837 
L 438.509918 487.812087 
L 444.455094 492.766173 
L 450.422868 496.359016 
L 456.4149 498.760053 
L 462.417002 501.097583 
L 468.433778 503.111715 
L 474.455037 505.429986 
L 480.484178 507.824866 
L 486.531832 509.752785 
L 492.581158 512.087506 
L 498.653445 513.80559 
L 504.729153 515.839924 
L 510.811412 518.021113 
L 516.910244 519.933302 
L 523.021935 521.751984 
L 529.138998 523.764471 
" style="fill:none;stroke:#c3161b;stroke-dasharray:12.8,3.2,2,3.2;stroke-dashoffset:0;stroke-width:2;"/>
   </g>
   <g id="line2d_31">
    <path clip-path="url(#p764443bbb5)" d="M 260.752539 417.900608 
L 266.368767 419.42041 
L 271.995 420.974094 
L 277.623989 422.088889 
L 283.269549 423.644701 
L 288.914637 424.452982 
L 294.579681 425.990776 
L 300.244215 426.645679 
L 305.921578 427.447715 
L 311.608146 428.056714 
L 317.303 428.297402 
L 323.004526 427.815843 
L 328.716908 426.922396 
L 334.443588 426.00368 
L 340.175592 423.151962 
L 345.924171 419.846294 
L 351.687312 414.896158 
L 357.467694 407.157032 
L 363.274666 397.923875 
L 369.112834 384.369282 
L 374.994556 366.828444 
L 380.929244 346.482637 
L 386.931114 321.372497 
L 392.997539 295.738434 
L 399.131314 269.369441 
L 405.26616 253.858307 
L 411.382616 247.409435 
L 417.432163 252.787843 
L 423.380386 269.925571 
L 429.170235 301.057597 
L 434.780446 344.29505 
L 440.273534 391.3068 
L 445.814847 428.342379 
L 451.479581 452.119094 
L 457.270894 465.093869 
L 463.139439 472.420486 
L 469.062454 476.455968 
L 475.005603 479.676701 
L 480.976045 481.835714 
L 486.953104 484.134646 
L 492.952323 485.81217 
L 498.949668 488.05098 
L 504.955805 490.313609 
L 510.964754 492.847446 
L 516.996032 494.840583 
L 523.02639 497.250557 
L 529.07342 499.381529 
L 535.137455 501.253543 
L 541.20608 503.3212 
L 547.288668 505.255064 
" style="fill:none;stroke:#ac1117;stroke-dasharray:12.8,3.2,2,3.2;stroke-dashoffset:0;stroke-width:2;"/>
   </g>
   <g id="line2d_32">
    <path clip-path="url(#p764443bbb5)" d="M 280.165712 401.055555 
L 285.754199 402.58034 
L 291.350001 403.951907 
L 296.953911 405.198308 
L 302.569837 406.639745 
L 308.190147 407.570013 
L 313.8184 408.217996 
L 319.461225 409.290822 
L 325.111104 409.913287 
L 330.766815 409.685444 
L 336.435616 409.50271 
L 342.116792 409.222493 
L 347.805906 407.480594 
L 353.509298 405.117874 
L 359.228139 401.720196 
L 364.965542 397.438972 
L 370.724395 391.389717 
L 376.509903 383.529829 
L 382.329647 372.843385 
L 388.19489 358.391863 
L 394.108317 342.170491 
L 400.085275 322.218077 
L 406.111698 302.637212 
L 412.226608 277.787586 
L 418.3514 259.362086 
L 424.444252 249.933536 
L 430.477287 249.667457 
L 436.469908 254.35548 
L 442.31732 271.538521 
L 448.000599 299.830285 
L 453.519894 336.856546 
L 458.928914 377.274242 
L 464.411175 408.908454 
L 470.005168 431.017315 
L 475.727728 444.239778 
L 481.534697 452.313154 
L 487.403488 457.146008 
L 493.299933 460.838213 
L 499.215637 463.930446 
L 505.161841 466.012153 
L 511.123046 467.860009 
L 517.08889 469.91922 
L 523.065594 471.926695 
L 529.04835 474.067687 
L 535.046751 475.986056 
L 541.038234 478.4843 
L 547.049501 480.615082 
L 553.065062 482.914522 
L 559.095129 485.049164 
L 565.135828 487.15233 
" style="fill:none;stroke:#8c0912;stroke-dasharray:12.8,3.2,2,3.2;stroke-dashoffset:0;stroke-width:2;"/>
   </g>
   <g id="line2d_33">
    <path clip-path="url(#p764443bbb5)" d="M 299.269938 384.097687 
L 304.828566 385.396619 
L 310.399244 386.954231 
L 315.973244 387.851735 
L 321.554911 388.406563 
L 327.150002 389.309965 
L 332.754886 390.110445 
L 338.367942 390.422908 
L 343.991485 390.469731 
L 349.62687 390.431573 
L 355.274756 390.478506 
L 360.934674 390.403327 
L 366.606916 389.943826 
L 372.292867 388.66254 
L 377.994957 386.521468 
L 383.716181 383.31853 
L 389.46133 378.553429 
L 395.240161 371.030465 
L 401.051787 362.408598 
L 406.911672 350.743698 
L 412.82318 336.791311 
L 418.797311 320.027474 
L 424.837818 300.942172 
L 430.943963 280.285523 
L 437.052757 264.158357 
L 443.108427 256.107228 
L 449.100953 255.108426 
L 454.999498 261.901337 
L 460.807622 274.731196 
L 466.453519 296.988472 
L 471.930818 327.412407 
L 477.281148 362.332971 
L 482.659593 392.836659 
L 488.162644 414.719413 
L 493.802681 428.604396 
L 499.58461 435.348833 
L 505.412052 440.096582 
L 511.274166 443.5517 
L 517.166899 446.033418 
L 523.074848 448.251225 
L 528.999152 450.193319 
L 534.947255 451.623269 
L 540.897154 453.358191 
L 546.85819 455.055663 
L 552.813685 457.260557 
L 558.777655 459.486098 
L 564.741905 461.980425 
L 570.721005 464.290722 
L 576.702239 466.797875 
L 582.699774 469.092018 
" style="fill:none;stroke:#67000d;stroke-dasharray:12.8,3.2,2,3.2;stroke-dashoffset:0;stroke-width:2;"/>
   </g>
  </g>
  <g id="text_25">
   <!-- 20Br - 80K -->
   <defs>
    <path d="M 28.8125 13.8125 
L 60.890625 13.8125 
L 60.890625 0 
L 7.90625 0 
L 7.90625 13.8125 
L 34.515625 37.3125 
Q 38.09375 40.53125 39.796875 43.609375 
Q 41.5 46.6875 41.5 50 
Q 41.5 55.125 38.0625 58.25 
Q 34.625 61.375 28.90625 61.375 
Q 24.515625 61.375 19.28125 59.5 
Q 14.0625 57.625 8.109375 53.90625 
L 8.109375 69.921875 
Q 14.453125 72.015625 20.65625 73.109375 
Q 26.859375 74.21875 32.8125 74.21875 
Q 45.90625 74.21875 53.15625 68.453125 
Q 60.40625 62.703125 60.40625 52.390625 
Q 60.40625 46.4375 57.328125 41.28125 
Q 54.25 36.140625 44.390625 27.484375 
z
" id="DejaVuSans-Bold-32"/>
    <path d="M 46 36.53125 
Q 46 50.203125 43.4375 55.78125 
Q 40.875 61.375 34.8125 61.375 
Q 28.765625 61.375 26.171875 55.78125 
Q 23.578125 50.203125 23.578125 36.53125 
Q 23.578125 22.703125 26.171875 17.03125 
Q 28.765625 11.375 34.8125 11.375 
Q 40.828125 11.375 43.40625 17.03125 
Q 46 22.703125 46 36.53125 
z
M 64.796875 36.375 
Q 64.796875 18.265625 56.984375 8.421875 
Q 49.171875 -1.421875 34.8125 -1.421875 
Q 20.40625 -1.421875 12.59375 8.421875 
Q 4.78125 18.265625 4.78125 36.375 
Q 4.78125 54.546875 12.59375 64.375 
Q 20.40625 74.21875 34.8125 74.21875 
Q 49.171875 74.21875 56.984375 64.375 
Q 64.796875 54.546875 64.796875 36.375 
z
" id="DejaVuSans-Bold-30"/>
    <path d="M 38.375 44.671875 
Q 42.828125 44.671875 45.109375 46.625 
Q 47.40625 48.578125 47.40625 52.390625 
Q 47.40625 56.15625 45.109375 58.125 
Q 42.828125 60.109375 38.375 60.109375 
L 27.984375 60.109375 
L 27.984375 44.671875 
z
M 39.015625 12.796875 
Q 44.671875 12.796875 47.53125 15.1875 
Q 50.390625 17.578125 50.390625 22.40625 
Q 50.390625 27.15625 47.5625 29.515625 
Q 44.734375 31.890625 39.015625 31.890625 
L 27.984375 31.890625 
L 27.984375 12.796875 
z
M 56.5 39.015625 
Q 62.546875 37.25 65.859375 32.515625 
Q 69.1875 27.78125 69.1875 20.90625 
Q 69.1875 10.359375 62.0625 5.171875 
Q 54.9375 0 40.375 0 
L 9.1875 0 
L 9.1875 72.90625 
L 37.40625 72.90625 
Q 52.59375 72.90625 59.40625 68.3125 
Q 66.21875 63.71875 66.21875 53.609375 
Q 66.21875 48.296875 63.71875 44.5625 
Q 61.234375 40.828125 56.5 39.015625 
z
" id="DejaVuSans-Bold-42"/>
    <path d="M 5.421875 35.890625 
L 36.078125 35.890625 
L 36.078125 21.6875 
L 5.421875 21.6875 
z
" id="DejaVuSans-Bold-2d"/>
    <path d="M 34.8125 32.625 
Q 29.546875 32.625 26.703125 29.734375 
Q 23.875 26.859375 23.875 21.484375 
Q 23.875 16.109375 26.703125 13.25 
Q 29.546875 10.40625 34.8125 10.40625 
Q 40.046875 10.40625 42.828125 13.25 
Q 45.609375 16.109375 45.609375 21.484375 
Q 45.609375 26.90625 42.828125 29.765625 
Q 40.046875 32.625 34.8125 32.625 
z
M 21.09375 38.8125 
Q 14.453125 40.828125 11.078125 44.96875 
Q 7.71875 49.125 7.71875 55.328125 
Q 7.71875 64.546875 14.59375 69.375 
Q 21.484375 74.21875 34.8125 74.21875 
Q 48.046875 74.21875 54.921875 69.40625 
Q 61.8125 64.59375 61.8125 55.328125 
Q 61.8125 49.125 58.421875 44.96875 
Q 55.03125 40.828125 48.390625 38.8125 
Q 55.8125 36.765625 59.59375 32.15625 
Q 63.375 27.546875 63.375 20.515625 
Q 63.375 9.671875 56.171875 4.125 
Q 48.96875 -1.421875 34.8125 -1.421875 
Q 20.609375 -1.421875 13.359375 4.125 
Q 6.109375 9.671875 6.109375 20.515625 
Q 6.109375 27.546875 9.890625 32.15625 
Q 13.671875 36.765625 21.09375 38.8125 
z
M 25.484375 53.421875 
Q 25.484375 49.078125 27.90625 46.734375 
Q 30.328125 44.390625 34.8125 44.390625 
Q 39.203125 44.390625 41.59375 46.734375 
Q 44 49.078125 44 53.421875 
Q 44 57.765625 41.59375 60.078125 
Q 39.203125 62.40625 34.8125 62.40625 
Q 30.328125 62.40625 27.90625 60.0625 
Q 25.484375 57.71875 25.484375 53.421875 
z
" id="DejaVuSans-Bold-38"/>
    <path d="M 9.1875 72.90625 
L 27.984375 72.90625 
L 27.984375 46.296875 
L 55.078125 72.90625 
L 76.90625 72.90625 
L 41.796875 38.375 
L 80.515625 0 
L 56.984375 0 
L 27.984375 28.71875 
L 27.984375 0 
L 9.1875 0 
z
" id="DejaVuSans-Bold-4b"/>
   </defs>
   <g transform="translate(300.754687 29.596875)scale(0.2 -0.2)">
    <use xlink:href="#DejaVuSans-Bold-32"/>
    <use x="69.580078" xlink:href="#DejaVuSans-Bold-30"/>
    <use x="139.160156" xlink:href="#DejaVuSans-Bold-42"/>
    <use x="215.380859" xlink:href="#DejaVuSans-Bold-72"/>
    <use x="264.697266" xlink:href="#DejaVuSans-Bold-20"/>
    <use x="299.511719" xlink:href="#DejaVuSans-Bold-2d"/>
    <use x="341.015625" xlink:href="#DejaVuSans-Bold-20"/>
    <use x="375.830078" xlink:href="#DejaVuSans-Bold-38"/>
    <use x="445.410156" xlink:href="#DejaVuSans-Bold-30"/>
    <use x="514.990234" xlink:href="#DejaVuSans-Bold-4b"/>
   </g>
  </g>
 </g>
 <defs>
  <clipPath id="p764443bbb5">
   <rect height="648" width="648" x="36" y="36"/>
  </clipPath>
 </defs>
</svg>
