# y A!D0!N(Q) Error
     0.300000      0.98507136    0.0029123933
     0.500000      0.97794768    0.0021682275
     0.700000      0.96338212    0.0022882098
     0.900000      0.94820519    0.0023332807
      1.10000      0.93498863    0.0022196315
      1.30000      0.91067856    0.0022168009
      1.50000      0.89201419    0.0022678536
      1.70000      0.85921817    0.0020834935
      1.90000      0.86847725    0.0018440659
