# X , Y , E
1
299.983,0.00260058,1.25693e-05
292.815,0.00266582,1.2903e-05
281.851,0.00267078,1.28058e-05
271.688,0.00262171,1.23745e-05
261.612,0.00263356,1.22668e-05
251.686,0.00266718,1.22078e-05
241.713,0.00266651,1.19953e-05
231.756,0.0026826,1.19349e-05
221.842,0.00266447,1.16491e-05
211.957,0.0027741,1.18624e-05
202.047,0.00280724,1.17563e-05
192.11,0.00286969,1.18138e-05
181.999,0.00289779,1.15612e-05
172.23,0.00301157,1.18041e-05
162.355,0.00306747,1.17541e-05
152.348,0.00315306,1.17902e-05
142.54,0.00327574,1.18974e-05
132.603,0.00340704,1.20434e-05
122.594,0.00344513,1.18894e-05
112.629,0.0035933,1.20918e-05
102.471,0.00362125,1.19329e-05
92.389,0.00364975,1.18436e-05
82.0485,0.0037161,1.18468e-05
72.1154,0.00379594,1.20435e-05
61.7531,0.00380189,1.19447e-05
51.2647,0.00384602,1.19733e-05
40.9674,0.0038694,1.20079e-05
30.8957,0.00386005,1.19117e-05
20.9107,0.00389045,1.1943e-05
14.5719,0.0038415,1.17977e-05
13.1605,0.00392353,1.20107e-05
2
299.983,0.53766,0.00323218
292.815,0.528833,0.00322469
281.851,0.500147,0.00312009
271.688,0.45232,0.0029665
261.612,0.420809,0.002857
251.686,0.386491,0.00273061
241.713,0.364266,0.00263854
231.756,0.340348,0.00256352
221.842,0.315274,0.00247502
211.957,0.298439,0.00238344
202.047,0.278126,0.00229916
192.11,0.254927,0.00221931
181.999,0.229941,0.00211541
172.23,0.210893,0.00204752
162.355,0.185012,0.00196344
152.348,0.15837,0.00188068
142.54,0.140035,0.00180252
132.603,0.116405,0.0017262
122.594,0.0892686,0.0016566
112.629,0.070167,0.00159411
102.471,0.0496335,0.00154173
92.389,0.0309319,0.00150148
82.0485,0.0176967,0.00146218
72.1154,0.00759868,0.00144721
61.7531,-0.00213731,0.00142439
51.2647,-0.00904135,0.00140554
40.9674,-0.016404,0.001396
30.8957,-0.0202413,0.00138561
20.9107,-0.0213064,0.0013772
14.5719,-0.0236661,0.00137585
13.1605,-0.0206883,0.00137297
