*TYPE		=  Raw
*CLASS		=  ASCII CLASS
*SAMPLE		=  br10
*COMMENT	=   
*FNAME		=  br10_Theta_2-Theta.asc
*DATE		=  29-Jul-19 15:45

*GROUP_COUNT	=  1
*GONIO		=  MiniFlex 300/600, 150
*ATTACHMENT	=  ASC-8
*ASC		=  0, 0, 0.000000, 0.000000
*FILTER		=  K-beta(x1.5)
*C_MONOCHRO	=  None, 0.000000
*SLIT_NAME	=  0, IHS
*SLIT_NAME	=  1, DS +
*SLIT_NAME	=  2, SS
*SLIT_NAME	=  3, RS
*COUNTER	=  D/teX Ultra2, 0
*POS_FORMAT	=  0
*SCAN_AXIS	=  2theta/theta
*MEAS_MODE	=  Continuous Scanning
*TARGET		=  29
*XRAY_CHAR	=  K-ALPHA
*WAVE_LENGTH1	=  1.54059
*WAVE_LENGTH2	=  1.54441
*THICKNESS	=  0, 0.000000
*MU		=  0, 0.000000
*SCAN_MODE	=  2theta/theta
*SPEED_DIM	=  sec./step
*XUNIT		=  deg.
*YUNIT		=  cps
*SCALE_MODE	=  1
*REP_COUNT	=  0
*SE_COUNT	=  0
*STD_MATERIAL	=  Unknown, Unknown, 0.000000, 0.000000, 0.000000, 0.000000, 0.000000, 0.000000
*LATT_CONS	=  0, Unknown, Unknown, 0.000000, 0.000000, 0.000000, 0.000000, 0.000000, 0.000000
*SEC_COUNT	=  1
*TSPEC_SIZE	=  0
*EXTRA_SIZE	=  0
*MEMO		=   

*BEGIN
*GROUP		=  0
*START		=  5
*STOP		=  50
*STEP		=  0.02
*OFFSET		=  0.000000
*SPEED		=  0.24
*SLIT_SPEC	=  0, 10.0mm, 10, 0.000000
*SLIT_SPEC	=  1, 1.250deg, 1.25, 0.000000
*SLIT_SPEC	=  2, 13.0mm(Open), 13, 0.000000
*SLIT_SPEC	=  3, 13.0mm(Open), 13, 0.000000
*KV		=  40
*MA		=  15
*LOW		=  0.000000
*HIGH		=  0.000000
*CTEMPER	=  0, 0.000000
*CTEMPER	=  1, 0.000000
*CTEMPER	=  2, 0.000000
*PAREX		=  0, 0.000000
*PAREX		=  1, 0.000000
*PAREX		=  2, 0.000000
*PAREX		=  3, 0.000000
*PAREX		=  4, 0.000000
*PAREX		=  5, 0.000000
*PAREX		=  6, 0.000000
*PAREX		=  7, 0.000000
*PAREX		=  8, 0.000000
*PAREX		=  9, 0.000000
*PAREX		=  10, 0.000000
*PAREX		=  11, 0.000000
*PAREX		=  12, 0.000000
*PAREX		=  13, 0.000000
*PAREX		=  14, 0.000000
*PAREX		=  15, 0.000000
*FULL_SCALE	=  285425
*INDEX		=  0, 0, 0
*COUNT		=  2251
6606, 6602, 6469, 6458
6484, 6451, 6466, 6470
6271, 6363, 6180, 6282
6436, 6078, 5864, 6039
6013, 5983, 5982, 6182
6079, 5912, 5973, 6074
6015, 5728, 5947, 5976
5787, 6001, 5762, 5928
5731, 5658, 5635, 5842
5792, 5723, 5551, 5606
5686, 5336, 5670, 5631
5672, 5691, 5486, 5335
5411, 5375, 5410, 5348
5569, 5538, 5222, 5318
5450, 5007, 5021, 4935
5271, 5053, 5259, 5126
4972, 5209, 5077, 5073
4945, 5085, 5043, 5076
4936, 5080, 4975, 5092
5067, 5061, 4763, 4862
4992, 4912, 4833, 4678
4759, 4934, 5070, 4794
4819, 4843, 4733, 4776
4719, 4716, 4803, 4848
4799, 4600, 4747, 4531
4643, 4734, 4725, 4580
4569, 4664, 4489, 4502
4532, 4678, 4574, 4657
4585, 4544, 4519, 4713
4632, 4494, 4617, 4435
4392, 4421, 4467, 4410
4433, 4351, 4278, 4388
4433, 4259, 4277, 4197
4443, 4461, 4344, 4236
4365, 4260, 4218, 4106
4337, 4157, 4096, 4136
4187, 4198, 4314, 4282
4178, 4233, 4215, 4207
4211, 4124, 4164, 4083
3983, 3975, 4011, 3981
4138, 4128, 3959, 4022
3897, 4095, 4020, 3916
4081, 4073, 3944, 3981
4056, 4055, 3953, 3933
3853, 3805, 3964, 4022
4035, 4027, 3765, 3664
3761, 3877, 3900, 3942
3944, 3905, 3693, 3758
3894, 3881, 3737, 3945
3861, 3917, 4006, 3910
3671, 3679, 3814, 3803
3717, 3781, 3744, 3654
3735, 3731, 3721, 3689
3600, 3717, 3709, 3687
3621, 3618, 3650, 3592
3614, 3629, 3740, 3643
3653, 3691, 3761, 3748
3644, 3607, 3619, 3633
3653, 3653, 3510, 3491
3592, 3556, 3502, 3637
3484, 3599, 3495, 3583
3509, 3476, 3584, 3567
3438, 3620, 3516, 3507
3623, 3465, 3662, 3629
3825, 4011, 3875, 3843
3751, 3879, 4125, 4278
4429, 4512, 4577, 4102
3905, 3688, 3631, 3556
3556, 3446, 3526, 3390
3302, 3377, 3422, 3347
3254, 3404, 3402, 3279
3317, 3358, 3472, 3276
3299, 3423, 3417, 3406
3355, 3261, 3340, 3408
3327, 3413, 3291, 3259
3183, 3212, 3335, 3367
3366, 3221, 3329, 3264
3225, 3308, 3284, 3328
3334, 3341, 3428, 3341
3271, 3227, 3412, 3357
3321, 3429, 3333, 3270
3341, 3421, 3345, 3343
3397, 3394, 3527, 3602
3541, 3710, 3815, 3945
3968, 4134, 4274, 4335
4371, 4595, 4650, 4882
5026, 5353, 6241, 7246
8735, 10998, 14106, 18357
24768, 33943, 44977, 53575
57085, 53222, 43907, 31491
21450, 14080, 9630, 7294
5808, 5170, 4738, 4509
4435, 4360, 4234, 4128
3896, 3851, 3886, 3784
3647, 3525, 3683, 3668
3655, 3614, 3578, 3658
3700, 3709, 3680, 3765
3900, 4052, 4232, 4408
4744, 5040, 5724, 6379
7235, 8440, 9887, 10942
11192, 10606, 9386, 8263
6856, 5933, 5039, 4444
4106, 3915, 3641, 3745
3546, 3530, 3404, 3338
3389, 3290, 3259, 3226
3220, 3343, 3258, 3149
3212, 3162, 3085, 3219
3185, 3213, 3210, 3268
3170, 3190, 3313, 3304
3190, 3224, 3245, 3367
3356, 3376, 3457, 3416
3506, 3468, 3600, 3678
3779, 3827, 4030, 4201
4355, 4578, 4697, 5100
5383, 6070, 6693, 7609
8750, 9927, 11397, 12800
14170, 14848, 14702, 13712
12310, 10213, 8582, 7028
5854, 4937, 4358, 4007
3637, 3637, 3497, 3470
3446, 3378, 3303, 3291
3322, 3210, 3201, 3226
3301, 3153, 3165, 3244
3192, 3224, 3266, 3210
3078, 3129, 3217, 3176
3214, 3100, 3132, 3127
3132, 3108, 3108, 3141
3181, 3161, 3152, 3053
3024, 3227, 3137, 3190
3172, 3119, 3170, 3133
3130, 3117, 3213, 3172
3098, 3210, 3197, 3073
3208, 3083, 3119, 3127
3108, 3159, 3100, 3044
3161, 3160, 3128, 3111
3154, 3134, 3205, 3139
3127, 3149, 3213, 3278
3126, 3216, 3210, 3219
3272, 3318, 3214, 3312
3227, 3247, 3266, 3239
3310, 3335, 3281, 3183
3268, 3220, 3195, 3210
3236, 3301, 3196, 3206
3331, 3341, 3250, 3331
3378, 3349, 3308, 3254
3229, 3273, 3274, 3271
3198, 3288, 3367, 3351
3407, 3345, 3299, 3408
3378, 3347, 3366, 3383
3375, 3389, 3407, 3473
3408, 3455, 3352, 3364
3465, 3381, 3400, 3436
3436, 3464, 3447, 3405
3602, 3549, 3463, 3447
3361, 3491, 3461, 3509
3502, 3459, 3543, 3539
3537, 3573, 3597, 3542
3583, 3501, 3501, 3514
3610, 3535, 3557, 3583
3524, 3647, 3500, 3626
3623, 3530, 3673, 3727
3668, 3683, 3666, 3640
3774, 3686, 3797, 3746
3689, 3695, 3722, 3893
3701, 3817, 3725, 3812
3844, 3838, 3849, 3846
3841, 3775, 3885, 4009
3873, 3793, 3824, 3863
3900, 3945, 3947, 3880
3891, 3908, 3858, 3998
3930, 3872, 3914, 4014
4011, 4060, 3932, 4073
4045, 4113, 4075, 4052
4070, 4195, 4164, 4067
4186, 4150, 4187, 4240
4070, 4093, 4216, 4174
4235, 4218, 4226, 4213
4176, 4247, 4193, 4189
4356, 4283, 4236, 4274
4335, 4431, 4342, 4423
4385, 4339, 4357, 4275
4460, 4336, 4482, 4487
4498, 4480, 4573, 4451
4565, 4521, 4467, 4586
4626, 4599, 4723, 4593
4794, 4712, 4757, 4922
5028, 4991, 5159, 5450
5653, 6030, 6378, 6934
7509, 8157, 8962, 9579
10495, 11074, 11285, 11086
10195, 8905, 7756, 6853
6018, 5483, 5275, 5394
5110, 4985, 5012, 5032
5184, 4985, 5074, 4992
5014, 5037, 5091, 5029
5041, 5177, 5092, 5056
5121, 5249, 5190, 5177
5192, 5295, 5149, 5255
5249, 5133, 5169, 5236
5211, 5085, 5129, 5213
5294, 5298, 5217, 5280
5270, 5365, 5194, 5227
5197, 5296, 5285, 5267
5296, 5308, 5404, 5484
5349, 5482, 5475, 5466
5427, 5473, 5361, 5429
5440, 5454, 5426, 5479
5517, 5521, 5445, 5498
5488, 5625, 5601, 5555
5565, 5569, 5631, 5648
5655, 5601, 5594, 5732
5596, 5587, 5687, 5700
5703, 5731, 5577, 5676
5708, 5773, 5755, 5747
5913, 5823, 5811, 5771
5732, 5821, 5788, 5800
5856, 5831, 5811, 5821
5831, 5872, 5870, 5899
5902, 5930, 5834, 5905
5786, 5842, 5913, 5899
5819, 6015, 6011, 5986
5889, 5936, 5980, 5872
5897, 6052, 6006, 6077
5944, 6016, 6122, 5953
6014, 5958, 6088, 6051
6063, 5927, 5981, 5989
6030, 6086, 6115, 6083
6125, 6075, 6199, 6183
5997, 6158, 6252, 6168
6020, 6265, 6244, 6121
6139, 5994, 6097, 6167
6180, 6247, 6201, 6107
6175, 6207, 6024, 6099
6086, 6065, 6108, 6108
6216, 6297, 6324, 5981
6283, 6205, 6130, 6130
6187, 6253, 6272, 6381
6245, 6370, 6290, 6261
6247, 6164, 6311, 6330
6337, 6260, 6408, 6330
6269, 6255, 6244, 6219
6284, 6238, 6306, 6431
6266, 6408, 6311, 6456
6727, 6640, 6638, 6787
6975, 7120, 7317, 7470
7801, 7849, 8076, 8288
8470, 8152, 7909, 7764
7204, 6862, 6790, 6476
6468, 6387, 6293, 6392
6401, 6154, 6262, 6402
6201, 6413, 6269, 6215
6216, 6409, 6317, 6256
6107, 6321, 6210, 6279
6162, 6306, 6315, 6333
6251, 6339, 6347, 6204
6273, 6086, 6196, 6271
6103, 6184, 6154, 6296
6162, 6174, 6299, 6365
6325, 6343, 6228, 6342
6284, 6386, 6433, 6404
6437, 6485, 6260, 6173
6241, 6254, 6214, 6291
6213, 6329, 6121, 6093
6132, 6141, 6165, 6161
6071, 6198, 6098, 6135
6181, 6134, 6087, 6197
6198, 6164, 6084, 6006
6198, 6219, 6077, 6148
6093, 6024, 5922, 6046
6020, 5984, 6051, 5925
6006, 5950, 6010, 6120
6154, 6154, 5984, 5914
6043, 6077, 6152, 5994
6060, 6024, 6135, 5865
5987, 6043, 5951, 6032
5959, 5981, 6000, 5973
5885, 6010, 5956, 5909
5898, 5958, 5958, 5871
5950, 5841, 5928, 5953
5922, 5763, 5921, 5884
5881, 5818, 6030, 5794
5959, 5789, 5978, 6016
5793, 5772, 5911, 5910
5855, 5837, 5744, 5739
5784, 5817, 5809, 5805
5888, 5812, 5820, 5865
5827, 5818, 5842, 5836
5705, 5800, 5886, 5840
5702, 5865, 5957, 5948
5917, 6022, 6020, 5971
5967, 6126, 6132, 6283
6317, 6629, 6944, 7185
7629, 8135, 8730, 9444
10389, 11402, 12539, 13283
13427, 12944, 11937, 10816
9730, 8524, 7612, 6945
6513, 6131, 6152, 6058
5873, 5702, 5837, 5711
5823, 5781, 5695, 5632
5651, 5738, 5681, 5614
5591, 5580, 5638, 5662
5568, 5609, 5615, 5582
5517, 5566, 5554, 5380
5512, 5556, 5535, 5562
5539, 5494, 5508, 5460
5447, 5383, 5446, 5425
5449, 5459, 5254, 5407
5317, 5298, 5526, 5406
5352, 5288, 5435, 5451
5406, 5391, 5444, 5302
5336, 5324, 5354, 5314
5319, 5322, 5391, 5316
5406, 5268, 5427, 5161
5338, 5141, 5352, 5310
5267, 5188, 5334, 5323
5269, 5257, 5238, 5276
5253, 5280, 5227, 5208
5271, 5240, 5248, 5191
5229, 5116, 5246, 5156
5088, 5183, 5083, 5128
5225, 5232, 5099, 5130
5035, 5159, 5219, 5145
5117, 5168, 5206, 5113
5061, 5102, 5185, 5109
5131, 5024, 5018, 5148
5173, 5085, 5024, 5155
5103, 5220, 5171, 5056
5052, 4918, 5059, 5021
5056, 4999, 5118, 5082
5011, 4957, 5013, 5015
4964, 4989, 5065, 5052
5054, 5005, 5138, 5133
5035, 5086, 5042, 5156
5202, 5313, 5364, 5501
5631, 5833, 6172, 6408
6711, 7051, 7368, 7718
8169, 8652, 8804, 8438
8091, 7351, 6828, 6490
5943, 5570, 5263, 5080
5045, 4926, 4833, 4919
4744, 4766, 4790, 4770
4760, 4703, 4687, 4854
4668, 4785, 4726, 4691
4599, 4670, 4806, 4699
4695, 4681, 4560, 4704
4638, 4675, 4709, 4557
4618, 4639, 4623, 4660
4631, 4492, 4614, 4549
4443, 4507, 4463, 4553
4425, 4574, 4501, 4511
4453, 4458, 4477, 4415
4534, 4418, 4469, 4419
4399, 4450, 4354, 4380
4398, 4425, 4334, 4392
4346, 4260, 4231, 4311
4280, 4334, 4332, 4308
4289, 4265, 4296, 4319
4248, 4338, 4214, 4172
4193, 4285, 4309, 4206
4286, 4128, 4230, 4170
4150, 4138, 4140, 4189
4232, 4269, 4136, 4126
3999, 4136, 4053, 4024
4185, 4183, 4116, 4086
4077, 4087, 4049, 3924
4058, 4118, 3985, 4009
4031, 4084, 4119, 4103
3973, 4044, 4087, 3940
4016, 4015, 3916, 3984
3964, 4068, 4040, 3948
4044, 4009, 4043, 3990
4104, 3929, 3974, 4081
4081, 4012, 4045, 4233
4149, 4386, 4538, 4788
5337, 6018, 6559, 7206
7795, 8168, 7992, 7696
7164, 6640, 6028, 5637
5122, 4616, 4270, 4066
3971, 3919, 3896, 3885
3835, 3817, 3758, 3819
3817, 3782, 3628, 3609
3666, 3693, 3712, 3573
3710, 3634, 3522, 3726
3715, 3577, 3660, 3600
3558, 3487, 3591, 3509
3489, 3562, 3556, 3600
3564, 3610, 3524, 3549
3553, 3500, 3577, 3758
3772, 3904, 3945, 4185
4152, 4182, 4127, 4020
3922, 3875, 3759, 3649
3573, 3461, 3508, 3568
3430, 3380, 3384, 3383
3445, 3390, 3392, 3396
3338, 3457, 3387, 3386
3462, 3520, 3601, 3668
3692, 3641, 3531, 3617
3537, 3535, 3423, 3358
3505, 3349, 3306, 3289
3355, 3377, 3319, 3206
3155, 3217, 3241, 3155
3171, 3228, 3168, 3162
3164, 3262, 3244, 3180
3147, 3066, 3164, 3071
3154, 3091, 3004, 3121
3121, 3126, 3032, 3153
3055, 3142, 3093, 3132
3072, 3019, 3083, 3064
3065, 3019, 3044, 3071
2927, 3033, 3106, 2995
3018, 3077, 3070, 3104
2975, 2945, 2991, 2995
3039, 2973, 3074, 3068
2957, 3061, 3007, 3057
2991, 2922, 2995, 2963
2960, 3040, 3022, 3044
2971, 2940, 2878, 2923
2933, 2988, 2959, 2889
2941, 2906, 2951, 2874
2899, 2977, 2914, 3018
3000, 2949, 2922, 2992
2945, 3006, 3008, 2983
2984, 3155, 3098, 3176
3289, 3428, 3604, 3671
3906, 3852, 3868, 3809
3724, 3652, 3551, 3393
3207, 3145, 3061, 2997
3004, 2997, 2988, 2975
2862, 2941, 2934, 2925
2867, 2960, 2938, 2935
2956, 2930, 2857, 2894
2916, 2862, 2894, 2914
2887, 2915, 2898, 2970
2930, 2859, 2835, 2918
2883, 2820, 2848, 2860
2939, 2881, 2813, 2886
2872, 2824, 2930, 2861
2951, 2905, 3040, 2949
2860, 2911, 2917, 3015
2976, 2985, 2897, 3022
3096, 3123, 3091, 3101
3113, 3145, 3268, 3349
3427, 3440, 3766, 4002
4431, 4913, 5758, 7020
8528, 10392, 12499, 14586
15355, 15317, 13800, 12210
10884, 10001, 8785, 7504
6214, 5067, 4311, 3754
3477, 3351, 3309, 3174
3174, 3106, 3097, 3057
3153, 2949, 2956, 2881
2882, 2884, 2991, 2887
2923, 2962, 2900, 2881
2865, 2888, 2913, 2875
2798, 2888, 2790, 2901
2777, 2813, 2834, 2820
2910, 2814, 2770, 2778
2795, 2893, 2897, 2815
2814, 2810, 2834, 2890
2923, 2870, 2897, 2964
3004, 3057, 3048, 3113
3106, 3119, 3143, 3075
3036, 3060, 2958, 2896
2957, 2825, 2842, 2928
2791, 2780, 2802, 2745
2778, 2859, 2825, 2907
2769, 2779, 2821, 2794
2770, 2785, 2820, 2736
2854, 2768, 2712, 2830
2762, 2766, 2796, 2819
2827, 2821, 2757, 2773
2879, 2856, 2856, 2769
2771, 2870, 2888, 2835
2776, 2902, 2934, 2985
2997, 3101, 3192, 3155
3137, 3320, 3562, 3860
4269, 4653, 5094, 5444
5503, 5416, 5173, 4753
4610, 4321, 4124, 3851
3604, 3233, 3157, 2946
2958, 2864, 2803, 2796
2856, 2863, 2784, 2790
2733, 2850, 2844, 2815
2932, 2883, 2947, 2859
2840, 2792, 2812, 2853
2713, 2829, 2755, 2723
2774, 2700, 2767, 2841
2711, 2765, 2638, 2680
2643, 2714, 2709, 2684
2673, 2701, 2656, 2732
2716, 2649, 2692, 2682
2747, 2696, 2664, 2663
2604, 2643, 2669, 2617
2624, 2644, 2659, 2686
2739, 2683, 2700, 2717
2686, 2657, 2671, 2638
2627, 2533, 2614, 2664
2601, 2673, 2663, 2697
2679, 2656, 2573, 2573
2565, 2681, 2576, 2645
2636, 2534, 2645, 2549
2739, 2655, 2644, 2613
2608, 2655, 2616, 2585
2591, 2585, 2641, 2614
2652, 2649, 2611, 2653
2599, 2518, 2602, 2548
2589, 2571, 2534, 2599
2588, 2589, 2584, 2645
2557, 2528, 2559, 2572
2602, 2624, 2591, 2637
2525, 2532, 2527, 2559
2545, 2594, 2560, 2552
2491, 2497, 2511, 2566
2602, 2536, 2573, 2545
2505, 2512, 2510, 2577
2480, 2516, 2612, 2550
2568, 2528, 2552, 2493
2526, 2453, 2498, 2484
2469, 2425, 2485, 2523
2585, 2433, 2511, 2518
2391, 2525, 2372, 2501
2568, 2475, 2497, 2386
2474, 2500, 2514, 2496
2515, 2565, 2486, 2431
2444, 2383, 2479, 2474
2471, 2460, 2507, 2449
2473, 2445, 2465, 2503
2443, 2457, 2429, 2515
2356, 2416, 2473, 2449
2476, 2441, 2365, 2422
2417, 2459, 2460, 2427
2408, 2403, 2386, 2382
2424, 2506, 2530, 2552
2472, 2495, 2391, 2380
2387, 2462, 2470, 2438
2346, 2346, 2470, 2522
2543, 2502, 2471, 2453
2436, 2490, 2345, 2378
2414, 2387, 2369, 2402
2397, 2400, 2369, 2330
2360, 2396, 2330, 2388
2429, 2449, 2397, 2302
2382, 2372, 2374, 2362
2374, 2380, 2370, 2370
2364, 2369, 2267, 2376
2322, 2402, 2415, 2394
2403, 2348, 2455, 2433
2375, 2375, 2224, 2301
2338, 2352, 2411, 2334
2287, 2307, 2359, 2344
2325, 2355, 2240, 2318
2338, 2358, 2320, 2346
2368, 2334, 2326, 2343
2344, 2343, 2290, 2333
2311, 2378, 2262, 2356
2270, 2289, 2303, 2337
2298, 2342, 2263, 2308
2451, 2255, 2265, 2373
2285, 2273, 2348, 2316
2381, 2302, 2322, 2298
2312, 2402, 2335, 2344
2323, 2359, 2311, 2324
2311, 2316, 2339
*END

*EOF
